48	10	587	233	220
25345460	19099400
0	0	0	74	95	42	3	1	0	
0	0	42	74	95	84	3	1	0	
0	0	84	74	95	126	3	1	0	
0	95	0	74	190	42	3	1	0	
0	95	42	74	190	84	3	1	0	
0	95	84	74	190	126	3	1	0	
0	190	0	100	233	50	4	2	0	
0	190	50	100	233	100	4	2	0	
0	190	100	100	233	150	4	2	0	
0	190	150	100	233	200	4	2	0	
0	0	126	70	95	156	1	3	0	
0	0	156	70	95	186	1	3	0	
0	95	126	70	190	156	1	3	0	
0	95	156	70	190	186	1	3	0	
0	0	186	70	95	216	1	4	0	
0	116	186	60	190	218	2	5	0	
74	0	0	117	100	50	4	6	0	
74	0	50	117	100	100	4	6	0	
74	0	100	117	100	150	4	6	0	
74	0	150	111	24	195	0	7	0	
74	24	150	111	48	195	0	7	0	
74	48	150	111	72	195	0	7	0	
74	104	0	174	147	50	9	8	1	
74	104	50	174	147	100	9	8	1	
74	104	100	174	147	150	9	8	1	
74	147	0	174	190	50	9	8	1	
74	147	50	174	190	100	9	8	1	
74	147	100	174	190	150	9	8	1	
74	116	150	169	190	192	8	9	1	
74	145	192	111	190	216	5	10	1	
111	145	192	148	190	216	5	10	1	
100	191	0	195	233	74	8	11	1	
100	201	74	174	233	134	7	12	1	
100	201	134	174	233	194	7	12	1	
117	0	0	187	95	30	6	13	1	
117	0	30	187	95	60	6	13	1	
117	0	60	187	95	90	6	13	1	
117	0	90	187	95	120	6	13	1	
117	0	120	187	95	150	6	13	1	
117	0	150	187	95	180	6	13	1	
117	0	180	187	95	210	6	13	1	
174	96	0	248	191	42	13	14	2	
174	96	42	248	191	84	13	14	2	
174	96	84	248	191	126	13	14	2	
174	96	126	244	191	156	11	15	2	
174	96	156	244	191	186	11	15	2	
174	96	186	244	191	216	11	15	2	
187	0	0	219	74	60	12	16	2	
187	0	60	219	74	120	12	16	2	
187	0	120	211	37	165	10	17	2	
187	0	165	211	37	210	10	17	2	
187	37	120	211	74	165	10	17	2	
187	37	165	211	74	210	10	17	2	
195	201	0	269	233	60	16	18	3	
195	201	60	269	233	120	16	19	3	
195	201	120	269	233	180	16	19	3	
219	0	0	261	95	74	17	20	3	
219	0	74	261	95	148	17	20	3	
261	0	0	303	95	74	17	20	3	
261	0	74	303	95	148	17	20	3	
219	0	148	293	95	190	17	21	3	
219	0	190	289	95	220	15	22	3	
248	101	0	291	201	50	18	23	3	
248	101	50	291	201	100	18	23	3	
248	101	100	291	201	150	18	23	3	
248	101	150	291	201	200	18	23	3	
269	201	0	343	233	60	16	24	3	
269	209	60	306	233	105	14	25	3	
269	209	105	306	233	150	14	25	3	
306	209	60	343	233	105	19	26	4	
306	209	105	343	233	150	19	26	4	
306	209	150	343	233	195	19	26	4	
291	106	0	333	201	74	22	27	4	
291	106	74	333	201	148	22	27	4	
333	106	0	375	201	74	22	27	4	
333	106	74	375	201	148	22	27	4	
291	106	148	361	201	178	20	28	4	
291	106	178	361	201	208	20	28	4	
303	0	0	373	95	30	20	29	4	
373	0	0	443	95	30	20	29	4	
443	0	0	513	95	30	20	29	4	
513	0	0	583	95	30	20	29	4	
303	0	30	335	74	90	21	30	4	
303	0	90	335	74	150	21	30	4	
303	0	150	335	74	210	21	30	4	
335	0	30	367	74	90	21	31	4	
335	0	90	367	74	150	21	31	4	
367	0	30	467	50	73	23	32	4	
335	0	150	367	74	210	26	33	5	
367	0	73	467	50	116	28	34	5	
367	0	116	467	50	159	28	34	5	
367	0	159	467	50	202	28	34	5	
343	201	0	417	233	60	26	35	5	
343	201	60	417	233	120	26	35	5	
417	201	0	491	233	60	26	35	5	
417	201	60	491	233	120	26	35	5	
491	201	0	565	233	60	26	35	5	
491	201	60	565	233	120	26	35	5	
343	209	120	380	233	165	24	36	5	
343	209	165	380	233	210	24	36	5	
380	209	120	417	233	165	24	36	5	
380	209	165	417	233	210	24	36	5	
367	50	30	467	93	80	28	37	5	
367	50	80	467	93	130	28	37	5	
367	50	130	467	93	180	28	37	5	
375	106	0	449	201	42	27	38	5	
375	106	42	449	201	84	27	38	5	
375	106	84	449	201	126	27	38	5	
375	106	126	445	201	156	25	39	5	
367	50	180	412	87	204	29	40	6	
412	50	180	457	87	204	29	40	6	
375	106	156	445	201	186	30	41	6	
375	106	186	445	201	216	30	41	6	
417	201	120	491	233	180	31	42	6	
491	201	120	565	233	180	31	42	6	
417	209	180	462	233	217	29	43	6	
467	0	30	541	95	72	32	44	6	
467	0	72	541	95	114	32	44	6	
467	0	114	541	95	156	32	44	6	
467	0	156	541	95	198	32	44	6	
449	151	0	549	201	43	33	45	6	
449	151	43	549	201	86	33	45	6	
449	151	86	549	201	129	33	45	6	
449	151	129	549	201	172	33	45	6	
449	151	172	549	201	215	33	45	6	
541	0	30	583	95	104	32	46	6	
462	209	180	507	233	217	34	47	7	
449	101	0	549	151	43	38	48	7	
449	101	43	549	151	86	38	48	7	
449	109	86	544	151	160	37	49	7	
449	119	160	523	151	220	36	50	7	
541	0	104	583	95	178	37	51	7	
549	127	0	581	201	60	36	52	7	
549	127	60	581	201	120	36	52	7	
549	127	120	581	201	180	36	52	7	
507	209	180	552	233	217	43	53	9	
541	0	178	578	45	202	43	54	9	
541	45	178	578	90	202	43	54	9	
587	0	0	682	70	30	30	55	6	
587	0	30	682	70	60	30	55	6	
683	0	0	778	70	30	35	56	7	
779	0	0	874	74	42	37	57	7	
875	0	0	920	37	24	39	58	8	
875	0	24	920	37	48	39	58	8	
875	0	48	920	37	72	39	58	8	
875	0	72	920	37	96	39	58	8	
875	0	96	920	37	120	39	58	8	
875	0	120	920	37	144	39	58	8	
921	0	0	995	60	32	40	59	8	
921	0	32	995	60	64	40	59	8	
996	0	0	1091	74	42	41	60	8	
1092	0	0	1192	50	43	42	61	8	
1193	0	0	1288	70	30	44	62	9	
1193	0	30	1288	70	60	44	62	9	
1193	0	60	1288	70	90	44	62	9	
1289	0	0	1363	60	32	45	63	9	
1289	0	32	1363	60	64	45	63	9	
1289	0	64	1363	60	96	45	63	9	
1364	0	0	1459	74	42	46	64	9	
1364	0	42	1459	74	84	46	64	9	
1364	0	84	1459	74	126	46	64	9	
1364	0	126	1459	74	168	46	64	9	
1364	0	168	1459	74	210	46	64	9	
1460	0	0	1560	50	43	47	65	9	
