45	10	587	233	220
24136732	20906160
0	0	0	94	114	61	2	1	0	
0	0	61	94	114	122	2	1	0	
0	114	0	94	228	61	2	1	0	
0	114	61	94	228	122	2	1	0	
0	0	122	72	96	153	1	2	0	
0	0	153	72	96	184	1	2	0	
0	0	184	25	80	204	0	3	0	
25	0	184	50	80	204	0	3	0	
50	0	184	70	80	209	0	4	0	
0	114	122	61	228	216	2	5	0	
61	148	122	81	228	147	3	6	1	
94	0	0	141	72	75	6	7	1	
141	0	0	188	72	75	6	7	1	
188	0	0	235	72	75	6	7	1	
94	0	75	208	61	169	7	8	1	
94	0	169	194	39	209	5	9	1	
94	137	0	166	233	31	4	10	1	
94	137	31	166	233	62	4	11	1	
61	148	147	81	228	172	8	12	2	
94	72	0	166	119	75	9	13	2	
94	72	75	166	119	150	9	13	2	
166	72	0	238	119	75	9	13	2	
166	72	75	238	119	150	9	13	2	
94	139	62	155	233	176	10	14	2	
94	153	176	114	233	201	11	15	3	
166	139	0	241	186	72	14	16	3	
166	139	72	241	186	144	14	16	3	
166	186	0	241	233	72	14	16	3	
166	186	72	241	233	144	14	16	3	
235	0	0	349	61	94	15	17	3	
349	0	0	463	61	94	15	17	3	
235	0	94	335	40	133	13	18	3	
235	0	133	335	40	172	13	18	3	
238	61	0	334	133	31	12	19	3	
166	139	144	238	186	219	18	20	4	
166	186	144	238	233	219	18	20	4	
238	61	31	332	122	145	19	21	4	
241	139	0	355	233	61	19	22	4	
241	139	61	355	233	122	19	23	4	
241	153	122	341	193	161	17	24	4	
241	193	122	341	233	161	17	24	4	
241	161	161	337	233	192	16	25	4	
94	40	169	174	60	194	20	26	5	
94	72	150	194	112	189	22	27	5	
235	0	172	335	40	211	22	28	5	
238	61	145	310	108	220	23	29	5	
334	61	0	434	100	40	22	30	5	
334	100	0	434	139	40	22	30	5	
334	61	40	430	133	71	21	31	5	
334	61	71	430	133	102	21	31	5	
334	61	102	430	133	133	21	31	5	
335	0	94	429	61	208	24	32	5	
355	139	0	469	233	61	24	33	5	
355	139	61	469	233	122	24	33	5	
469	139	0	583	233	61	24	33	5	
469	139	61	583	233	122	24	33	5	
355	139	122	469	233	183	24	34	5	
241	193	192	321	213	217	25	35	6	
241	213	192	321	233	217	25	35	6	
334	61	133	430	133	164	26	36	6	
334	61	164	430	133	195	26	36	6	
434	61	0	534	100	40	27	37	6	
434	61	40	534	100	80	27	37	6	
434	100	0	534	139	40	27	37	6	
434	100	40	534	139	80	27	37	6	
434	61	80	481	136	152	28	38	6	
481	61	80	528	136	152	28	38	6	
434	61	152	506	136	199	28	39	6	
463	0	0	577	61	94	29	40	6	
463	0	94	577	61	188	29	40	6	
241	173	192	321	193	217	30	41	7	
463	0	188	543	20	213	30	42	7	
463	20	188	543	40	213	30	42	7	
463	40	188	543	60	213	30	42	7	
355	161	183	451	233	214	31	43	7	
469	139	122	583	233	183	34	44	7	
469	161	183	565	233	214	31	45	7	
534	61	0	581	136	72	33	46	7	
534	61	72	581	136	144	33	46	7	
534	61	144	581	136	216	33	46	7	
587	0	0	683	72	31	31	47	7	
684	0	0	784	40	39	32	48	7	
785	0	0	899	94	61	34	49	7	
900	0	0	980	25	20	35	50	8	
900	0	20	980	25	40	35	50	8	
900	0	40	980	25	60	35	50	8	
981	0	0	1077	72	31	36	51	8	
981	0	31	1077	72	62	36	51	8	
1078	0	0	1178	40	39	37	52	8	
1179	0	0	1254	72	47	38	53	8	
1179	0	47	1254	72	94	38	53	8	
1255	0	0	1369	94	61	39	54	8	
1370	0	0	1450	25	20	40	55	9	
1451	0	0	1547	72	31	41	56	9	
1548	0	0	1648	40	39	42	57	9	
1548	0	39	1648	40	78	42	57	9	
1649	0	0	1724	72	47	43	58	9	
1649	0	47	1724	72	94	43	58	9	
1725	0	0	1839	94	61	44	59	9	
1725	0	61	1839	94	122	44	59	9	
