28	10	587	233	220
25381488	20836848
0	0	0	80	95	57	2	1	0	
0	0	57	80	95	114	2	1	0	
0	0	114	80	95	171	2	1	0	
0	117	0	41	233	40	1	2	0	
0	117	40	41	233	80	1	2	0	
41	121	0	128	233	23	0	3	0	
41	121	23	128	233	46	0	4	0	
41	121	46	128	233	69	0	4	0	
0	117	80	40	233	121	4	5	1	
0	117	121	40	233	162	4	5	1	
0	117	162	40	233	203	4	5	1	
41	121	69	128	233	92	3	6	1	
41	121	92	128	233	115	3	6	1	
41	121	115	128	233	138	3	6	1	
41	121	138	128	233	161	3	6	1	
41	138	161	121	233	218	5	7	1	
80	0	0	120	116	41	4	8	1	
80	0	41	120	116	82	4	8	1	
120	0	0	177	95	80	5	9	1	
80	0	82	120	116	123	7	10	2	
80	0	123	120	116	164	7	10	2	
80	0	164	120	116	205	7	10	2	
128	138	0	185	233	80	8	11	2	
185	138	0	242	233	80	8	11	2	
242	138	0	299	233	80	8	11	2	
299	138	0	356	233	80	8	11	2	
356	138	0	413	233	80	8	11	2	
413	138	0	470	233	80	8	11	2	
470	138	0	527	233	80	8	11	2	
128	146	80	240	233	103	6	12	2	
128	146	103	240	233	126	6	12	2	
128	146	126	240	233	149	6	12	2	
128	95	0	244	135	41	10	13	3	
128	95	41	244	135	82	10	13	3	
244	95	0	360	135	41	10	13	3	
244	95	41	360	135	82	10	13	3	
360	95	0	476	135	41	10	13	3	
360	95	41	476	135	82	10	13	3	
128	146	149	240	233	172	9	14	3	
128	146	172	240	233	195	9	14	3	
128	146	195	240	233	218	9	14	3	
240	138	80	297	233	160	11	15	3	
297	138	80	354	233	160	11	15	3	
354	138	80	411	233	160	11	15	3	
411	138	80	468	233	160	11	15	3	
468	138	80	525	233	160	11	15	3	
177	0	0	289	87	23	9	16	3	
177	0	23	289	87	46	9	17	3	
128	95	82	244	135	123	13	18	4	
128	95	123	244	135	164	13	18	4	
244	95	82	360	135	123	13	18	4	
244	95	123	360	135	164	13	18	4	
360	95	82	476	135	123	13	18	4	
360	95	123	476	135	164	13	18	4	
120	0	80	177	80	175	14	19	4	
240	138	160	320	233	217	14	20	4	
320	138	160	400	233	217	14	20	4	
177	0	46	289	87	69	12	21	4	
128	95	164	244	135	205	16	22	5	
244	95	164	360	135	205	16	23	5	
177	0	69	289	87	92	15	24	5	
177	0	92	289	87	115	15	24	5	
177	0	115	289	87	138	15	24	5	
177	0	138	289	87	161	15	24	5	
177	0	161	289	87	184	15	24	5	
289	0	0	346	95	80	17	25	5	
346	0	0	403	95	80	17	25	5	
403	0	0	460	95	80	17	25	5	
460	0	0	517	95	80	17	25	5	
517	0	0	574	95	80	17	25	5	
177	0	184	289	87	207	18	26	6	
289	0	80	346	95	160	20	27	6	
346	0	80	403	95	160	20	27	6	
403	0	80	460	95	160	20	27	6	
460	0	80	517	95	160	20	27	6	
517	0	80	574	95	160	20	27	6	
360	95	164	476	135	205	19	28	6	
289	0	160	384	80	217	23	29	7	
384	0	160	479	80	217	23	29	7	
479	0	160	574	80	217	23	29	7	
400	146	160	512	233	183	21	30	7	
400	146	183	512	233	206	21	30	7	
527	117	0	567	233	41	22	31	7	
527	117	41	567	233	82	22	31	7	
527	117	82	567	233	123	22	31	7	
527	117	123	567	233	164	22	31	7	
527	117	164	567	233	205	22	31	7	
587	0	0	699	87	23	21	32	7	
587	0	23	699	87	46	21	32	7	
700	0	0	795	80	57	23	33	7	
796	0	0	912	41	40	24	34	8	
796	0	40	912	41	80	24	34	8	
796	0	80	912	41	120	24	34	8	
913	0	0	1008	80	57	25	35	8	
913	0	57	1008	80	114	25	35	8	
913	0	114	1008	80	171	25	35	8	
1009	0	0	1121	87	23	26	36	9	
1009	0	23	1121	87	46	26	36	9	
1009	0	46	1121	87	69	26	36	9	
1122	0	0	1238	41	40	27	37	9	
1122	0	40	1238	41	80	27	37	9	
1122	0	80	1238	41	120	27	37	9	
1122	0	120	1238	41	160	27	37	9	
