29	10	587	233	220
25455940	19590710
0	0	0	55	78	90	2	1	0	
0	0	90	55	78	180	2	1	0	
0	78	0	55	156	90	2	1	0	
0	78	90	55	156	180	2	1	0	
0	176	0	42	233	65	1	2	0	
0	176	65	42	233	130	1	2	0	
0	176	130	42	233	195	1	2	0	
42	176	0	84	233	65	1	2	0	
42	176	65	84	233	130	1	2	0	
42	176	130	84	233	195	1	2	0	
0	0	180	44	100	217	0	3	0	
55	0	0	133	55	90	2	4	0	
55	55	0	92	155	44	0	5	0	
55	55	44	92	155	88	0	5	0	
55	0	90	133	55	180	5	6	1	
55	55	88	92	155	132	3	7	1	
55	55	132	92	155	176	3	7	1	
55	55	176	92	155	220	3	7	1	
84	155	0	139	233	90	5	8	1	
84	155	90	139	233	180	5	8	1	
139	155	0	194	233	90	5	8	1	
139	155	90	194	233	180	5	8	1	
84	189	180	184	233	217	3	9	1	
92	55	0	134	112	65	4	10	1	
92	55	65	134	112	130	4	10	1	
92	55	130	134	112	195	4	10	1	
92	118	0	192	155	44	6	11	2	
92	118	44	192	155	88	6	11	2	
92	118	88	192	155	132	6	11	2	
92	118	132	192	155	176	6	11	2	
92	118	176	192	155	220	6	11	2	
133	0	0	211	55	90	8	12	2	
133	0	90	211	55	180	8	12	2	
211	0	0	289	55	90	8	12	2	
211	0	90	289	55	180	8	12	2	
289	0	0	367	55	90	8	12	2	
289	0	90	367	55	180	8	12	2	
134	55	0	191	97	65	7	13	2	
134	55	65	191	97	130	7	13	2	
133	0	180	233	44	217	9	14	3	
194	143	0	272	233	55	11	15	3	
272	143	0	350	233	55	11	15	3	
350	143	0	428	233	55	11	15	3	
192	55	0	249	97	65	10	16	3	
192	55	65	249	97	130	10	16	3	
192	55	130	249	97	195	10	16	3	
192	106	0	292	143	44	9	17	3	
192	106	44	292	143	88	9	17	3	
194	143	55	272	233	110	13	18	4	
194	143	110	272	233	165	13	18	4	
194	143	165	272	233	220	13	18	4	
249	55	0	314	97	57	12	19	4	
249	55	57	314	97	114	12	19	4	
249	55	114	314	97	171	12	19	4	
272	143	55	350	233	110	13	20	4	
192	106	88	292	143	132	14	21	5	
192	106	132	292	143	176	14	21	5	
192	106	176	292	143	220	14	21	5	
233	0	180	333	44	217	14	22	5	
272	143	110	350	233	165	16	23	5	
272	143	165	350	233	220	16	23	5	
292	101	0	349	143	65	15	24	5	
292	101	65	349	143	130	15	24	5	
292	101	130	349	143	195	15	24	5	
314	55	0	371	97	65	15	25	5	
371	55	0	428	97	65	15	25	5	
350	143	55	428	233	110	16	26	5	
349	99	0	449	143	37	17	27	6	
449	99	0	549	143	37	17	27	6	
350	143	110	428	233	165	19	28	6	
350	143	165	428	233	220	19	28	6	
314	55	65	379	97	122	18	29	6	
314	55	122	379	97	179	18	29	6	
349	101	37	406	143	102	18	30	6	
367	0	0	445	55	90	19	31	6	
367	0	90	445	55	180	19	31	6	
445	0	0	523	55	90	19	31	6	
445	0	90	523	55	180	19	31	6	
428	143	0	506	233	55	19	32	6	
349	101	102	406	143	167	21	33	7	
367	0	180	467	44	217	20	34	7	
428	55	0	528	92	44	20	35	7	
428	55	44	528	92	88	20	35	7	
428	55	88	528	92	132	20	35	7	
428	55	132	528	92	176	20	35	7	
428	55	176	528	92	220	20	35	7	
406	101	37	471	143	94	21	36	7	
471	101	37	536	143	94	21	36	7	
406	101	94	463	143	159	21	37	7	
428	143	55	506	233	110	22	38	7	
428	143	110	506	233	165	22	38	7	
428	143	165	506	233	220	22	38	7	
506	143	0	584	233	55	22	39	7	
506	143	55	584	233	110	22	39	7	
506	143	110	584	233	165	22	39	7	
506	143	165	584	233	220	25	40	8	
463	101	94	528	143	151	24	41	8	
463	101	151	528	143	208	24	41	8	
523	0	0	580	42	65	24	42	8	
523	0	65	580	42	130	24	42	8	
523	0	130	580	42	195	24	42	8	
549	42	0	586	142	44	23	43	8	
549	42	44	586	142	88	23	43	8	
587	0	0	677	78	55	25	44	8	
587	0	55	677	78	110	25	44	8	
587	0	110	677	78	165	25	44	8	
678	0	0	778	44	37	26	45	9	
678	0	37	778	44	74	26	45	9	
678	0	74	778	44	111	26	45	9	
779	0	0	844	57	42	27	46	9	
779	0	42	844	57	84	27	46	9	
779	0	84	844	57	126	27	46	9	
845	0	0	935	78	55	28	47	9	
845	0	55	935	78	110	28	47	9	
845	0	110	935	78	165	28	47	9	
845	0	165	935	78	220	28	47	9	
845	0	220	935	78	275	28	47	9	
845	0	275	935	78	330	28	47	9	
