45	10	587	233	220
23565172	16342920
0	0	0	81	69	69	3	1	0	
0	0	69	81	69	138	3	1	0	
0	0	138	81	69	207	3	1	0	
0	79	0	66	156	97	2	2	0	
0	156	0	66	233	97	2	2	0	
0	124	97	53	233	121	0	3	0	
0	124	121	53	233	145	0	3	0	
0	124	145	53	233	169	0	3	0	
0	124	169	53	233	193	0	3	0	
66	147	0	100	233	56	1	4	0	
66	147	56	100	233	112	1	4	0	
0	124	193	53	233	217	5	5	1	
66	147	112	100	233	168	6	6	1	
66	69	0	163	135	77	7	7	1	
66	69	77	163	135	154	7	7	1	
163	69	0	260	135	77	7	7	1	
163	69	77	260	135	154	7	7	1	
66	69	154	175	122	178	5	8	1	
66	69	178	164	89	211	4	9	1	
66	89	178	164	109	211	8	10	2	
81	0	0	162	69	69	12	11	2	
81	0	69	162	69	138	12	11	2	
81	0	138	162	69	207	12	11	2	
100	156	0	197	233	66	11	12	2	
100	156	66	197	233	132	11	12	2	
100	156	132	197	233	198	11	12	2	
162	0	0	248	56	34	10	13	2	
162	0	34	248	56	68	10	13	2	
162	0	68	248	56	102	10	13	2	
197	180	0	306	233	24	9	14	2	
162	0	102	248	56	136	15	15	3	
162	0	136	248	56	170	15	15	3	
162	0	170	248	56	204	15	15	3	
100	136	0	198	156	33	13	16	3	
100	136	33	198	156	66	13	16	3	
197	180	24	306	233	48	14	17	3	
197	180	48	306	233	72	14	17	3	
197	180	72	306	233	96	14	17	3	
197	180	96	306	233	120	14	17	3	
197	180	120	306	233	144	14	17	3	
248	0	0	329	69	69	16	18	3	
248	0	69	329	69	138	16	18	3	
248	0	138	329	69	207	16	18	3	
197	180	144	306	233	168	18	19	4	
197	180	168	306	233	192	18	19	4	
100	136	66	198	156	99	17	20	4	
100	136	99	198	156	132	17	20	4	
100	136	132	198	156	165	17	20	4	
100	136	165	198	156	198	17	20	4	
198	146	0	284	180	56	19	21	4	
198	146	56	284	180	112	19	22	4	
198	146	112	284	180	168	19	22	4	
260	69	0	326	146	97	20	23	4	
260	69	97	326	146	194	20	23	4	
326	69	0	392	146	97	20	23	4	
326	69	97	392	146	194	20	23	4	
284	146	0	370	180	56	19	24	4	
329	0	0	398	69	81	21	25	4	
197	180	192	306	233	216	23	26	5	
260	69	194	369	122	218	23	27	5	
284	146	56	370	180	112	24	28	5	
284	146	112	370	180	168	24	28	5	
306	199	0	392	233	56	24	29	5	
306	199	56	392	233	112	24	29	5	
306	199	112	392	233	168	24	29	5	
370	159	0	468	179	33	22	30	5	
370	179	0	468	199	33	22	30	5	
392	69	0	489	146	66	25	31	5	
489	69	0	586	146	66	25	31	5	
392	69	66	458	146	163	25	32	5	
329	0	81	398	69	162	30	33	6	
398	0	0	479	69	69	30	34	6	
398	0	69	479	69	138	30	34	6	
398	0	138	479	69	207	30	34	6	
458	69	66	555	146	132	29	35	6	
370	159	33	468	179	66	26	36	6	
370	179	33	468	199	66	26	36	6	
370	166	66	468	199	86	26	37	6	
458	69	132	527	138	213	30	38	6	
392	199	0	478	233	56	28	39	6	
392	199	56	478	233	112	28	39	6	
478	199	0	564	233	56	28	39	6	
478	199	56	564	233	112	28	39	6	
468	146	0	577	199	24	27	40	6	
479	0	0	560	69	69	30	41	6	
370	166	86	468	199	106	31	42	7	
370	166	106	468	199	126	31	42	7	
370	166	126	468	199	146	31	42	7	
370	166	146	468	199	166	31	42	7	
392	199	112	478	233	168	33	43	7	
478	199	112	564	233	168	33	43	7	
468	146	24	577	199	48	32	44	7	
468	146	48	577	199	72	32	44	7	
468	146	72	577	199	96	32	44	7	
468	146	96	577	199	120	32	44	7	
468	146	120	577	199	144	32	44	7	
468	165	144	554	199	200	33	45	7	
479	0	69	560	69	138	35	46	7	
479	0	138	560	69	207	35	46	7	
587	0	0	673	56	34	33	47	7	
674	0	0	771	77	66	34	48	7	
772	0	0	870	33	20	36	49	8	
772	0	20	870	33	40	36	49	8	
772	0	40	870	33	60	36	49	8	
871	0	0	980	53	24	37	50	8	
981	0	0	1067	56	34	38	51	8	
1068	0	0	1165	77	66	39	52	8	
1068	0	66	1165	77	132	39	52	8	
1068	0	132	1165	77	198	39	52	8	
1166	0	0	1247	69	69	40	53	8	
1166	0	69	1247	69	138	40	53	8	
1248	0	0	1357	53	24	41	54	9	
1358	0	0	1444	56	34	42	55	9	
1358	0	34	1444	56	68	42	55	9	
1445	0	0	1542	77	66	43	56	9	
1445	0	66	1542	77	132	43	56	9	
1445	0	132	1542	77	198	43	56	9	
1543	0	0	1624	69	69	44	57	9	
1543	0	69	1624	69	138	44	57	9	
