79	10	587	233	220
23060639	19594961
0	0	0	57	51	62	6	1	0	
0	51	0	57	102	62	6	1	0	
0	0	62	43	83	141	5	2	0	
0	0	141	43	39	212	2	3	0	
0	39	141	41	79	202	3	4	0	
0	157	0	79	233	71	8	5	0	
0	157	71	79	233	142	8	5	0	
0	173	142	26	233	187	1	6	0	
0	115	0	101	157	57	4	7	0	
57	0	0	152	70	23	0	8	0	
57	0	23	152	70	46	0	8	0	
57	0	46	152	70	69	0	8	0	
57	0	69	128	64	168	7	9	0	
0	115	57	101	157	114	13	10	1	
0	115	114	101	157	171	13	10	1	
0	117	171	61	157	212	12	11	1	
26	173	142	71	233	168	10	12	1	
26	173	168	71	233	194	10	12	1	
57	70	0	140	113	79	14	13	1	
57	0	168	92	63	220	11	14	1	
79	162	0	158	233	76	15	15	1	
158	162	0	237	233	76	15	15	1	
79	163	76	174	233	99	9	16	1	
101	120	0	202	162	57	13	17	1	
57	70	79	128	109	122	18	18	2	
57	70	122	128	109	165	18	18	2	
57	70	165	120	105	217	17	19	2	
92	0	168	127	63	220	17	20	2	
79	185	99	160	233	190	20	21	2	
79	165	99	133	185	132	16	22	2	
79	165	132	133	185	165	16	22	2	
79	165	165	133	185	198	16	22	2	
101	120	57	202	162	114	19	23	2	
101	120	114	202	162	171	19	23	2	
140	70	0	231	118	81	20	24	2	
152	0	0	223	64	99	22	25	2	
152	0	99	223	64	198	22	25	2	
174	182	76	231	233	138	21	26	2	
202	120	0	303	162	57	19	27	2	
79	188	190	139	233	216	24	28	3	
152	0	198	185	54	218	23	29	3	
101	123	171	172	162	214	25	30	3	
140	70	81	219	113	164	26	31	3	
140	70	164	211	109	207	25	32	3	
174	194	138	217	233	209	25	33	3	
174	162	76	228	182	109	23	34	3	
223	0	0	274	62	57	27	35	3	
223	0	57	274	62	114	27	35	3	
223	0	114	274	62	171	27	35	3	
237	162	0	316	233	76	28	36	3	
237	162	76	316	233	152	28	36	3	
316	162	0	395	233	76	28	36	3	
316	162	76	395	233	152	28	36	3	
185	0	198	218	54	218	29	37	4	
202	121	57	242	162	118	33	38	4	
242	121	57	282	162	118	33	38	4	
202	127	118	254	162	181	32	39	4	
237	176	152	288	233	214	35	40	4	
231	62	0	293	119	51	35	41	4	
231	62	51	293	119	102	35	41	4	
288	163	152	383	233	175	30	42	4	
231	62	102	291	88	147	31	43	4	
231	88	102	291	114	147	31	43	4	
274	0	0	355	48	91	34	44	4	
293	48	0	357	119	99	36	45	4	
231	62	147	291	107	173	38	46	5	
231	62	173	291	107	199	38	46	5	
274	0	91	355	48	182	42	47	5	
288	194	175	359	233	218	39	48	5	
293	48	99	334	109	139	40	49	5	
293	48	139	334	109	179	40	49	5	
293	48	179	334	109	219	40	49	5	
303	119	0	382	162	83	41	50	5	
357	0	0	428	76	79	44	51	5	
357	0	79	428	76	158	44	51	5	
382	98	0	453	162	99	43	52	5	
395	163	0	490	233	23	37	53	5	
395	163	23	490	233	46	37	54	5	
274	0	182	328	20	215	45	55	6	
395	185	46	486	233	127	49	56	6	
395	185	127	486	233	208	49	56	6	
428	0	0	511	43	79	48	57	6	
428	0	79	511	43	158	48	57	6	
428	43	0	511	86	79	48	58	6	
453	93	0	548	163	23	46	59	6	
274	20	182	328	40	215	50	60	7	
288	165	175	342	185	208	50	61	7	
357	0	158	428	43	197	54	62	7	
357	43	158	417	69	203	52	63	7	
382	98	99	453	162	198	59	64	7	
428	0	158	468	41	219	55	65	7	
428	43	79	511	86	158	56	66	7	
428	43	158	491	78	210	53	67	7	
453	93	23	548	163	46	51	68	7	
453	93	46	548	163	69	51	68	7	
453	93	69	548	163	92	51	68	7	
453	93	92	548	163	115	51	68	7	
453	93	115	548	163	138	51	68	7	
453	115	138	544	163	219	57	69	7	
490	185	0	581	233	81	57	70	7	
490	185	81	581	233	162	57	70	7	
490	188	162	550	233	188	52	71	7	
511	0	0	587	79	71	60	72	7	
511	0	71	587	79	142	60	72	7	
511	0	142	587	79	213	60	72	7	
548	122	0	583	185	52	53	73	7	
453	93	138	507	113	171	70	74	9	
453	93	171	507	113	204	70	74	9	
490	188	188	550	233	214	72	75	9	
548	122	52	583	185	104	73	76	9	
548	79	0	587	122	71	74	77	9	
548	79	71	587	122	142	74	77	9	
548	79	142	587	122	213	74	77	9	
587	0	0	688	57	42	47	78	6	
587	0	42	688	57	84	47	78	6	
689	0	0	772	79	43	56	79	7	
773	0	0	835	57	51	58	80	7	
773	0	51	835	57	102	58	80	7	
836	0	0	890	33	20	61	81	8	
836	0	20	890	33	40	61	81	8	
891	0	0	986	70	23	62	82	8	
987	0	0	1047	45	26	63	83	8	
1048	0	0	1111	52	35	64	84	8	
1048	0	35	1111	52	70	64	84	8	
1112	0	0	1183	43	39	65	85	8	
1184	0	0	1245	41	40	66	86	8	
1246	0	0	1347	57	42	67	87	8	
1246	0	42	1347	57	84	67	87	8	
1246	0	84	1347	57	126	67	87	8	
1348	0	0	1439	81	48	68	88	8	
1440	0	0	1519	76	71	69	89	8	
1440	0	71	1519	76	142	69	89	8	
1520	0	0	1615	70	23	71	90	9	
1520	0	23	1615	70	46	71	90	9	
1520	0	46	1615	70	69	71	90	9	
1616	0	0	1717	57	42	75	91	9	
1718	0	0	1801	79	43	76	92	9	
1802	0	0	1893	81	48	77	93	9	
1894	0	0	1973	76	71	78	94	9	
1894	0	71	1973	76	142	78	94	9	
1894	0	142	1973	76	213	78	94	9	
