50	10	587	233	220
25740920	17766954
0	0	0	45	89	56	4	1	0	
0	0	56	45	89	112	4	1	0	
0	0	112	45	89	168	4	1	0	
0	89	0	45	178	56	4	1	0	
0	89	56	45	178	112	4	1	0	
0	89	112	45	178	168	4	1	0	
0	0	168	38	73	207	3	2	0	
0	73	168	38	146	207	3	2	0	
0	194	0	38	233	73	3	3	0	
0	194	73	38	233	146	3	3	0	
0	194	146	38	233	219	3	3	0	
38	194	0	76	233	73	3	3	0	
38	194	73	76	233	146	3	3	0	
38	194	146	76	233	219	3	3	0	
45	0	0	78	73	39	1	4	0	
45	0	39	78	73	78	1	4	0	
45	0	78	78	73	117	1	4	0	
45	73	0	78	146	39	1	4	0	
45	73	39	78	146	78	1	4	0	
45	73	78	78	146	117	1	4	0	
45	0	117	70	54	152	0	5	0	
45	0	152	70	54	187	0	5	0	
45	54	117	78	127	156	1	6	0	
45	157	0	79	194	53	2	7	0	
45	157	53	79	194	106	2	7	0	
45	157	106	79	194	159	2	7	0	
45	157	159	79	194	212	2	7	0	
76	195	0	149	233	39	8	8	1	
76	195	39	149	233	78	8	8	1	
76	195	78	149	233	117	8	8	1	
76	195	117	149	233	156	8	8	1	
76	195	156	149	233	195	8	8	1	
149	195	0	222	233	39	8	8	1	
149	195	39	222	233	78	8	8	1	
149	195	78	222	233	117	8	8	1	
149	195	117	222	233	156	8	8	1	
149	195	156	222	233	195	8	8	1	
76	198	195	130	233	220	5	9	1	
78	0	0	123	56	89	9	10	1	
78	0	89	123	56	178	9	10	1	
123	0	0	168	56	89	9	10	1	
123	0	89	168	56	178	9	10	1	
168	0	0	213	56	89	9	10	1	
168	0	89	213	56	178	9	10	1	
78	0	178	103	54	213	5	11	1	
78	56	0	151	89	39	6	12	1	
78	56	39	151	89	78	6	12	1	
78	89	0	151	122	39	6	12	1	
78	89	39	151	122	78	6	12	1	
78	122	0	151	155	39	6	12	1	
78	122	39	151	155	78	6	12	1	
78	56	78	151	95	116	8	13	1	
78	56	116	131	93	150	7	14	1	
78	56	150	131	93	184	7	14	1	
78	56	184	131	93	218	7	14	1	
79	158	0	132	195	34	7	15	1	
79	158	34	132	195	68	7	15	1	
79	158	68	132	195	102	7	15	1	
79	158	102	132	195	136	7	15	1	
79	158	136	132	195	170	7	15	1	
79	158	170	132	195	204	7	15	1	
78	99	78	123	155	167	9	16	1	
78	101	167	113	155	192	10	17	2	
78	101	192	113	155	217	10	17	2	
103	0	178	137	53	215	12	18	2	
137	0	178	171	53	215	12	18	2	
171	0	178	205	53	215	12	18	2	
123	101	78	148	155	113	10	19	2	
123	101	113	148	155	148	10	19	2	
123	101	148	148	155	183	10	19	2	
132	157	0	205	195	39	13	20	2	
205	157	0	278	195	39	13	20	2	
278	157	0	351	195	39	13	20	2	
351	157	0	424	195	39	13	20	2	
132	162	39	205	195	78	11	21	2	
132	162	78	205	195	117	11	21	2	
132	162	117	205	195	156	11	21	2	
132	162	156	205	195	195	11	21	2	
151	56	0	196	112	89	14	22	2	
151	56	89	196	112	178	14	22	2	
196	56	0	241	112	89	14	22	2	
196	56	89	241	112	178	14	22	2	
241	56	0	286	112	89	14	22	2	
241	56	89	286	112	178	14	22	2	
286	56	0	331	112	89	14	22	2	
286	56	89	331	112	178	14	22	2	
331	56	0	376	112	89	14	22	2	
331	56	89	376	112	178	14	22	2	
151	120	0	185	157	53	12	23	2	
151	120	53	185	157	106	12	23	2	
130	198	195	184	233	220	15	24	3	
151	56	178	188	109	212	17	25	3	
188	56	178	225	109	212	17	25	3	
225	56	178	262	109	212	17	25	3	
262	56	178	299	109	212	17	25	3	
299	56	178	336	109	212	17	25	3	
336	56	178	373	109	212	17	25	3	
151	120	106	185	157	159	17	26	3	
151	120	159	185	157	212	17	26	3	
185	112	0	241	157	89	19	27	3	
241	112	0	297	157	89	19	27	3	
297	112	0	353	157	89	19	27	3	
353	112	0	409	157	89	19	27	3	
409	112	0	465	157	89	19	27	3	
465	112	0	521	157	89	19	27	3	
521	112	0	577	157	89	19	27	3	
185	118	89	258	157	127	18	28	3	
185	118	127	258	157	165	18	28	3	
185	118	165	258	157	203	18	28	3	
205	162	39	278	195	78	16	29	3	
205	162	78	278	195	117	16	29	3	
278	162	39	351	195	78	16	29	3	
278	162	78	351	195	117	16	29	3	
351	162	39	424	195	78	16	29	3	
351	162	78	424	195	117	16	29	3	
205	162	117	278	195	156	21	30	4	
278	162	117	351	195	156	21	30	4	
205	170	156	259	195	191	20	31	4	
213	0	0	258	56	89	24	32	4	
258	0	0	303	56	89	24	32	4	
303	0	0	348	56	89	24	32	4	
348	0	0	393	56	89	24	32	4	
393	0	0	438	56	89	24	32	4	
438	0	0	483	56	89	24	32	4	
483	0	0	528	56	89	24	32	4	
528	0	0	573	56	89	24	32	4	
213	0	89	238	54	124	20	33	4	
213	0	124	238	54	159	20	34	4	
213	0	159	238	54	194	20	34	4	
222	195	0	261	233	73	23	35	4	
222	195	73	261	233	146	23	35	4	
222	195	146	261	233	219	23	35	4	
238	0	89	273	54	114	20	36	4	
238	0	114	273	54	139	20	36	4	
258	120	89	292	157	142	22	37	4	
258	120	142	292	157	195	22	37	4	
238	0	139	272	53	176	22	38	4	
238	0	176	272	53	213	22	38	4	
273	0	89	307	53	126	22	39	4	
259	162	156	332	195	195	26	40	5	
261	195	0	300	233	73	28	41	5	
307	0	89	352	56	178	29	42	5	
352	0	89	397	56	178	29	42	5	
397	0	89	442	56	178	29	42	5	
442	0	89	487	56	178	29	42	5	
487	0	89	532	56	178	29	42	5	
292	112	89	381	157	145	29	43	5	
292	112	145	381	157	201	29	43	5	
300	196	0	334	233	53	27	44	5	
300	196	53	334	233	106	27	44	5	
300	196	106	334	233	159	27	44	5	
300	196	159	334	233	212	27	44	5	
334	196	0	368	233	53	27	44	5	
334	196	53	368	233	106	27	44	5	
334	196	106	368	233	159	27	44	5	
334	196	159	368	233	212	27	44	5	
273	0	126	307	53	163	27	45	5	
273	0	163	307	53	200	27	45	5	
368	200	0	441	233	39	26	46	5	
441	200	0	514	233	39	26	46	5	
514	200	0	587	233	39	26	46	5	
307	0	178	332	54	213	25	47	5	
332	0	178	357	54	213	30	48	6	
357	0	178	382	54	213	30	48	6	
382	0	178	407	54	213	30	48	6	
407	0	178	432	54	213	30	48	6	
432	0	178	457	54	213	30	48	6	
457	0	178	482	54	213	30	48	6	
482	0	178	507	54	213	30	48	6	
351	162	117	424	195	156	31	49	6	
351	162	156	424	195	195	31	49	6	
381	112	89	437	157	178	34	50	6	
437	112	89	493	157	178	34	50	6	
493	112	89	549	157	178	34	50	6	
368	200	39	441	233	78	31	51	6	
368	200	78	441	233	117	31	51	6	
368	200	117	441	233	156	31	51	6	
368	200	156	441	233	195	31	51	6	
376	56	0	414	95	73	33	52	6	
376	56	73	414	95	146	33	52	6	
376	56	146	414	95	219	33	52	6	
381	119	178	454	157	217	33	53	6	
414	56	0	448	109	37	32	54	6	
414	56	37	448	109	74	32	54	6	
414	56	74	448	109	111	32	54	6	
414	56	111	448	109	148	32	54	6	
424	161	0	497	200	38	33	55	6	
497	161	0	570	200	38	33	55	6	
441	200	39	514	233	78	31	56	6	
514	200	39	587	233	78	31	56	6	
424	161	38	497	200	76	33	57	6	
414	56	148	448	109	185	37	58	7	
424	161	76	497	200	109	36	59	7	
424	161	109	497	200	142	36	59	7	
424	161	142	497	200	175	36	59	7	
424	161	175	497	200	208	36	59	7	
441	200	78	514	233	117	36	60	7	
441	200	117	514	233	156	36	60	7	
441	200	156	514	233	195	36	60	7	
454	119	178	527	157	217	38	61	7	
448	56	0	493	112	89	39	62	7	
493	56	0	538	112	89	39	62	7	
538	56	0	583	112	89	39	62	7	
448	56	89	537	112	134	39	63	7	
448	56	134	537	112	179	39	63	7	
448	56	179	473	110	214	35	64	7	
473	56	179	498	110	214	35	64	7	
498	56	179	523	110	214	35	64	7	
497	161	38	570	200	76	38	65	7	
497	161	76	570	200	114	38	65	7	
497	161	114	570	200	152	38	65	7	
497	161	152	570	200	185	36	66	7	
497	161	185	570	200	218	36	66	7	
532	0	89	569	53	123	37	67	7	
507	0	178	532	54	213	40	68	8	
532	0	123	569	53	157	42	69	8	
532	0	157	569	53	191	42	69	8	
514	200	78	587	233	117	41	70	8	
514	200	117	587	233	156	41	70	8	
514	208	156	568	233	191	40	71	8	
537	56	89	582	112	178	44	72	8	
537	56	178	562	110	213	40	73	8	
587	0	0	641	35	25	40	74	8	
587	0	25	641	35	50	40	74	8	
587	0	50	641	35	75	40	74	8	
587	0	75	641	35	100	40	74	8	
642	0	0	695	37	34	42	75	8	
642	0	34	695	37	68	42	75	8	
642	0	68	695	37	102	42	75	8	
696	0	0	769	39	38	43	76	8	
696	0	38	769	39	76	43	76	8	
696	0	76	769	39	114	43	76	8	
770	0	0	859	56	45	44	77	8	
770	0	45	859	56	90	44	77	8	
860	0	0	914	35	25	45	78	9	
860	0	25	914	35	50	45	78	9	
860	0	50	914	35	75	45	78	9	
860	0	75	914	35	100	45	78	9	
860	0	100	914	35	125	45	78	9	
860	0	125	914	35	150	45	78	9	
860	0	150	914	35	175	45	78	9	
915	0	0	988	39	33	46	79	9	
915	0	33	988	39	66	46	79	9	
915	0	66	988	39	99	46	79	9	
915	0	99	988	39	132	46	79	9	
915	0	132	988	39	165	46	79	9	
915	0	165	988	39	198	46	79	9	
989	0	0	1042	37	34	47	80	9	
989	0	34	1042	37	68	47	80	9	
989	0	68	1042	37	102	47	80	9	
989	0	102	1042	37	136	47	80	9	
989	0	136	1042	37	170	47	80	9	
989	0	170	1042	37	204	47	80	9	
989	0	204	1042	37	238	47	80	9	
989	0	238	1042	37	272	47	80	9	
989	0	272	1042	37	306	47	80	9	
1043	0	0	1116	39	38	48	81	9	
1043	0	38	1116	39	76	48	81	9	
1043	0	76	1116	39	114	48	81	9	
1043	0	114	1116	39	152	48	81	9	
1043	0	152	1116	39	190	48	81	9	
1117	0	0	1206	56	45	49	82	9	
1117	0	45	1206	56	90	49	82	9	
1117	0	90	1206	56	135	49	82	9	
1117	0	135	1206	56	180	49	82	9	
