71	10	587	233	220
23699384	20268175
0	0	0	80	100	72	9	1	0	
0	0	72	80	100	144	9	1	0	
0	0	144	39	88	198	5	2	0	
0	150	0	57	233	80	8	3	0	
57	150	0	114	233	80	8	3	0	
0	111	0	88	150	54	5	4	0	
0	111	54	88	150	108	5	4	0	
0	111	108	88	150	162	5	4	0	
0	156	80	87	233	123	6	5	0	
0	156	123	87	233	166	6	5	0	
0	156	166	87	233	209	6	5	0	
0	114	162	83	150	202	3	6	0	
39	0	144	69	94	199	1	7	0	
80	0	0	134	109	58	7	8	0	
80	0	58	116	94	112	4	9	0	
80	0	112	112	31	146	2	10	0	
80	0	146	112	31	180	2	10	0	
114	142	0	168	233	22	0	11	0	
80	0	180	112	31	214	11	12	1	
88	112	0	182	142	55	10	13	1	
114	145	22	153	233	76	13	14	1	
114	145	76	153	233	130	13	14	1	
114	150	130	150	233	170	12	15	1	
134	0	0	214	57	83	14	16	1	
214	0	0	294	57	83	14	16	1	
168	153	0	240	233	100	15	17	1	
134	0	83	214	57	166	21	18	2	
214	0	83	294	57	166	21	18	2	
114	150	170	150	233	210	18	19	2	
88	112	55	182	142	110	17	20	2	
88	112	110	182	142	165	17	20	2	
88	112	165	182	142	220	17	20	2	
134	0	166	228	55	196	17	21	2	
134	57	0	243	111	58	20	22	2	
134	57	58	221	100	135	19	23	2	
134	0	196	225	54	218	16	24	2	
168	153	100	240	233	200	22	25	2	
240	153	0	312	233	100	22	26	2	
240	153	100	312	233	200	22	26	2	
228	0	166	260	31	200	24	27	3	
260	0	166	292	31	200	24	27	3	
134	57	135	221	100	212	28	28	3	
182	114	0	270	153	54	27	29	3	
182	119	54	214	153	85	24	30	3	
182	119	85	214	153	116	24	30	3	
182	119	116	214	153	147	24	30	3	
243	57	0	330	100	77	28	31	3	
243	57	77	330	100	154	28	31	3	
243	57	154	326	97	190	25	32	3	
270	117	0	364	153	54	26	33	3	
270	123	54	364	153	109	23	34	3	
294	0	0	374	57	83	29	35	3	
312	153	0	384	233	100	30	36	3	
270	123	109	364	153	164	32	37	4	
270	123	164	364	153	219	32	37	4	
312	153	100	384	233	200	35	38	4	
330	57	0	424	112	30	32	39	4	
330	57	30	424	111	66	34	40	4	
330	57	66	424	111	102	34	40	4	
330	57	102	421	111	124	31	41	4	
330	57	124	413	97	160	33	42	4	
330	57	160	413	97	196	33	42	4	
364	113	0	447	153	36	33	43	4	
294	0	83	374	57	166	43	44	5	
294	0	166	328	31	198	37	45	5	
328	0	166	362	31	198	37	45	5	
364	113	36	447	153	72	38	46	5	
364	113	72	447	153	108	38	46	5	
364	113	108	447	153	144	38	46	5	
364	113	144	447	153	180	38	46	5	
364	119	180	395	153	212	37	47	5	
374	0	0	468	55	30	36	48	5	
374	0	30	468	55	60	36	49	5	
374	0	60	468	54	96	39	50	5	
374	0	96	468	54	132	39	50	5	
374	0	132	468	54	168	39	50	5	
374	0	168	462	54	207	40	51	5	
384	153	0	484	233	72	44	52	5	
384	156	72	471	233	115	41	53	5	
384	156	115	471	233	158	41	53	5	
424	55	0	533	113	54	42	54	5	
424	55	54	533	113	108	42	54	5	
424	55	108	533	113	162	42	54	5	
384	156	158	471	233	201	48	55	6	
395	119	180	426	153	212	46	56	6	
424	55	162	533	113	216	49	57	6	
447	113	0	530	153	36	47	58	6	
468	0	0	577	54	58	49	59	6	
468	0	58	577	54	116	49	59	6	
468	0	116	577	54	174	49	59	6	
468	0	174	559	54	196	45	60	6	
484	153	0	584	233	72	50	61	6	
447	113	36	530	153	72	52	62	7	
447	119	72	479	153	103	51	63	7	
484	153	72	584	233	144	55	64	7	
484	153	144	584	233	216	55	64	7	
533	54	0	587	148	36	53	65	7	
533	54	36	576	141	113	54	66	7	
533	54	113	576	141	190	54	66	7	
587	0	0	678	54	22	56	67	8	
587	0	22	678	54	44	56	67	8	
679	0	0	713	32	31	57	68	8	
679	0	31	713	32	62	57	68	8	
679	0	62	713	32	93	57	68	8	
714	0	0	797	40	36	58	69	8	
714	0	36	797	40	72	58	69	8	
798	0	0	892	54	36	59	70	8	
798	0	36	892	54	72	59	70	8	
893	0	0	980	77	43	60	71	8	
981	0	0	1081	80	72	61	72	8	
1082	0	0	1173	54	22	62	73	9	
1174	0	0	1268	55	30	63	74	9	
1269	0	0	1303	32	31	64	75	9	
1269	0	31	1303	32	62	64	75	9	
1304	0	0	1387	40	36	65	76	9	
1304	0	36	1387	40	72	65	76	9	
1304	0	72	1387	40	108	65	76	9	
1388	0	0	1482	54	36	66	77	9	
1388	0	36	1482	54	72	66	77	9	
1483	0	0	1571	54	39	67	78	9	
1483	0	39	1571	54	78	67	78	9	
1483	0	78	1571	54	117	67	78	9	
1483	0	117	1571	54	156	67	78	9	
1572	0	0	1659	77	43	68	79	9	
1572	0	43	1659	77	86	68	79	9	
1572	0	86	1659	77	129	68	79	9	
1660	0	0	1769	58	54	69	80	9	
1770	0	0	1870	80	72	70	81	9	
1770	0	72	1870	80	144	70	81	9	
