48	10	587	233	220
24793578	20718084
0	0	0	92	109	51	4	1	0	
0	109	0	92	218	51	4	1	0	
0	0	51	51	109	143	4	2	0	
0	109	51	51	218	143	4	2	0	
0	0	143	49	48	208	3	3	0	
0	48	143	49	96	208	3	3	0	
0	110	143	44	146	203	1	4	0	
0	146	143	44	182	203	1	4	0	
0	182	143	44	218	203	1	4	0	
51	0	51	91	42	127	2	5	0	
51	0	127	91	42	203	2	5	0	
51	125	51	82	218	93	0	6	0	
51	42	51	91	118	93	7	7	1	
51	42	93	91	118	135	7	7	1	
51	42	135	91	118	177	7	7	1	
51	125	93	82	218	135	5	8	1	
51	125	135	82	218	177	5	8	1	
51	125	177	82	218	219	5	8	1	
92	0	0	143	109	92	9	9	1	
92	0	92	143	109	184	9	9	1	
143	0	0	194	109	92	9	9	1	
143	0	92	194	109	184	9	9	1	
92	0	184	136	60	220	6	10	1	
92	184	0	140	233	65	8	11	1	
92	193	65	134	233	141	12	12	2	
92	193	141	134	233	217	12	12	2	
92	153	0	185	184	42	10	13	2	
185	153	0	278	184	42	10	13	2	
278	153	0	371	184	42	10	13	2	
92	109	0	128	153	60	11	14	2	
128	109	0	164	153	60	11	14	2	
164	109	0	200	153	60	11	14	2	
92	113	60	134	153	136	12	15	2	
194	0	0	303	51	92	13	16	2	
194	0	92	303	51	184	13	16	2	
303	0	0	412	51	92	13	16	2	
303	0	92	412	51	184	13	16	2	
92	153	42	185	184	84	14	17	3	
92	60	184	152	104	220	15	18	3	
134	113	60	176	153	136	16	19	3	
134	113	136	176	153	212	16	19	3	
140	184	0	188	233	65	17	20	3	
140	184	65	188	233	130	17	20	3	
194	51	0	303	102	92	18	21	3	
303	51	0	412	102	92	18	21	3	
412	51	0	521	102	92	18	21	3	
92	153	84	185	184	126	19	22	4	
92	153	126	185	184	168	19	22	4	
92	153	168	185	184	210	19	22	4	
194	51	92	303	102	184	23	23	4	
303	51	92	412	102	184	23	23	4	
188	184	0	236	233	65	22	24	4	
236	184	0	284	233	65	22	24	4	
284	184	0	332	233	65	22	24	4	
332	184	0	380	233	65	22	24	4	
380	184	0	428	233	65	22	24	4	
428	184	0	476	233	65	22	24	4	
476	184	0	524	233	65	22	24	4	
194	0	184	254	44	220	20	25	4	
194	51	184	254	95	220	20	26	4	
254	51	184	314	95	220	20	26	4	
188	193	65	264	233	107	21	27	4	
188	193	107	264	233	149	21	27	4	
200	102	0	309	153	92	28	28	5	
200	102	92	309	153	184	28	28	5	
309	102	0	418	153	92	28	28	5	
309	102	92	418	153	184	28	28	5	
185	153	42	278	184	84	24	29	5	
185	153	84	278	184	126	24	29	5	
185	153	126	278	184	168	24	29	5	
278	153	42	371	184	84	24	29	5	
278	153	84	371	184	126	24	29	5	
278	153	126	371	184	168	24	29	5	
188	193	149	264	233	191	26	30	5	
200	109	184	260	153	220	25	31	5	
254	0	184	314	44	220	25	32	5	
264	193	65	306	233	141	26	33	5	
264	193	141	306	233	217	26	33	5	
306	184	65	371	233	113	27	34	5	
260	111	184	353	153	215	29	35	6	
306	185	113	371	233	162	31	36	6	
306	185	162	371	233	211	31	36	6	
185	153	168	278	184	210	29	37	6	
314	0	184	374	44	220	30	38	6	
412	51	92	521	102	184	32	39	6	
412	0	0	521	51	92	32	40	6	
412	0	92	521	51	184	32	40	6	
418	133	0	527	184	92	32	41	6	
412	0	184	505	42	215	33	42	7	
314	51	184	407	93	215	33	43	7	
353	109	184	413	153	220	34	44	7	
371	185	65	420	233	130	36	45	7	
420	185	65	469	233	130	36	45	7	
469	185	65	518	233	130	36	45	7	
371	193	130	413	233	206	35	46	7	
413	193	130	455	233	206	35	46	7	
455	193	130	497	233	206	35	46	7	
412	51	184	472	95	220	34	47	7	
418	133	92	527	184	184	37	48	7	
418	140	184	478	184	220	34	49	7	
521	0	0	572	109	92	37	50	7	
521	0	92	572	109	184	37	50	7	
527	124	0	578	233	92	37	51	7	
527	124	92	578	233	184	37	51	7	
521	0	184	563	93	215	38	52	8	
527	140	184	569	233	215	38	53	8	
587	0	0	680	42	31	38	54	8	
681	0	0	741	44	36	39	55	8	
742	0	0	818	42	40	40	56	8	
742	0	40	818	42	80	40	56	8	
742	0	80	818	42	120	40	56	8	
742	0	120	818	42	160	40	56	8	
742	0	160	818	42	200	40	56	8	
742	0	200	818	42	240	40	56	8	
819	0	0	884	49	48	41	57	8	
885	0	0	994	92	51	42	58	8	
885	0	51	994	92	102	42	58	8	
995	0	0	1088	42	31	43	59	9	
995	0	31	1088	42	62	43	59	9	
1089	0	0	1149	44	36	44	60	9	
1089	0	36	1149	44	72	44	60	9	
1089	0	72	1149	44	108	44	60	9	
1150	0	0	1226	42	40	45	61	9	
1227	0	0	1292	49	48	46	62	9	
1227	0	48	1292	49	96	46	62	9	
1227	0	96	1292	49	144	46	62	9	
1227	0	144	1292	49	192	46	62	9	
1293	0	0	1402	92	51	47	63	9	
1293	0	51	1402	92	102	47	63	9	
