30	10	587	233	220
25038260	21525884
0	0	0	47	95	92	2	1	0	
47	0	0	94	95	92	2	1	0	
94	0	0	141	95	92	2	1	0	
0	0	92	44	46	143	1	2	0	
0	46	92	44	92	143	1	2	0	
44	0	92	88	46	143	1	2	0	
44	46	92	88	92	143	1	2	0	
88	0	92	132	46	143	1	2	0	
88	46	92	132	92	143	1	2	0	
0	0	143	116	23	182	0	3	0	
0	23	143	116	46	182	0	3	0	
0	46	143	116	69	182	0	3	0	
0	69	143	116	92	182	0	3	0	
0	0	182	116	39	205	0	4	0	
0	187	0	51	233	44	4	5	1	
0	187	44	51	233	88	4	5	1	
0	187	88	51	233	132	4	5	1	
0	187	132	51	233	176	4	5	1	
0	187	176	51	233	220	4	5	1	
0	140	0	95	187	92	5	6	1	
0	140	92	95	187	184	5	6	1	
95	140	0	190	187	92	5	6	1	
95	140	92	190	187	184	5	6	1	
190	140	0	285	187	92	5	6	1	
190	140	92	285	187	184	5	6	1	
0	148	184	116	187	207	3	7	1	
116	148	184	232	187	207	3	7	1	
0	101	0	116	140	23	3	8	1	
0	101	23	116	140	46	6	9	2	
0	101	46	116	140	69	6	9	2	
0	101	69	116	140	92	6	9	2	
0	101	92	116	140	115	6	9	2	
0	101	115	116	140	138	6	9	2	
0	101	138	116	140	161	6	9	2	
51	187	0	102	233	44	7	10	2	
102	187	0	153	233	44	7	10	2	
153	187	0	204	233	44	7	10	2	
204	187	0	255	233	44	7	10	2	
255	187	0	306	233	44	7	10	2	
306	187	0	357	233	44	7	10	2	
141	0	0	188	95	92	8	11	2	
141	0	92	188	95	184	8	11	2	
0	101	161	116	140	184	9	12	3	
0	101	184	116	140	207	9	12	3	
51	187	44	95	233	95	10	13	3	
51	187	95	95	233	146	10	13	3	
51	187	146	95	233	197	10	13	3	
95	187	44	139	233	95	10	13	3	
95	187	95	139	233	146	10	13	3	
95	187	146	139	233	197	10	13	3	
139	187	44	183	233	95	10	13	3	
139	187	95	183	233	146	10	13	3	
139	187	146	183	233	197	10	13	3	
51	194	197	167	233	220	9	14	3	
116	96	0	162	140	51	10	15	3	
116	96	51	162	140	102	10	15	3	
188	0	0	235	95	92	11	16	3	
188	0	92	235	95	184	11	16	3	
235	0	0	282	95	92	11	17	3	
116	96	102	162	140	153	13	18	4	
116	96	153	162	140	204	13	18	4	
162	96	0	208	140	51	13	19	4	
162	96	51	208	140	102	13	19	4	
162	96	102	208	140	153	13	19	4	
162	96	153	208	140	204	13	19	4	
183	187	44	299	210	83	12	20	4	
183	187	83	299	210	122	12	20	4	
183	210	44	299	233	83	12	20	4	
183	210	83	299	233	122	12	20	4	
183	194	122	299	233	145	12	21	4	
208	96	0	254	140	51	13	22	4	
282	0	0	377	47	92	14	23	4	
377	0	0	472	47	92	14	23	4	
472	0	0	567	47	92	14	23	4	
183	194	145	299	233	168	15	24	5	
183	194	168	299	233	191	15	24	5	
208	96	51	254	140	102	16	25	5	
208	96	102	254	140	153	16	25	5	
208	96	153	254	140	204	16	25	5	
235	0	92	282	95	184	17	26	5	
282	47	0	333	93	44	16	27	5	
282	47	44	333	93	88	16	27	5	
282	47	88	333	93	132	16	27	5	
282	47	132	333	93	176	16	27	5	
282	47	176	333	93	220	16	27	5	
254	96	0	300	140	51	16	28	5	
282	0	92	377	47	184	17	29	5	
377	0	92	472	47	184	17	29	5	
472	0	92	567	47	184	17	29	5	
285	140	0	380	187	92	17	30	5	
285	140	92	380	187	184	17	30	5	
183	194	191	299	233	214	18	31	6	
254	96	51	300	140	102	19	32	6	
254	96	102	300	140	153	19	32	6	
254	96	153	300	140	204	19	32	6	
282	0	184	398	39	207	18	33	6	
398	0	184	514	39	207	18	33	6	
299	187	44	350	233	88	19	34	6	
299	187	88	350	233	132	19	34	6	
299	187	132	350	233	176	19	34	6	
299	187	176	350	233	220	19	34	6	
300	93	0	395	140	92	20	35	6	
300	93	92	395	140	184	20	36	6	
333	47	0	449	70	39	18	37	6	
333	70	0	449	93	39	18	37	6	
449	47	0	565	70	39	18	37	6	
449	70	0	565	93	39	18	37	6	
380	141	0	475	233	47	20	38	6	
380	141	47	475	233	94	20	38	6	
380	141	94	475	233	141	23	39	7	
380	141	141	475	233	188	23	39	7	
333	47	39	449	70	78	21	40	7	
333	70	39	449	93	78	21	40	7	
449	47	39	565	70	78	21	40	7	
449	70	39	565	93	78	21	40	7	
333	47	78	377	93	129	22	41	7	
333	47	129	377	93	180	22	41	7	
377	47	78	421	93	129	22	41	7	
377	47	129	421	93	180	22	41	7	
395	94	0	490	141	92	23	42	7	
395	94	92	490	141	184	23	43	7	
421	47	78	537	70	117	21	44	7	
421	70	78	537	93	117	21	44	7	
475	141	0	570	233	47	23	45	7	
421	47	117	537	70	156	24	46	8	
421	70	117	537	93	156	24	46	8	
421	47	156	537	86	179	24	47	8	
475	141	47	570	233	94	26	48	8	
475	141	94	570	233	141	26	48	8	
475	141	141	570	233	188	26	48	8	
490	94	0	585	141	92	26	49	8	
490	94	92	585	141	184	26	49	8	
587	0	0	638	46	44	25	50	8	
587	0	44	638	46	88	25	50	8	
587	0	88	638	46	132	25	50	8	
587	0	132	638	46	176	25	50	8	
639	0	0	734	92	47	26	51	8	
639	0	47	734	92	94	26	51	8	
639	0	94	734	92	141	26	51	8	
735	0	0	851	39	23	27	52	9	
735	0	23	851	39	46	27	52	9	
735	0	46	851	39	69	27	52	9	
735	0	69	851	39	92	27	52	9	
852	0	0	903	46	44	28	53	9	
852	0	44	903	46	88	28	53	9	
852	0	88	903	46	132	28	53	9	
852	0	132	903	46	176	28	53	9	
904	0	0	999	92	47	29	54	9	
904	0	47	999	92	94	29	54	9	
904	0	94	999	92	141	29	54	9	
904	0	141	999	92	188	29	54	9	
904	0	188	999	92	235	29	54	9	
904	0	235	999	92	282	29	54	9	
