62	10	587	233	220
23731250	17738830
0	0	0	80	95	75	5	1	0	
0	95	0	80	190	75	5	1	0	
0	192	0	90	233	63	2	2	0	
0	0	75	73	62	129	4	3	0	
0	62	75	73	124	129	4	3	0	
0	124	75	73	186	129	4	3	0	
0	0	129	73	85	169	1	4	0	
0	93	129	70	186	174	3	5	0	
0	0	169	61	75	193	0	6	0	
0	193	63	85	233	136	7	7	1	
0	193	136	85	233	209	7	7	1	
0	93	174	70	186	219	9	8	1	
0	0	193	61	75	217	6	9	1	
80	0	0	125	93	70	9	10	1	
125	0	0	170	93	70	9	10	1	
80	0	70	121	90	133	8	11	1	
121	0	70	162	90	133	8	11	1	
80	0	133	120	85	206	7	12	1	
90	153	0	165	233	95	15	13	2	
90	153	95	165	233	190	15	13	2	
90	158	190	151	233	214	10	14	2	
80	108	0	173	153	70	14	15	2	
173	108	0	266	153	70	14	15	2	
266	108	0	359	153	70	14	15	2	
120	0	133	161	90	196	12	16	2	
80	112	70	170	153	133	12	17	2	
80	112	133	170	153	196	12	17	2	
165	160	0	198	233	36	11	18	2	
165	160	36	198	233	72	11	18	2	
165	160	72	198	233	108	11	18	2	
170	0	0	214	53	57	13	19	2	
165	160	108	198	233	144	17	20	3	
170	113	70	255	153	143	18	21	3	
170	53	0	232	107	73	20	22	3	
170	53	73	223	97	130	19	23	3	
198	153	0	293	233	75	21	24	3	
293	153	0	388	233	75	21	24	3	
388	153	0	483	233	75	21	24	3	
198	158	75	259	233	99	16	25	3	
198	158	99	259	233	123	16	26	3	
165	160	144	198	233	180	22	27	4	
165	160	180	198	233	216	22	27	4	
214	0	0	307	45	70	24	28	4	
198	176	123	251	233	167	23	29	4	
198	176	167	251	233	211	23	29	4	
259	153	75	334	233	170	25	30	4	
334	153	75	409	233	170	25	30	4	
255	108	70	348	153	140	31	31	5	
170	53	130	223	97	187	30	32	5	
170	113	143	255	153	216	28	33	5	
259	158	170	320	233	194	26	34	5	
214	0	70	267	44	127	30	35	5	
214	0	127	267	44	184	30	35	5	
232	45	0	322	108	41	29	36	5	
232	45	41	305	107	95	32	37	5	
232	45	95	305	81	128	27	38	5	
232	45	128	305	81	161	27	38	5	
322	0	0	397	95	80	33	39	5	
320	158	170	381	233	194	34	40	6	
320	158	194	381	233	218	34	40	6	
232	45	161	305	81	194	35	41	6	
259	158	194	320	233	218	34	42	6	
255	108	140	348	153	210	37	43	6	
322	0	80	397	95	160	39	44	6	
322	0	160	392	93	205	37	45	6	
359	99	0	421	153	73	38	46	6	
359	99	73	421	153	146	38	46	6	
397	0	0	492	80	75	39	47	6	
492	0	0	587	80	75	39	47	6	
397	0	75	482	73	115	36	48	6	
359	99	146	421	153	219	45	49	7	
397	0	115	482	73	155	41	50	7	
397	0	155	451	73	217	45	51	7	
409	158	75	470	233	99	40	52	7	
409	189	99	466	233	152	43	53	7	
409	189	152	466	233	205	43	53	7	
421	80	0	514	150	45	44	54	7	
421	80	45	514	150	90	44	54	7	
421	80	90	511	121	153	42	55	7	
421	80	153	511	121	216	42	55	7	
482	0	75	577	80	150	46	56	7	
482	0	150	572	41	213	42	57	7	
483	170	0	573	233	41	42	58	7	
483	170	41	573	233	82	42	58	7	
483	170	82	573	233	123	42	58	7	
482	41	150	555	77	183	48	59	8	
483	170	123	573	233	164	50	60	8	
483	171	164	556	233	218	53	61	8	
514	85	0	587	170	40	49	62	8	
514	85	40	587	170	80	49	62	8	
514	85	80	587	170	120	49	62	8	
514	95	120	575	170	144	47	63	8	
514	95	144	575	170	168	47	63	8	
514	117	168	571	170	212	51	64	8	
587	0	0	680	70	45	52	65	8	
681	0	0	776	80	75	54	66	8	
681	0	75	776	80	150	54	66	8	
777	0	0	852	61	24	55	67	9	
777	0	24	852	61	48	55	67	9	
777	0	48	852	61	72	55	67	9	
853	0	0	926	36	33	56	68	9	
853	0	33	926	36	66	56	68	9	
853	0	66	926	36	99	56	68	9	
853	0	99	926	36	132	56	68	9	
853	0	132	926	36	165	56	68	9	
927	0	0	1017	63	41	57	69	9	
927	0	41	1017	63	82	57	69	9	
927	0	82	1017	63	123	57	69	9	
927	0	123	1017	63	164	57	69	9	
1018	0	0	1075	53	44	58	70	9	
1076	0	0	1169	70	45	59	71	9	
1076	0	45	1169	70	90	59	71	9	
1076	0	90	1169	70	135	59	71	9	
1170	0	0	1243	62	54	60	72	9	
1170	0	54	1243	62	108	60	72	9	
1244	0	0	1339	80	75	61	73	9	
1244	0	75	1339	80	150	61	73	9	
