42	10	587	233	220
23842129	18835229
0	0	0	60	60	90	2	1	0	
0	0	90	60	60	180	2	1	0	
60	0	0	120	60	90	2	1	0	
60	0	90	120	60	180	2	1	0	
0	129	0	30	233	55	0	2	0	
0	129	55	30	233	110	0	2	0	
30	141	0	103	233	89	3	3	0	
103	145	0	191	233	43	1	4	0	
103	145	43	191	233	86	1	4	0	
0	0	180	104	55	210	4	5	1	
0	60	0	60	120	90	6	6	1	
0	60	90	60	120	180	6	6	1	
30	143	89	90	233	149	6	7	1	
30	143	149	90	233	209	6	7	1	
60	60	0	101	139	53	5	8	1	
60	60	53	101	139	106	5	8	1	
60	60	106	101	139	159	5	8	1	
60	60	159	101	139	212	5	8	1	
101	60	0	190	133	92	7	9	1	
101	60	92	190	133	184	12	10	2	
103	145	86	191	233	129	10	11	2	
103	145	129	191	233	172	10	11	2	
120	0	0	210	60	60	11	12	2	
120	0	60	210	60	120	11	12	2	
120	0	120	210	60	180	11	12	2	
190	60	0	231	139	53	9	13	2	
231	60	0	272	139	53	9	13	2	
272	60	0	313	139	53	9	13	2	
313	60	0	354	139	53	9	13	2	
354	60	0	395	139	53	9	13	2	
190	60	53	294	90	108	8	14	2	
190	60	108	294	90	163	8	14	2	
191	173	0	251	233	90	11	15	2	
103	145	172	191	233	215	14	16	3	
190	90	53	269	131	106	13	17	3	
190	90	106	269	131	159	13	17	3	
190	90	159	269	131	212	13	17	3	
269	90	53	348	131	106	13	17	3	
269	90	106	348	131	159	13	17	3	
269	90	159	348	131	212	13	17	3	
251	141	0	324	233	89	15	18	3	
191	173	90	251	233	180	19	19	4	
251	141	89	324	233	178	20	20	4	
251	154	178	304	233	219	17	21	4	
210	0	0	300	60	60	19	22	4	
300	0	0	390	60	60	19	22	4	
390	0	0	480	60	60	19	22	4	
480	0	0	570	60	60	19	22	4	
210	0	60	270	60	150	19	23	4	
270	0	60	374	30	115	16	24	4	
270	30	60	374	60	115	16	24	4	
270	0	115	374	55	145	16	25	4	
324	141	0	397	233	89	20	26	4	
397	145	0	485	233	43	18	27	4	
190	60	163	294	90	218	21	28	5	
270	0	145	374	55	175	21	29	5	
270	0	175	349	53	216	22	30	5	
324	141	89	397	233	178	25	31	5	
324	154	178	377	233	219	22	32	5	
374	0	60	464	60	120	24	33	5	
374	0	120	464	60	180	24	33	5	
395	60	0	487	133	89	25	34	5	
397	145	43	485	233	86	23	35	5	
397	145	86	485	233	129	23	35	5	
395	60	89	487	133	178	28	36	6	
397	145	129	485	233	172	27	37	6	
397	145	172	485	233	215	27	37	6	
464	0	60	568	30	115	26	38	6	
464	30	60	568	60	115	26	38	6	
485	141	0	574	233	73	28	39	6	
485	141	73	574	233	146	28	39	6	
485	141	146	574	233	219	28	39	6	
395	60	178	474	113	219	30	40	7	
464	0	115	568	30	170	29	41	7	
464	30	115	568	60	170	29	41	7	
487	60	0	579	133	89	33	42	7	
487	60	89	579	133	178	33	42	7	
587	0	0	675	88	43	31	43	7	
676	0	0	766	60	60	32	44	7	
676	0	60	766	60	120	32	44	7	
767	0	0	859	89	73	33	45	7	
860	0	0	964	55	30	34	46	8	
860	0	30	964	55	60	34	46	8	
860	0	60	964	55	90	34	46	8	
965	0	0	1044	53	41	35	47	8	
1045	0	0	1133	88	43	36	48	8	
1045	0	43	1133	88	86	36	48	8	
1134	0	0	1224	60	60	37	49	8	
1225	0	0	1329	55	30	38	50	9	
1225	0	30	1329	55	60	38	50	9	
1225	0	60	1329	55	90	38	50	9	
1225	0	90	1329	55	120	38	50	9	
1330	0	0	1409	53	41	39	51	9	
1410	0	0	1500	60	60	40	52	9	
1410	0	60	1500	60	120	40	52	9	
1501	0	0	1593	89	73	41	53	9	
1501	0	73	1593	89	146	41	53	9	
