72	10	587	233	220
24350086	20926673
0	0	0	65	80	35	3	1	0	
0	0	35	65	80	70	3	1	0	
0	0	70	65	80	105	3	1	0	
0	80	0	65	160	35	3	1	0	
0	80	35	65	160	70	3	1	0	
0	80	70	65	160	105	3	1	0	
0	0	105	53	68	149	6	2	0	
0	0	149	53	68	193	6	2	0	
0	68	105	53	136	149	6	2	0	
0	68	149	53	136	193	6	2	0	
0	0	193	49	87	219	1	3	0	
0	160	0	73	233	36	4	4	0	
0	160	36	73	233	72	4	4	0	
0	160	72	33	233	129	2	5	0	
0	160	129	33	233	186	2	5	0	
33	165	72	73	233	147	5	6	0	
65	0	0	91	87	49	1	7	0	
65	0	49	91	87	98	1	7	0	
65	88	0	91	160	35	0	8	0	
65	88	35	91	160	70	0	8	0	
65	88	70	91	160	105	0	8	0	
65	88	105	91	160	140	7	9	1	
65	88	140	91	160	175	7	9	1	
65	0	98	91	87	147	8	10	1	
65	0	147	91	87	196	8	10	1	
73	176	0	146	233	33	9	11	1	
73	176	33	146	233	66	9	11	1	
73	176	66	146	233	99	9	11	1	
73	176	99	146	233	132	9	11	1	
73	176	132	146	233	165	9	11	1	
73	176	165	146	233	198	9	11	1	
91	0	0	166	40	68	12	12	1	
166	0	0	241	40	68	12	12	1	
241	0	0	316	40	68	12	12	1	
91	0	68	171	35	133	10	13	1	
91	40	0	144	84	68	13	14	1	
91	84	0	144	128	68	13	14	1	
91	128	0	144	172	68	13	14	1	
91	0	133	171	35	198	10	15	1	
91	40	68	140	87	133	14	16	1	
91	40	133	140	87	198	14	16	1	
144	40	0	217	113	36	11	17	1	
65	88	175	91	160	210	15	18	2	
91	104	68	144	172	112	19	19	2	
91	104	112	144	172	156	19	19	2	
91	104	156	144	172	200	19	19	2	
144	40	36	217	113	72	18	20	2	
144	40	72	217	113	108	18	20	2	
144	40	108	217	113	144	18	20	2	
144	40	144	197	84	212	19	21	2	
146	186	0	195	233	65	20	22	2	
195	186	0	244	233	65	20	22	2	
244	186	0	293	233	65	20	22	2	
293	186	0	342	233	65	20	22	2	
342	186	0	391	233	65	20	22	2	
391	186	0	440	233	65	20	22	2	
144	141	0	224	176	65	17	23	2	
144	141	65	224	176	130	17	23	2	
144	141	130	224	176	195	17	23	2	
144	115	0	231	141	49	16	24	2	
144	84	144	216	110	179	21	25	3	
144	84	179	216	110	214	21	25	3	
146	186	65	195	233	130	28	26	3	
195	186	65	244	233	130	28	26	3	
244	186	65	293	233	130	28	26	3	
171	0	68	246	40	136	26	27	3	
171	0	136	246	40	204	26	27	3	
144	115	49	231	141	98	22	28	3	
144	115	98	231	141	147	22	28	3	
144	115	147	231	141	196	22	28	3	
146	189	130	199	233	198	27	29	3	
199	189	130	252	233	198	27	29	3	
217	40	0	250	113	57	23	30	3	
217	40	57	250	113	114	23	30	3	
224	151	0	304	186	65	24	31	3	
250	40	0	323	113	36	25	32	3	
250	40	36	323	113	72	25	32	3	
250	40	72	323	113	108	25	32	3	
217	40	114	243	112	149	29	33	4	
217	40	149	243	112	184	29	33	4	
217	40	184	243	112	219	29	33	4	
224	151	65	304	186	130	31	34	4	
224	151	130	304	186	195	31	34	4	
246	0	68	314	40	143	33	35	4	
231	116	0	311	151	65	31	36	4	
231	116	65	311	151	130	31	36	4	
231	116	130	311	151	195	31	36	4	
250	40	108	323	113	144	32	37	4	
250	40	144	323	113	180	32	37	4	
250	40	180	323	113	216	32	37	4	
293	186	65	342	233	130	35	38	4	
342	186	65	391	233	130	35	38	4	
391	186	65	440	233	130	35	38	4	
293	186	130	342	233	195	35	39	4	
304	160	0	391	186	49	30	40	4	
304	160	49	391	186	98	30	40	4	
311	116	0	379	160	53	34	41	4	
311	116	53	379	160	106	34	41	4	
311	116	106	379	160	159	34	41	4	
304	160	98	391	186	147	37	42	5	
246	0	143	314	40	218	41	43	5	
304	160	147	376	186	182	36	44	5	
304	160	182	376	186	217	36	44	5	
311	116	159	379	160	212	42	45	5	
316	0	0	396	35	65	39	46	5	
396	0	0	476	35	65	39	46	5	
316	0	65	389	33	122	38	47	5	
389	0	65	462	33	122	38	47	5	
323	35	0	396	108	36	40	48	5	
323	35	36	396	108	72	40	48	5	
323	35	72	396	108	108	40	48	5	
323	35	108	396	108	144	40	48	5	
323	35	144	396	108	180	40	48	5	
316	0	122	389	33	179	45	49	6	
389	0	122	462	33	179	45	49	6	
323	35	180	396	108	216	47	50	6	
316	0	179	388	26	214	43	51	6	
379	108	0	466	134	49	44	52	6	
379	134	0	466	160	49	44	52	6	
342	186	130	391	233	195	49	53	6	
379	111	49	466	160	75	44	54	6	
388	0	179	460	26	214	43	55	6	
379	111	75	426	160	140	49	56	6	
379	111	140	426	160	205	49	56	6	
396	35	0	453	108	33	45	57	6	
396	35	33	449	103	77	48	58	6	
440	163	0	520	198	65	46	59	6	
440	198	0	520	233	65	46	59	6	
391	186	130	440	233	195	57	60	7	
396	35	77	449	103	121	56	61	7	
396	35	121	449	103	165	56	61	7	
396	35	165	449	103	209	56	61	7	
440	163	65	520	198	130	53	62	7	
440	198	65	520	233	130	53	62	7	
440	168	130	520	233	165	53	63	7	
440	168	165	487	233	214	57	64	7	
453	35	0	526	108	36	54	65	7	
453	35	36	526	108	72	54	65	7	
453	35	72	526	108	108	54	65	7	
453	35	108	526	108	144	54	65	7	
453	35	144	526	92	177	52	66	7	
453	35	177	525	61	212	50	67	7	
466	110	0	510	163	68	56	68	7	
466	110	68	510	163	136	56	68	7	
466	110	136	510	163	204	56	68	7	
476	0	0	563	26	49	51	69	7	
476	0	49	563	26	98	51	69	7	
510	123	0	585	163	68	55	70	7	
520	184	0	585	233	47	57	71	7	
520	184	47	585	233	94	57	71	7	
520	184	94	585	233	141	57	71	7	
453	61	177	525	87	212	58	72	8	
476	0	98	548	26	133	58	73	8	
476	0	133	548	26	168	58	73	8	
510	123	68	585	163	136	61	74	8	
510	123	136	585	163	204	61	74	8	
520	184	141	585	233	188	63	75	8	
526	26	0	579	94	44	62	76	8	
526	26	44	579	94	88	62	76	8	
526	26	88	579	94	132	62	76	8	
526	26	132	579	94	176	62	76	8	
526	26	176	579	94	220	62	76	8	
587	0	0	660	57	33	59	77	8	
587	0	33	660	57	66	59	77	8	
587	0	66	660	57	99	59	77	8	
661	0	0	734	73	36	60	78	8	
661	0	36	734	73	72	60	78	8	
661	0	72	734	73	108	60	78	8	
735	0	0	807	35	26	64	79	9	
735	0	26	807	35	52	64	79	9	
735	0	52	807	35	78	64	79	9	
735	0	78	807	35	104	64	79	9	
735	0	104	807	35	130	64	79	9	
808	0	0	895	49	26	65	80	9	
808	0	26	895	49	52	65	80	9	
808	0	52	895	49	78	65	80	9	
808	0	78	895	49	104	65	80	9	
896	0	0	969	57	33	66	81	9	
896	0	33	969	57	66	66	81	9	
896	0	66	969	57	99	66	81	9	
896	0	99	969	57	132	66	81	9	
896	0	132	969	57	165	66	81	9	
896	0	165	969	57	198	66	81	9	
896	0	198	969	57	231	66	81	9	
970	0	0	1050	65	35	67	82	9	
970	0	35	1050	65	70	67	82	9	
970	0	70	1050	65	105	67	82	9	
970	0	105	1050	65	140	67	82	9	
1051	0	0	1124	73	36	68	83	9	
1051	0	36	1124	73	72	68	83	9	
1051	0	72	1124	73	108	68	83	9	
1125	0	0	1200	68	40	69	84	9	
1125	0	40	1200	68	80	69	84	9	
1125	0	80	1200	68	120	69	84	9	
1201	0	0	1269	53	44	70	85	9	
1201	0	44	1269	53	88	70	85	9	
1201	0	88	1269	53	132	70	85	9	
1201	0	132	1269	53	176	70	85	9	
1201	0	176	1269	53	220	70	85	9	
1270	0	0	1335	49	47	71	86	9	
