73	10	587	233	220
22933682	18089475
0	0	0	111	80	68	6	1	0	
0	0	68	111	80	136	6	1	0	
0	0	136	90	55	214	5	2	0	
0	181	0	58	233	73	3	3	0	
0	181	73	58	233	146	3	3	0	
0	181	146	58	233	219	3	3	0	
0	81	0	37	181	44	0	4	0	
37	81	0	74	181	44	0	4	0	
0	83	44	73	132	84	2	5	0	
0	132	44	73	181	84	2	5	0	
0	111	84	71	181	137	4	6	0	
58	194	0	178	233	60	1	7	0	
0	112	137	50	181	218	11	8	1	
58	196	60	158	233	104	7	9	1	
74	121	0	147	194	109	15	10	1	
74	121	109	123	194	149	8	11	1	
74	121	149	123	194	189	8	11	1	
74	80	0	159	121	58	9	12	1	
111	0	0	166	78	90	14	13	1	
111	0	90	164	71	160	13	14	1	
111	0	160	153	65	217	10	15	1	
147	121	0	199	194	58	12	16	1	
147	125	58	197	194	139	11	17	1	
58	196	104	158	233	148	16	18	2	
74	80	58	159	121	116	18	19	2	
74	80	116	159	121	174	18	19	2	
147	125	139	197	194	220	20	20	2	
159	78	0	208	118	73	17	21	2	
159	78	73	208	118	146	17	21	2	
166	0	0	217	78	84	21	22	2	
166	0	84	217	78	168	21	22	2	
199	129	0	257	181	73	22	23	2	
199	181	0	257	233	73	22	23	2	
199	155	73	254	233	163	23	24	2	
199	168	163	241	233	220	19	25	2	
208	78	0	265	120	65	24	26	3	
265	78	0	322	120	65	24	26	3	
322	78	0	379	120	65	24	26	3	
217	0	0	297	68	111	28	27	3	
217	0	111	295	51	195	25	28	3	
257	124	0	330	233	73	29	29	3	
257	175	73	330	233	125	26	30	3	
257	180	125	328	233	195	27	31	3	
159	78	146	208	118	219	31	32	4	
208	78	65	328	117	125	30	33	4	
257	125	73	326	175	154	32	34	4	
297	0	0	348	78	84	33	35	4	
330	160	0	382	233	58	34	36	4	
208	78	125	308	115	169	35	37	5	
297	0	84	339	57	149	38	38	5	
297	0	149	339	57	214	38	38	5	
328	78	65	377	118	138	36	39	5	
330	164	58	380	233	139	39	40	5	
330	164	139	380	233	220	39	40	5	
348	0	0	459	68	80	41	41	5	
459	0	0	570	68	80	41	41	5	
348	0	80	418	53	151	40	42	5	
379	68	0	420	153	58	37	43	5	
348	0	151	405	42	216	43	44	6	
382	160	0	491	233	73	48	45	6	
382	160	73	491	233	146	48	45	6	
382	160	146	491	233	219	48	45	6	
418	0	80	498	68	191	47	46	6	
491	181	0	549	233	73	45	47	6	
491	181	73	549	233	146	45	47	6	
491	181	146	549	233	219	45	47	6	
498	0	80	567	50	161	44	48	6	
420	68	0	498	158	55	46	49	6	
208	78	169	308	115	213	49	50	7	
328	78	138	377	118	211	51	51	7	
379	68	58	420	153	116	52	52	7	
379	68	116	420	153	174	52	52	7	
420	68	55	498	158	110	57	53	7	
420	68	110	498	158	165	57	53	7	
420	68	165	498	152	216	55	54	7	
498	70	0	578	181	68	58	55	7	
498	0	161	563	42	218	53	56	7	
498	72	68	571	181	141	59	57	7	
498	129	141	571	181	199	56	58	7	
498	72	141	571	121	181	51	59	7	
587	0	0	707	60	39	42	60	6	
708	0	0	828	60	39	50	61	7	
708	0	39	828	60	78	50	61	7	
829	0	0	910	69	50	54	62	7	
911	0	0	984	49	40	60	63	8	
911	0	40	984	49	80	60	63	8	
985	0	0	1070	58	41	61	64	8	
1071	0	0	1136	57	42	62	65	8	
1137	0	0	1218	69	50	63	66	8	
1219	0	0	1290	70	53	64	67	8	
1291	0	0	1402	80	68	65	68	8	
1403	0	0	1512	73	73	66	69	8	
1513	0	0	1613	44	37	67	70	9	
1513	0	37	1613	44	74	67	70	9	
1614	0	0	1687	49	40	68	71	9	
1614	0	40	1687	49	80	68	71	9	
1614	0	80	1687	49	120	68	71	9	
1688	0	0	1769	69	50	69	72	9	
1688	0	50	1769	69	100	69	72	9	
1688	0	100	1769	69	150	69	72	9	
1770	0	0	1854	78	51	70	73	9	
1855	0	0	1945	78	55	71	74	9	
1946	0	0	2057	80	68	72	75	9	
