86	10	587	233	220
21703072	16961744
0	0	0	82	66	94	7	1	0	
82	0	0	164	66	94	7	1	0	
0	105	0	78	169	77	6	2	0	
0	105	77	78	169	154	6	2	0	
0	169	0	78	233	77	6	2	0	
0	169	77	78	233	154	6	2	0	
0	105	154	43	169	209	3	3	0	
0	169	154	43	233	209	3	3	0	
0	66	0	76	102	57	2	4	0	
0	0	94	54	65	166	5	5	0	
43	147	154	75	233	185	0	6	0	
54	0	94	109	64	137	3	7	0	
78	75	0	196	154	51	4	8	0	
78	154	0	196	233	51	4	8	0	
78	163	51	162	233	86	1	9	0	
0	0	166	42	32	208	27	10	3	
0	32	166	42	64	208	27	10	3	
0	66	57	76	102	114	29	11	3	
54	0	137	106	58	201	33	12	3	
78	179	86	150	233	151	35	13	3	
78	179	151	150	233	216	35	13	3	
78	112	51	196	163	130	32	14	3	
78	112	130	196	163	209	32	15	3	
78	75	51	166	106	112	26	16	3	
78	75	112	166	106	173	26	16	3	
109	0	94	164	64	137	30	17	3	
164	0	0	273	73	23	25	18	3	
164	0	23	248	70	58	28	19	3	
164	0	58	248	70	93	28	19	3	
164	0	93	244	66	145	34	20	3	
196	115	0	247	233	79	32	21	3	
196	135	79	240	233	134	31	22	3	
196	135	134	240	233	189	31	22	3	
247	135	0	291	233	55	31	23	3	
164	0	145	240	36	202	40	24	4	
247	135	55	291	233	110	41	25	4	
247	135	110	291	233	165	41	25	4	
247	73	0	342	128	60	42	26	4	
247	73	60	342	128	120	42	26	4	
273	0	0	350	64	78	43	27	4	
196	147	189	228	233	220	44	28	5	
78	75	173	164	106	205	44	29	5	
247	135	165	291	233	220	48	30	5	
247	73	120	342	128	180	50	31	5	
247	73	180	289	115	212	46	32	5	
273	0	78	350	64	156	51	33	5	
289	73	180	331	115	212	46	34	5	
291	145	0	322	233	61	45	35	5	
291	145	61	322	233	122	45	35	5	
322	149	0	392	233	35	47	36	5	
322	161	35	387	233	89	49	37	5	
322	161	89	387	233	143	49	37	5	
273	0	156	349	57	192	55	38	6	
342	64	0	412	148	35	54	39	6	
342	64	35	408	146	129	59	40	6	
342	64	129	408	144	181	57	41	6	
342	64	181	399	140	217	55	42	6	
350	0	0	428	64	77	58	43	6	
428	0	0	506	64	77	58	43	6	
506	0	0	584	64	77	58	43	6	
350	0	77	436	31	109	53	44	6	
350	31	77	436	62	109	53	44	6	
392	154	0	510	233	51	56	45	6	
412	64	0	521	137	23	52	46	6	
412	64	23	521	137	46	52	46	6	
322	161	143	387	233	197	69	47	7	
350	0	109	436	32	140	61	48	7	
350	0	140	392	32	182	63	49	7	
392	155	51	456	233	128	71	50	7	
392	155	128	456	233	205	71	50	7	
412	64	46	521	137	69	60	51	7	
412	64	69	466	136	134	69	52	7	
466	64	69	520	136	134	69	52	7	
412	64	134	467	128	177	66	53	7	
412	64	177	467	128	220	66	53	7	
436	0	77	488	64	135	67	54	7	
436	0	135	488	64	193	67	54	7	
467	64	134	519	130	214	68	55	7	
456	157	51	492	233	108	65	56	7	
488	0	77	583	60	132	70	57	7	
488	0	132	576	31	193	62	58	7	
510	149	0	580	233	35	64	59	7	
510	151	35	576	233	129	72	60	7	
521	64	0	587	146	94	72	61	7	
510	155	129	574	233	206	78	62	8	
521	64	94	578	140	130	75	63	8	
587	0	0	696	73	23	8	64	1	
697	0	0	783	32	31	9	65	1	
784	0	0	826	42	32	10	66	1	
827	0	0	903	57	36	11	67	1	
904	0	0	1022	79	51	12	68	1	
1023	0	0	1087	58	52	13	69	1	
1088	0	0	1168	66	52	14	70	1	
1169	0	0	1263	82	66	15	71	1	
1264	0	0	1350	32	31	16	72	2	
1351	0	0	1439	61	31	17	73	2	
1440	0	0	1482	42	32	18	74	2	
1483	0	0	1567	70	35	19	75	2	
1483	0	35	1567	70	70	19	75	2	
1568	0	0	1644	57	36	20	76	2	
1645	0	0	1709	55	43	21	77	2	
1710	0	0	1808	55	44	22	78	2	
1710	0	44	1808	55	88	22	78	2	
1809	0	0	1881	65	54	23	79	2	
1882	0	0	1977	60	55	24	80	2	
1978	0	0	2087	73	23	36	81	4	
2088	0	0	2174	32	31	37	82	4	
2175	0	0	2263	61	31	38	83	4	
2264	0	0	2306	42	32	39	84	4	
2307	0	0	2395	61	31	73	85	8	
2396	0	0	2480	70	35	74	86	8	
2481	0	0	2599	79	51	76	87	8	
2600	0	0	2695	60	55	77	88	8	
2696	0	0	2805	73	23	79	89	9	
2696	0	23	2805	73	46	79	89	9	
2806	0	0	2848	42	32	80	90	9	
2849	0	0	2933	70	35	81	91	9	
2934	0	0	3010	57	36	82	92	9	
2934	0	36	3010	57	72	82	92	9	
3011	0	0	3129	79	51	83	93	9	
3130	0	0	3194	58	52	84	94	9	
3195	0	0	3275	66	52	85	95	9	
