92	10	587	233	220
20043677	15563423
0	0	0	51	98	70	4	1	0	
0	98	0	51	196	70	4	1	0	
0	0	70	51	70	168	4	2	0	
0	198	0	116	233	67	1	3	0	
0	106	70	43	196	110	3	4	0	
51	0	0	151	108	39	2	5	0	
51	114	0	143	198	22	0	6	0	
51	0	39	108	107	96	5	7	0	
51	119	22	110	198	80	6	8	0	
0	124	110	37	196	174	11	9	1	
51	0	96	102	98	166	14	10	1	
0	198	67	116	233	134	10	11	1	
0	127	174	32	196	204	9	12	1	
0	198	134	116	233	201	10	13	1	
51	141	80	108	198	187	16	14	1	
108	0	39	147	101	95	12	15	1	
108	0	95	147	101	151	12	15	1	
143	127	0	216	180	65	15	16	1	
143	180	0	216	233	65	15	16	1	
143	140	65	209	233	91	8	17	1	
143	153	91	208	233	141	13	18	1	
151	0	0	235	92	22	7	19	1	
143	159	141	207	196	213	22	20	2	
143	196	141	207	233	213	22	20	2	
151	0	22	208	57	129	24	21	2	
151	92	0	267	127	67	21	22	2	
151	92	67	257	127	108	20	23	2	
151	92	108	215	125	163	19	24	2	
151	92	163	215	125	218	19	24	2	
151	57	22	215	90	77	19	25	2	
216	161	0	274	233	78	25	26	2	
216	161	78	274	233	156	25	26	2	
235	0	0	313	82	28	18	27	2	
235	0	28	312	82	52	17	28	2	
235	0	52	312	82	76	17	28	2	
267	92	0	374	161	53	23	29	2	
51	0	166	94	90	206	35	30	3	
108	0	151	145	72	215	32	31	3	
151	57	77	206	90	141	29	32	3	
151	57	141	206	90	205	29	32	3	
235	0	76	309	73	127	38	33	3	
235	0	127	309	73	178	38	33	3	
267	103	53	339	161	131	40	34	3	
267	111	131	332	161	211	36	35	3	
313	0	0	370	57	107	39	36	3	
274	163	0	325	233	98	37	37	3	
274	163	98	325	233	196	37	38	3	
313	57	0	429	92	67	31	39	3	
429	57	0	545	92	67	31	39	3	
313	57	67	419	92	108	30	40	3	
325	167	0	418	233	26	27	41	3	
418	167	0	511	233	26	27	41	3	
325	177	26	426	233	65	33	42	3	
235	0	178	299	72	215	43	43	4	
313	0	107	370	57	214	49	44	4	
325	177	65	426	233	104	44	45	4	
325	182	104	423	233	174	46	46	4	
370	0	0	477	57	57	49	47	4	
370	0	57	477	53	126	48	48	4	
370	0	126	477	53	195	48	48	4	
374	93	0	447	167	51	47	49	4	
447	93	0	520	167	51	47	49	4	
374	95	51	432	167	129	50	50	4	
432	95	51	490	167	129	50	50	4	
374	102	129	424	167	209	45	51	4	
325	193	174	415	233	217	62	52	6	
313	57	108	419	92	149	59	53	6	
313	57	149	382	89	179	58	54	6	
424	95	129	488	167	166	60	55	6	
477	0	0	578	56	39	61	56	6	
477	0	39	578	56	78	61	56	6	
426	168	26	499	233	79	63	57	6	
426	168	79	499	233	132	63	57	6	
426	174	132	484	233	211	65	58	6	
520	126	0	573	233	69	64	59	6	
313	57	179	382	87	211	66	60	7	
419	57	67	535	92	134	68	61	7	
419	57	134	535	92	201	68	61	7	
424	103	166	479	167	199	67	62	7	
477	0	78	542	53	151	71	63	7	
520	132	69	559	233	125	69	64	7	
520	132	125	559	233	181	89	65	9	
545	56	0	577	125	30	86	66	9	
545	56	30	577	125	60	86	66	9	
587	0	0	679	84	22	26	67	3	
680	0	0	762	78	28	28	68	3	
763	0	0	871	100	39	34	69	3	
872	0	0	964	84	22	41	70	4	
965	0	0	1047	78	28	42	71	4	
1048	0	0	1141	66	26	51	72	5	
1142	0	0	1258	67	35	52	73	5	
1259	0	0	1360	56	39	53	74	5	
1361	0	0	1451	43	40	54	75	5	
1452	0	0	1526	73	51	55	76	5	
1527	0	0	1600	65	53	56	77	5	
1601	0	0	1708	69	53	57	78	5	
1601	0	53	1708	69	106	57	78	5	
1709	0	0	1825	67	35	68	79	7	
1826	0	0	1934	100	39	70	80	7	
1826	0	39	1934	100	78	70	80	7	
1826	0	78	1934	100	117	70	80	7	
1935	0	0	2042	69	53	72	81	7	
2043	0	0	2135	84	22	73	82	8	
2136	0	0	2218	78	28	74	83	8	
2219	0	0	2288	32	30	75	84	8	
2219	0	30	2288	32	60	75	84	8	
2289	0	0	2353	55	33	76	85	8	
2354	0	0	2460	41	35	77	86	8	
2461	0	0	2577	67	35	78	87	8	
2461	0	35	2577	67	70	78	87	8	
2578	0	0	2650	64	37	79	88	8	
2651	0	0	2752	56	39	80	89	8	
2651	0	39	2752	56	78	80	89	8	
2753	0	0	2827	73	51	81	90	8	
2828	0	0	2901	65	53	82	91	8	
2828	0	53	2901	65	106	82	91	8	
2902	0	0	2984	77	24	83	92	9	
2985	0	0	3078	66	26	84	93	9	
2985	0	26	3078	66	52	84	93	9	
3079	0	0	3161	78	28	85	94	9	
3162	0	0	3268	41	35	87	95	9	
3162	0	35	3268	41	70	87	95	9	
3269	0	0	3385	67	35	88	96	9	
3386	0	0	3494	100	39	90	97	9	
3495	0	0	3575	65	50	91	98	9	
