71	10	587	233	220
22958564	17799664
0	0	0	76	71	60	5	1	0	
76	0	0	152	71	60	5	1	0	
152	0	0	228	71	60	5	1	0	
0	149	0	42	233	68	2	2	0	
42	149	0	84	233	68	2	2	0	
84	149	0	126	233	68	2	2	0	
0	0	60	46	71	128	4	3	0	
0	0	128	39	57	158	0	4	0	
0	0	158	39	57	188	0	4	0	
0	0	188	39	57	218	0	4	0	
0	149	68	95	233	99	1	5	0	
0	149	99	95	233	130	1	5	0	
0	71	0	109	116	54	3	6	0	
0	119	0	39	149	57	7	7	1	
0	119	57	39	149	114	7	7	1	
0	149	130	84	191	198	10	8	1	
0	191	130	84	233	198	10	8	1	
0	71	54	109	116	108	11	9	1	
0	71	108	109	116	162	11	9	1	
0	71	162	109	97	213	6	10	1	
39	118	0	139	149	33	8	11	1	
46	0	60	92	71	128	12	12	1	
46	0	128	92	71	196	12	12	1	
92	0	60	168	71	120	13	13	1	
109	71	0	193	113	68	10	14	1	
126	149	0	221	233	31	9	15	1	
126	149	31	221	233	62	9	16	1	
92	0	120	160	71	166	20	17	2	
92	0	166	160	71	212	20	17	2	
126	149	62	194	233	104	18	18	2	
126	149	104	194	233	146	18	18	2	
126	149	146	194	233	188	18	18	2	
95	155	68	125	194	125	15	19	2	
95	155	125	125	194	182	15	19	2	
95	194	68	125	233	125	15	19	2	
95	194	125	125	233	182	15	19	2	
39	118	33	139	149	66	16	20	2	
39	118	66	139	149	99	16	20	2	
139	123	0	248	149	51	14	21	2	
139	123	51	248	149	102	14	21	2	
168	0	60	228	71	136	21	22	2	
168	0	136	228	71	212	21	22	2	
193	71	0	302	116	54	19	23	2	
221	149	0	316	233	31	17	24	2	
221	157	31	292	233	91	21	25	2	
221	157	91	292	233	151	21	25	2	
109	71	68	193	113	136	26	26	3	
126	155	188	183	194	218	23	27	3	
126	194	188	183	233	218	23	27	3	
221	157	151	292	233	211	29	28	3	
109	71	136	193	113	204	26	29	3	
139	123	102	248	149	153	22	30	3	
139	123	153	248	149	204	22	30	3	
193	71	54	302	116	108	27	31	3	
193	71	108	302	116	162	27	31	3	
193	71	162	302	116	216	27	31	3	
228	0	0	288	71	76	29	32	3	
228	0	76	274	71	144	28	33	3	
228	0	144	274	71	212	28	33	3	
248	116	0	348	149	31	24	34	3	
248	119	31	305	149	70	23	35	3	
288	0	0	334	71	68	28	36	3	
316	149	0	411	233	31	25	37	3	
248	119	70	305	149	109	30	38	4	
248	119	109	305	149	148	30	38	4	
248	119	148	305	149	187	30	38	4	
288	0	68	334	68	139	34	39	4	
288	0	139	334	68	210	34	39	4	
302	71	0	411	116	54	33	40	4	
302	71	54	411	116	108	33	40	4	
302	71	108	411	116	162	33	40	4	
316	149	31	411	233	62	31	41	4	
316	149	62	411	233	93	31	41	4	
316	149	93	384	233	135	32	42	4	
316	157	135	376	233	206	35	43	4	
334	0	0	394	71	76	35	44	4	
302	71	162	402	102	195	38	45	5	
334	0	76	380	68	147	41	46	5	
334	0	147	380	68	218	41	46	5	
305	119	31	344	149	88	37	47	5	
348	123	0	457	149	51	36	48	5	
457	123	0	566	149	51	36	48	5	
394	0	0	454	71	76	42	49	5	
394	0	76	454	71	152	42	49	5	
411	149	0	506	233	31	39	50	5	
411	149	31	506	233	62	39	50	5	
411	149	62	506	233	93	39	50	5	
411	149	93	453	233	161	40	51	5	
394	0	152	433	30	209	44	52	6	
394	30	152	433	60	209	44	52	6	
453	165	93	499	233	164	46	53	6	
305	119	88	344	149	145	44	54	6	
411	71	0	479	117	71	46	55	6	
411	71	71	479	117	142	46	55	6	
348	123	51	457	149	102	43	56	6	
348	123	102	457	149	153	43	56	6	
454	0	0	530	71	60	47	57	6	
479	71	0	579	104	31	45	58	6	
411	71	142	479	117	213	54	59	7	
454	0	60	530	60	131	55	60	7	
454	0	131	530	60	202	55	60	7	
457	123	51	566	149	102	48	61	7	
457	123	102	566	149	153	48	61	7	
479	71	31	579	102	64	50	62	7	
479	71	64	579	102	97	50	62	7	
479	71	97	579	102	130	50	62	7	
479	71	130	518	101	187	49	63	7	
518	71	130	557	101	187	49	63	7	
506	149	0	574	233	42	52	64	7	
506	149	42	574	233	84	52	64	7	
506	162	84	552	233	152	54	65	7	
506	162	152	552	233	220	54	65	7	
530	0	0	576	71	68	69	66	9	
530	0	68	576	71	136	69	66	9	
530	0	136	569	30	193	64	67	9	
530	30	136	569	60	193	64	67	9	
587	0	0	682	84	31	51	68	7	
683	0	0	792	54	45	53	69	7	
683	0	45	792	54	90	53	69	7	
683	0	90	792	54	135	53	69	7	
793	0	0	902	51	26	56	70	8	
793	0	26	902	51	52	56	70	8	
903	0	0	1003	33	31	57	71	8	
903	0	31	1003	33	62	57	71	8	
1004	0	0	1099	84	31	58	72	8	
1004	0	31	1099	84	62	58	72	8	
1100	0	0	1184	68	42	59	73	8	
1100	0	42	1184	68	84	59	73	8	
1185	0	0	1294	54	45	60	74	8	
1185	0	45	1294	54	90	60	74	8	
1295	0	0	1366	68	46	61	75	8	
1295	0	46	1366	68	92	61	75	8	
1295	0	92	1366	68	138	61	75	8	
1295	0	138	1366	68	184	61	75	8	
1367	0	0	1443	71	60	62	76	8	
1367	0	60	1443	71	120	62	76	8	
1444	0	0	1553	51	26	63	77	9	
1444	0	26	1553	51	52	63	77	9	
1554	0	0	1611	39	30	64	78	9	
1554	0	30	1611	39	60	64	78	9	
1612	0	0	1712	33	31	65	79	9	
1713	0	0	1808	84	31	66	80	9	
1713	0	31	1808	84	62	66	80	9	
1713	0	62	1808	84	93	66	80	9	
1713	0	93	1808	84	124	66	80	9	
1809	0	0	1893	68	42	67	81	9	
1894	0	0	2003	54	45	68	82	9	
2004	0	0	2080	71	60	70	83	9	
