74	10	587	233	220
22582892	18088196
0	0	0	81	105	74	6	1	0	
0	105	0	81	210	74	6	1	0	
0	0	74	77	114	116	4	2	0	
0	0	116	76	50	189	5	3	0	
0	117	74	67	210	94	0	4	0	
0	117	94	67	210	114	0	4	0	
0	121	114	54	210	139	1	5	0	
0	121	139	54	210	164	1	5	0	
0	121	164	54	210	189	1	5	0	
0	121	189	46	210	217	2	6	0	
81	0	0	172	104	41	3	7	0	
81	0	41	172	104	82	3	7	0	
0	0	189	35	36	213	9	8	1	
0	50	116	73	100	192	13	9	1	
0	50	192	35	86	216	9	10	1	
35	50	192	70	86	216	9	10	1	
35	0	189	70	36	213	9	11	1	
81	142	0	185	233	41	11	12	1	
81	142	41	185	233	82	11	12	1	
81	142	82	185	233	123	11	12	1	
81	114	0	170	142	46	10	13	1	
81	114	46	170	142	92	10	13	1	
81	114	92	170	142	138	10	13	1	
81	114	138	170	142	184	10	13	1	
81	0	82	151	75	105	8	14	1	
81	0	105	151	75	128	8	14	1	
81	0	128	151	75	151	8	14	1	
81	0	151	151	75	174	8	14	1	
81	166	123	174	233	143	7	15	1	
172	0	0	214	114	77	12	16	1	
81	118	184	116	142	220	15	17	2	
81	183	143	154	233	219	20	18	2	
81	75	82	170	103	128	16	19	2	
81	0	174	151	75	197	14	20	2	
172	0	77	214	114	154	19	21	2	
172	0	154	201	72	204	17	22	2	
185	159	0	290	233	81	21	23	2	
185	159	81	290	233	162	21	23	2	
185	117	0	299	159	77	19	24	2	
185	117	77	299	159	154	19	25	2	
214	0	0	305	104	41	18	26	2	
172	72	154	207	108	178	24	27	3	
172	72	178	207	108	202	24	27	3	
185	130	154	257	159	204	26	28	3	
185	160	162	261	233	212	27	29	3	
214	0	41	287	50	117	27	30	3	
214	0	117	287	50	193	27	30	3	
214	50	41	303	104	66	25	31	3	
290	159	0	371	233	105	28	32	3	
290	163	105	365	233	128	23	33	3	
290	163	128	365	233	151	23	33	3	
305	0	0	372	93	20	22	34	3	
214	50	66	303	104	91	31	35	4	
214	50	91	303	104	116	31	35	4	
214	50	116	303	96	144	32	36	4	
290	163	151	365	233	174	30	37	4	
290	163	174	365	233	197	30	37	4	
214	50	144	286	79	194	33	38	4	
261	161	162	290	233	212	33	39	4	
299	109	0	372	159	76	35	40	4	
299	109	76	372	159	152	35	40	4	
299	109	152	371	159	181	33	41	4	
305	0	20	372	93	40	29	42	4	
305	0	40	372	93	60	29	42	4	
371	159	0	476	233	81	36	43	4	
372	0	0	463	104	41	34	44	4	
290	163	197	365	233	220	38	45	5	
214	0	193	249	36	217	39	46	5	
371	159	81	476	233	162	42	47	5	
305	0	60	372	93	80	37	48	5	
305	0	80	372	93	100	37	48	5	
305	0	100	355	76	173	41	49	5	
371	160	162	447	233	212	41	50	5	
372	0	41	463	104	82	40	51	5	
372	0	82	453	74	187	42	52	5	
249	0	193	285	35	217	45	53	6	
372	0	187	447	70	210	44	54	6	
372	109	0	448	159	73	47	55	6	
372	109	73	448	159	146	47	55	6	
372	109	146	448	159	219	47	55	6	
448	117	0	562	159	77	46	56	6	
463	0	0	544	105	74	48	57	6	
463	0	74	530	93	94	43	58	6	
463	0	94	530	93	114	43	58	6	
447	161	162	476	233	212	54	59	7	
463	0	114	530	93	134	49	60	7	
463	0	134	530	93	154	49	60	7	
463	0	154	517	89	179	52	61	7	
448	117	77	562	159	154	56	62	7	
463	0	179	509	89	207	53	63	7	
448	123	154	472	159	189	51	64	7	
476	159	0	581	233	81	57	65	7	
476	159	81	581	233	162	57	65	7	
476	163	162	551	233	185	50	66	7	
544	0	0	586	114	77	56	67	7	
544	0	77	586	114	154	56	67	7	
587	0	0	691	91	41	55	68	7	
587	0	41	691	91	82	55	68	7	
692	0	0	797	81	74	57	69	7	
692	0	74	797	81	148	57	69	7	
798	0	0	891	67	20	58	70	8	
798	0	20	891	67	40	58	70	8	
892	0	0	967	70	23	59	71	8	
968	0	0	1004	35	24	60	72	8	
1005	0	0	1094	54	25	61	73	8	
1095	0	0	1184	46	28	62	74	8	
1185	0	0	1257	50	29	63	75	8	
1185	0	29	1257	50	58	63	75	8	
1258	0	0	1362	91	41	64	76	8	
1258	0	41	1362	91	82	64	76	8	
1363	0	0	1477	77	42	65	77	8	
1478	0	0	1554	73	50	66	78	8	
1478	0	50	1554	73	100	66	78	8	
1555	0	0	1660	81	74	67	79	8	
1661	0	0	1754	67	20	68	80	9	
1661	0	20	1754	67	40	68	80	9	
1755	0	0	1830	70	23	69	81	9	
1755	0	23	1830	70	46	69	81	9	
1831	0	0	1867	35	24	70	82	9	
1831	0	24	1867	35	48	70	82	9	
1868	0	0	1957	46	28	71	83	9	
1958	0	0	2062	91	41	72	84	9	
2063	0	0	2139	73	50	73	85	9	
2063	0	50	2139	73	100	73	85	9	
