37	10	587	233	220
23730440	17912508
0	0	0	113	80	29	1	1	0	
0	80	0	113	160	29	1	1	0	
113	0	0	226	80	29	1	1	0	
113	80	0	226	160	29	1	1	0	
0	169	0	100	233	97	3	2	0	
0	0	29	88	99	52	0	3	0	
0	0	52	88	99	75	0	3	0	
0	0	75	88	99	98	0	3	0	
0	0	98	88	99	121	0	3	0	
0	101	29	46	160	89	2	4	0	
0	101	89	46	160	149	2	4	0	
0	0	121	88	99	144	4	5	1	
0	0	144	88	99	167	4	5	1	
0	0	167	88	99	190	4	5	1	
0	0	190	88	99	213	4	5	1	
0	169	97	97	233	197	7	6	1	
88	0	29	150	98	94	6	7	1	
88	0	94	150	98	159	6	7	1	
150	0	29	212	98	94	6	7	1	
150	0	94	212	98	159	6	7	1	
88	0	159	201	80	188	5	8	1	
88	0	188	201	80	217	5	8	1	
46	100	29	105	160	75	9	9	2	
46	100	75	105	160	121	9	9	2	
46	100	121	105	160	167	9	9	2	
46	100	167	105	160	213	9	9	2	
105	98	29	170	160	127	10	10	2	
100	169	0	197	233	100	11	11	2	
197	169	0	294	233	100	11	11	2	
226	0	0	314	99	23	8	12	2	
226	0	23	314	99	46	8	12	2	
100	171	100	165	233	198	14	13	3	
165	171	100	230	233	198	14	13	3	
105	100	127	164	160	173	13	14	3	
105	100	173	164	160	219	13	14	3	
170	101	29	216	160	89	13	15	3	
226	107	0	291	169	98	14	16	3	
291	107	0	356	169	98	14	16	3	
356	107	0	421	169	98	14	16	3	
421	107	0	486	169	98	14	16	3	
226	0	46	314	99	69	12	17	3	
226	0	69	314	99	92	15	18	4	
226	0	92	290	97	192	17	19	4	
294	169	0	391	233	100	17	20	4	
294	169	100	391	233	200	17	20	4	
314	0	0	427	80	29	16	21	4	
314	0	29	427	80	58	16	22	4	
314	0	58	427	80	87	16	22	4	
226	107	98	291	169	196	21	23	5	
291	107	98	356	169	196	21	24	5	
314	0	87	427	80	116	19	25	5	
314	0	116	427	80	145	19	25	5	
314	0	145	427	80	174	19	25	5	
314	0	174	373	60	220	20	26	5	
356	107	98	421	169	196	21	27	5	
421	109	98	480	169	144	20	28	5	
391	169	0	488	233	100	22	29	5	
488	169	0	585	233	100	22	29	5	
391	169	100	488	233	200	22	30	5	
427	0	0	515	99	23	18	31	5	
421	109	144	480	169	190	24	32	6	
427	0	23	515	99	46	23	33	6	
427	0	46	515	99	69	23	33	6	
427	0	69	491	97	169	25	34	6	
427	0	169	487	59	215	24	35	6	
486	105	0	586	169	97	25	36	6	
486	105	97	586	169	194	25	36	6	
488	169	100	585	233	200	30	37	7	
515	0	0	579	100	97	30	38	7	
515	0	97	579	100	194	30	38	7	
587	0	0	686	88	23	26	39	7	
587	0	23	686	88	46	26	39	7	
687	0	0	800	80	29	27	40	7	
801	0	0	861	59	46	28	41	7	
801	0	46	861	59	92	28	41	7	
801	0	92	861	59	138	28	41	7	
862	0	0	960	65	62	29	42	7	
961	0	0	1060	88	23	31	43	8	
961	0	23	1060	88	46	31	43	8	
1061	0	0	1174	80	29	32	44	8	
1061	0	29	1174	80	58	32	44	8	
1061	0	58	1174	80	87	32	44	8	
1061	0	87	1174	80	116	32	44	8	
1175	0	0	1235	59	46	33	45	8	
1175	0	46	1235	59	92	33	45	8	
1175	0	92	1235	59	138	33	45	8	
1236	0	0	1334	65	62	34	46	8	
1335	0	0	1434	88	23	35	47	9	
1335	0	23	1434	88	46	35	47	9	
1335	0	46	1434	88	69	35	47	9	
1435	0	0	1533	65	62	36	48	9	
1435	0	62	1533	65	124	36	48	9	
