30	10	587	233	220
26079204	18663044
0	0	0	109	68	80	2	1	0	
0	0	80	34	56	146	1	2	0	
34	0	80	68	56	146	1	2	0	
68	0	80	102	56	146	1	2	0	
0	202	0	90	233	45	0	3	0	
90	202	0	180	233	45	0	3	0	
0	0	146	34	56	212	4	4	1	
34	0	146	68	56	212	4	4	1	
68	0	146	102	56	212	4	4	1	
0	122	0	68	202	109	5	5	1	
0	122	109	68	202	218	5	5	1	
68	122	0	136	202	109	5	5	1	
68	122	109	136	202	218	5	5	1	
136	122	0	204	202	109	5	5	1	
136	122	109	204	202	218	5	5	1	
0	68	0	90	113	31	3	6	1	
0	202	45	90	233	90	3	7	1	
0	68	31	90	113	62	6	8	2	
0	68	62	90	113	93	6	8	2	
0	68	93	90	113	124	6	8	2	
0	68	124	90	113	155	6	8	2	
0	68	155	90	113	186	6	8	2	
0	68	186	90	113	217	6	8	2	
0	202	90	90	233	135	6	9	2	
0	202	135	90	233	180	6	9	2	
90	68	0	146	102	66	7	10	2	
90	202	45	180	233	90	6	11	2	
109	0	0	189	68	109	8	12	2	
189	0	0	269	68	109	8	12	2	
269	0	0	349	68	109	8	12	2	
90	202	90	180	233	135	9	13	3	
90	202	135	180	233	180	9	13	3	
90	68	66	146	102	132	10	14	3	
90	68	132	146	102	198	10	14	3	
109	0	109	189	68	218	11	15	3	
146	68	0	212	102	56	10	16	3	
212	68	0	278	102	56	10	16	3	
278	68	0	344	102	56	10	16	3	
344	68	0	410	102	56	10	16	3	
189	0	109	269	68	218	11	17	3	
204	124	0	272	233	80	11	18	3	
204	124	80	272	233	160	14	19	4	
146	68	56	202	102	122	13	20	4	
146	68	122	202	102	188	13	20	4	
202	68	56	258	102	122	13	20	4	
202	68	122	258	102	188	13	20	4	
204	143	160	235	233	205	12	21	4	
235	143	160	266	233	205	12	21	4	
269	0	109	349	68	218	14	22	4	
258	68	56	324	102	112	16	23	5	
324	68	56	390	102	112	16	23	5	
258	68	112	324	102	168	16	24	5	
324	68	112	390	102	168	16	24	5	
258	68	168	348	99	213	15	25	5	
272	153	0	340	233	109	17	26	5	
272	153	109	340	233	218	17	26	5	
272	108	0	362	153	31	15	27	5	
272	108	31	362	153	62	15	28	5	
272	108	62	362	153	93	15	28	5	
340	153	0	408	233	109	17	29	5	
272	108	93	362	153	124	18	30	6	
272	108	124	362	153	155	18	30	6	
272	108	155	362	153	186	18	30	6	
272	108	186	362	153	217	18	30	6	
340	153	109	408	233	218	20	31	6	
349	0	0	429	68	109	20	32	6	
349	0	109	429	68	218	20	32	6	
429	0	0	509	68	109	20	32	6	
429	0	109	509	68	218	20	32	6	
362	119	0	418	153	66	19	33	6	
418	119	0	474	153	66	19	33	6	
474	119	0	530	153	66	19	33	6	
530	119	0	586	153	66	19	33	6	
362	119	66	418	153	132	19	34	6	
408	153	0	517	233	68	20	35	6	
362	119	132	418	153	198	22	36	7	
408	153	68	517	233	136	23	37	7	
408	153	136	517	233	204	23	37	7	
410	68	0	500	113	31	21	38	7	
410	68	31	500	113	62	21	38	7	
410	68	62	500	113	93	21	38	7	
509	0	0	577	80	109	23	39	7	
509	0	109	577	80	218	23	39	7	
517	153	0	585	233	109	23	40	7	
410	80	93	500	111	138	24	41	8	
410	80	138	500	111	183	24	41	8	
418	119	66	474	153	132	25	42	8	
474	119	66	530	153	132	25	42	8	
530	119	66	586	153	132	25	42	8	
418	119	132	474	153	198	25	43	8	
474	119	132	530	153	198	25	44	8	
500	80	0	566	114	56	25	45	8	
517	153	109	585	233	218	26	46	8	
500	80	56	566	114	112	28	47	9	
500	80	112	566	114	168	28	47	9	
530	119	132	586	153	198	28	48	9	
587	0	0	677	45	31	27	49	9	
587	0	31	677	45	62	27	49	9	
587	0	62	677	45	93	27	49	9	
587	0	93	677	45	124	27	49	9	
587	0	124	677	45	155	27	49	9	
587	0	155	677	45	186	27	49	9	
587	0	186	677	45	217	27	49	9	
678	0	0	787	80	68	29	50	9	
678	0	68	787	80	136	29	50	9	
678	0	136	787	80	204	29	50	9	
678	0	204	787	80	272	29	50	9	
678	0	272	787	80	340	29	50	9	
