94	10	587	233	220
22074516	18071639
0	0	0	44	53	68	6	1	0	
0	0	68	44	53	136	6	1	0	
0	0	136	44	53	204	6	1	0	
0	154	0	54	233	49	9	2	0	
0	154	49	54	233	98	9	2	0	
0	160	98	33	233	155	2	3	0	
0	160	155	33	233	212	2	3	0	
0	53	0	35	133	65	4	4	0	
35	53	0	70	133	65	4	4	0	
0	53	65	65	102	112	8	5	0	
44	0	0	148	53	34	3	6	0	
44	0	34	131	49	60	1	7	0	
44	0	60	116	35	86	0	8	0	
54	136	0	147	233	45	7	9	0	
54	136	45	147	233	90	7	10	0	
54	136	90	147	233	135	7	10	0	
54	160	135	127	233	171	5	11	0	
0	53	112	65	100	161	18	12	1	
0	53	161	65	100	210	18	12	1	
44	0	86	116	35	112	10	13	1	
44	0	112	116	35	138	10	13	1	
44	0	138	116	35	164	10	13	1	
44	0	164	116	35	190	10	13	1	
54	160	171	127	233	207	14	14	1	
70	53	0	105	133	65	13	15	1	
105	53	0	140	133	65	13	15	1	
70	53	65	119	132	119	19	16	1	
70	53	119	119	132	173	19	16	1	
140	53	0	180	128	68	15	17	1	
140	53	68	173	126	125	11	18	1	
140	53	125	173	126	182	11	18	1	
147	129	0	181	233	53	12	19	1	
148	0	0	192	53	68	16	20	1	
181	136	0	274	233	45	17	21	1	
147	129	53	181	233	106	22	22	2	
147	129	106	181	233	159	22	22	2	
147	129	159	181	233	212	22	22	2	
148	0	68	192	53	136	26	23	2	
180	53	0	255	93	68	25	24	2	
180	53	68	255	93	136	25	24	2	
180	53	136	253	86	193	21	25	2	
180	93	0	260	128	65	23	26	2	
180	93	65	260	128	130	23	26	2	
181	136	45	274	233	90	27	27	2	
181	136	90	274	233	135	27	27	2	
181	136	135	274	233	180	27	27	2	
181	160	180	254	233	216	24	28	2	
192	0	0	296	53	34	22	29	2	
192	0	34	279	49	60	20	30	2	
192	0	60	257	49	107	28	31	2	
260	53	0	333	126	36	24	32	2	
180	93	130	260	128	195	33	33	3	
148	0	136	192	53	204	36	34	3	
192	0	107	246	49	186	38	35	3	
260	53	36	333	86	93	31	36	3	
260	53	93	333	86	150	31	36	3	
260	53	150	333	86	207	31	36	3	
260	86	36	328	126	111	35	37	3	
260	86	111	328	126	186	35	37	3	
274	129	0	308	233	53	32	38	3	
274	146	53	300	233	102	30	39	3	
274	161	102	300	233	137	29	40	3	
274	161	137	300	233	172	29	40	3	
308	136	0	401	233	45	37	41	3	
308	160	45	381	233	81	34	42	3	
308	160	81	381	233	117	34	42	3	
192	0	186	244	27	218	39	43	4	
260	86	186	312	113	218	39	44	4	
308	160	117	381	233	153	43	45	4	
308	160	153	381	233	189	43	45	4	
296	0	0	400	53	34	41	46	4	
400	0	0	504	53	34	41	46	4	
296	0	34	350	49	113	47	47	4	
296	0	113	343	49	178	46	48	4	
333	53	0	401	93	75	44	49	4	
333	93	0	401	133	75	44	49	4	
333	53	75	398	133	110	42	50	4	
333	53	110	390	126	143	40	51	4	
333	53	143	390	126	176	40	51	4	
333	53	176	390	126	209	40	51	4	
401	136	0	494	233	45	45	52	4	
401	136	45	494	233	90	45	52	4	
494	136	0	587	233	45	45	52	4	
494	136	45	587	233	90	45	52	4	
401	160	90	474	233	126	43	53	4	
308	163	189	380	198	215	48	54	5	
308	198	189	380	233	215	48	54	5	
350	0	34	437	26	83	49	55	5	
350	26	34	437	52	83	49	55	5	
401	160	126	474	233	162	52	56	5	
401	160	162	474	233	198	52	56	5	
350	0	83	437	49	109	49	57	5	
350	0	109	429	49	163	54	58	5	
350	0	163	423	33	220	51	59	5	
401	53	0	458	126	33	51	60	5	
437	0	34	464	52	66	50	61	5	
464	0	34	491	52	66	50	61	5	
474	136	90	567	233	135	53	62	5	
401	53	33	458	126	66	57	63	6	
401	53	66	458	126	99	57	63	6	
401	53	99	458	126	132	57	63	6	
401	53	132	427	125	167	55	64	6	
401	53	167	427	125	202	55	64	6	
474	136	135	567	233	180	63	65	6	
427	53	132	454	85	184	56	66	6	
427	85	132	454	117	184	56	66	6	
458	53	0	533	93	68	61	67	6	
458	93	0	533	133	68	61	67	6	
474	160	180	547	233	216	60	68	6	
458	53	68	523	133	103	59	69	6	
437	0	66	490	44	134	62	70	6	
533	0	0	586	104	34	58	71	6	
533	0	34	586	104	68	58	71	6	
437	0	134	490	44	202	71	72	7	
458	53	103	523	133	138	68	73	7	
458	53	138	523	133	173	68	73	7	
458	53	173	523	102	220	73	74	7	
533	0	68	586	104	102	67	75	7	
533	0	102	586	104	136	67	75	7	
533	0	136	559	87	185	65	76	7	
559	0	136	585	87	185	65	76	7	
533	0	185	582	87	211	65	77	7	
587	0	0	659	35	26	64	78	7	
660	0	0	733	57	33	66	79	7	
660	0	33	733	57	66	66	79	7	
734	0	0	807	73	36	69	80	7	
808	0	0	883	68	40	70	81	7	
808	0	40	883	68	80	70	81	7	
808	0	80	883	68	120	70	81	7	
884	0	0	981	93	45	72	82	7	
982	0	0	1047	49	47	73	83	7	
982	0	47	1047	49	94	73	83	7	
1048	0	0	1127	54	49	74	84	7	
1048	0	49	1127	54	98	74	84	7	
1128	0	0	1200	35	26	75	85	8	
1128	0	26	1200	35	52	75	85	8	
1201	0	0	1288	49	26	76	86	8	
1289	0	0	1362	57	33	77	87	8	
1363	0	0	1467	53	34	78	88	8	
1468	0	0	1548	65	35	79	89	8	
1549	0	0	1622	73	36	80	90	8	
1549	0	36	1622	73	72	80	90	8	
1623	0	0	1698	68	40	81	91	8	
1699	0	0	1764	49	47	82	92	8	
1699	0	47	1764	49	94	82	92	8	
1699	0	94	1764	49	141	82	92	8	
1765	0	0	1837	35	26	83	93	9	
1765	0	26	1837	35	52	83	93	9	
1765	0	52	1837	35	78	83	93	9	
1838	0	0	1925	49	26	84	94	9	
1838	0	26	1925	49	52	84	94	9	
1926	0	0	1999	57	33	85	95	9	
1926	0	33	1999	57	66	85	95	9	
1926	0	66	1999	57	99	85	95	9	
1926	0	99	1999	57	132	85	95	9	
1926	0	132	1999	57	165	85	95	9	
2000	0	0	2104	53	34	86	96	9	
2000	0	34	2104	53	68	86	96	9	
2000	0	68	2104	53	102	86	96	9	
2105	0	0	2185	65	35	87	97	9	
2105	0	35	2185	65	70	87	97	9	
2105	0	70	2185	65	105	87	97	9	
2186	0	0	2259	73	36	88	98	9	
2260	0	0	2335	68	40	89	99	9	
2336	0	0	2404	53	44	90	100	9	
2336	0	44	2404	53	88	90	100	9	
2405	0	0	2502	93	45	91	101	9	
2503	0	0	2568	49	47	92	102	9	
2503	0	47	2568	49	94	92	102	9	
2569	0	0	2648	54	49	93	103	9	
