91	10	587	233	220
21008068	16276838
0	0	0	115	34	59	2	1	0	
0	0	59	115	34	118	2	1	0	
0	0	118	115	34	177	2	1	0	
0	126	0	60	233	49	6	2	0	
0	126	49	60	233	98	6	2	0	
0	166	98	60	233	161	8	3	0	
0	166	161	51	233	208	5	4	0	
0	34	0	87	125	25	0	5	0	
0	34	25	87	125	50	0	5	0	
0	34	50	44	105	128	4	6	0	
0	34	128	42	104	195	3	7	0	
60	146	0	169	233	32	1	8	0	
60	170	32	119	233	96	7	9	0	
0	0	177	102	34	212	10	10	1	
44	34	50	86	101	120	13	11	1	
44	34	120	86	101	190	13	11	1	
87	34	0	204	82	54	14	12	1	
87	34	54	204	82	108	14	12	1	
87	34	108	204	82	162	14	12	1	
87	82	0	147	145	67	15	13	1	
87	82	67	127	143	137	12	14	1	
87	82	137	127	143	207	12	14	1	
115	0	0	230	34	59	11	15	1	
115	0	59	230	34	118	11	15	1	
169	142	0	256	233	25	9	16	1	
60	170	96	119	233	160	25	17	2	
87	34	162	204	82	216	22	18	2	
115	0	118	230	34	177	18	19	2	
115	0	177	217	34	212	17	20	2	
119	155	32	167	233	105	23	21	2	
119	155	105	167	233	178	23	21	2	
147	82	0	210	142	67	26	22	2	
210	82	0	273	142	67	26	22	2	
273	82	0	336	142	67	26	22	2	
147	82	67	254	142	116	24	23	2	
147	82	116	222	136	151	19	24	2	
147	82	151	222	136	186	19	24	2	
169	162	25	247	233	69	20	25	2	
169	166	69	220	233	116	21	26	2	
256	146	0	365	233	32	16	27	2	
256	146	32	365	233	64	16	28	2	
169	166	116	216	233	167	32	29	3	
169	166	167	216	233	218	32	29	3	
204	34	0	277	82	78	33	30	3	
204	34	78	277	82	156	33	30	3	
230	0	0	345	34	59	29	31	3	
254	82	67	318	141	130	34	32	3	
256	146	64	347	233	89	27	33	3	
256	149	89	326	191	156	30	34	3	
256	191	89	326	233	156	30	34	3	
256	155	156	317	233	183	28	35	3	
277	34	0	348	78	78	31	36	3	
204	34	156	271	81	207	40	37	4	
230	0	59	345	34	118	38	38	4	
230	0	118	345	34	177	38	38	4	
256	158	183	310	233	218	39	39	4	
230	0	177	332	34	212	37	40	4	
254	82	130	318	141	193	43	41	4	
336	78	0	451	112	59	38	42	4	
336	112	0	451	146	59	38	42	4	
336	78	59	387	145	106	40	43	4	
348	0	0	396	78	73	41	44	4	
365	146	0	474	233	32	36	45	4	
474	146	0	583	233	32	36	45	4	
365	146	32	456	233	57	35	46	4	
396	0	0	503	60	49	42	47	4	
336	78	106	387	145	153	50	48	5	
336	78	153	387	145	200	50	48	5	
277	34	78	348	78	156	49	49	5	
277	34	156	347	74	217	47	50	5	
348	0	73	392	78	144	49	51	5	
348	0	144	390	67	214	48	52	5	
365	198	57	440	233	111	46	53	5	
365	198	111	440	233	165	46	53	5	
365	198	165	440	233	219	46	53	5	
365	156	57	435	198	124	48	54	5	
387	78	59	451	141	118	52	55	5	
396	0	49	498	35	83	45	56	5	
396	0	83	471	35	137	46	57	5	
396	0	137	471	35	191	46	57	5	
456	146	32	565	233	64	44	58	5	
451	60	0	568	114	48	51	59	5	
451	60	48	568	114	96	51	59	5	
365	156	124	435	198	191	59	60	6	
387	78	118	427	139	188	58	61	6	
451	60	96	568	114	144	62	62	6	
451	60	144	566	94	203	57	63	6	
456	146	64	565	233	96	55	64	6	
456	146	96	565	233	128	55	64	6	
456	146	128	547	233	153	53	65	6	
456	149	153	526	191	220	59	66	6	
456	191	153	526	233	220	59	66	6	
503	0	0	581	48	73	63	67	6	
503	0	73	581	44	144	60	68	6	
587	0	0	665	61	27	54	69	6	
587	0	27	665	61	54	54	69	6	
666	0	0	768	35	34	56	70	6	
769	0	0	836	51	47	61	71	6	
837	0	0	915	61	27	64	72	7	
916	0	0	1025	87	32	65	73	7	
1026	0	0	1101	54	35	66	74	7	
1026	0	35	1101	54	70	66	74	7	
1026	0	70	1101	54	105	66	74	7	
1102	0	0	1172	61	40	67	75	7	
1102	0	40	1172	61	80	67	75	7	
1173	0	0	1240	51	47	68	76	7	
1241	0	0	1358	54	48	69	77	7	
1359	0	0	1437	73	48	70	78	7	
1438	0	0	1545	60	49	71	79	7	
1438	0	49	1545	60	98	71	79	7	
1438	0	98	1545	60	147	71	79	7	
1438	0	147	1545	60	196	71	79	7	
1546	0	0	1624	61	27	72	80	8	
1625	0	0	1727	35	34	73	81	8	
1728	0	0	1843	59	34	74	82	8	
1844	0	0	1919	54	35	75	83	8	
1920	0	0	1990	61	40	76	84	8	
1991	0	0	2061	67	42	77	85	8	
1991	0	42	2061	67	84	77	85	8	
1991	0	84	2061	67	126	77	85	8	
2062	0	0	2140	71	44	78	86	8	
2141	0	0	2208	51	47	79	87	8	
2209	0	0	2287	73	48	80	88	8	
2288	0	0	2395	60	49	81	89	8	
2396	0	0	2505	87	32	82	90	9	
2506	0	0	2608	35	34	83	91	9	
2609	0	0	2684	54	35	84	92	9	
2609	0	35	2684	54	70	84	92	9	
2685	0	0	2755	61	40	85	93	9	
2685	0	40	2755	61	80	85	93	9	
2756	0	0	2826	67	42	86	94	9	
2827	0	0	2894	51	47	87	95	9	
2895	0	0	3012	54	48	88	96	9	
3013	0	0	3091	73	48	89	97	9	
3013	0	48	3091	73	96	89	97	9	
3092	0	0	3156	63	59	90	98	9	
3092	0	59	3156	63	118	90	98	9	
