67	10	587	233	220
22746640	19812236
0	0	0	64	80	114	4	1	0	
0	0	114	56	34	180	2	2	0	
0	122	0	53	233	80	3	3	0	
0	152	80	47	233	102	0	4	0	
0	152	102	47	233	124	0	4	0	
53	147	0	112	233	29	1	5	0	
0	80	0	56	114	66	9	6	1	
56	80	0	112	114	66	9	6	1	
112	80	0	168	114	66	9	6	1	
168	80	0	224	114	66	9	6	1	
0	152	124	47	233	146	5	7	1	
0	80	66	90	112	103	8	8	1	
0	80	103	90	112	140	8	8	1	
53	147	29	112	233	58	6	9	1	
53	116	0	143	147	45	7	10	1	
53	116	45	143	147	90	7	11	1	
64	0	0	127	80	72	11	12	1	
112	153	0	223	233	53	10	13	1	
0	157	146	34	233	212	15	14	2	
0	34	114	56	68	180	14	15	2	
53	116	90	143	147	135	13	16	2	
53	116	135	143	147	180	13	16	2	
53	147	58	112	233	87	12	17	2	
53	147	87	112	233	116	12	17	2	
53	147	116	112	233	145	12	17	2	
53	147	145	112	233	174	12	17	2	
64	0	72	127	72	152	17	18	2	
90	80	66	166	114	132	15	19	2	
90	80	132	166	114	198	15	19	2	
112	153	53	223	233	106	16	20	2	
112	153	106	223	233	159	16	20	2	
53	147	174	112	233	203	18	21	3	
112	153	159	223	233	212	21	22	3	
127	0	0	190	80	72	22	23	3	
190	0	0	253	80	72	22	23	3	
253	0	0	316	80	72	22	23	3	
127	0	72	207	68	181	24	24	3	
143	116	0	233	153	32	20	25	3	
143	116	32	233	153	64	20	25	3	
143	116	64	233	153	96	20	25	3	
143	122	96	233	153	141	19	26	3	
143	122	141	233	153	186	19	26	3	
207	0	72	271	80	186	23	27	3	
233	105	0	313	169	114	29	28	4	
233	169	0	313	233	114	29	28	4	
233	122	114	313	233	167	27	29	4	
233	122	167	313	233	220	27	29	4	
166	80	66	222	114	132	26	30	4	
166	80	132	222	114	198	26	30	4	
313	143	0	345	233	37	25	31	4	
313	143	37	345	233	74	25	31	4	
313	80	0	385	143	80	28	32	4	
313	80	80	385	143	160	34	33	5	
271	0	72	305	56	138	32	34	5	
271	0	138	305	56	204	32	34	5	
313	143	74	344	233	119	31	35	5	
316	0	0	380	80	114	35	36	5	
380	0	0	444	80	114	35	36	5	
444	0	0	508	80	114	35	36	5	
316	0	114	425	80	182	36	37	5	
316	0	182	402	59	211	30	38	5	
345	147	0	404	233	29	30	39	5	
385	80	0	496	133	80	33	40	5	
313	143	119	344	233	164	39	41	6	
313	143	164	344	233	209	39	41	6	
313	80	160	379	114	216	41	42	6	
345	157	29	379	233	95	42	43	6	
345	157	95	379	233	161	42	43	6	
385	80	80	496	133	160	43	44	6	
385	80	160	466	127	182	37	45	6	
385	80	182	466	127	204	37	45	6	
425	0	114	506	47	136	37	46	6	
404	165	0	513	233	80	44	47	6	
404	165	80	513	233	160	44	47	6	
404	133	0	494	165	37	40	48	6	
404	133	37	494	165	74	40	48	6	
404	133	74	494	165	111	40	48	6	
404	174	160	490	233	189	38	49	6	
404	134	111	494	165	156	39	50	6	
404	174	189	490	233	218	46	51	7	
425	0	136	501	34	202	49	52	7	
494	134	0	584	165	45	47	53	7	
494	134	45	584	165	90	47	53	7	
496	80	0	552	114	66	48	54	7	
508	0	0	576	80	109	50	55	7	
508	0	109	576	80	218	50	55	7	
404	134	156	494	165	201	60	56	9	
496	80	66	552	114	132	61	57	9	
496	80	132	552	114	198	61	57	9	
513	170	0	585	233	80	64	58	9	
513	170	80	585	233	160	64	58	9	
587	0	0	668	47	22	45	59	7	
669	0	0	755	59	29	46	60	7	
756	0	0	837	47	22	51	61	8	
838	0	0	924	59	29	52	62	8	
925	0	0	1015	45	31	53	63	8	
1016	0	0	1106	37	32	54	64	8	
1107	0	0	1183	66	34	55	65	8	
1184	0	0	1295	80	53	56	66	8	
1296	0	0	1376	72	63	57	67	8	
1296	0	63	1376	72	126	57	67	8	
1377	0	0	1491	80	64	58	68	8	
1492	0	0	1578	59	29	59	69	9	
1579	0	0	1655	66	34	62	70	9	
1579	0	34	1655	66	68	62	70	9	
1656	0	0	1767	80	53	63	71	9	
1656	0	53	1767	80	106	63	71	9	
1656	0	106	1767	80	159	63	71	9	
1656	0	159	1767	80	212	63	71	9	
1768	0	0	1882	80	64	65	72	9	
1883	0	0	1992	80	68	66	73	9	
1883	0	68	1992	80	136	66	73	9	
