83	10	587	233	220
23440548	18123443
0	0	0	99	68	23	1	1	0	
99	0	0	198	68	23	1	1	0	
198	0	0	297	68	23	1	1	0	
0	167	0	61	233	101	7	2	0	
0	167	101	61	233	202	7	2	0	
0	113	0	47	167	81	6	3	0	
47	113	0	94	167	81	6	3	0	
0	115	81	40	167	149	5	4	0	
0	115	149	40	167	217	5	4	0	
0	0	23	120	63	51	3	5	0	
120	0	23	240	63	51	3	5	0	
0	0	51	101	61	117	7	6	0	
0	68	0	95	102	65	4	7	0	
0	68	65	86	93	99	2	8	0	
0	0	117	56	57	139	0	9	0	
0	0	139	56	57	161	8	10	1	
0	0	161	56	57	183	8	10	1	
0	0	183	56	57	205	8	10	1	
0	68	99	86	93	133	10	11	1	
40	127	81	92	167	149	14	12	1	
40	127	149	92	167	217	14	12	1	
61	167	0	162	233	61	16	13	1	
61	167	61	162	233	122	16	13	1	
61	167	122	162	233	183	16	13	1	
61	168	183	156	233	217	13	14	1	
94	120	0	148	167	81	15	15	1	
94	120	81	148	167	162	15	15	1	
95	68	0	200	97	57	12	16	1	
101	0	51	221	63	79	11	17	1	
148	99	0	247	167	23	9	18	1	
148	99	23	247	167	46	9	19	1	
56	0	117	96	52	185	23	20	2	
0	68	133	86	93	167	19	21	2	
0	68	167	86	93	201	19	21	2	
94	121	162	148	167	189	20	22	2	
94	121	189	148	167	216	20	22	2	
101	0	79	202	61	145	24	23	2	
101	0	145	202	61	211	24	23	2	
148	99	46	243	133	111	22	24	2	
148	99	111	243	133	176	22	24	2	
148	133	46	243	167	111	22	24	2	
148	133	111	243	167	176	22	24	2	
148	102	176	243	167	210	22	25	2	
162	170	0	282	233	28	21	26	2	
162	170	28	282	233	56	21	26	2	
162	170	56	282	233	84	21	26	2	
162	172	84	228	233	185	24	27	2	
162	177	185	219	233	207	17	28	2	
247	102	0	346	170	23	18	29	2	
247	102	23	346	170	46	18	30	2	
95	68	57	200	97	114	28	31	3	
95	68	114	200	97	171	28	31	3	
95	68	171	181	93	205	26	32	3	
200	68	0	286	93	34	26	33	3	
200	68	34	286	93	68	26	34	3	
200	68	68	286	93	102	26	34	3	
228	181	84	268	233	152	30	35	3	
228	181	152	268	233	220	30	35	3	
247	102	46	299	170	86	30	36	3	
247	102	86	299	170	126	30	36	3	
247	102	126	299	170	166	30	36	3	
247	116	166	274	170	212	27	37	3	
240	0	23	294	47	104	31	38	3	
240	0	104	294	47	185	31	38	3	
282	172	0	383	233	66	32	39	3	
282	172	66	383	233	132	32	39	3	
282	176	132	338	233	154	25	40	3	
282	176	154	338	233	176	25	40	3	
282	176	176	338	233	198	25	40	3	
297	0	0	331	95	65	29	41	3	
299	116	46	346	170	127	31	42	3	
240	0	185	294	46	212	36	43	4	
200	68	102	286	93	136	35	44	4	
200	68	136	286	93	170	35	44	4	
200	68	170	286	93	204	35	44	4	
282	176	198	338	233	220	33	45	4	
297	0	65	331	95	130	39	46	4	
297	0	130	331	86	155	35	47	4	
297	0	155	331	86	180	35	47	4	
297	0	180	331	86	205	35	47	4	
331	0	0	392	101	66	42	48	4	
331	0	66	392	101	132	42	48	4	
331	0	132	392	101	198	42	48	4	
299	116	127	346	170	208	41	49	4	
338	181	132	378	233	200	40	50	4	
346	109	0	466	172	28	37	51	4	
466	109	0	586	172	28	37	51	4	
346	109	28	466	172	56	37	52	4	
346	118	56	393	172	137	41	53	4	
346	118	137	393	172	218	41	53	4	
383	175	0	488	204	57	38	54	4	
383	204	0	488	233	57	38	54	4	
383	199	57	469	233	82	35	55	4	
392	0	0	460	99	23	34	56	4	
331	0	198	388	56	220	43	57	5	
383	199	82	469	233	107	45	58	5	
383	199	107	469	233	132	45	58	5	
383	199	132	469	233	157	45	58	5	
383	199	157	469	233	182	45	58	5	
392	0	23	460	99	46	44	59	5	
392	0	46	460	99	69	44	59	5	
392	0	69	426	95	134	49	60	5	
426	0	69	460	95	134	49	60	5	
392	0	134	457	95	168	49	61	5	
392	0	168	446	81	215	50	62	5	
393	118	56	440	172	137	50	63	5	
393	118	137	439	172	164	46	64	5	
460	0	0	517	105	29	48	65	5	
466	109	28	586	172	56	47	66	5	
466	109	56	586	172	84	47	66	5	
383	199	182	469	233	207	53	67	6	
393	118	164	439	172	191	54	68	6	
460	0	29	517	56	51	51	69	6	
460	0	51	507	54	132	57	70	6	
460	0	132	507	54	213	57	70	6	
460	56	29	514	103	110	57	71	6	
460	56	110	512	96	178	56	72	6	
466	111	84	567	172	150	58	73	6	
466	120	150	506	172	218	56	74	6	
488	199	0	583	233	65	55	75	6	
488	199	65	583	233	130	55	75	6	
488	199	130	583	233	195	55	75	6	
488	199	195	574	233	220	53	76	6	
517	0	0	585	99	23	52	77	6	
517	0	23	585	99	46	52	77	6	
517	0	46	585	99	69	52	77	6	
517	0	69	585	99	92	52	77	6	
517	0	92	585	99	115	52	77	6	
488	172	0	542	199	46	62	78	7	
488	172	46	542	199	92	62	78	7	
506	120	150	546	172	218	66	79	7	
517	0	115	585	99	138	60	80	7	
517	0	138	585	99	161	60	80	7	
517	0	161	585	40	213	66	81	7	
517	40	161	573	97	183	59	82	7	
517	40	183	573	97	205	59	82	7	
587	0	0	673	34	25	61	83	7	
674	0	0	794	63	28	63	84	7	
795	0	0	900	57	29	64	85	7	
901	0	0	996	65	34	65	86	7	
997	0	0	1078	54	47	67	87	7	
997	0	47	1078	54	94	67	87	7	
1079	0	0	1180	66	61	68	88	7	
1079	0	61	1180	66	122	68	88	7	
1181	0	0	1238	56	22	69	89	8	
1181	0	22	1238	56	44	69	89	8	
1181	0	44	1238	56	66	69	89	8	
1239	0	0	1338	68	23	70	90	8	
1239	0	23	1338	68	46	70	90	8	
1339	0	0	1425	34	25	71	91	8	
1339	0	25	1425	34	50	71	91	8	
1426	0	0	1480	46	27	72	92	8	
1481	0	0	1586	57	29	73	93	8	
1587	0	0	1682	65	34	74	94	8	
1683	0	0	1764	54	47	75	95	8	
1765	0	0	1866	66	61	76	96	8	
1765	0	61	1866	66	122	76	96	8	
1765	0	122	1866	66	183	76	96	8	
1867	0	0	1924	56	22	77	97	9	
1925	0	0	2024	68	23	78	98	9	
1925	0	23	2024	68	46	78	98	9	
1925	0	46	2024	68	69	78	98	9	
1925	0	69	2024	68	92	78	98	9	
2025	0	0	2079	46	27	79	99	9	
2025	0	27	2079	46	54	79	99	9	
2080	0	0	2200	63	28	80	100	9	
2080	0	28	2200	63	56	80	100	9	
2201	0	0	2306	57	29	81	101	9	
2201	0	29	2306	57	58	81	101	9	
2307	0	0	2375	52	40	82	102	9	
2307	0	40	2375	52	80	82	102	9	
