67	10	587	233	220
20995614	17066444
0	0	0	80	113	29	1	1	0	
0	0	29	80	113	58	1	1	0	
0	0	58	80	113	87	1	1	0	
0	0	87	80	113	116	1	1	0	
0	0	116	78	72	215	6	2	0	
0	72	116	68	113	187	5	3	0	
0	150	0	80	233	35	4	4	0	
0	150	35	80	233	70	4	4	0	
0	203	70	78	233	124	2	5	0	
0	117	0	106	150	49	3	6	0	
80	178	0	179	233	27	0	7	0	
80	178	27	179	233	54	0	7	0	
80	190	54	171	233	105	9	8	1	
80	190	105	171	233	156	9	8	1	
80	0	0	158	99	72	13	9	1	
80	0	72	158	99	144	13	9	1	
80	0	144	158	99	216	13	9	1	
0	157	70	59	203	130	10	10	1	
0	157	130	59	203	190	10	10	1	
106	113	0	204	178	62	11	11	1	
106	113	62	204	178	124	11	11	1	
106	118	124	152	178	183	10	12	1	
158	0	0	222	100	97	12	13	1	
158	0	97	213	99	124	7	14	1	
158	0	124	213	99	151	7	14	1	
204	150	0	284	233	35	8	15	1	
204	150	35	284	233	70	8	16	1	
80	190	156	171	233	207	19	17	2	
158	0	151	199	71	219	18	18	2	
204	150	70	284	233	105	17	19	2	
204	192	105	272	233	176	18	20	2	
204	117	0	310	150	49	16	21	2	
204	117	49	310	150	98	16	21	2	
204	117	98	310	150	147	16	21	2	
222	0	0	286	100	97	20	22	2	
222	0	97	277	99	124	15	23	2	
286	0	0	374	99	23	14	24	2	
204	162	105	282	192	159	22	25	3	
204	162	159	282	192	213	22	25	3	
204	117	147	310	150	196	23	26	3	
284	169	0	381	233	100	26	27	3	
381	169	0	478	233	100	26	27	3	
284	174	100	330	233	160	25	28	3	
284	174	160	330	233	220	25	28	3	
286	0	23	374	99	46	21	29	3	
286	0	46	374	99	69	21	29	3	
286	0	69	369	80	104	24	30	3	
222	0	124	277	99	151	27	31	4	
222	0	151	263	71	219	30	32	4	
286	0	104	369	80	139	29	33	4	
286	0	139	327	71	207	30	34	4	
310	104	0	372	169	98	31	35	4	
374	0	0	487	80	29	28	36	4	
374	80	0	487	160	29	28	36	4	
327	0	139	368	71	207	35	37	5	
310	104	98	372	169	196	38	38	5	
330	174	100	376	233	160	37	39	5	
330	174	160	376	233	220	37	39	5	
376	169	100	476	233	197	39	40	5	
374	0	29	487	80	58	33	41	5	
374	111	29	480	160	62	34	42	5	
374	117	62	465	160	113	36	43	5	
374	117	113	465	160	164	36	43	5	
374	117	164	465	160	215	36	43	5	
374	0	58	473	78	130	40	44	5	
374	0	130	472	65	192	38	45	5	
478	162	0	546	233	41	35	46	5	
478	162	41	546	233	82	35	46	5	
487	0	0	586	88	23	32	47	5	
478	162	82	546	233	123	44	48	6	
478	162	123	546	233	164	44	48	6	
374	80	29	452	110	83	42	49	6	
374	80	83	452	110	137	42	49	6	
487	0	23	586	78	95	46	50	6	
487	0	95	586	78	167	46	50	6	
487	90	0	586	162	78	46	51	6	
487	0	167	586	55	194	41	52	6	
487	111	78	578	162	121	45	53	6	
587	0	0	670	80	35	43	54	6	
671	0	0	770	88	23	47	55	7	
771	0	0	870	55	27	48	56	7	
871	0	0	977	49	33	49	57	7	
871	0	33	977	49	66	49	57	7	
978	0	0	1049	68	41	50	58	7	
978	0	41	1049	68	82	50	58	7	
978	0	82	1049	68	123	50	58	7	
1050	0	0	1141	51	43	51	59	7	
1142	0	0	1240	65	62	52	60	7	
1241	0	0	1341	97	64	53	61	7	
1342	0	0	1441	78	72	54	62	7	
1442	0	0	1541	88	23	55	63	8	
1442	0	23	1541	88	46	55	63	8	
1542	0	0	1641	55	27	56	64	8	
1642	0	0	1755	80	29	57	65	8	
1642	0	29	1755	80	58	57	65	8	
1756	0	0	1834	54	30	58	66	8	
1835	0	0	1926	51	43	59	67	8	
1835	0	43	1926	51	86	59	67	8	
1835	0	86	1926	51	129	59	67	8	
1927	0	0	2025	65	62	60	68	8	
1927	0	62	2025	65	124	60	68	8	
2026	0	0	2126	97	64	61	69	8	
2127	0	0	2226	55	27	62	70	9	
2127	0	27	2226	55	54	62	70	9	
2227	0	0	2298	68	41	63	71	9	
2299	0	0	2390	51	43	64	72	9	
2299	0	43	2390	51	86	64	72	9	
2299	0	86	2390	51	129	64	72	9	
2391	0	0	2451	59	46	65	73	9	
2452	0	0	2552	97	64	66	74	9	
