43	10	587	233	220
25001270	19804970
0	0	0	66	94	39	0	1	0	
0	0	39	66	94	78	0	1	0	
0	0	78	66	94	117	0	1	0	
0	0	117	66	94	156	0	1	0	
0	0	156	66	42	215	1	2	0	
0	42	156	66	84	215	1	2	0	
0	103	0	46	168	73	2	3	0	
0	103	73	46	168	146	2	3	0	
0	168	0	46	233	73	2	3	0	
0	168	73	46	233	146	2	3	0	
0	115	146	42	174	212	1	4	0	
0	174	146	42	233	212	1	4	0	
46	155	0	96	233	89	3	5	0	
46	155	89	96	233	178	3	5	0	
46	109	0	111	155	73	2	6	0	
66	0	0	159	70	106	4	7	0	
66	0	106	159	70	212	9	8	1	
46	109	73	111	155	146	7	9	1	
46	109	146	111	155	219	7	9	1	
66	70	0	160	109	66	5	10	1	
66	70	66	160	109	132	5	10	1	
96	155	0	146	233	89	8	11	1	
111	113	0	170	155	66	6	12	1	
66	70	132	160	109	198	10	13	2	
96	155	89	146	233	178	12	14	2	
111	113	66	170	155	132	11	15	2	
146	163	0	239	233	106	13	16	2	
111	113	132	170	155	198	15	17	3	
146	163	106	239	233	212	17	18	3	
159	0	0	252	70	106	17	19	3	
159	0	106	237	50	195	16	20	3	
160	70	0	254	109	66	14	21	3	
160	70	66	254	109	132	18	22	4	
160	70	132	254	109	198	18	22	4	
170	113	0	248	163	89	20	23	4	
170	113	89	248	163	178	20	23	4	
248	113	0	326	163	89	20	23	4	
248	113	89	326	163	178	20	23	4	
239	167	0	333	233	39	18	24	4	
239	167	39	333	233	78	18	24	4	
239	167	78	333	233	117	18	24	4	
239	167	117	281	233	176	19	25	4	
281	167	117	323	233	176	19	25	4	
239	167	176	298	233	218	19	26	4	
252	0	0	345	70	106	25	27	5	
252	0	106	345	70	212	25	27	5	
254	70	0	313	112	66	22	28	5	
254	70	66	313	112	132	22	28	5	
313	70	0	407	109	66	21	29	5	
326	117	0	415	167	78	24	30	5	
326	117	78	415	167	156	24	30	5	
333	168	0	379	233	73	23	31	5	
326	125	156	392	167	215	27	32	6	
254	70	132	313	112	198	27	33	6	
333	174	73	375	233	139	27	34	6	
313	70	66	407	109	132	26	35	6	
313	70	132	407	109	198	26	35	6	
345	0	0	438	70	106	29	36	6	
345	0	106	438	70	212	29	36	6	
379	183	0	457	233	89	28	37	6	
407	70	0	501	109	66	26	38	6	
333	174	139	375	233	205	31	39	7	
379	183	89	457	233	178	33	40	7	
407	70	66	501	109	132	30	41	7	
407	70	132	501	109	198	30	41	7	
415	113	0	508	183	106	34	42	7	
415	113	106	508	183	212	34	42	7	
438	0	0	532	66	39	30	43	7	
438	0	39	532	66	78	30	43	7	
438	0	78	532	66	117	30	43	7	
438	0	117	532	66	156	30	43	7	
438	0	156	480	66	215	31	44	7	
480	0	156	522	66	215	31	44	7	
457	183	0	535	233	89	33	45	7	
457	183	89	535	233	178	33	45	7	
501	66	0	574	112	65	32	46	7	
501	66	65	566	112	138	37	47	8	
501	66	138	566	112	211	37	47	8	
508	133	0	586	183	89	38	48	8	
508	133	89	586	183	178	38	48	8	
532	0	0	578	65	73	37	49	8	
532	0	73	578	65	146	37	49	8	
532	0	146	574	59	212	36	50	8	
587	0	0	681	66	39	35	51	8	
587	0	39	681	66	78	35	51	8	
587	0	78	681	66	117	35	51	8	
587	0	117	681	66	156	35	51	8	
587	0	156	681	66	195	35	51	8	
587	0	195	681	66	234	35	51	8	
682	0	0	771	78	50	38	52	8	
682	0	50	771	78	100	38	52	8	
772	0	0	866	66	39	39	53	9	
772	0	39	866	66	78	39	53	9	
772	0	78	866	66	117	39	53	9	
867	0	0	933	59	42	40	54	9	
934	0	0	1007	65	46	41	55	9	
1008	0	0	1097	78	50	42	56	9	
1008	0	50	1097	78	100	42	56	9	
1008	0	100	1097	78	150	42	56	9	
