93	10	587	233	220
21130495	16200475
0	0	0	105	74	81	9	1	0	
0	0	81	105	74	162	9	1	0	
0	0	162	38	60	213	5	2	0	
38	0	162	76	72	203	4	3	0	
0	142	0	104	233	41	7	4	0	
0	74	0	114	116	77	8	5	0	
0	158	41	70	233	64	0	6	0	
0	158	64	70	233	87	0	6	0	
0	118	0	35	142	36	1	7	0	
35	118	0	70	142	36	1	7	0	
70	118	0	105	142	36	1	7	0	
0	161	87	29	233	137	3	8	0	
0	74	77	89	102	123	2	9	0	
105	118	0	199	233	38	6	10	0	
29	161	87	67	233	128	17	11	1	
29	161	128	67	233	169	17	11	1	
29	161	169	67	233	210	17	11	1	
0	74	123	89	102	169	14	12	1	
0	74	169	89	102	215	14	12	1	
0	161	137	29	233	187	15	13	1	
70	148	41	101	233	94	16	14	1	
70	148	94	101	233	147	16	14	1	
70	149	147	94	233	179	12	15	1	
70	149	179	94	233	211	12	15	1	
105	0	0	186	74	105	20	16	1	
105	0	105	181	73	155	19	17	1	
105	0	155	180	70	178	11	18	1	
105	0	178	180	70	201	11	18	1	
105	166	38	198	233	58	10	19	1	
105	166	58	198	233	78	10	19	1	
105	166	78	198	233	98	10	19	1	
105	179	98	194	233	123	13	20	1	
105	182	123	165	233	161	18	21	1	
105	195	161	165	233	212	25	22	2	
105	135	38	190	166	91	23	23	2	
105	135	91	190	166	144	23	23	2	
114	74	0	228	116	77	27	24	2	
114	74	77	228	116	154	27	25	2	
114	74	154	186	112	195	24	26	2	
186	0	0	267	74	105	29	27	2	
186	0	105	267	74	210	29	27	2	
199	129	0	290	233	41	26	28	2	
199	183	41	272	233	117	28	29	2	
199	129	41	288	183	66	22	30	2	
267	0	0	334	93	20	21	31	2	
199	183	117	272	233	193	47	32	4	
199	129	66	288	183	91	40	33	4	
199	129	91	288	183	116	40	33	4	
105	135	144	190	166	197	51	34	5	
114	74	195	150	109	219	50	35	5	
150	74	195	186	109	219	50	35	5	
267	0	20	317	73	96	53	36	5	
267	0	96	317	73	172	53	36	5	
290	129	0	381	233	41	52	37	5	
290	129	41	381	233	82	52	37	5	
290	140	82	357	233	102	49	38	5	
290	140	102	357	233	122	49	38	5	
228	93	0	312	117	32	55	39	6	
186	74	154	221	110	178	56	40	6	
186	74	178	221	110	202	56	40	6	
290	144	122	344	233	147	57	41	6	
290	195	147	341	233	207	58	42	6	
334	0	0	415	74	105	62	43	6	
334	0	105	409	70	128	54	44	6	
334	74	0	448	116	77	61	45	6	
381	118	0	475	233	38	59	46	6	
381	129	38	472	233	79	60	47	6	
381	129	79	472	233	120	60	47	6	
267	0	172	305	72	213	68	48	7	
290	171	147	325	195	183	65	49	7	
334	74	77	448	116	154	70	50	7	
334	74	154	423	102	200	67	51	7	
415	0	0	496	74	105	71	52	7	
415	0	105	496	74	210	71	52	7	
496	0	0	577	74	105	71	52	7	
496	0	105	577	74	210	71	52	7	
381	140	120	448	233	140	63	53	7	
381	140	140	448	233	160	63	54	7	
381	144	160	435	233	185	66	55	7	
381	144	185	427	233	213	67	56	7	
448	149	120	472	233	152	64	57	7	
448	74	0	562	116	77	70	58	7	
448	74	77	562	116	154	70	58	7	
475	118	0	569	233	38	69	59	7	
448	74	154	499	112	214	79	60	8	
499	74	154	550	112	214	79	60	8	
448	163	152	472	198	188	74	61	8	
448	198	152	472	233	188	74	61	8	
475	118	38	569	233	76	80	62	8	
475	118	76	569	233	114	80	62	8	
475	128	114	549	233	195	83	63	8	
475	140	195	542	233	215	72	64	8	
587	0	0	680	67	20	30	65	3	
681	0	0	756	70	23	31	66	3	
757	0	0	841	32	24	32	67	3	
757	0	24	841	32	48	32	67	3	
842	0	0	878	35	24	33	68	3	
879	0	0	968	54	25	34	69	3	
969	0	0	1041	50	29	35	70	3	
1042	0	0	1127	53	31	36	71	3	
1128	0	0	1232	91	41	37	72	3	
1233	0	0	1309	73	50	38	73	3	
1233	0	50	1309	73	100	38	73	3	
1310	0	0	1385	70	23	39	74	4	
1386	0	0	1475	46	28	41	75	4	
1386	0	28	1475	46	56	41	75	4	
1476	0	0	1548	50	29	42	76	4	
1476	0	29	1548	50	58	42	76	4	
1549	0	0	1621	41	38	43	77	4	
1622	0	0	1682	51	38	44	78	4	
1683	0	0	1798	94	38	45	79	4	
1683	0	38	1798	94	76	45	79	4	
1683	0	76	1798	94	114	45	79	4	
1799	0	0	1903	91	41	46	80	4	
1904	0	0	2009	81	74	48	81	4	
2010	0	0	2085	70	23	73	82	8	
2010	0	23	2085	70	46	73	82	8	
2086	0	0	2175	54	25	75	83	8	
2176	0	0	2265	46	28	76	84	8	
2266	0	0	2351	53	31	77	85	8	
2266	0	31	2351	53	62	77	85	8	
2352	0	0	2424	41	38	78	86	8	
2425	0	0	2529	91	41	81	87	8	
2530	0	0	2606	73	50	82	88	8	
2607	0	0	2700	67	20	84	89	9	
2701	0	0	2785	32	24	85	90	9	
2786	0	0	2875	54	25	86	91	9	
2786	0	25	2875	54	50	86	91	9	
2876	0	0	2965	46	28	87	92	9	
2876	0	28	2965	46	56	87	92	9	
2966	0	0	3051	53	31	88	93	9	
3052	0	0	3124	41	38	89	94	9	
3125	0	0	3240	94	38	90	95	9	
3241	0	0	3345	91	41	91	96	9	
3241	0	41	3345	91	82	91	96	9	
3346	0	0	3460	77	42	92	97	9	
