79	10	587	233	220
22684984	18550486
0	0	0	65	43	63	5	1	0	
0	43	0	65	86	63	5	1	0	
0	86	0	65	129	63	5	1	0	
0	129	0	65	172	63	5	1	0	
0	176	0	72	233	97	6	2	0	
0	0	63	50	40	131	3	3	0	
0	0	131	50	40	199	3	3	0	
0	178	97	63	233	128	2	4	0	
0	40	63	42	117	139	4	5	0	
42	40	63	65	160	106	1	6	0	
42	40	106	65	160	149	1	6	0	
65	0	0	139	93	20	0	7	0	
65	0	20	139	93	40	0	7	0	
65	0	40	139	93	60	0	7	0	
42	40	149	65	160	192	8	8	1	
0	190	128	63	233	193	13	9	1	
65	0	60	133	40	110	11	10	1	
65	0	110	133	40	160	11	10	1	
65	40	60	133	80	110	11	10	1	
65	40	110	133	80	160	11	10	1	
65	100	0	142	176	42	12	11	1	
65	100	42	142	176	84	12	11	1	
65	100	84	142	176	126	12	11	1	
65	108	126	127	176	152	9	12	1	
65	0	160	96	63	215	10	13	1	
72	176	0	144	233	97	14	14	1	
139	0	0	213	93	20	7	15	1	
72	176	97	144	233	194	23	16	2	
65	108	152	127	176	178	17	17	2	
65	108	178	127	176	204	17	17	2	
96	0	160	132	79	181	16	18	2	
96	0	181	132	79	202	16	18	2	
139	0	20	189	40	88	19	19	2	
139	0	88	189	40	156	19	19	2	
139	40	20	202	83	85	22	20	2	
139	40	85	202	71	140	18	21	2	
142	136	0	250	176	71	20	22	2	
142	136	71	250	176	142	20	22	2	
144	176	0	216	233	97	23	23	2	
142	93	0	218	135	77	21	24	2	
213	0	0	287	93	20	15	25	2	
142	136	142	250	176	213	27	26	3	
144	190	97	207	233	162	29	27	3	
142	93	77	218	135	154	28	28	3	
142	93	154	210	133	204	26	29	3	
213	0	20	287	93	40	24	30	3	
213	0	40	281	62	66	25	31	3	
213	0	66	281	62	92	25	31	3	
213	0	92	281	62	118	25	31	3	
213	62	40	276	93	95	33	32	4	
213	62	95	276	93	150	33	32	4	
213	0	118	281	62	144	32	33	4	
213	0	144	281	62	170	32	33	4	
213	0	170	281	62	196	32	33	4	
216	176	0	288	233	97	36	34	4	
216	176	97	288	233	194	36	34	4	
288	176	0	360	233	97	36	34	4	
288	176	97	360	233	194	36	34	4	
216	190	194	336	233	217	31	35	4	
218	93	0	294	135	77	35	36	4	
294	93	0	370	135	77	35	36	4	
218	93	77	297	114	113	30	37	4	
218	114	77	297	135	113	30	37	4	
250	136	0	358	176	71	34	38	4	
250	136	71	358	176	142	34	38	4	
287	0	0	344	72	97	36	39	4	
250	136	142	358	176	213	41	40	5	
218	93	113	286	133	163	40	41	5	
218	93	163	286	133	213	40	41	5	
287	0	97	344	72	194	43	42	5	
287	72	0	366	93	36	37	43	5	
287	72	36	366	93	72	37	44	5	
287	72	72	366	93	108	37	44	5	
297	93	77	347	133	145	40	45	5	
344	0	0	420	42	77	42	46	5	
420	0	0	496	42	77	42	46	5	
496	0	0	572	42	77	42	46	5	
344	0	77	452	40	148	41	47	5	
344	0	148	452	40	219	41	47	5	
344	42	0	464	65	43	38	48	5	
360	156	0	436	233	42	42	49	5	
360	165	42	422	233	68	39	50	5	
287	72	108	366	93	144	44	51	6	
287	72	144	366	93	180	44	51	6	
287	72	180	366	93	216	44	51	6	
360	170	68	403	233	133	50	52	6	
360	170	133	403	233	198	50	52	6	
366	65	0	486	88	43	45	53	6	
366	65	43	486	88	86	45	53	6	
366	65	86	486	88	129	45	53	6	
366	65	129	486	88	172	45	53	6	
452	0	77	560	40	148	48	54	6	
436	161	0	493	233	97	51	55	6	
436	161	97	493	233	194	51	55	6	
370	88	0	432	156	26	46	56	6	
370	88	26	432	156	52	46	57	6	
370	88	52	420	156	92	47	58	6	
370	88	92	420	156	132	47	58	6	
432	114	0	509	156	76	49	59	6	
509	114	0	586	156	76	49	59	6	
432	114	76	508	156	153	49	60	6	
344	42	43	464	65	86	54	61	7	
344	42	86	464	65	129	54	61	7	
344	42	129	423	63	165	53	62	7	
344	42	165	423	63	201	53	62	7	
432	116	153	500	156	203	57	63	7	
452	0	148	560	40	219	58	64	7	
486	42	0	583	114	57	61	65	7	
486	42	57	583	114	114	61	65	7	
486	42	114	583	114	171	61	65	7	
493	168	0	536	233	63	60	66	7	
493	168	63	536	233	126	60	66	7	
493	168	126	536	233	189	60	66	7	
508	114	76	584	156	153	59	67	7	
536	170	0	567	233	55	56	68	7	
536	170	55	567	233	110	56	68	7	
536	170	110	567	233	165	56	68	7	
366	65	172	486	88	215	71	69	9	
486	42	171	549	107	214	77	70	9	
508	116	153	576	156	203	74	71	9	
536	170	165	567	233	220	73	72	9	
587	0	0	680	74	20	52	73	7	
587	0	20	680	74	40	52	73	7	
681	0	0	749	62	26	55	74	7	
681	0	26	749	62	52	55	74	7	
750	0	0	827	76	42	59	75	7	
828	0	0	921	74	20	62	76	8	
922	0	0	1001	36	21	63	77	8	
1002	0	0	1065	55	31	64	78	8	
1002	0	31	1065	55	62	64	78	8	
1002	0	62	1065	55	93	64	78	8	
1066	0	0	1134	50	40	65	79	8	
1066	0	40	1134	50	80	65	79	8	
1135	0	0	1212	76	42	66	80	8	
1135	0	42	1212	76	84	66	80	8	
1213	0	0	1278	63	43	67	81	8	
1213	0	43	1278	63	86	67	81	8	
1279	0	0	1376	72	57	68	82	8	
1279	0	57	1376	72	114	68	82	8	
1279	0	114	1376	72	171	68	82	8	
1279	0	171	1376	72	228	68	82	8	
1279	0	228	1376	72	285	68	82	8	
1377	0	0	1470	74	20	69	83	9	
1377	0	20	1470	74	40	69	83	9	
1471	0	0	1550	36	21	70	84	9	
1551	0	0	1619	62	26	72	85	9	
1551	0	26	1619	62	52	72	85	9	
1551	0	52	1619	62	78	72	85	9	
1551	0	78	1619	62	104	72	85	9	
1551	0	104	1619	62	130	72	85	9	
1620	0	0	1688	50	40	74	86	9	
1689	0	0	1797	71	40	75	87	9	
1798	0	0	1875	76	42	76	88	9	
1798	0	42	1875	76	84	76	88	9	
1798	0	84	1875	76	126	76	88	9	
1876	0	0	1941	63	43	77	89	9	
1942	0	0	2039	72	57	78	90	9	
