65	10	587	233	220
23118870	19065336
0	0	0	66	74	90	4	1	0	
0	0	90	66	74	180	4	1	0	
0	165	0	62	233	52	2	2	0	
0	165	52	62	233	104	2	2	0	
0	165	104	62	233	156	2	2	0	
0	91	0	33	165	53	0	3	0	
0	91	53	33	165	106	0	3	0	
0	91	106	33	165	159	0	3	0	
0	91	159	33	165	212	0	3	0	
33	111	0	97	165	71	3	4	0	
33	111	71	97	165	142	3	4	0	
33	74	0	145	110	54	1	5	0	
0	0	180	53	74	213	6	6	1	
0	165	156	52	233	218	8	7	1	
33	74	54	145	110	108	7	8	1	
33	111	142	97	165	213	9	9	1	
33	74	108	107	107	161	6	10	1	
33	74	161	101	105	209	5	11	1	
62	173	0	140	233	114	11	12	1	
140	173	0	218	233	114	11	12	1	
218	173	0	296	233	114	11	12	1	
296	173	0	374	233	114	11	12	1	
62	176	114	124	233	189	10	13	1	
66	0	0	132	74	90	13	14	1	
97	110	0	177	173	104	12	15	1	
97	110	104	177	173	208	12	16	1	
124	176	114	199	233	176	17	17	2	
199	176	114	274	233	176	17	17	2	
66	0	90	118	68	152	16	18	2	
66	0	152	118	68	214	16	18	2	
124	179	176	236	233	212	15	19	2	
132	0	0	163	68	48	14	20	2	
132	0	48	163	68	96	14	20	2	
145	68	0	257	104	54	20	21	3	
145	68	54	213	99	102	19	22	3	
145	68	102	213	99	150	19	22	3	
163	0	0	267	63	80	23	23	3	
163	0	80	267	63	160	23	23	3	
163	0	160	231	62	212	21	24	3	
177	107	0	251	173	90	24	25	3	
177	109	90	248	173	144	22	26	3	
251	110	0	331	173	104	23	27	3	
257	63	0	339	109	21	18	28	3	
257	63	21	339	109	42	18	28	3	
145	68	150	213	99	198	26	29	4	
251	113	104	329	173	218	28	30	4	
257	63	42	339	109	63	25	31	4	
267	0	0	347	63	104	29	32	4	
267	0	104	347	63	208	29	32	4	
331	119	0	395	173	71	27	33	4	
331	119	71	395	173	142	27	33	4	
347	0	0	413	74	90	30	34	4	
347	0	90	413	74	180	30	34	4	
274	180	114	348	233	147	33	35	5	
274	180	147	348	233	180	33	35	5	
274	180	180	348	233	213	33	35	5	
257	74	63	325	105	111	32	36	5	
257	74	111	325	105	159	32	36	5	
374	176	0	436	233	75	34	37	5	
436	176	0	498	233	75	34	37	5	
498	176	0	560	233	75	34	37	5	
374	176	75	436	233	150	34	38	5	
436	176	75	498	233	150	34	38	5	
374	187	150	456	233	171	31	39	5	
374	187	171	456	233	192	31	39	5	
395	113	0	475	176	104	35	40	5	
413	0	0	487	66	90	36	41	5	
257	74	159	325	105	207	38	42	6	
331	119	142	395	173	213	42	43	6	
339	74	0	451	110	54	40	44	6	
339	74	54	451	110	108	40	44	6	
347	0	180	400	74	213	39	45	6	
374	187	192	456	233	213	37	46	6	
395	113	104	475	176	208	43	47	6	
413	0	90	481	62	142	41	48	6	
413	0	142	481	62	194	41	48	6	
339	74	108	413	107	161	46	49	7	
339	74	161	407	105	209	45	50	7	
451	66	0	533	112	21	44	51	7	
475	113	0	555	176	104	50	52	7	
475	116	104	553	176	218	49	53	7	
487	0	0	577	66	74	51	54	7	
487	0	74	539	62	142	47	55	7	
487	0	142	539	62	210	47	55	7	
498	176	75	560	233	150	48	56	7	
451	66	21	525	99	74	52	57	8	
498	181	150	560	233	218	54	58	8	
587	0	0	699	54	36	53	59	8	
700	0	0	775	62	57	55	60	8	
700	0	57	775	62	114	55	60	8	
776	0	0	880	80	63	56	61	8	
881	0	0	971	74	66	57	62	8	
881	0	66	971	74	132	57	62	8	
972	0	0	1054	46	21	58	63	9	
1055	0	0	1167	54	36	59	64	9	
1055	0	36	1167	54	72	59	64	9	
1168	0	0	1239	64	54	60	65	9	
1240	0	0	1315	62	57	61	66	9	
1316	0	0	1430	78	60	62	67	9	
1431	0	0	1535	80	63	63	68	9	
1431	0	63	1535	80	126	63	68	9	
1431	0	126	1535	80	189	63	68	9	
1431	0	189	1535	80	252	63	68	9	
1536	0	0	1626	74	66	64	69	9	
