29	10	587	233	220
23657084	18761054
0	0	0	95	92	46	1	1	0	
0	0	46	95	92	92	1	1	0	
0	92	0	95	184	46	1	1	0	
0	92	46	95	184	92	1	1	0	
0	0	92	40	60	157	0	2	0	
0	60	92	40	120	157	0	2	0	
0	120	92	40	180	157	0	2	0	
40	0	92	80	60	157	0	2	0	
40	60	92	80	120	157	0	2	0	
40	120	92	80	180	157	0	2	0	
0	0	157	59	103	219	2	3	0	
0	193	0	60	233	65	0	4	0	
0	115	157	40	180	217	3	5	1	
40	115	157	80	180	217	3	5	1	
95	0	0	154	62	103	5	6	1	
154	0	0	213	62	103	5	6	1	
213	0	0	272	62	103	5	6	1	
272	0	0	331	62	103	5	6	1	
95	138	0	187	233	46	4	7	1	
95	138	46	187	233	92	4	7	1	
95	0	103	154	62	206	8	8	2	
154	0	103	213	62	206	8	8	2	
213	0	103	272	62	206	8	8	2	
272	0	103	331	62	206	8	8	2	
95	138	92	187	233	138	7	9	2	
95	138	138	187	233	184	7	9	2	
95	62	0	155	127	40	6	10	2	
95	62	40	155	127	80	6	10	2	
95	62	80	155	127	120	9	11	3	
95	62	120	155	127	160	9	11	3	
95	62	160	155	127	200	9	11	3	
155	62	0	214	124	103	11	12	3	
155	62	103	214	124	206	11	12	3	
214	62	0	273	124	103	11	12	3	
214	62	103	273	124	206	11	12	3	
187	138	0	279	233	46	10	13	3	
187	138	46	279	233	92	10	14	3	
187	138	92	279	233	138	10	14	3	
273	62	0	335	121	103	11	15	3	
187	138	138	279	233	184	13	16	4	
279	171	0	338	233	103	14	17	4	
279	171	103	338	233	206	14	17	4	
338	171	0	397	233	103	14	17	4	
338	171	103	397	233	206	14	17	4	
279	131	0	344	171	60	12	18	4	
279	131	60	344	171	120	12	18	4	
279	131	120	344	171	180	12	18	4	
331	0	0	371	60	65	12	19	4	
344	60	0	436	155	46	13	20	4	
273	62	103	335	121	206	17	21	5	
331	0	65	371	60	130	15	22	5	
344	60	46	436	155	92	16	23	5	
344	60	92	436	155	138	16	23	5	
344	60	138	436	155	184	16	23	5	
371	0	0	433	59	103	17	24	5	
436	0	0	528	95	46	16	25	5	
397	193	0	457	233	65	18	26	6	
397	193	65	457	233	130	18	26	6	
397	193	130	457	233	195	18	26	6	
436	0	46	528	95	92	19	27	6	
436	0	92	528	95	138	19	27	6	
436	0	138	528	95	184	19	27	6	
436	98	0	528	193	46	19	28	6	
436	98	46	528	193	92	19	28	6	
436	98	92	528	193	138	19	28	6	
436	98	138	528	193	184	21	29	7	
457	193	0	517	233	65	20	30	7	
457	193	65	517	233	130	20	30	7	
528	0	0	587	62	103	22	31	7	
528	0	103	587	62	206	22	31	7	
517	193	0	577	233	65	26	32	9	
517	193	65	577	233	130	26	32	9	
517	193	130	577	233	195	26	32	9	
528	69	0	587	131	103	28	33	9	
528	69	103	587	131	206	28	33	9	
528	131	0	587	193	103	28	33	9	
528	131	103	587	193	206	28	33	9	
587	0	0	682	92	46	21	34	7	
683	0	0	748	60	40	23	35	8	
683	0	40	748	60	80	23	35	8	
683	0	80	748	60	120	23	35	8	
683	0	120	748	60	160	23	35	8	
683	0	160	748	60	200	23	35	8	
749	0	0	844	92	46	24	36	8	
845	0	0	948	62	59	25	37	8	
845	0	59	948	62	118	25	37	8	
845	0	118	948	62	177	25	37	8	
845	0	177	948	62	236	25	37	8	
845	0	236	948	62	295	25	37	8	
949	0	0	1044	92	46	27	38	9	
949	0	46	1044	92	92	27	38	9	
949	0	92	1044	92	138	27	38	9	
949	0	138	1044	92	184	27	38	9	
949	0	184	1044	92	230	27	38	9	
949	0	230	1044	92	276	27	38	9	
