98	10	587	233	220
21695410	19591549
0	0	0	42	79	71	4	1	0	
0	0	71	42	79	142	4	1	0	
0	0	142	40	60	208	3	2	0	
0	133	0	93	233	45	5	3	0	
0	173	45	86	233	81	1	4	0	
0	173	81	86	233	117	1	4	0	
0	79	0	75	132	81	8	5	0	
0	181	117	59	233	179	7	6	0	
0	135	45	90	173	83	2	7	0	
0	135	83	90	173	121	2	7	0	
42	0	0	139	46	76	6	8	0	
75	46	0	166	130	21	0	9	0	
0	79	81	75	132	162	15	10	1	
0	79	162	37	131	212	12	11	1	
37	79	162	74	131	212	12	11	1	
0	135	121	90	173	159	13	12	1	
42	0	76	139	46	152	14	13	1	
42	0	152	134	29	199	11	14	1	
75	46	21	166	130	42	9	15	1	
75	46	42	166	130	63	9	15	1	
75	46	63	150	127	116	15	16	1	
93	130	0	162	233	22	10	17	1	
0	137	159	86	173	219	19	18	2	
0	181	179	50	233	216	20	19	2	
75	46	116	117	117	195	21	20	2	
93	131	22	158	233	91	27	21	2	
93	143	91	146	233	189	26	22	2	
117	46	116	137	112	149	16	23	2	
117	46	149	137	112	182	16	23	2	
117	46	182	137	112	215	16	23	2	
139	0	0	236	46	76	23	24	2	
139	0	76	210	42	155	21	25	2	
162	133	0	255	233	45	22	26	2	
162	133	45	255	233	90	22	26	2	
162	186	90	254	233	119	18	27	2	
162	133	90	252	186	188	26	28	2	
166	46	0	257	130	21	17	29	2	
166	46	21	225	108	73	25	30	2	
166	46	73	220	98	123	24	31	2	
162	204	119	254	233	166	29	32	3	
162	204	166	254	233	213	29	32	3	
139	0	155	205	40	215	32	33	3	
166	46	123	216	98	177	35	34	3	
166	46	177	216	98	214	30	35	3	
166	110	21	232	130	54	28	36	3	
166	110	54	232	130	87	28	36	3	
236	0	0	315	42	71	33	37	3	
236	0	71	315	42	142	33	37	3	
236	0	142	315	42	213	33	37	3	
255	152	0	308	233	75	37	38	3	
255	152	75	308	233	150	37	38	3	
255	174	150	307	233	212	36	39	3	
257	42	0	322	144	69	38	40	3	
257	42	69	319	101	121	36	41	3	
308	149	0	379	191	79	33	42	3	
308	191	0	379	233	79	33	42	3	
315	0	0	405	38	38	31	43	3	
405	0	0	495	38	38	31	43	3	
322	38	0	415	138	45	34	44	3	
93	143	189	131	174	215	39	45	4	
257	42	121	317	82	187	42	46	4	
308	154	79	379	233	121	43	47	4	
257	104	69	312	144	145	41	48	4	
308	158	121	361	233	202	44	49	4	
315	0	38	407	29	85	40	50	4	
315	0	85	407	29	132	40	50	4	
322	38	45	412	136	98	45	51	4	
322	38	98	412	136	151	45	51	4	
322	38	151	403	113	204	44	52	4	
379	164	0	481	233	65	46	53	4	
379	179	65	429	233	117	50	54	5	
429	179	65	479	233	117	50	54	5	
379	180	117	477	233	207	52	55	5	
415	38	0	486	80	79	49	56	5	
415	80	0	486	122	79	49	56	5	
415	122	0	486	164	79	49	56	5	
415	38	79	474	100	131	51	57	5	
415	100	79	474	162	131	51	57	5	
415	38	131	474	90	193	51	58	5	
415	96	131	455	162	191	48	59	5	
481	164	0	584	233	22	47	60	5	
415	38	193	446	76	219	55	61	6	
315	0	132	407	29	179	56	62	6	
315	0	179	346	26	217	55	63	6	
407	0	38	493	36	98	57	64	6	
481	167	22	541	233	62	59	65	6	
481	171	62	540	233	114	62	66	6	
481	193	114	536	233	190	58	67	6	
486	38	0	586	131	45	61	68	6	
486	38	45	586	131	90	61	68	6	
486	135	0	578	164	47	56	69	6	
486	135	47	578	164	94	56	69	6	
486	38	90	571	131	113	54	70	6	
486	38	113	570	129	134	53	71	6	
486	38	134	565	80	205	60	72	6	
486	80	134	562	120	189	58	73	6	
407	0	98	493	36	158	68	74	7	
407	0	158	493	36	218	68	74	7	
415	96	191	448	162	211	63	75	7	
346	0	179	377	26	217	66	76	7	
481	195	190	512	233	216	66	77	7	
486	135	94	578	164	141	67	78	7	
486	135	141	578	164	188	67	78	7	
541	167	22	581	233	82	70	79	7	
495	0	0	585	38	38	69	80	7	
587	0	0	690	69	22	64	81	7	
587	0	22	690	69	44	64	81	7	
587	0	44	690	69	66	64	81	7	
587	0	66	690	69	88	64	81	7	
691	0	0	784	85	23	65	82	7	
785	0	0	885	93	45	71	83	7	
886	0	0	983	76	46	72	84	7	
984	0	0	1065	75	53	73	85	7	
1066	0	0	1132	33	20	74	86	8	
1066	0	20	1132	33	40	74	86	8	
1133	0	0	1236	69	22	75	87	8	
1237	0	0	1275	31	26	76	88	8	
1276	0	0	1368	47	34	77	89	8	
1369	0	0	1455	60	36	78	90	8	
1456	0	0	1546	38	38	79	91	8	
1547	0	0	1623	55	40	80	92	8	
1547	0	40	1623	55	80	80	92	8	
1547	0	80	1623	55	120	80	92	8	
1547	0	120	1623	55	160	80	92	8	
1624	0	0	1690	60	40	81	93	8	
1691	0	0	1791	93	45	82	94	8	
1792	0	0	1889	76	46	83	95	8	
1890	0	0	1944	52	50	84	96	8	
1945	0	0	2007	59	52	85	97	8	
2008	0	0	2089	75	53	86	98	8	
2090	0	0	2192	69	65	87	99	8	
2193	0	0	2259	33	20	88	100	9	
2260	0	0	2298	31	26	89	101	9	
2299	0	0	2351	50	37	90	102	9	
2352	0	0	2442	38	38	91	103	9	
2443	0	0	2509	60	40	92	104	9	
2510	0	0	2607	76	46	93	105	9	
2510	0	46	2607	76	92	93	105	9	
2608	0	0	2662	52	50	94	106	9	
2663	0	0	2725	59	52	95	107	9	
2726	0	0	2807	75	53	96	108	9	
2726	0	53	2807	75	106	96	108	9	
2808	0	0	2906	90	53	97	109	9	
