94	10	587	233	220
21609579	17482295
0	0	0	57	70	97	7	1	0	
0	0	97	57	70	194	7	1	0	
57	0	0	114	70	97	7	1	0	
57	0	97	114	70	194	7	1	0	
0	157	0	73	233	109	8	2	0	
0	176	109	71	233	147	3	3	0	
0	180	147	63	233	194	6	4	0	
0	70	0	38	154	58	4	5	0	
0	70	58	38	154	116	4	5	0	
0	70	116	38	120	162	2	6	0	
38	70	0	114	148	38	5	7	0	
38	70	38	114	148	76	5	8	0	
38	70	76	114	148	114	5	8	0	
73	157	0	161	233	33	1	9	0	
73	157	33	161	233	66	1	9	0	
114	0	0	139	115	26	0	10	0	
38	70	114	95	108	185	16	11	1	
38	108	114	95	146	185	16	11	1	
38	70	185	67	142	216	11	12	1	
73	160	66	149	233	175	22	13	1	
114	0	26	139	115	52	9	14	1	
114	119	0	198	157	58	17	15	1	
114	120	58	191	157	114	15	16	1	
139	0	0	241	67	47	20	17	1	
139	0	47	241	67	94	20	17	1	
139	0	94	196	56	178	21	18	1	
139	67	0	234	98	55	13	19	1	
139	67	55	226	95	88	10	20	1	
139	67	88	226	95	121	10	20	1	
161	157	0	239	233	38	18	21	1	
161	157	38	239	233	76	18	22	1	
198	98	0	300	157	29	12	23	1	
239	157	0	327	233	33	14	24	1	
241	0	0	324	98	38	19	25	1	
241	0	38	324	98	76	19	25	1	
73	162	175	123	233	216	26	26	2	
114	128	114	186	157	145	24	27	2	
114	128	145	186	157	176	24	27	2	
139	67	121	226	95	154	23	28	2	
161	157	76	239	233	114	25	29	2	
161	170	114	214	233	161	27	30	2	
114	128	176	186	157	207	28	31	3	
196	0	94	234	46	144	31	32	3	
196	0	144	234	46	194	31	32	3	
239	157	33	323	195	91	33	33	3	
239	195	33	323	233	91	33	33	3	
241	0	76	324	98	114	34	34	3	
198	98	29	300	157	58	29	35	3	
198	100	58	236	157	129	32	36	3	
198	100	129	236	157	200	32	36	3	
239	162	91	289	233	132	35	37	3	
241	0	114	318	56	151	30	38	3	
139	67	154	226	95	187	36	39	4	
161	170	161	208	233	214	42	40	4	
239	162	132	289	233	173	41	41	4	
239	162	173	289	233	214	41	41	4	
241	0	151	313	29	182	37	42	4	
241	0	182	313	29	213	37	42	4	
300	98	0	402	157	29	38	43	4	
324	0	0	407	98	38	40	44	4	
324	0	38	407	98	76	40	45	4	
324	0	76	402	76	114	39	46	4	
139	67	187	226	95	220	43	47	5	
236	110	58	299	157	111	51	48	5	
236	110	111	299	157	164	51	48	5	
236	110	164	299	157	217	51	48	5	
241	56	114	312	97	164	50	49	5	
241	56	164	312	97	214	50	49	5	
300	98	29	402	157	58	44	50	5	
300	98	58	402	157	87	44	50	5	
300	99	87	384	157	125	48	51	5	
300	100	125	371	157	163	47	52	5	
300	100	163	371	157	201	47	52	5	
324	0	114	402	76	152	49	53	5	
324	0	152	402	76	190	49	53	5	
327	157	0	400	233	109	52	54	5	
400	157	0	488	233	33	45	55	5	
400	159	33	477	196	89	46	56	5	
400	196	33	477	233	89	46	56	5	
324	0	190	355	72	219	55	57	6	
327	157	109	400	233	218	62	58	6	
400	177	89	477	233	126	58	59	6	
400	177	126	457	233	210	60	60	6	
402	98	0	504	157	29	56	61	6	
402	110	29	504	157	96	59	62	6	
402	126	96	497	157	151	57	63	6	
402	129	151	489	157	184	54	64	6	
402	129	184	489	157	217	54	64	6	
407	0	0	477	97	57	61	65	6	
504	0	0	530	115	25	53	66	6	
407	0	57	477	97	114	74	67	7	
407	0	114	477	97	171	74	67	7	
407	0	171	476	67	216	70	68	7	
504	0	25	530	115	50	63	69	7	
488	157	0	561	233	109	75	70	7	
488	157	109	561	233	218	75	70	7	
504	116	0	575	157	50	69	71	7	
504	119	50	575	157	107	67	72	7	
504	119	107	554	157	153	66	73	7	
530	0	0	587	56	84	73	74	7	
530	56	0	587	112	84	73	74	7	
530	0	84	587	84	140	73	75	7	
530	0	140	587	54	195	72	76	7	
587	0	0	674	33	28	64	77	7	
675	0	0	777	59	29	65	78	7	
778	0	0	876	83	38	68	79	7	
877	0	0	946	67	45	70	80	7	
877	0	45	946	67	90	70	80	7	
947	0	0	1049	67	47	71	81	7	
1050	0	0	1159	76	73	75	82	7	
1050	0	73	1159	76	146	75	82	7	
1050	0	146	1159	76	219	75	82	7	
1160	0	0	1275	26	25	76	83	8	
1276	0	0	1353	56	37	77	84	8	
1354	0	0	1425	57	38	78	85	8	
1426	0	0	1524	83	38	79	86	8	
1525	0	0	1596	50	41	80	87	8	
1597	0	0	1699	67	47	81	88	8	
1700	0	0	1757	55	54	82	89	8	
1758	0	0	1873	26	25	83	90	9	
1758	0	25	1873	26	50	83	90	9	
1874	0	0	1976	59	29	84	91	9	
1977	0	0	2072	55	31	85	92	9	
2073	0	0	2161	76	33	86	93	9	
2162	0	0	2239	56	37	87	94	9	
2240	0	0	2290	46	38	88	95	9	
2291	0	0	2369	76	38	89	96	9	
2370	0	0	2468	83	38	90	97	9	
2370	0	38	2468	83	76	90	97	9	
2469	0	0	2538	67	45	91	98	9	
2469	0	45	2538	67	90	91	98	9	
2539	0	0	2623	57	56	92	99	9	
2624	0	0	2733	76	73	93	100	9	
