30	10	587	233	220
25005074	17440936
0	0	0	73	96	50	1	1	0	
0	0	50	73	96	100	1	1	0	
0	96	0	73	192	50	1	1	0	
0	96	50	73	192	100	1	1	0	
0	0	100	62	64	199	2	2	0	
0	64	100	62	128	199	2	2	0	
0	128	100	62	192	199	2	2	0	
0	196	0	110	233	43	0	3	0	
0	196	43	110	233	86	0	4	0	
0	196	86	110	233	129	0	4	0	
0	196	129	110	233	172	0	4	0	
0	196	172	110	233	215	0	4	0	
73	0	0	135	64	99	2	5	0	
73	0	99	135	64	198	2	5	0	
73	134	0	137	196	99	5	6	1	
73	134	99	137	196	198	5	6	1	
137	134	0	201	196	99	5	6	1	
137	134	99	201	196	198	5	6	1	
73	64	0	169	114	73	4	7	1	
73	64	73	169	114	146	4	7	1	
73	64	146	169	114	219	4	7	1	
169	64	0	265	114	73	4	7	1	
169	64	73	265	114	146	4	7	1	
169	64	146	265	114	219	4	7	1	
110	196	0	220	233	43	3	8	1	
110	196	43	220	233	86	6	9	2	
110	196	86	220	233	129	6	9	2	
135	0	0	199	62	99	8	10	2	
135	0	99	199	62	198	8	10	2	
199	0	0	263	62	99	8	10	2	
199	0	99	263	62	198	8	10	2	
201	123	0	251	196	96	7	11	2	
251	123	0	301	196	96	7	11	2	
301	123	0	351	196	96	7	11	2	
351	123	0	401	196	96	7	11	2	
110	196	129	220	233	172	9	12	3	
110	196	172	220	233	215	9	12	3	
201	134	96	300	196	160	11	13	3	
300	134	96	399	196	160	11	13	3	
263	0	0	362	64	62	11	14	3	
263	0	62	362	64	124	11	14	3	
263	0	124	362	64	186	11	14	3	
265	64	0	338	114	96	10	15	3	
201	159	160	311	196	203	12	16	4	
265	64	96	338	114	192	13	17	4	
220	196	0	330	233	43	12	18	4	
330	196	0	440	233	43	12	18	4	
440	196	0	550	233	43	12	18	4	
220	196	43	330	233	86	12	19	4	
338	64	0	411	114	96	13	20	4	
362	0	0	424	64	99	14	21	4	
362	0	99	424	64	198	14	21	4	
424	0	0	486	64	99	14	21	4	
424	0	99	486	64	198	14	21	4	
330	196	43	440	233	86	15	22	5	
220	196	86	330	233	129	15	23	5	
338	64	96	411	114	192	16	24	5	
401	132	0	463	196	99	17	25	5	
463	132	0	525	196	99	17	25	5	
525	132	0	587	196	99	17	25	5	
401	132	99	463	196	198	17	26	5	
220	196	129	330	233	172	18	27	6	
220	196	172	330	233	215	18	27	6	
411	64	0	473	128	99	20	28	6	
411	64	99	473	128	198	20	28	6	
330	196	86	440	233	129	18	29	6	
463	132	99	525	196	198	20	30	6	
486	0	0	536	73	96	19	31	6	
536	0	0	586	73	96	19	31	6	
330	196	129	440	233	172	21	32	7	
330	196	172	440	233	215	21	32	7	
473	73	0	569	123	73	22	33	7	
473	73	73	569	123	146	22	33	7	
473	73	146	569	123	219	22	33	7	
486	0	96	585	64	158	23	34	7	
486	0	158	585	64	220	23	34	7	
440	196	43	550	233	86	21	35	7	
440	196	86	550	233	129	24	36	8	
440	196	129	550	233	172	24	36	8	
525	132	99	587	196	198	26	37	8	
587	0	0	683	73	50	25	38	8	
587	0	50	683	73	100	25	38	8	
587	0	100	683	73	150	25	38	8	
684	0	0	783	64	62	26	39	8	
684	0	62	783	64	124	26	39	8	
684	0	124	783	64	186	26	39	8	
784	0	0	894	43	37	27	40	9	
784	0	37	894	43	74	27	40	9	
784	0	74	894	43	111	27	40	9	
784	0	111	894	43	148	27	40	9	
784	0	148	894	43	185	27	40	9	
895	0	0	991	73	50	28	41	9	
895	0	50	991	73	100	28	41	9	
992	0	0	1091	64	62	29	42	9	
992	0	62	1091	64	124	29	42	9	
