30	10	587	233	220
25874032	17956792
0	0	0	47	72	75	2	1	0	
47	0	0	94	72	75	2	1	0	
94	0	0	141	72	75	2	1	0	
141	0	0	188	72	75	2	1	0	
188	0	0	235	72	75	2	1	0	
235	0	0	282	72	75	2	1	0	
0	0	75	96	72	106	1	2	0	
0	0	106	96	72	137	1	2	0	
0	0	137	96	72	168	1	2	0	
0	0	168	96	72	199	1	2	0	
0	137	0	72	233	31	1	3	0	
0	137	31	72	233	62	1	3	0	
0	72	0	80	97	20	0	4	0	
0	72	20	80	97	40	0	4	0	
0	72	40	80	97	60	0	4	0	
0	72	60	80	97	80	0	4	0	
0	72	80	80	97	100	0	4	0	
0	97	0	80	117	25	3	5	1	
0	97	25	80	117	50	3	5	1	
0	97	50	80	117	75	3	5	1	
0	97	75	80	117	100	3	5	1	
0	97	100	80	117	125	3	5	1	
0	117	0	80	137	25	3	5	1	
0	117	25	80	137	50	3	5	1	
0	117	50	80	137	75	3	5	1	
0	117	75	80	137	100	3	5	1	
0	117	100	80	137	125	3	5	1	
0	137	62	72	233	93	4	6	1	
0	137	93	72	233	124	4	6	1	
0	137	124	72	233	155	4	6	1	
0	137	155	72	233	186	4	6	1	
0	137	186	72	233	217	4	6	1	
72	139	0	144	186	75	5	7	1	
72	139	75	144	186	150	5	7	1	
72	186	0	144	233	75	5	7	1	
72	186	75	144	233	150	5	7	1	
96	0	75	192	72	106	4	8	1	
0	97	125	80	117	150	6	9	2	
0	97	150	80	117	175	6	9	2	
0	97	175	80	117	200	6	9	2	
0	117	125	80	137	150	6	9	2	
0	117	150	80	137	175	6	9	2	
0	117	175	80	137	200	6	9	2	
72	158	150	144	233	197	8	10	2	
96	0	106	192	72	137	7	11	2	
96	0	137	192	72	168	7	11	2	
96	0	168	192	72	199	7	11	2	
144	137	0	216	233	31	7	12	2	
216	137	0	288	233	31	7	12	2	
0	0	199	80	25	219	9	13	3	
0	25	199	80	50	219	9	13	3	
0	72	100	80	92	125	9	14	3	
0	72	125	80	92	150	9	14	3	
0	72	150	80	92	175	9	14	3	
80	72	0	152	119	75	11	15	3	
152	72	0	224	119	75	11	15	3	
224	72	0	296	119	75	11	15	3	
296	72	0	368	119	75	11	15	3	
368	72	0	440	119	75	11	15	3	
440	72	0	512	119	75	11	15	3	
144	137	31	216	233	62	10	16	3	
144	137	62	216	233	93	10	16	3	
144	137	93	216	233	124	10	16	3	
144	137	124	216	233	155	10	16	3	
144	137	155	216	233	186	10	16	3	
144	137	186	216	233	217	10	16	3	
96	0	199	176	25	219	12	17	4	
96	25	199	176	50	219	12	17	4	
80	72	75	152	119	150	14	18	4	
152	72	75	224	119	150	14	18	4	
224	72	75	296	119	150	14	18	4	
296	72	75	368	119	150	14	18	4	
368	72	75	440	119	150	14	18	4	
440	72	75	512	119	150	14	18	4	
80	72	150	160	92	175	12	19	4	
80	72	175	160	92	200	12	19	4	
80	92	150	160	112	175	12	19	4	
80	92	175	160	112	200	12	19	4	
216	137	31	288	233	62	13	20	4	
216	137	62	288	233	93	13	20	4	
216	137	93	288	233	124	13	20	4	
160	72	150	240	97	170	15	21	5	
160	72	170	240	97	190	15	21	5	
160	72	190	240	97	210	15	21	5	
240	72	150	320	97	170	15	21	5	
240	72	170	320	97	190	15	21	5	
240	72	190	320	97	210	15	21	5	
320	72	150	400	97	170	15	21	5	
320	72	170	400	97	190	15	21	5	
320	72	190	400	97	210	15	21	5	
192	0	75	267	72	122	17	22	5	
192	0	122	267	72	169	17	22	5	
192	0	169	267	72	216	17	22	5	
216	137	124	288	233	155	16	23	5	
216	137	155	288	233	186	16	23	5	
216	137	186	288	233	217	16	23	5	
282	0	0	357	72	47	17	24	5	
282	0	47	357	72	94	17	24	5	
357	0	0	432	72	47	17	24	5	
357	0	47	432	72	94	17	24	5	
432	0	0	507	72	47	17	24	5	
432	0	47	507	72	94	17	24	5	
507	0	0	582	72	47	17	24	5	
507	0	47	582	72	94	17	24	5	
282	0	94	378	72	125	16	25	5	
378	0	94	474	72	125	16	25	5	
474	0	94	570	72	125	16	25	5	
0	112	200	80	137	220	18	26	6	
160	97	150	240	117	175	18	27	6	
160	97	175	240	117	200	18	27	6	
240	97	150	320	117	175	18	27	6	
240	97	175	320	117	200	18	27	6	
320	97	150	400	117	175	18	27	6	
320	97	175	400	117	200	18	27	6	
400	97	150	480	117	175	18	27	6	
400	97	175	480	117	200	18	27	6	
282	0	125	378	72	156	19	28	6	
282	0	156	378	72	187	19	28	6	
378	0	125	474	72	156	19	28	6	
378	0	156	474	72	187	19	28	6	
474	0	125	570	72	156	19	28	6	
474	0	156	570	72	187	19	28	6	
282	0	187	378	72	218	19	29	6	
288	139	0	363	186	72	20	30	6	
288	139	72	363	186	144	20	30	6	
288	139	144	363	186	216	20	30	6	
288	186	0	363	233	72	20	30	6	
288	186	72	363	233	144	20	30	6	
288	186	144	363	233	216	20	30	6	
363	137	0	435	233	31	19	31	6	
363	158	31	435	233	78	20	32	6	
363	158	78	435	233	125	23	33	7	
363	158	125	435	233	172	23	33	7	
363	158	172	435	233	219	23	33	7	
378	0	187	474	72	218	22	34	7	
435	137	0	507	233	31	22	35	7	
435	137	31	507	233	62	22	35	7	
435	137	62	507	233	93	22	35	7	
435	137	93	507	233	124	22	35	7	
435	137	124	507	233	155	22	35	7	
435	137	155	507	233	186	22	35	7	
435	137	186	507	233	217	22	35	7	
474	0	187	570	72	218	22	36	7	
400	72	150	480	97	170	21	37	7	
400	72	170	480	97	190	21	37	7	
400	72	190	480	97	210	21	37	7	
507	183	0	587	208	20	21	38	7	
507	208	0	587	233	20	21	38	7	
507	186	20	582	233	92	23	39	7	
512	87	0	584	183	31	22	40	7	
507	186	92	582	233	164	26	41	8	
512	87	31	584	183	62	25	42	8	
512	87	62	584	183	93	25	42	8	
512	87	93	584	183	124	25	42	8	
512	87	124	584	183	155	25	42	8	
512	87	155	584	183	186	25	42	8	
512	87	186	584	183	217	25	42	8	
587	0	0	667	25	20	24	43	8	
587	0	20	667	25	40	24	43	8	
587	0	40	667	25	60	24	43	8	
587	0	60	667	25	80	24	43	8	
587	0	80	667	25	100	24	43	8	
668	0	0	764	72	31	25	44	8	
765	0	0	840	72	47	26	45	8	
841	0	0	921	25	20	27	46	9	
841	0	20	921	25	40	27	46	9	
841	0	40	921	25	60	27	46	9	
841	0	60	921	25	80	27	46	9	
841	0	80	921	25	100	27	46	9	
841	0	100	921	25	120	27	46	9	
841	0	120	921	25	140	27	46	9	
841	0	140	921	25	160	27	46	9	
841	0	160	921	25	180	27	46	9	
841	0	180	921	25	200	27	46	9	
922	0	0	1018	72	31	28	47	9	
922	0	31	1018	72	62	28	47	9	
922	0	62	1018	72	93	28	47	9	
922	0	93	1018	72	124	28	47	9	
1019	0	0	1094	72	47	29	48	9	
1019	0	47	1094	72	94	29	48	9	
1019	0	94	1094	72	141	29	48	9	
1019	0	141	1094	72	188	29	48	9	
1019	0	188	1094	72	235	29	48	9	
1019	0	235	1094	72	282	29	48	9	
1019	0	282	1094	72	329	29	48	9	
1019	0	329	1094	72	376	29	48	9	
