73	10	587	233	220
23452064	17894688
0	0	0	73	60	105	7	1	0	
73	0	0	146	60	105	7	1	0	
0	0	105	61	58	179	6	2	0	
0	111	0	58	172	74	6	3	0	
0	172	0	58	233	74	6	3	0	
0	60	0	98	104	73	5	4	0	
0	0	179	44	55	215	3	5	0	
0	60	73	98	104	146	5	6	0	
0	167	74	58	233	98	2	7	0	
0	167	98	58	233	122	2	7	0	
0	60	146	81	99	170	1	8	0	
0	60	170	81	99	194	1	8	0	
0	173	122	38	233	182	4	9	0	
61	0	105	143	58	128	0	10	0	
0	131	74	44	167	129	11	11	1	
0	60	194	81	99	218	9	12	1	
61	0	128	127	58	152	10	13	1	
61	0	152	127	58	176	10	13	1	
58	128	0	131	233	60	13	14	1	
58	128	60	131	233	120	13	14	1	
58	128	120	131	233	180	13	14	1	
58	151	180	116	233	203	8	15	1	
98	60	0	196	104	73	12	16	1	
61	0	176	97	55	220	14	17	2	
98	60	73	158	98	133	15	18	2	
98	60	133	158	98	193	15	18	2	
131	160	0	191	233	105	18	19	2	
146	0	0	222	55	106	17	20	2	
131	108	0	208	160	90	16	21	2	
131	108	90	208	160	180	24	22	3	
131	160	105	191	233	210	26	23	3	
146	0	106	222	55	212	25	24	3	
158	60	73	194	104	128	21	25	3	
158	60	128	194	104	183	21	25	3	
191	178	0	267	233	106	25	26	3	
191	195	106	251	233	166	22	27	3	
196	55	0	294	99	73	23	28	3	
196	55	73	294	99	146	23	28	3	
196	55	146	256	93	206	22	29	3	
208	112	0	266	178	24	20	30	3	
208	112	24	266	178	48	20	30	3	
208	112	48	266	178	72	20	30	3	
208	112	72	266	178	96	20	30	3	
266	120	0	348	178	23	19	31	3	
208	118	96	246	178	156	31	32	4	
208	118	156	246	178	216	31	32	4	
222	0	0	312	52	77	33	33	4	
312	0	0	402	52	77	33	33	4	
402	0	0	492	52	77	33	33	4	
222	0	77	303	24	116	28	34	4	
222	0	116	303	24	155	28	34	4	
222	24	77	303	48	116	28	34	4	
222	24	116	303	48	155	28	34	4	
222	0	155	258	44	210	30	35	4	
256	55	146	292	99	201	30	36	4	
258	0	155	302	36	210	30	37	4	
266	120	23	348	178	46	27	38	4	
267	178	0	343	233	106	34	39	4	
267	178	106	343	233	212	34	39	4	
266	120	46	340	178	107	35	40	4	
266	120	107	340	178	168	35	40	4	
266	120	168	332	178	192	29	41	4	
303	0	77	401	44	150	32	42	4	
294	52	0	332	112	60	31	43	4	
266	120	192	332	178	216	37	44	5	
294	52	60	332	112	120	39	45	5	
294	52	120	332	112	180	39	45	5	
303	0	150	339	44	205	38	46	5	
332	52	0	406	113	58	42	47	5	
332	52	58	406	113	116	42	47	5	
332	52	116	406	113	174	42	47	5	
332	52	174	392	112	212	39	48	5	
339	0	150	399	38	210	39	49	5	
401	0	77	491	52	154	40	50	5	
401	0	154	482	24	193	36	51	5	
401	24	154	482	48	193	36	51	5	
343	178	0	419	233	106	41	52	5	
343	178	106	419	233	212	41	52	5	
419	178	0	495	233	106	41	52	5	
419	178	106	495	233	212	41	52	5	
348	126	0	425	178	90	40	53	5	
425	126	0	502	178	90	40	53	5	
502	126	0	579	178	90	40	53	5	
348	139	90	429	178	114	36	54	5	
348	139	114	429	178	138	44	55	6	
348	140	138	408	178	198	47	56	6	
429	126	90	506	178	180	48	57	6	
406	52	0	466	125	105	50	58	6	
466	52	0	526	125	105	50	58	6	
429	134	180	484	178	216	46	59	6	
406	52	105	464	118	129	45	60	6	
406	52	129	464	118	153	45	60	6	
406	52	153	464	118	177	45	60	6	
406	52	177	464	118	201	45	60	6	
495	178	0	571	233	106	49	61	6	
526	0	0	584	82	23	43	62	6	
464	52	105	524	125	210	57	63	7	
495	178	106	571	233	212	55	64	7	
506	134	90	561	178	126	53	65	7	
526	0	23	584	82	46	51	66	7	
526	0	46	584	82	69	51	66	7	
526	0	69	584	82	92	51	66	7	
526	0	92	584	74	153	56	67	7	
526	0	153	584	74	214	56	67	7	
526	82	0	586	120	60	54	68	7	
587	0	0	653	58	24	52	69	7	
654	0	0	736	58	23	58	70	8	
654	0	23	736	58	46	58	70	8	
737	0	0	818	39	24	59	71	8	
737	0	24	818	39	48	59	71	8	
819	0	0	885	58	24	60	72	8	
819	0	24	885	58	48	60	72	8	
819	0	48	885	58	72	60	72	8	
886	0	0	941	44	36	61	73	8	
942	0	0	1002	60	38	62	74	8	
942	0	38	1002	60	76	62	74	8	
1003	0	0	1101	73	44	63	75	8	
1003	0	44	1101	73	88	63	75	8	
1003	0	88	1101	73	132	63	75	8	
1102	0	0	1192	77	52	64	76	8	
1102	0	52	1192	77	104	64	76	8	
1193	0	0	1275	58	23	65	77	9	
1193	0	23	1275	58	46	65	77	9	
1276	0	0	1357	39	24	66	78	9	
1276	0	24	1357	39	48	66	78	9	
1358	0	0	1424	58	24	67	79	9	
1425	0	0	1480	44	36	68	80	9	
1425	0	36	1480	44	72	68	80	9	
1481	0	0	1541	60	38	69	81	9	
1542	0	0	1632	77	52	70	82	9	
1542	0	52	1632	77	104	70	82	9	
1542	0	104	1632	77	156	70	82	9	
1633	0	0	1739	76	55	71	83	9	
1633	0	55	1739	76	110	71	83	9	
1740	0	0	1845	73	60	72	84	9	
