60	10	587	233	220
23923052	19427317
0	0	0	51	84	78	2	1	0	
0	84	0	51	168	78	2	1	0	
51	0	0	102	84	78	2	1	0	
51	84	0	102	168	78	2	1	0	
0	175	0	73	233	52	3	2	0	
0	175	52	73	233	104	3	2	0	
0	175	104	73	233	156	3	2	0	
0	0	78	100	37	122	0	3	0	
0	0	122	100	37	166	0	3	0	
0	37	78	90	115	133	4	4	0	
0	118	78	81	168	147	1	5	0	
102	0	0	175	73	109	5	6	0	
0	37	133	51	115	217	10	7	1	
0	181	156	73	233	214	11	8	1	
0	118	147	81	168	216	9	9	1	
102	0	109	175	73	218	12	10	1	
73	168	0	115	233	57	8	11	1	
73	168	57	115	233	114	8	11	1	
73	168	114	115	233	171	8	11	1	
102	80	0	202	124	37	6	12	1	
102	124	0	202	168	37	6	12	1	
102	83	37	160	168	78	7	13	1	
102	84	78	153	168	156	10	14	1	
115	182	0	193	233	84	17	15	2	
115	182	84	193	233	168	17	15	2	
193	182	0	271	233	84	17	15	2	
193	182	84	271	233	168	17	15	2	
115	196	168	215	233	212	13	16	2	
160	83	37	201	168	95	14	17	2	
160	83	95	201	168	153	14	17	2	
175	0	0	230	78	90	18	18	2	
175	0	90	230	78	180	18	19	2	
202	98	0	259	140	65	15	20	2	
202	140	0	259	182	65	15	20	2	
202	101	65	252	182	134	16	21	2	
102	103	156	144	168	213	20	22	3	
160	83	153	201	168	211	19	23	3	
202	113	134	252	182	215	21	24	3	
230	0	0	308	55	90	24	25	3	
308	0	0	386	55	90	24	25	3	
230	0	90	303	52	148	23	26	3	
230	0	148	303	52	206	23	26	3	
271	182	0	349	233	84	22	27	3	
230	55	0	315	96	58	25	28	4	
259	98	0	310	182	78	27	29	4	
259	98	78	310	182	156	27	29	4	
271	183	84	340	233	165	26	30	4	
310	109	0	383	182	109	28	31	4	
259	117	156	301	182	213	31	32	5	
303	0	90	381	55	180	34	33	5	
310	109	109	383	182	218	35	34	5	
230	55	58	315	96	116	30	35	5	
230	55	116	315	96	174	30	35	5	
315	55	0	388	107	58	33	36	5	
315	55	58	388	107	116	33	36	5	
315	55	116	380	97	173	31	37	5	
349	182	0	427	233	84	32	38	5	
383	138	0	483	182	37	29	39	5	
349	183	84	418	233	165	38	40	6	
383	138	37	483	182	74	36	41	6	
383	141	74	468	182	132	37	42	6	
386	0	0	476	55	78	39	43	6	
386	0	78	467	50	147	38	44	6	
386	0	147	467	50	216	38	44	6	
388	55	0	461	128	109	40	45	6	
388	55	109	461	128	218	40	45	6	
427	183	0	508	233	69	38	46	6	
427	183	69	508	233	138	38	46	6	
427	183	138	508	233	207	38	46	6	
383	141	132	468	182	190	42	47	7	
461	55	0	534	128	109	48	48	7	
461	55	109	534	128	218	48	48	7	
476	0	0	566	55	78	47	49	7	
476	0	78	566	55	156	47	49	7	
476	0	156	549	52	214	46	50	7	
483	139	0	583	183	37	41	51	7	
483	139	37	583	183	74	41	51	7	
483	141	74	540	183	139	43	52	7	
483	141	139	540	183	204	43	52	7	
508	183	0	577	233	81	44	53	7	
508	183	81	577	233	162	44	53	7	
534	55	0	585	133	84	45	54	7	
534	55	84	585	133	168	45	54	7	
587	0	0	671	78	51	45	55	7	
672	0	0	737	57	42	49	56	8	
672	0	42	737	57	84	49	56	8	
738	0	0	819	69	50	50	57	8	
820	0	0	904	78	51	51	58	8	
905	0	0	995	78	55	52	59	8	
996	0	0	1105	73	73	53	60	8	
996	0	73	1105	73	146	53	60	8	
1106	0	0	1206	44	37	54	61	9	
1106	0	37	1206	44	74	54	61	9	
1207	0	0	1292	58	41	55	62	9	
1207	0	41	1292	58	82	55	62	9	
1207	0	82	1292	58	123	55	62	9	
1207	0	123	1292	58	164	55	62	9	
1293	0	0	1377	78	51	56	63	9	
1293	0	51	1377	78	102	56	63	9	
1378	0	0	1451	58	52	57	64	9	
1452	0	0	1542	78	55	58	65	9	
1543	0	0	1652	73	73	59	66	9	
