87	10	587	233	220
21180876	14765801
0	0	0	81	71	43	6	1	0	
0	0	43	81	71	86	6	1	0	
0	0	86	81	71	129	6	1	0	
0	0	129	70	58	214	8	2	0	
0	141	0	39	233	68	4	3	0	
0	141	68	39	233	136	4	3	0	
0	180	136	37	233	197	2	4	0	
0	71	0	82	132	89	9	5	0	
0	71	89	80	128	151	7	6	0	
39	135	0	150	233	39	5	7	0	
39	157	39	147	195	98	3	8	0	
39	195	39	147	233	98	3	8	0	
39	161	98	133	197	149	1	9	0	
39	197	98	133	233	149	1	9	0	
82	0	0	168	90	29	0	10	0	
0	71	151	80	128	213	20	11	1	
39	161	149	112	233	203	19	12	1	
82	90	0	171	131	67	15	13	1	
171	90	0	260	131	67	15	13	1	
82	90	67	174	129	135	14	14	1	
82	90	135	174	129	203	14	14	1	
82	0	29	155	52	83	18	15	1	
82	0	83	155	52	137	18	15	1	
82	0	137	155	52	191	18	15	1	
82	0	191	138	32	219	10	16	1	
82	52	29	164	90	80	12	17	1	
150	133	0	264	233	45	16	18	1	
150	133	45	264	233	90	16	18	1	
150	143	90	236	233	119	11	19	1	
150	143	119	236	233	148	11	19	1	
150	144	148	232	233	209	21	20	1	
168	0	0	285	49	87	17	21	1	
168	49	0	276	87	59	13	22	1	
264	179	0	336	233	73	19	23	1	
82	52	80	135	89	141	23	24	2	
82	52	141	112	82	177	22	25	2	
168	0	87	285	49	174	25	26	2	
174	90	67	236	130	137	24	27	2	
264	121	0	334	179	85	27	28	2	
264	121	85	334	179	170	27	28	2	
264	179	73	316	233	146	26	29	2	
168	49	59	221	86	120	28	30	3	
221	49	59	274	86	120	28	30	3	
276	49	0	358	110	89	30	31	3	
336	122	0	434	233	39	29	32	3	
434	122	0	532	233	39	29	32	3	
82	52	177	112	82	213	32	33	4	
168	0	174	224	28	206	31	34	4	
168	49	120	262	85	171	33	35	4	
276	49	89	358	110	178	39	36	4	
276	49	178	358	100	216	34	37	4	
336	122	39	434	233	78	36	38	4	
285	0	0	374	41	67	37	39	4	
336	165	78	428	233	117	35	40	4	
336	172	117	425	233	199	39	41	4	
358	41	0	416	111	85	38	42	4	
224	0	174	280	28	206	40	43	5	
285	0	67	374	41	134	46	44	5	
285	0	134	347	40	204	45	45	5	
336	129	78	430	165	129	41	46	5	
358	41	85	416	111	170	51	47	5	
358	41	170	411	102	207	42	48	5	
374	0	0	482	38	59	43	49	5	
374	0	59	482	38	118	43	49	5	
374	0	118	427	37	179	42	50	5	
416	38	0	478	118	57	50	51	5	
416	38	57	478	104	116	52	52	5	
416	38	116	470	90	189	48	53	5	
434	122	39	532	233	78	44	54	5	
434	163	78	519	233	136	51	55	5	
434	179	136	506	233	209	49	56	5	
482	0	0	582	114	45	47	57	5	
434	124	78	526	163	146	54	58	6	
482	0	45	580	111	84	55	59	6	
482	0	84	580	111	123	55	59	6	
482	0	123	520	108	182	53	60	6	
520	0	123	577	62	203	59	61	6	
532	160	0	586	233	72	58	62	6	
532	162	72	575	233	153	56	63	6	
587	0	0	704	87	49	57	64	6	
705	0	0	795	86	29	60	65	7	
796	0	0	832	30	30	61	66	7	
833	0	0	927	51	36	62	67	7	
928	0	0	1036	59	38	63	68	7	
1037	0	0	1148	98	39	64	69	7	
1149	0	0	1219	62	40	65	70	7	
1149	0	40	1219	62	80	65	70	7	
1220	0	0	1301	71	43	66	71	7	
1220	0	43	1301	71	86	66	71	7	
1302	0	0	1419	87	49	67	72	7	
1302	0	49	1419	87	98	67	72	7	
1420	0	0	1493	54	52	68	73	7	
1494	0	0	1574	62	57	69	74	7	
1575	0	0	1641	62	59	70	75	7	
1642	0	0	1731	82	61	71	76	7	
1732	0	0	1768	30	30	72	77	8	
1769	0	0	1830	53	37	73	78	8	
1831	0	0	1945	100	45	74	79	8	
1946	0	0	2019	72	54	75	80	8	
2020	0	0	2109	82	61	76	81	8	
2110	0	0	2200	86	29	77	82	9	
2201	0	0	2262	53	37	78	83	9	
2263	0	0	2345	51	38	79	84	9	
2346	0	0	2454	59	38	80	85	9	
2455	0	0	2525	62	40	81	86	9	
2526	0	0	2607	71	43	82	87	9	
2608	0	0	2725	87	49	83	88	9	
2726	0	0	2799	54	52	84	89	9	
2800	0	0	2885	70	58	85	90	9	
2886	0	0	2952	62	59	86	91	9	
