30	10	587	233	220
25284288	18264216
0	0	0	66	108	54	2	1	0	
0	0	54	66	108	108	2	1	0	
0	108	0	66	216	54	2	1	0	
0	108	54	66	216	108	2	1	0	
0	0	108	62	74	141	1	2	0	
0	0	141	62	74	174	1	2	0	
0	0	174	62	74	207	1	2	0	
0	74	108	62	148	141	1	2	0	
0	74	141	62	148	174	1	2	0	
0	74	174	62	148	207	1	2	0	
66	0	0	135	101	20	0	3	0	
66	0	20	135	101	40	0	3	0	
66	0	40	135	101	60	0	3	0	
66	101	0	135	202	20	0	3	0	
66	101	20	135	202	40	0	3	0	
66	101	40	135	202	60	0	3	0	
66	0	60	135	101	80	3	4	1	
66	0	80	135	101	100	3	4	1	
66	0	100	135	101	120	3	4	1	
66	0	120	135	101	140	3	4	1	
66	0	140	135	101	160	3	4	1	
66	0	160	135	101	180	3	4	1	
66	0	180	135	101	200	3	4	1	
66	128	60	99	202	122	4	5	1	
66	128	122	99	202	184	4	5	1	
99	128	60	132	202	122	4	5	1	
99	128	122	132	202	184	4	5	1	
135	0	0	189	108	66	5	6	1	
135	0	66	189	108	132	5	6	1	
135	0	132	189	108	198	5	6	1	
135	125	0	201	233	54	8	7	2	
135	125	54	201	233	108	8	7	2	
135	125	108	201	233	162	8	7	2	
135	125	162	201	233	216	8	7	2	
189	0	0	263	62	33	7	8	2	
189	62	0	263	124	33	7	8	2	
189	0	33	263	62	66	7	9	2	
201	125	0	255	233	66	8	10	2	
255	132	0	324	233	20	6	11	2	
255	132	20	324	233	40	6	11	2	
201	125	66	255	233	132	11	12	3	
201	125	132	255	233	198	11	12	3	
189	0	66	263	62	99	10	13	3	
189	0	99	263	62	132	10	13	3	
189	0	132	263	62	165	10	13	3	
189	0	165	263	62	198	10	13	3	
255	132	40	324	233	60	9	14	3	
255	132	60	324	233	80	9	14	3	
255	132	80	324	233	100	9	14	3	
255	132	100	324	233	120	9	14	3	
255	132	120	324	233	140	9	14	3	
255	132	140	324	233	160	9	14	3	
255	132	160	324	233	180	9	14	3	
189	62	33	263	124	66	13	15	4	
189	62	66	263	124	99	13	15	4	
189	62	99	263	124	132	13	15	4	
189	62	132	263	124	165	13	15	4	
189	62	165	263	124	198	13	15	4	
255	132	180	324	233	200	12	16	4	
255	132	200	324	233	220	12	16	4	
263	0	0	371	66	54	14	17	4	
371	0	0	479	66	54	14	17	4	
479	0	0	587	66	54	14	17	4	
263	66	0	337	99	62	13	18	4	
263	66	62	337	99	124	13	18	4	
263	66	124	337	99	186	13	18	4	
263	99	0	337	132	62	13	18	4	
263	99	62	337	132	124	13	18	4	
263	99	124	337	132	186	13	18	4	
324	132	0	393	233	20	12	19	4	
393	132	0	462	233	20	12	19	4	
462	132	0	531	233	20	12	19	4	
324	132	20	393	233	40	12	20	4	
393	132	20	462	233	40	12	20	4	
66	0	200	135	101	220	15	21	5	
263	66	186	337	128	219	16	22	5	
263	0	54	371	66	108	17	23	5	
371	0	54	479	66	108	17	23	5	
479	0	54	587	66	108	17	23	5	
263	0	108	371	66	162	17	24	5	
263	0	162	371	66	216	17	24	5	
324	132	40	393	233	60	15	25	5	
393	132	40	462	233	60	15	25	5	
324	132	60	393	233	80	15	26	5	
337	66	0	445	132	54	17	27	5	
324	159	80	357	233	142	16	28	5	
357	159	80	390	233	142	16	28	5	
324	159	142	386	233	175	16	29	5	
324	159	175	386	233	208	19	30	6	
371	0	108	479	66	162	20	31	6	
479	0	108	587	66	162	20	31	6	
337	66	54	445	132	108	20	32	6	
337	66	108	445	132	162	20	32	6	
337	66	162	445	132	216	20	32	6	
393	132	60	462	233	80	18	33	6	
393	132	80	462	233	100	18	33	6	
393	132	100	462	233	120	18	33	6	
393	132	120	462	233	140	18	33	6	
393	132	140	462	233	160	18	33	6	
393	132	160	462	233	180	18	33	6	
371	0	162	479	66	216	23	34	7	
393	132	180	462	233	200	21	35	7	
393	132	200	462	233	220	21	35	7	
445	66	0	553	132	54	23	36	7	
445	66	54	519	99	116	22	37	7	
445	66	116	519	99	178	22	37	7	
445	99	54	519	132	116	22	37	7	
445	99	116	519	132	178	22	37	7	
462	132	20	531	233	40	21	38	7	
462	132	40	531	233	60	21	38	7	
445	66	178	519	128	211	25	39	8	
479	0	162	587	66	216	26	40	8	
462	132	60	531	233	80	24	41	8	
462	132	80	531	233	100	24	41	8	
462	132	100	531	233	120	24	41	8	
462	132	120	531	233	140	24	41	8	
462	132	140	531	233	160	24	41	8	
462	159	160	524	233	193	25	42	8	
531	159	0	564	233	62	25	43	8	
531	159	62	564	233	124	25	43	8	
531	159	124	564	233	186	25	43	8	
553	66	0	586	140	62	25	44	8	
553	66	62	586	140	124	25	44	8	
587	0	0	695	66	54	26	45	8	
587	0	54	695	66	108	26	45	8	
696	0	0	797	69	20	27	46	9	
696	0	20	797	69	40	27	46	9	
798	0	0	872	62	33	28	47	9	
798	0	33	872	62	66	28	47	9	
798	0	66	872	62	99	28	47	9	
798	0	99	872	62	132	28	47	9	
798	0	132	872	62	165	28	47	9	
873	0	0	981	66	54	29	48	9	
873	0	54	981	66	108	29	48	9	
873	0	108	981	66	162	29	48	9	
873	0	162	981	66	216	29	48	9	
873	0	216	981	66	270	29	48	9	
873	0	270	981	66	324	29	48	9	
