43	10	587	233	220
25312656	18136876
0	0	0	59	76	109	2	1	0	
0	0	109	59	76	218	2	1	0	
0	154	0	78	233	48	1	2	0	
0	154	48	78	233	96	1	2	0	
0	154	96	78	233	144	1	2	0	
0	76	0	72	153	105	3	3	0	
0	203	144	48	233	181	0	4	0	
0	203	181	48	233	218	0	4	0	
0	155	144	30	203	181	0	5	0	
0	76	105	72	153	210	8	6	1	
30	155	144	60	203	181	4	7	1	
30	155	181	60	203	218	4	7	1	
59	0	0	150	45	54	5	8	1	
150	0	0	241	45	54	5	8	1	
241	0	0	332	45	54	5	8	1	
332	0	0	423	45	54	5	8	1	
423	0	0	514	45	54	5	8	1	
59	0	54	89	37	102	4	9	1	
59	0	102	89	37	150	4	9	1	
72	45	0	131	154	76	7	10	1	
72	45	76	120	124	154	6	11	1	
78	156	0	150	233	105	8	12	1	
78	156	105	150	233	210	13	13	2	
72	124	76	109	154	124	9	14	2	
89	0	54	180	45	108	10	15	2	
89	0	108	180	45	162	10	15	2	
89	0	162	180	45	216	10	15	2	
131	45	0	207	104	109	12	16	2	
131	45	109	207	104	218	12	16	2	
180	0	54	271	45	108	10	17	2	
131	108	0	209	156	79	11	18	2	
131	108	79	209	156	158	11	18	2	
150	156	0	222	233	105	13	19	2	
131	126	158	168	156	206	14	20	3	
207	45	0	285	93	79	15	21	3	
207	45	79	285	93	158	15	21	3	
222	156	0	294	233	105	16	22	3	
294	156	0	366	233	105	16	22	3	
366	156	0	438	233	105	16	22	3	
150	156	105	222	233	210	21	23	4	
168	108	158	205	156	188	17	24	4	
168	108	188	205	156	218	17	24	4	
180	0	108	271	45	162	18	25	4	
180	0	162	271	45	216	18	25	4	
207	45	158	237	82	206	17	26	4	
237	45	158	267	82	206	17	26	4	
209	97	0	318	156	76	20	27	4	
209	97	76	318	156	152	20	27	4	
318	97	0	427	156	76	20	27	4	
318	97	76	427	156	152	20	27	4	
209	111	152	300	156	206	18	28	4	
222	156	105	294	233	210	21	29	4	
294	156	105	366	233	210	21	29	4	
285	45	0	364	93	78	19	30	4	
285	45	78	364	93	156	19	30	4	
271	0	54	362	45	108	23	31	5	
300	126	152	337	156	200	22	32	5	
337	126	152	374	156	200	22	32	5	
364	45	0	442	93	79	24	33	5	
442	45	0	520	93	79	24	33	5	
366	156	105	438	233	210	26	34	5	
438	157	0	497	233	109	25	35	5	
285	45	156	322	93	186	27	36	6	
322	45	156	359	93	186	27	36	6	
364	45	79	442	93	158	28	37	6	
427	97	0	503	156	109	29	38	6	
427	97	109	503	156	218	29	38	6	
438	157	109	497	233	218	29	39	6	
442	45	79	520	93	158	28	40	6	
497	156	0	569	233	105	30	41	6	
271	0	108	362	45	162	32	42	7	
271	0	162	362	45	216	32	42	7	
285	45	186	322	93	216	31	43	7	
322	45	186	359	93	216	31	43	7	
364	45	158	401	75	206	31	44	7	
362	0	54	453	45	108	32	45	7	
497	156	105	569	233	210	34	46	7	
503	97	0	579	156	109	33	47	7	
503	97	109	579	156	218	42	48	9	
362	0	108	453	45	162	40	49	9	
362	0	162	453	45	216	40	49	9	
401	45	158	438	75	206	39	50	9	
520	0	0	568	78	79	41	51	9	
520	0	79	568	78	158	41	51	9	
587	0	0	692	77	72	34	52	7	
587	0	72	692	77	144	34	52	7	
693	0	0	741	37	30	35	53	8	
742	0	0	821	78	48	36	54	8	
822	0	0	931	76	59	37	55	8	
932	0	0	1037	77	72	38	56	8	
932	0	72	1037	77	144	38	56	8	
1038	0	0	1117	78	48	41	57	9	
1118	0	0	1227	76	59	42	58	9	
