79	10	587	233	220
22829127	18611536
0	0	0	84	46	63	4	1	0	
0	0	63	84	46	126	4	1	0	
0	0	126	84	46	189	4	1	0	
0	182	0	72	233	78	5	2	0	
0	182	78	72	233	156	5	2	0	
0	191	156	66	233	199	2	3	0	
0	46	0	67	90	84	3	4	0	
0	46	84	67	90	168	3	4	0	
0	129	0	115	182	77	6	5	0	
0	130	77	80	182	111	1	6	0	
0	130	111	80	182	145	1	6	0	
0	130	145	80	182	179	1	6	0	
0	90	0	87	122	45	0	7	0	
0	90	45	87	122	90	0	8	0	
0	90	90	87	122	135	0	8	0	
72	182	0	144	233	78	5	9	0	
84	0	0	175	62	93	9	10	0	
84	0	93	171	61	171	8	11	0	
87	62	0	177	122	71	7	12	0	
72	182	78	144	233	156	27	13	3	
87	62	71	174	107	103	24	14	3	
87	62	103	174	107	135	24	14	3	
87	62	135	174	107	167	24	14	3	
115	129	0	230	182	77	29	15	3	
115	129	77	230	182	154	29	16	3	
115	139	154	157	182	220	25	17	3	
157	139	154	199	182	220	25	17	3	
144	189	0	211	233	84	26	18	3	
175	0	0	227	58	73	28	19	3	
84	0	171	164	52	205	33	20	4	
87	62	167	128	102	215	34	21	4	
128	62	167	169	102	215	34	21	4	
175	0	73	227	58	146	36	22	4	
175	0	146	227	58	219	36	22	4	
177	58	0	259	111	92	37	23	4	
177	58	92	259	111	184	37	23	4	
177	58	184	257	110	218	33	24	4	
211	182	0	283	233	78	35	25	4	
283	182	0	355	233	78	35	25	4	
211	188	78	298	233	110	32	26	4	
211	188	110	298	233	142	32	26	4	
227	0	0	296	54	102	38	27	4	
230	121	0	308	182	87	39	28	4	
72	193	156	113	233	204	41	29	5	
211	201	142	298	233	187	40	30	5	
227	0	102	285	52	175	42	31	5	
230	121	87	308	182	174	44	32	5	
259	54	0	330	114	90	43	33	5	
330	54	0	401	114	90	43	33	5	
308	120	0	399	182	93	45	34	5	
227	0	175	267	48	216	49	35	6	
230	127	174	306	182	204	46	36	6	
259	54	90	328	108	192	54	37	6	
298	190	78	340	233	144	50	38	6	
296	0	0	378	53	92	53	39	6	
296	0	92	376	52	126	48	40	6	
296	0	126	376	52	160	48	40	6	
308	120	93	399	182	186	55	41	6	
308	137	186	395	182	218	47	42	6	
328	54	90	400	105	168	51	43	6	
355	182	0	427	233	78	51	44	6	
378	0	0	493	53	77	52	45	6	
296	0	160	372	30	215	56	46	7	
298	190	144	340	233	210	57	47	7	
355	182	78	427	233	156	60	48	7	
378	0	77	493	53	154	61	49	7	
378	0	154	462	46	217	59	50	7	
399	115	0	483	182	44	58	51	7	
399	119	44	483	182	90	59	52	7	
399	129	90	481	182	182	62	53	7	
401	53	0	494	115	91	64	54	7	
401	53	91	491	113	162	63	55	7	
401	53	162	477	83	217	56	56	7	
355	190	156	421	233	198	67	57	8	
401	83	162	477	113	217	65	58	8	
427	187	0	511	233	63	69	59	8	
427	187	63	511	233	126	69	59	8	
427	187	126	511	233	189	69	59	8	
483	120	0	567	187	44	68	60	8	
483	126	44	561	187	131	71	61	8	
483	126	131	561	187	218	71	61	8	
493	0	0	566	52	58	70	62	8	
493	0	58	566	52	116	70	62	8	
494	52	0	587	114	91	72	63	8	
494	52	91	581	97	123	66	64	8	
494	52	123	581	97	155	66	64	8	
494	52	155	581	97	187	66	64	8	
493	0	116	566	52	174	76	65	9	
493	0	174	559	42	217	74	66	9	
511	187	0	574	233	84	75	67	9	
511	192	84	559	233	124	73	68	9	
587	0	0	674	45	32	10	69	1	
675	0	0	755	52	34	11	70	1	
756	0	0	822	43	42	12	71	1	
756	0	42	822	43	84	12	71	1	
823	0	0	901	72	51	13	72	1	
823	0	51	901	72	102	13	72	1	
902	0	0	975	58	52	14	73	1	
976	0	0	1078	69	54	15	74	1	
1079	0	0	1155	55	30	16	75	2	
1156	0	0	1243	45	32	17	76	2	
1156	0	32	1243	45	64	17	76	2	
1244	0	0	1324	52	34	18	77	2	
1325	0	0	1373	41	40	19	78	2	
1374	0	0	1452	72	51	20	79	2	
1453	0	0	1526	58	52	21	80	2	
1527	0	0	1617	71	60	22	81	2	
1618	0	0	1705	78	61	23	82	2	
1618	0	61	1705	78	122	23	82	2	
1706	0	0	1808	69	54	30	83	3	
1809	0	0	1902	91	62	31	84	3	
1903	0	0	1995	82	53	77	85	9	
1903	0	53	1995	82	106	77	85	9	
1903	0	106	1995	82	159	77	85	9	
1996	0	0	2089	91	62	78	86	9	
