99	10	587	233	220
22201664	18238255
0	0	0	85	89	33	5	1	0	
0	0	33	85	89	66	5	1	0	
0	0	66	44	54	142	7	2	0	
0	0	142	44	54	218	7	2	0	
0	54	66	79	88	132	6	3	0	
0	54	132	79	88	198	6	3	0	
0	120	0	50	233	64	9	4	0	
0	120	64	50	233	128	9	4	0	
0	89	0	79	120	54	3	5	0	
0	89	54	79	120	108	3	5	0	
0	89	108	79	120	162	3	5	0	
0	89	162	66	115	195	1	6	0	
0	137	128	50	169	160	4	7	0	
0	169	128	50	201	160	4	7	0	
0	201	128	50	233	160	4	7	0	
0	169	160	48	233	206	8	8	0	
50	138	0	165	233	22	0	9	0	
50	153	22	79	233	66	2	10	0	
0	54	198	79	79	220	11	11	1	
0	137	160	32	169	210	13	12	1	
50	167	66	76	233	99	12	13	1	
79	89	0	127	135	64	17	14	1	
79	89	64	127	135	128	17	14	1	
79	144	22	164	233	55	14	15	1	
79	144	55	164	233	88	14	16	1	
79	144	88	164	233	121	14	17	1	
79	189	121	133	233	197	16	18	1	
79	155	121	158	189	187	15	19	1	
85	0	0	198	64	50	18	20	1	
165	117	0	258	233	21	10	21	1	
165	117	21	258	233	42	10	22	1	
165	117	42	258	233	63	10	22	1	
165	117	63	258	233	84	10	22	1	
85	64	0	164	86	25	20	23	2	
85	64	25	164	86	50	20	23	2	
85	64	50	164	86	75	20	23	2	
85	64	75	164	86	100	20	23	2	
85	64	100	164	86	125	20	23	2	
85	64	125	164	86	150	20	23	2	
79	89	128	127	135	192	27	24	2	
85	0	50	198	64	100	28	25	2	
85	0	100	198	64	150	28	25	2	
85	0	150	151	26	183	22	26	2	
85	0	183	151	26	216	22	26	2	
85	26	150	151	52	183	22	26	2	
85	26	183	151	52	216	22	26	2	
164	64	0	218	108	76	26	27	2	
164	64	76	218	108	152	26	27	2	
165	117	84	258	233	105	19	28	2	
165	148	105	254	233	138	25	29	2	
165	148	138	254	233	171	25	29	2	
165	153	171	194	233	215	23	30	2	
165	117	105	244	148	159	24	31	2	
218	0	0	313	115	22	21	32	2	
218	0	22	313	115	44	21	32	2	
218	0	44	313	115	66	21	32	2	
194	157	171	248	233	215	35	33	3	
151	0	150	197	48	214	36	34	3	
165	117	159	244	148	213	33	35	3	
218	0	66	303	89	99	34	36	3	
218	89	66	284	115	99	32	37	3	
218	89	99	284	115	132	32	37	3	
218	89	132	284	115	165	32	37	3	
218	0	99	240	79	124	30	38	3	
218	0	124	240	79	149	30	38	3	
258	140	0	374	233	21	29	39	3	
258	140	21	374	233	42	29	39	3	
374	140	0	490	233	21	29	39	3	
374	140	21	490	233	42	29	39	3	
258	140	42	374	233	63	29	40	3	
313	0	0	408	115	22	31	41	3	
218	89	165	284	115	198	40	42	4	
218	0	149	240	79	174	38	43	4	
218	0	174	240	79	199	38	43	4	
240	0	99	294	44	175	44	44	4	
240	44	99	294	88	175	44	44	4	
240	0	175	294	76	219	44	45	4	
313	0	22	408	115	44	39	46	4	
313	0	44	377	113	94	46	47	4	
258	115	0	337	140	22	38	48	4	
258	140	63	374	233	84	37	49	4	
258	140	84	374	233	105	37	49	4	
258	140	105	374	233	126	37	49	4	
258	141	126	306	187	190	45	50	4	
258	187	126	306	233	190	45	50	4	
258	153	190	302	233	219	41	51	4	
313	0	94	377	48	140	45	52	4	
313	48	94	377	96	140	45	52	4	
306	154	126	340	233	192	43	53	4	
340	154	126	374	233	192	43	53	4	
374	144	42	459	233	75	42	54	4	
374	144	75	459	233	108	42	54	4	
313	0	140	367	44	216	44	55	4	
313	44	140	367	88	216	44	55	4	
306	154	192	328	233	217	48	56	5	
374	145	108	454	189	137	51	57	5	
374	189	108	454	233	137	51	57	5	
328	154	192	350	233	217	48	58	5	
374	145	137	450	189	191	55	59	5	
374	189	137	450	233	191	55	59	5	
258	115	22	337	140	44	48	60	5	
374	200	191	440	233	217	50	61	5	
377	0	44	408	79	98	52	62	5	
377	0	98	408	79	152	52	62	5	
377	0	152	408	79	206	52	62	5	
408	0	0	487	66	34	54	63	5	
408	66	0	487	132	34	54	63	5	
408	0	34	472	113	84	57	64	5	
408	0	84	472	48	130	56	65	5	
408	0	130	458	32	162	53	66	5	
487	0	0	582	115	22	49	67	5	
490	117	0	583	233	21	47	68	5	
258	115	44	337	140	66	59	69	6	
258	115	66	337	140	88	59	69	6	
408	0	162	458	32	194	62	70	6	
408	48	84	472	96	130	66	71	6	
408	48	130	462	92	206	65	72	6	
459	154	42	490	233	96	61	73	6	
459	154	96	490	233	150	61	73	6	
459	154	150	490	233	204	61	73	6	
487	0	22	582	115	44	60	74	6	
487	0	44	582	115	66	60	74	6	
487	0	66	537	113	130	67	75	6	
487	0	130	537	113	194	67	75	6	
490	117	21	583	233	42	58	76	6	
490	117	42	583	233	63	58	76	6	
490	148	63	579	233	96	63	77	6	
490	148	96	579	233	129	63	77	6	
490	154	129	556	233	163	64	78	6	
490	201	163	522	233	213	62	79	6	
258	115	88	337	140	110	69	80	7	
258	115	110	337	140	132	69	80	7	
258	115	132	337	140	154	69	80	7	
537	0	66	581	80	95	71	81	7	
487	0	194	520	66	220	70	82	7	
490	117	63	569	148	117	72	83	7	
490	117	117	569	148	171	72	83	7	
490	155	163	554	201	211	77	84	7	
522	201	163	554	233	213	73	85	7	
537	0	95	581	76	149	76	86	7	
537	0	149	569	32	199	73	87	7	
587	0	0	703	93	21	68	88	7	
704	0	0	783	54	31	72	89	7	
784	0	0	873	85	33	74	90	7	
784	0	33	873	85	66	74	90	7	
874	0	0	953	66	34	75	91	7	
874	0	34	953	66	68	75	91	7	
954	0	0	1070	93	21	78	92	8	
1071	0	0	1186	95	22	79	93	8	
1071	0	22	1186	95	44	79	93	8	
1187	0	0	1253	33	26	80	94	8	
1254	0	0	1334	44	29	81	95	8	
1254	0	29	1334	44	58	81	95	8	
1335	0	0	1414	54	31	82	96	8	
1415	0	0	1465	32	32	83	97	8	
1415	0	32	1465	32	64	83	97	8	
1466	0	0	1555	85	33	84	98	8	
1466	0	33	1555	85	66	84	98	8	
1556	0	0	1635	66	34	85	99	8	
1556	0	34	1635	66	68	85	99	8	
1556	0	68	1635	66	102	85	99	8	
1556	0	102	1635	66	136	85	99	8	
1636	0	0	1712	54	44	86	100	8	
1636	0	44	1712	54	88	86	100	8	
1713	0	0	1777	48	46	87	101	8	
1778	0	0	1894	93	21	88	102	9	
1895	0	0	1974	25	22	89	103	9	
1895	0	22	1974	25	44	89	103	9	
1895	0	44	1974	25	66	89	103	9	
1975	0	0	2041	33	26	90	104	9	
1975	0	26	2041	33	52	90	104	9	
2042	0	0	2122	44	29	91	105	9	
2042	0	29	2122	44	58	91	105	9	
2123	0	0	2202	54	31	92	106	9	
2203	0	0	2253	32	32	93	107	9	
2203	0	32	2253	32	64	93	107	9	
2203	0	64	2253	32	96	93	107	9	
2203	0	96	2253	32	128	93	107	9	
2254	0	0	2343	85	33	94	108	9	
2254	0	33	2343	85	66	94	108	9	
2344	0	0	2423	66	34	95	109	9	
2344	0	34	2423	66	68	95	109	9	
2344	0	68	2423	66	102	95	109	9	
2424	0	0	2500	54	44	96	110	9	
2424	0	44	2500	54	88	96	110	9	
2424	0	88	2500	54	132	96	110	9	
2501	0	0	2565	48	46	97	111	9	
2566	0	0	2679	64	50	98	112	9	
2566	0	50	2679	64	100	98	112	9	
