115	10	587	233	220
22111142	17734454
0	0	0	69	90	55	10	1	0	
69	0	0	138	90	55	10	1	0	
138	0	0	207	90	55	10	1	0	
0	161	0	99	197	63	7	2	0	
0	197	0	99	233	63	7	2	0	
0	120	0	111	161	76	8	3	0	
0	124	76	63	161	97	1	4	0	
0	124	97	63	161	118	1	4	0	
0	125	118	52	161	143	2	5	0	
0	125	143	52	161	168	2	5	0	
0	0	55	44	86	123	9	6	0	
0	0	123	44	86	191	9	6	0	
0	161	63	79	197	115	6	7	0	
0	197	63	79	233	115	6	7	0	
0	90	0	97	120	49	4	8	0	
0	90	49	97	120	98	4	8	0	
0	90	98	91	118	131	3	9	0	
44	0	55	144	48	75	0	10	0	
44	0	75	144	48	95	0	10	0	
44	0	95	139	44	130	5	11	0	
0	90	131	91	118	164	13	12	1	
0	161	115	79	197	167	18	13	1	
0	161	167	79	197	219	18	13	1	
0	197	115	79	233	167	18	13	1	
0	197	167	79	233	219	18	13	1	
0	90	164	52	115	200	12	14	1	
44	0	130	112	44	216	21	15	1	
44	48	55	144	84	116	19	16	1	
44	48	116	144	84	177	19	16	1	
44	48	177	119	78	215	15	17	1	
97	90	0	171	119	47	14	18	1	
97	90	47	171	119	94	14	18	1	
97	90	94	171	119	141	14	18	1	
99	200	0	171	233	52	17	19	1	
171	200	0	243	233	52	17	19	1	
243	200	0	315	233	52	17	19	1	
315	200	0	387	233	52	17	19	1	
99	164	0	198	200	63	20	20	1	
99	203	52	196	233	101	16	21	1	
99	164	63	198	200	126	20	22	1	
144	0	55	199	90	124	22	23	1	
111	120	0	179	164	86	21	24	1	
179	116	0	279	164	20	11	25	1	
179	116	20	279	164	40	11	26	1	
179	116	40	279	164	60	11	26	1	
0	136	168	52	161	204	25	27	2	
97	90	141	171	119	188	27	28	2	
99	203	101	196	233	150	29	29	2	
99	165	126	194	200	170	31	30	2	
99	171	170	173	200	217	27	31	2	
99	203	150	174	233	188	28	32	2	
111	120	86	179	164	172	33	33	2	
111	143	172	174	164	209	24	34	2	
144	0	124	199	69	214	34	35	2	
179	116	60	279	164	80	23	36	2	
179	120	80	274	164	115	31	37	2	
179	131	115	251	164	167	30	38	2	
179	131	167	251	164	219	30	38	2	
196	200	52	287	233	80	26	39	2	
207	0	0	248	111	76	32	40	2	
196	203	80	271	233	118	39	41	3	
196	203	118	271	233	156	39	41	3	
196	204	156	270	233	203	38	42	3	
198	167	0	270	200	52	41	43	3	
198	167	52	270	200	104	41	43	3	
198	167	104	270	200	156	41	43	3	
198	179	156	261	200	193	35	44	3	
207	0	76	243	79	128	43	45	3	
207	0	128	243	79	180	43	45	3	
207	0	180	228	63	217	35	46	3	
248	0	0	334	44	68	45	47	3	
248	0	68	334	44	136	45	47	3	
248	0	136	327	36	188	43	48	3	
248	0	188	300	36	213	36	49	3	
248	44	0	348	80	61	44	50	3	
248	44	61	348	80	122	44	50	3	
248	80	0	343	115	44	42	51	3	
248	80	44	343	115	88	42	51	3	
248	44	122	339	72	155	37	52	3	
248	44	155	339	72	188	37	52	3	
270	170	0	367	200	49	40	53	3	
279	115	0	369	170	69	46	54	3	
248	80	88	343	115	132	54	55	4	
248	80	132	343	115	176	54	55	4	
248	80	176	323	110	214	51	56	4	
270	170	49	367	200	98	52	57	4	
270	170	98	367	200	147	52	57	4	
270	170	147	367	200	196	52	57	4	
279	141	69	353	170	116	50	58	4	
279	141	116	353	170	163	50	58	4	
279	141	163	353	170	210	50	58	4	
279	120	69	342	141	106	48	59	4	
279	120	106	342	141	143	48	59	4	
279	120	143	342	141	180	48	59	4	
279	120	180	342	141	217	48	59	4	
287	203	52	384	233	101	52	60	4	
287	203	101	362	233	139	51	61	4	
287	208	139	339	233	175	49	62	4	
334	0	0	402	44	86	58	63	4	
334	0	86	402	44	172	58	63	4	
402	0	0	470	44	86	58	63	4	
402	0	86	470	44	172	58	63	4	
343	80	0	415	113	52	53	64	4	
348	44	0	448	80	61	56	65	4	
348	44	61	447	80	124	57	66	4	
348	44	124	427	80	176	55	67	4	
369	152	0	469	200	20	47	68	4	
369	152	20	469	200	40	47	68	4	
334	0	172	429	35	216	64	69	5	
348	44	176	423	74	214	62	70	5	
343	80	52	415	113	104	63	71	5	
343	80	104	415	113	156	63	71	5	
343	80	156	406	101	193	59	72	5	
369	114	0	444	152	30	62	73	5	
369	114	30	444	152	60	62	73	5	
369	123	60	443	152	107	61	74	5	
369	156	40	455	200	108	68	75	5	
369	127	107	421	152	143	60	76	5	
369	127	143	421	152	179	60	76	5	
369	164	108	448	200	160	65	77	5	
444	80	0	555	121	76	67	78	5	
444	80	76	555	121	152	67	78	5	
444	80	152	544	116	213	66	79	5	
369	164	160	448	200	212	76	80	6	
387	203	0	462	233	38	73	81	6	
387	203	38	462	233	76	73	81	6	
387	208	76	439	233	112	71	82	6	
387	208	112	439	233	148	71	82	6	
387	208	148	439	233	184	71	82	6	
387	208	184	439	233	220	71	82	6	
444	124	0	535	152	33	72	83	6	
444	124	33	535	152	66	72	83	6	
444	131	66	507	152	103	70	84	6	
444	131	103	507	152	140	70	84	6	
444	131	140	507	152	177	70	84	6	
448	44	0	547	80	63	77	85	6	
448	44	63	547	80	126	77	85	6	
448	44	126	527	80	178	76	86	6	
462	203	0	559	233	49	74	87	6	
469	159	0	537	203	86	79	88	6	
469	159	86	537	203	172	79	88	6	
470	0	0	581	41	76	78	89	6	
470	0	76	542	33	128	75	90	6	
448	44	178	523	74	216	96	91	8	
444	131	177	507	152	214	93	92	8	
462	205	49	553	233	82	95	93	8	
462	205	82	553	233	115	95	93	8	
462	205	115	553	233	148	95	93	8	
462	208	148	514	233	184	94	94	8	
462	208	184	514	233	220	94	94	8	
470	0	128	542	33	180	97	95	8	
537	135	0	581	203	86	102	96	8	
537	135	86	581	203	172	102	96	8	
555	41	0	580	93	36	94	97	8	
555	41	36	580	93	72	94	97	8	
587	0	0	687	48	20	69	98	6	
587	0	20	687	48	40	69	98	6	
688	0	0	778	69	55	80	99	6	
779	0	0	879	48	20	81	100	7	
880	0	0	943	37	21	82	101	7	
880	0	21	943	37	42	82	101	7	
944	0	0	996	36	25	83	102	7	
944	0	25	996	36	50	83	102	7	
997	0	0	1088	33	28	84	103	7	
997	0	28	1088	33	56	84	103	7	
1089	0	0	1164	38	30	85	104	7	
1089	0	30	1164	38	60	85	104	7	
1089	0	60	1164	38	90	85	104	7	
1165	0	0	1262	49	30	86	105	7	
1165	0	30	1262	49	60	86	105	7	
1263	0	0	1335	52	33	87	106	7	
1336	0	0	1431	44	35	88	107	7	
1432	0	0	1511	52	36	89	108	7	
1432	0	36	1511	52	72	89	108	7	
1512	0	0	1612	61	36	90	109	7	
1613	0	0	1724	76	41	91	110	7	
1613	0	41	1724	76	82	91	110	7	
1725	0	0	1815	69	55	92	111	7	
1725	0	55	1815	69	110	92	111	7	
1816	0	0	1911	44	35	98	112	8	
1912	0	0	1991	52	36	99	113	8	
1992	0	0	2092	61	36	100	114	8	
2093	0	0	2192	63	36	101	115	8	
2093	0	36	2192	63	72	101	115	8	
2093	0	72	2192	63	108	101	115	8	
2093	0	108	2192	63	144	101	115	8	
2093	0	144	2192	63	180	101	115	8	
2193	0	0	2283	69	55	103	116	8	
2284	0	0	2384	48	20	104	117	9	
2385	0	0	2448	37	21	105	118	9	
2385	0	21	2448	37	42	105	118	9	
2449	0	0	2501	36	25	106	119	9	
2502	0	0	2593	33	28	107	120	9	
2502	0	28	2593	33	56	107	120	9	
2594	0	0	2669	38	30	108	121	9	
2670	0	0	2742	52	33	109	122	9	
2743	0	0	2838	44	35	110	123	9	
2839	0	0	2918	52	36	111	124	9	
2919	0	0	3019	61	36	112	125	9	
3020	0	0	3119	63	36	113	126	9	
3120	0	0	3206	68	44	114	127	9	
3120	0	44	3206	68	88	114	127	9	
