70	10	587	233	220
23158707	17594645
0	0	0	50	45	69	8	1	1	
0	0	69	50	45	138	15	2	2	
0	71	0	80	125	76	17	3	2	
0	125	0	80	179	76	17	3	2	
0	179	0	80	233	76	17	3	2	
0	161	76	37	233	129	13	4	2	
0	161	129	37	233	182	13	4	2	
37	161	76	74	233	129	13	4	2	
37	161	129	74	233	182	13	4	2	
0	161	182	53	233	219	13	5	2	
0	71	76	70	161	139	18	6	2	
0	71	139	43	160	166	10	7	2	
0	71	166	43	160	193	10	7	2	
0	71	193	43	160	220	10	7	2	
50	0	0	104	61	94	16	8	2	
80	139	0	165	233	39	14	9	2	
80	155	39	164	233	67	11	10	2	
80	61	0	172	90	44	12	11	2	
80	90	0	172	119	44	12	11	2	
50	0	94	87	57	164	22	12	3	
80	179	67	160	233	143	24	13	3	
80	179	143	160	233	219	24	13	3	
80	61	44	156	115	124	24	14	3	
104	0	0	196	29	44	21	15	3	
104	0	44	196	29	88	21	15	3	
104	0	88	193	27	131	19	16	3	
104	0	131	193	27	174	19	16	3	
165	148	0	259	233	39	23	17	3	
165	148	39	259	233	78	23	17	3	
165	149	78	243	233	106	20	18	3	
165	149	106	243	233	134	20	18	3	
43	71	139	70	160	182	25	19	4	
104	29	0	196	58	44	27	20	4	
80	61	124	156	115	204	32	21	4	
165	149	134	243	233	162	26	22	4	
165	149	162	243	233	190	26	22	4	
165	149	190	243	233	218	26	22	4	
104	29	44	196	58	88	27	23	4	
172	58	0	229	95	70	29	24	4	
172	58	70	229	95	140	29	24	4	
172	95	0	229	132	70	29	24	4	
172	95	70	229	132	140	29	24	4	
172	58	140	225	95	212	28	25	4	
172	95	140	225	132	212	28	25	4	
196	0	0	257	54	94	31	26	4	
229	54	0	314	148	39	30	27	4	
229	54	39	299	144	102	33	28	4	
104	0	174	193	27	217	34	29	5	
196	0	94	257	54	188	37	30	5	
229	54	102	283	130	182	38	31	5	
229	54	182	282	126	219	35	32	5	
257	0	0	337	54	76	38	33	5	
337	0	0	417	54	76	38	33	5	
417	0	0	497	54	76	38	33	5	
257	0	76	302	50	145	36	34	5	
257	0	145	302	50	214	43	35	6	
259	148	0	353	233	39	42	36	6	
353	148	0	447	233	39	42	36	6	
447	148	0	541	233	39	42	36	6	
259	148	39	353	233	78	42	37	6	
259	149	78	337	233	106	40	38	6	
302	0	76	391	27	119	39	39	6	
302	27	76	391	54	119	39	39	6	
314	54	0	343	146	44	41	40	6	
314	54	44	343	146	88	41	40	6	
314	54	88	343	146	132	41	40	6	
314	54	132	343	146	176	41	40	6	
314	54	176	343	146	220	41	40	6	
391	0	76	483	44	105	41	41	6	
259	149	106	337	233	134	45	42	7	
259	149	134	337	233	162	45	42	7	
259	159	162	329	196	219	48	43	7	
259	196	162	329	233	219	48	43	7	
302	0	119	391	27	162	44	44	7	
302	27	119	391	54	162	44	44	7	
302	0	162	391	43	189	44	45	7	
343	54	0	404	148	54	50	46	7	
404	54	0	465	148	54	50	46	7	
465	54	0	526	148	54	50	46	7	
526	54	0	587	148	54	50	46	7	
343	54	54	428	148	93	49	47	7	
343	54	93	428	148	132	49	47	7	
343	54	132	428	148	171	49	47	7	
343	54	171	372	146	215	46	48	7	
372	54	171	401	146	215	46	49	7	
353	153	39	407	233	115	51	50	7	
407	153	39	461	233	115	51	50	7	
353	161	115	406	233	152	47	51	7	
406	161	115	459	233	152	47	51	7	
353	163	152	443	233	215	52	52	7	
302	0	189	391	43	216	53	53	8	
391	0	105	483	44	134	54	54	8	
391	0	134	480	27	177	53	55	8	
391	0	177	480	27	220	53	55	8	
428	54	54	489	148	108	58	56	8	
428	54	108	489	148	162	58	56	8	
428	54	162	489	148	216	58	56	8	
461	157	39	541	233	93	59	57	8	
461	163	93	524	233	183	60	58	8	
461	163	183	518	233	220	55	59	8	
489	54	54	574	148	93	56	60	8	
489	54	93	574	148	132	56	60	8	
489	54	132	558	99	182	57	61	8	
489	103	132	558	148	182	67	62	9	
497	0	0	586	27	43	61	63	9	
497	0	43	586	27	86	61	63	9	
497	27	0	586	54	43	61	63	9	
497	27	43	586	54	86	61	63	9	
497	0	86	577	54	162	69	64	9	
497	0	162	569	53	199	64	65	9	
541	164	0	586	233	50	67	66	9	
541	164	50	586	233	100	67	66	9	
541	176	100	578	233	170	65	67	9	
587	0	0	671	78	28	0	68	0	
587	0	28	671	78	56	0	68	0	
587	0	56	671	78	84	0	68	0	
672	0	0	764	44	29	1	69	0	
672	0	29	764	44	58	1	69	0	
672	0	58	764	44	87	1	69	0	
672	0	87	764	44	116	1	69	0	
765	0	0	835	57	37	2	70	0	
765	0	37	835	57	74	2	70	0	
765	0	74	835	57	111	2	70	0	
836	0	0	916	76	54	3	71	0	
917	0	0	1006	43	27	4	72	1	
917	0	27	1006	43	54	4	72	1	
917	0	54	1006	43	81	4	72	1	
917	0	81	1006	43	108	4	72	1	
1007	0	0	1079	53	37	5	73	1	
1007	0	37	1079	53	74	5	73	1	
1080	0	0	1150	57	37	6	74	1	
1080	0	37	1150	57	74	6	74	1	
1080	0	74	1150	57	111	6	74	1	
1151	0	0	1245	85	39	7	75	1	
1151	0	39	1245	85	78	7	75	1	
1246	0	0	1315	50	45	8	76	1	
1246	0	45	1315	50	90	8	76	1	
1316	0	0	1410	61	54	9	77	1	
1316	0	54	1410	61	108	9	77	1	
1411	0	0	1481	57	37	22	78	3	
1482	0	0	1566	78	28	62	79	9	
1482	0	28	1566	78	56	62	79	9	
1482	0	56	1566	78	84	62	79	9	
1567	0	0	1659	44	29	63	80	9	
1660	0	0	1730	57	37	65	81	9	
1731	0	0	1825	85	39	66	82	9	
1826	0	0	1920	61	54	68	83	9	
1826	0	54	1920	61	108	68	83	9	
