43	10	587	233	220
24528366	15013961
0	0	0	67	116	35	1	1	0	
0	0	35	67	116	70	1	1	0	
0	0	70	67	116	105	1	1	0	
0	0	105	67	116	140	1	1	0	
0	119	0	57	176	107	2	2	0	
0	176	0	57	233	107	2	2	0	
0	0	140	66	93	166	0	3	0	
0	0	166	66	93	192	0	3	0	
57	155	0	115	233	72	3	4	0	
0	119	107	57	176	214	7	5	1	
0	176	107	57	233	214	7	5	1	
57	118	0	121	155	72	6	6	1	
121	118	0	185	155	72	6	6	1	
57	155	72	115	233	144	8	7	1	
57	155	144	115	233	216	8	7	1	
57	120	72	173	155	139	5	8	1	
67	0	0	124	57	107	7	9	1	
67	57	0	124	114	107	7	9	1	
115	155	0	173	233	72	8	10	1	
124	0	0	190	93	26	4	11	1	
124	0	26	190	93	52	4	11	1	
0	0	192	66	93	218	9	12	2	
67	0	107	124	57	214	12	13	2	
115	155	72	173	233	144	13	14	2	
115	155	144	173	233	216	13	14	2	
124	0	52	188	37	124	11	15	2	
124	0	124	188	37	196	11	15	2	
124	37	52	188	74	124	11	15	2	
124	37	124	188	74	196	11	15	2	
173	155	0	231	233	72	13	16	2	
173	155	72	231	233	144	13	16	2	
173	155	144	231	233	216	13	16	2	
185	120	0	301	155	67	10	17	2	
185	120	67	301	155	134	10	17	2	
190	0	0	268	72	58	18	18	3	
268	0	0	346	72	58	18	18	3	
346	0	0	424	72	58	18	18	3	
424	0	0	502	72	58	18	18	3	
502	0	0	580	72	58	18	18	3	
190	0	58	306	35	125	15	19	3	
190	0	125	306	35	192	15	19	3	
190	35	58	306	70	125	15	19	3	
190	35	125	306	70	192	15	19	3	
190	72	0	254	109	72	16	20	3	
190	72	72	254	109	144	16	20	3	
231	176	0	288	233	107	17	21	3	
231	176	107	288	233	214	17	21	3	
288	176	0	345	233	107	17	21	3	
288	176	107	345	233	214	17	21	3	
254	72	0	370	107	67	15	22	3	
301	110	0	394	176	26	14	23	3	
301	110	26	394	176	52	14	24	3	
301	110	52	394	176	78	14	24	3	
301	110	78	394	176	104	14	24	3	
57	120	139	173	155	206	20	25	4	
185	120	134	301	155	201	20	26	4	
190	0	192	283	66	218	19	27	4	
254	72	67	370	107	134	20	28	4	
301	110	104	394	176	130	19	29	4	
301	110	130	394	176	156	19	29	4	
306	0	58	364	72	136	22	30	4	
306	0	136	364	72	214	22	30	4	
364	0	58	422	72	136	22	30	4	
364	0	136	422	72	214	22	30	4	
345	176	0	402	233	107	21	31	4	
394	98	0	466	176	58	22	32	4	
190	72	144	254	109	216	24	33	5	
254	72	134	370	107	201	23	34	5	
345	176	107	402	233	214	25	35	5	
394	98	58	466	176	116	26	36	5	
402	176	0	509	233	57	25	37	5	
422	0	58	538	67	93	23	38	5	
301	110	156	394	176	182	27	39	6	
301	112	182	373	176	219	29	40	6	
394	98	116	466	176	174	31	41	6	
394	112	174	466	176	211	29	42	6	
402	176	57	509	233	114	30	43	6	
402	176	114	509	233	171	30	43	6	
422	0	93	538	67	128	28	44	6	
422	0	128	459	64	200	29	45	6	
459	0	128	531	64	165	32	46	7	
459	0	165	531	64	202	32	46	7	
466	119	0	523	176	107	33	47	7	
466	119	107	523	176	214	33	47	7	
523	119	0	580	176	107	33	47	7	
523	119	107	580	176	214	33	47	7	
466	72	0	538	109	64	32	48	7	
509	176	0	566	233	107	33	49	7	
509	176	107	566	233	214	33	49	7	
466	72	64	538	109	128	36	50	8	
466	72	128	538	109	192	36	50	8	
538	0	58	575	72	122	36	51	8	
587	0	0	680	66	26	34	52	8	
587	0	26	680	66	52	34	52	8	
587	0	52	680	66	78	34	52	8	
681	0	0	797	67	35	35	53	8	
798	0	0	905	57	57	37	54	8	
798	0	57	905	57	114	37	54	8	
798	0	114	905	57	171	37	54	8	
798	0	171	905	57	228	37	54	8	
906	0	0	984	72	58	38	55	8	
985	0	0	1078	66	26	39	56	9	
985	0	26	1078	66	52	39	56	9	
985	0	52	1078	66	78	39	56	9	
985	0	78	1078	66	104	39	56	9	
1079	0	0	1151	64	37	40	57	9	
1079	0	37	1151	64	74	40	57	9	
1152	0	0	1259	57	57	41	58	9	
1152	0	57	1259	57	114	41	58	9	
1152	0	114	1259	57	171	41	58	9	
1152	0	171	1259	57	228	41	58	9	
1260	0	0	1338	72	58	42	59	9	
