98	10	587	233	220
19544147	15237880
0	0	0	67	42	70	4	1	0	
67	0	0	134	42	70	4	1	0	
134	0	0	201	42	70	4	1	0	
0	93	0	61	163	40	3	2	0	
0	163	0	61	233	40	3	2	0	
0	118	40	59	233	74	2	3	0	
0	118	74	59	233	108	2	3	0	
0	0	70	102	34	105	1	4	0	
0	170	108	59	233	172	6	5	0	
0	42	0	117	90	54	5	6	0	
61	170	0	121	233	67	7	7	0	
61	92	0	122	170	27	0	8	0	
0	124	108	55	170	164	13	9	1	
0	124	164	55	170	220	13	9	1	
0	42	54	71	86	132	12	10	1	
0	42	132	71	86	210	12	10	1	
61	172	67	101	233	137	11	11	1	
61	172	137	101	233	207	11	11	1	
61	107	27	120	170	91	14	12	1	
117	42	0	232	76	59	10	13	1	
117	42	59	230	74	108	9	14	1	
117	42	108	230	74	157	9	14	1	
121	170	0	196	233	99	15	15	1	
122	78	0	235	170	23	8	16	1	
121	170	99	181	233	166	26	17	2	
0	0	105	102	34	140	20	18	2	
61	109	91	101	170	161	22	19	2	
102	0	70	177	35	124	21	20	2	
102	0	124	177	35	178	21	20	2	
117	42	157	230	74	206	19	21	2	
122	83	23	217	170	86	27	22	2	
122	83	86	213	170	111	17	23	2	
122	83	111	213	170	136	17	23	2	
122	92	136	183	170	163	18	24	2	
122	103	163	169	170	214	23	25	2	
196	173	0	303	233	49	25	26	2	
232	0	0	349	54	48	24	27	2	
232	0	48	349	54	96	24	28	2	
235	54	0	327	167	23	16	29	2	
232	0	96	349	54	144	34	30	3	
232	0	144	347	34	203	31	31	3	
196	173	49	263	233	112	35	32	3	
196	191	112	263	233	182	32	33	3	
235	54	23	322	163	55	30	34	3	
235	54	55	322	163	87	30	34	3	
235	54	87	322	149	150	36	35	3	
235	54	150	322	145	175	28	36	3	
235	54	175	313	125	219	33	37	3	
303	172	0	381	233	27	29	38	3	
303	172	27	373	233	67	41	39	4	
303	191	67	373	233	134	42	40	4	
327	54	0	390	113	64	44	41	4	
327	113	0	390	172	64	44	41	4	
327	54	64	390	149	151	46	42	4	
327	54	151	390	114	218	45	43	4	
349	0	0	424	54	35	40	44	4	
349	0	35	416	51	82	43	45	4	
349	0	82	416	51	129	43	45	4	
381	198	0	483	233	34	38	46	4	
483	198	0	585	233	34	38	46	4	
381	199	34	496	233	93	39	47	4	
390	85	0	482	198	23	37	48	4	
303	191	134	373	233	201	52	49	5	
349	0	129	405	46	184	54	50	5	
381	199	93	483	233	128	50	51	5	
381	199	128	483	233	163	50	51	5	
496	198	34	571	233	88	51	52	5	
496	198	88	571	233	142	51	52	5	
496	198	142	571	233	196	51	52	5	
390	85	23	482	198	46	47	53	5	
390	85	46	422	198	95	49	54	5	
422	85	46	454	198	95	49	54	5	
390	131	95	453	198	155	57	55	5	
424	0	0	497	78	48	55	56	5	
424	0	48	495	78	92	53	57	5	
424	0	92	485	78	119	48	58	5	
424	0	119	478	75	154	51	59	5	
482	91	0	542	198	49	56	60	5	
390	131	155	453	198	215	66	61	6	
482	131	49	542	198	112	66	62	6	
482	134	112	541	198	175	65	63	6	
497	0	0	584	91	25	58	64	6	
497	0	25	584	63	120	68	65	6	
497	0	120	572	63	219	67	66	6	
542	120	0	586	198	71	63	67	6	
542	120	71	586	198	142	63	67	6	
542	120	142	586	198	213	63	67	6	
587	0	0	665	61	27	59	68	6	
666	0	0	775	87	32	60	69	6	
776	0	0	878	35	34	61	70	6	
879	0	0	994	59	34	62	71	6	
995	0	0	1073	73	48	64	72	6	
1074	0	0	1173	75	63	67	73	6	
1174	0	0	1265	87	25	69	74	7	
1266	0	0	1379	49	32	70	75	7	
1380	0	0	1482	35	34	71	76	7	
1483	0	0	1558	54	35	72	77	7	
1559	0	0	1629	67	42	73	78	7	
1559	0	42	1629	67	84	73	78	7	
1630	0	0	1686	55	46	74	79	7	
1687	0	0	1765	73	48	75	80	7	
1766	0	0	1873	60	49	76	81	7	
1766	0	49	1873	60	98	76	81	7	
1766	0	98	1873	60	147	76	81	7	
1766	0	147	1873	60	196	76	81	7	
1874	0	0	1941	63	60	77	82	7	
1942	0	0	2055	92	23	78	83	8	
2056	0	0	2147	87	25	79	84	8	
2148	0	0	2226	61	27	80	85	8	
2227	0	0	2336	87	32	81	86	8	
2337	0	0	2439	35	34	82	87	8	
2440	0	0	2510	67	42	83	88	8	
2440	0	42	2510	67	84	83	88	8	
2511	0	0	2589	71	44	84	89	8	
2511	0	44	2589	71	88	84	89	8	
2590	0	0	2646	55	46	85	90	8	
2647	0	0	2754	60	49	86	91	8	
2755	0	0	2819	63	59	87	92	8	
2820	0	0	2911	87	25	88	93	9	
2912	0	0	3025	49	32	89	94	9	
3026	0	0	3135	87	32	90	95	9	
3136	0	0	3238	35	34	91	96	9	
3239	0	0	3314	54	35	92	97	9	
3239	0	35	3314	54	70	92	97	9	
3315	0	0	3393	71	44	93	98	9	
3394	0	0	3461	51	47	94	99	9	
3462	0	0	3569	60	49	95	100	9	
3570	0	0	3669	75	63	96	101	9	
3670	0	0	3765	87	63	97	102	9	
