68	10	587	233	220
23617538	20169042
0	0	0	79	74	84	15	1	1	
79	0	0	158	74	84	15	1	1	
158	0	0	237	74	84	15	1	1	
0	0	84	107	73	154	14	2	1	
107	0	84	214	73	154	14	2	1	
0	0	154	80	73	208	12	3	1	
0	85	0	42	159	73	11	4	1	
0	159	0	42	233	73	11	4	1	
0	89	73	41	161	106	9	5	1	
0	161	73	41	233	106	9	5	1	
0	213	106	40	233	143	7	6	1	
42	137	0	125	233	24	8	7	1	
0	139	106	37	213	173	10	8	1	
42	149	24	100	233	79	13	9	1	
42	149	79	100	233	134	13	9	1	
0	173	173	20	213	210	20	10	3	
80	0	154	160	73	208	23	11	3	
42	74	0	115	128	80	23	12	3	
42	74	80	115	116	154	22	13	3	
125	137	0	208	233	24	21	14	3	
125	137	24	208	233	48	21	14	3	
42	74	154	62	114	191	25	15	4	
42	160	134	96	233	214	29	16	4	
115	74	0	189	116	73	28	17	4	
115	74	73	189	116	146	28	17	4	
115	74	146	189	116	219	28	17	4	
125	137	48	208	233	72	26	18	4	
125	137	72	208	233	96	26	18	4	
125	137	96	208	233	120	26	18	4	
125	137	120	208	233	144	26	18	4	
125	149	144	204	233	218	31	19	4	
189	74	0	244	132	84	30	20	4	
208	153	0	262	233	73	29	21	4	
208	159	73	245	233	140	27	22	4	
0	117	106	40	137	143	32	23	5	
160	0	154	193	72	195	33	24	5	
189	74	84	244	132	168	37	25	5	
237	0	0	304	74	37	34	26	5	
237	0	37	304	74	74	34	26	5	
237	0	74	304	74	111	34	26	5	
237	0	111	304	74	148	34	26	5	
244	74	0	308	142	109	38	27	5	
262	149	0	335	191	74	35	28	5	
262	191	0	335	233	74	35	28	5	
262	153	74	335	233	128	36	29	5	
237	0	148	278	72	181	40	30	6	
237	0	181	278	72	214	40	30	6	
208	159	140	245	233	207	41	31	6	
262	159	128	335	233	170	42	32	6	
262	159	170	335	233	212	42	32	6	
304	0	0	388	74	79	44	33	6	
388	0	0	472	74	79	44	33	6	
472	0	0	556	74	79	44	33	6	
304	0	79	346	74	152	42	34	6	
304	0	152	345	72	185	40	35	6	
308	74	0	362	147	80	43	36	6	
362	74	0	416	147	80	43	36	6	
335	150	0	431	233	24	39	37	6	
335	150	24	431	233	48	39	38	6	
244	74	109	308	142	218	51	39	7	
304	0	185	345	72	218	46	40	7	
308	74	80	415	147	150	52	41	7	
308	74	150	415	147	220	52	41	7	
335	150	48	431	233	72	45	42	7	
335	191	72	408	233	146	48	43	7	
335	191	146	408	233	220	48	43	7	
335	154	72	409	191	139	47	44	7	
335	154	139	409	191	206	47	44	7	
346	0	79	425	74	163	53	45	7	
425	0	79	532	73	149	52	46	7	
425	0	149	532	73	219	52	46	7	
416	74	0	496	147	54	49	47	7	
496	74	0	576	147	54	49	47	7	
431	149	0	489	233	55	50	48	7	
409	153	72	429	193	109	54	49	8	
409	193	72	429	233	109	54	49	8	
409	193	109	429	233	146	54	50	8	
416	74	54	490	147	96	57	51	8	
490	74	54	564	147	96	57	51	8	
416	74	96	486	147	203	59	52	8	
431	149	55	489	233	110	58	53	8	
431	161	110	472	233	143	56	54	8	
489	150	0	585	233	24	55	55	8	
489	150	24	585	233	48	55	55	8	
489	150	48	585	233	72	55	55	8	
409	193	146	429	233	183	60	56	9	
409	193	183	429	233	220	60	56	9	
431	161	143	472	233	176	62	57	9	
431	161	176	472	233	209	62	57	9	
486	74	96	560	147	138	64	58	9	
486	74	138	560	147	180	64	58	9	
486	74	180	560	141	217	63	59	9	
489	150	72	585	233	96	61	60	9	
489	153	96	562	233	150	65	61	9	
489	159	150	562	233	192	64	62	9	
587	0	0	627	37	20	0	63	0	
587	0	20	627	37	40	0	63	0	
628	0	0	724	83	24	1	64	0	
628	0	24	724	83	48	1	64	0	
725	0	0	797	41	33	2	65	0	
725	0	33	797	41	66	2	65	0	
798	0	0	872	67	37	3	66	0	
873	0	0	953	73	54	4	67	0	
873	0	54	953	73	108	4	67	0	
954	0	0	1038	58	55	5	68	0	
1039	0	0	1148	68	64	6	69	0	
1039	0	64	1148	68	128	6	69	0	
1039	0	128	1148	68	192	6	69	0	
1149	0	0	1189	37	20	16	70	2	
1149	0	20	1189	37	40	16	70	2	
1149	0	40	1189	37	60	16	70	2	
1190	0	0	1262	41	33	17	71	2	
1263	0	0	1337	67	37	18	72	2	
1263	0	37	1337	67	74	18	72	2	
1338	0	0	1412	73	42	19	73	2	
1338	0	42	1412	73	84	19	73	2	
1413	0	0	1497	79	74	24	74	3	
1498	0	0	1572	67	37	63	75	9	
1573	0	0	1682	68	64	66	76	9	
1683	0	0	1767	79	74	67	77	9	
