41	10	587	233	220
24923796	17821332
0	0	0	114	78	60	1	1	0	
0	0	60	114	78	120	1	1	0	
0	78	0	114	156	60	1	1	0	
0	78	60	114	156	120	1	1	0	
0	0	120	66	74	210	2	2	0	
0	74	120	66	148	210	2	2	0	
0	159	0	66	233	90	2	3	0	
66	0	120	112	82	141	0	4	0	
66	0	141	112	82	162	0	4	0	
66	0	162	112	82	183	0	4	0	
0	159	90	66	233	180	7	5	1	
66	173	0	180	233	78	5	6	1	
66	173	78	180	233	156	5	6	1	
66	88	120	97	156	168	4	7	1	
66	88	168	97	156	216	4	7	1	
66	187	156	148	233	177	3	8	1	
66	187	177	148	233	198	3	8	1	
66	187	198	148	233	219	3	8	1	
114	0	0	194	63	104	6	9	1	
194	0	0	274	63	104	6	9	1	
274	0	0	354	63	104	6	9	1	
114	0	104	196	46	125	3	10	1	
114	83	0	180	173	74	7	11	1	
66	0	183	112	82	204	8	12	2	
114	99	74	180	173	164	10	13	2	
114	105	164	145	173	212	9	14	2	
145	105	164	176	173	212	9	15	2	
180	143	0	246	233	74	10	16	2	
114	0	125	196	46	146	11	17	3	
114	0	146	196	46	167	11	17	3	
180	63	0	240	141	114	13	18	3	
180	153	74	243	233	178	14	19	3	
180	63	114	228	131	145	12	20	3	
180	63	145	228	131	176	12	20	3	
180	63	176	228	131	207	12	20	3	
196	0	104	276	63	208	14	21	3	
240	63	0	303	143	104	14	22	3	
240	63	104	271	131	152	12	23	3	
246	155	0	360	233	60	17	24	4	
246	155	60	360	233	120	17	24	4	
246	202	120	314	233	168	16	25	4	
246	202	168	314	233	216	16	25	4	
246	156	120	328	202	141	15	26	4	
246	156	141	328	202	162	15	26	4	
303	63	0	407	143	63	18	27	4	
303	63	63	407	143	126	18	27	4	
303	63	126	407	143	189	18	27	4	
246	156	162	328	202	183	19	28	5	
303	63	189	351	131	220	20	29	5	
328	165	120	359	233	168	20	30	5	
328	165	168	359	233	216	20	30	5	
276	0	104	354	60	218	21	31	5	
354	0	0	458	63	80	22	32	5	
458	0	0	562	63	80	22	32	5	
360	143	0	434	233	66	23	33	5	
434	143	0	508	233	66	23	33	5	
508	143	0	582	233	66	23	33	5	
360	143	66	434	233	132	23	34	5	
360	143	132	434	233	198	23	34	5	
434	143	66	508	233	132	23	34	5	
434	143	132	508	233	198	23	34	5	
354	0	80	434	63	184	27	35	6	
351	63	189	399	131	220	25	36	6	
354	0	184	422	48	215	25	37	6	
360	151	198	406	233	219	24	38	6	
434	0	80	548	60	158	26	39	6	
407	63	0	521	141	60	26	40	6	
407	63	60	521	141	120	26	40	6	
406	151	198	452	233	219	28	41	7	
452	151	198	498	233	219	28	41	7	
407	63	120	473	137	210	31	42	7	
434	0	158	502	48	189	29	43	7	
434	0	189	502	48	220	29	43	7	
508	143	66	582	233	132	31	44	7	
508	143	132	582	233	198	31	44	7	
521	63	0	584	143	104	30	45	7	
473	63	120	521	131	151	33	46	8	
508	151	198	554	233	219	32	47	8	
521	63	104	581	141	218	34	48	8	
587	0	0	669	46	21	32	49	8	
670	0	0	760	74	66	35	50	8	
670	0	66	760	74	132	35	50	8	
670	0	132	760	74	198	35	50	8	
761	0	0	843	46	21	36	51	9	
761	0	21	843	46	42	36	51	9	
844	0	0	912	48	31	37	52	9	
844	0	31	912	48	62	37	52	9	
844	0	62	912	48	93	37	52	9	
844	0	93	912	48	124	37	52	9	
913	0	0	1027	78	60	38	53	9	
1028	0	0	1132	80	63	39	54	9	
1028	0	63	1132	80	126	39	54	9	
1028	0	126	1132	80	189	39	54	9	
1133	0	0	1223	74	66	40	55	9	
