49	10	587	233	220
23781545	19793082
0	0	0	46	76	52	4	1	0	
0	0	52	46	76	104	4	1	0	
0	76	0	46	152	52	4	1	0	
0	76	52	46	152	104	4	1	0	
0	152	0	46	228	52	4	1	0	
0	152	52	46	228	104	4	1	0	
0	0	104	46	95	140	2	2	0	
0	0	140	46	95	176	2	2	0	
0	0	176	46	95	212	2	2	0	
0	166	104	44	228	159	3	3	0	
0	166	159	44	228	214	3	3	0	
0	114	104	46	166	180	4	4	0	
46	0	0	112	59	31	0	5	0	
112	0	0	178	59	31	0	5	0	
178	0	0	244	59	31	0	5	0	
244	0	0	310	59	31	0	5	0	
310	0	0	376	59	31	0	5	0	
376	0	0	442	59	31	0	5	0	
442	0	0	508	59	31	0	5	0	
46	107	0	81	170	59	1	6	0	
46	107	59	81	170	118	1	6	0	
46	170	0	81	233	59	1	6	0	
46	170	59	81	233	118	1	6	0	
46	0	31	141	46	67	2	7	0	
46	59	0	101	103	62	3	8	0	
46	59	62	101	103	124	8	9	1	
46	59	124	101	103	186	8	9	1	
46	115	118	81	174	181	6	10	1	
46	174	118	81	233	181	6	10	1	
46	0	67	141	46	103	7	11	1	
46	0	103	141	46	139	7	11	1	
46	0	139	141	46	175	7	11	1	
46	0	175	141	46	211	7	11	1	
81	187	0	133	233	76	9	12	1	
133	187	0	185	233	76	9	12	1	
185	187	0	237	233	76	9	12	1	
237	187	0	289	233	76	9	12	1	
289	187	0	341	233	76	9	12	1	
81	189	76	136	233	138	8	13	1	
81	189	138	136	233	200	8	13	1	
81	117	0	144	152	59	6	14	1	
81	152	0	144	187	59	6	14	1	
81	121	59	140	187	90	5	15	1	
81	121	90	140	187	121	5	15	1	
81	121	121	140	187	152	10	16	2	
81	121	152	140	187	183	10	16	2	
81	121	183	140	187	214	10	16	2	
136	187	76	231	233	112	12	17	2	
136	187	112	231	233	148	12	17	2	
136	187	148	231	233	184	12	17	2	
231	187	76	326	233	112	12	17	2	
231	187	112	326	233	148	12	17	2	
231	187	148	326	233	184	12	17	2	
141	0	31	217	46	83	13	18	2	
141	0	83	217	46	135	13	18	2	
141	0	135	217	46	187	13	18	2	
101	59	0	164	94	59	11	19	2	
101	59	59	164	94	118	11	19	2	
101	59	118	164	94	177	11	19	2	
144	117	0	203	152	63	11	20	2	
144	152	0	203	187	63	11	20	2	
144	121	63	175	187	122	10	21	2	
144	121	122	175	187	181	10	21	2	
136	187	184	231	233	220	16	22	3	
231	187	184	326	233	220	16	22	3	
164	59	0	227	94	59	15	23	3	
164	59	59	227	94	118	15	23	3	
164	59	118	227	94	177	15	23	3	
227	59	0	290	94	59	15	23	3	
227	59	59	290	94	118	15	23	3	
227	59	118	290	94	177	15	23	3	
203	125	0	258	187	44	17	24	3	
203	125	44	258	187	88	17	24	3	
203	125	88	258	187	132	17	24	3	
203	125	132	258	187	176	17	24	3	
203	94	0	269	125	59	14	25	3	
203	94	59	269	125	118	14	25	3	
203	94	118	269	125	177	14	25	3	
217	0	31	263	52	107	18	26	3	
263	0	31	309	52	107	18	26	3	
217	0	107	276	35	170	15	27	3	
258	141	0	353	187	36	16	28	3	
203	125	176	258	187	220	22	29	4	
258	151	36	353	187	82	21	30	4	
258	151	82	353	187	128	21	30	4	
258	151	128	353	187	174	21	30	4	
258	151	174	353	187	220	21	30	4	
269	95	0	345	141	52	23	31	4	
345	95	0	421	141	52	23	31	4	
421	95	0	497	141	52	23	31	4	
497	95	0	573	141	52	23	31	4	
269	97	52	331	141	107	22	32	4	
269	97	107	331	141	162	22	32	4	
269	97	162	331	141	217	22	32	4	
290	59	0	349	94	63	20	33	4	
290	59	63	349	94	126	20	33	4	
309	0	31	375	59	62	19	34	4	
375	0	31	441	59	62	19	34	4	
441	0	31	507	59	62	19	34	4	
309	0	62	375	59	93	19	35	4	
309	0	93	371	55	137	22	36	4	
290	59	126	349	94	189	25	37	5	
309	0	137	371	55	181	27	38	5	
331	95	52	407	141	104	28	39	5	
331	95	104	407	141	156	28	39	5	
331	95	156	407	141	208	28	39	5	
407	95	52	483	141	104	28	39	5	
407	95	104	483	141	156	28	39	5	
407	95	156	483	141	208	28	39	5	
341	187	0	436	233	36	26	40	5	
436	187	0	531	233	36	26	40	5	
349	59	0	444	95	46	26	41	5	
341	187	36	393	233	112	28	42	5	
341	187	112	393	233	188	28	42	5	
353	143	0	408	187	62	27	43	5	
353	143	62	408	187	124	27	43	5	
375	0	62	441	59	93	24	44	5	
441	0	62	507	59	93	24	44	5	
349	59	46	412	94	105	25	45	5	
349	59	105	412	94	164	25	45	5	
375	0	93	441	59	124	24	46	5	
441	0	93	507	59	124	24	46	5	
353	143	124	408	187	186	32	47	6	
375	0	124	441	59	155	29	48	6	
441	0	124	507	59	155	29	48	6	
375	0	155	410	59	218	30	49	6	
408	141	0	484	187	52	33	50	6	
408	141	52	484	187	104	33	50	6	
408	141	104	484	187	156	33	50	6	
408	141	156	484	187	208	33	50	6	
393	187	36	488	233	72	31	51	6	
393	187	72	488	233	108	31	51	6	
393	187	108	488	233	144	31	51	6	
393	187	144	488	233	180	31	51	6	
393	187	180	488	233	216	31	51	6	
410	0	155	445	59	218	30	52	6	
445	0	155	480	59	218	30	53	6	
444	59	0	507	94	59	30	54	6	
444	59	59	507	94	118	30	54	6	
507	59	0	570	94	59	30	54	6	
507	59	59	570	94	118	30	54	6	
444	59	118	503	94	181	30	55	6	
483	95	52	559	141	104	33	56	6	
483	95	104	559	141	156	33	56	6	
483	95	156	559	141	208	33	56	6	
503	59	118	566	94	177	35	57	7	
484	141	0	579	187	36	36	58	7	
484	141	36	579	187	72	36	58	7	
484	141	72	579	187	108	36	58	7	
484	141	108	560	187	160	38	59	7	
484	141	160	560	187	212	38	59	7	
508	0	0	574	59	31	34	60	7	
508	0	31	574	59	62	34	60	7	
508	0	62	574	59	93	34	60	7	
508	0	93	571	59	128	35	61	7	
508	0	128	570	55	172	37	62	7	
508	0	172	570	55	216	37	62	7	
531	187	0	583	233	76	38	63	7	
531	187	76	583	233	152	38	63	7	
587	0	0	649	55	44	37	64	7	
650	0	0	716	59	31	39	65	8	
650	0	31	716	59	62	39	65	8	
650	0	62	716	59	93	39	65	8	
717	0	0	780	59	35	40	66	8	
717	0	35	780	59	70	40	66	8	
717	0	70	780	59	105	40	66	8	
781	0	0	876	46	36	41	67	8	
781	0	36	876	46	72	41	67	8	
781	0	72	876	46	108	41	67	8	
781	0	108	876	46	144	41	67	8	
781	0	144	876	46	180	41	67	8	
781	0	180	876	46	216	41	67	8	
781	0	216	876	46	252	41	67	8	
877	0	0	939	55	44	42	68	8	
877	0	44	939	55	88	42	68	8	
877	0	88	939	55	132	42	68	8	
877	0	132	939	55	176	42	68	8	
877	0	176	939	55	220	42	68	8	
940	0	0	1016	52	46	43	69	8	
940	0	46	1016	52	92	43	69	8	
940	0	92	1016	52	138	43	69	8	
1017	0	0	1083	59	31	44	70	9	
1017	0	31	1083	59	62	44	70	9	
1017	0	62	1083	59	93	44	70	9	
1017	0	93	1083	59	124	44	70	9	
1017	0	124	1083	59	155	44	70	9	
1017	0	155	1083	59	186	44	70	9	
1084	0	0	1147	59	35	45	71	9	
1084	0	35	1147	59	70	45	71	9	
1148	0	0	1243	46	36	46	72	9	
1148	0	36	1243	46	72	46	72	9	
1148	0	72	1243	46	108	46	72	9	
1244	0	0	1306	55	44	47	73	9	
1244	0	44	1306	55	88	47	73	9	
1244	0	88	1306	55	132	47	73	9	
1244	0	132	1306	55	176	47	73	9	
1244	0	176	1306	55	220	47	73	9	
1244	0	220	1306	55	264	47	73	9	
1307	0	0	1383	52	46	48	74	9	
1307	0	46	1383	52	92	48	74	9	
