60	10	587	233	220
23492534	18957780
0	0	0	66	108	84	3	1	0	
66	0	0	132	108	84	3	1	0	
132	0	0	198	108	84	3	1	0	
0	0	84	99	77	142	1	2	0	
99	0	84	198	77	142	1	2	0	
0	0	142	89	77	168	0	3	0	
0	129	0	61	233	66	2	4	0	
0	0	168	89	77	194	0	5	0	
0	77	84	71	105	120	5	6	1	
0	77	120	71	105	156	5	6	1	
0	134	66	58	233	143	8	7	1	
0	143	143	45	233	194	7	8	1	
61	167	0	122	233	104	10	9	1	
61	198	104	109	233	137	6	10	1	
61	108	0	137	167	82	9	11	1	
89	0	142	178	77	168	4	12	1	
89	0	168	178	77	194	4	12	1	
0	77	156	71	105	192	11	13	2	
61	108	82	137	167	164	15	14	2	
61	117	164	121	167	215	14	15	2	
61	200	137	109	233	172	12	16	2	
61	200	172	109	233	207	12	16	2	
122	167	0	230	233	84	16	17	2	
122	167	84	230	233	168	16	17	2	
122	182	168	212	233	213	13	18	2	
137	108	0	213	167	82	15	19	2	
137	117	82	188	167	142	14	20	2	
198	0	0	243	90	51	13	21	2	
0	0	194	89	77	220	17	22	3	
71	77	84	142	105	120	18	23	3	
71	77	120	142	105	156	18	23	3	
137	117	142	188	167	202	20	24	3	
198	0	51	243	90	102	19	25	3	
198	0	102	243	90	153	19	25	3	
213	115	0	270	167	89	21	26	3	
213	115	89	270	167	178	21	26	3	
230	174	0	306	233	82	22	27	3	
198	0	153	233	33	201	23	28	4	
230	174	82	306	233	164	26	29	4	
230	183	164	290	233	215	24	30	4	
243	0	0	301	77	99	25	31	4	
243	0	99	301	77	198	25	31	4	
270	113	0	336	174	104	27	32	4	
270	114	104	320	174	155	29	33	5	
270	114	155	320	174	206	29	33	5	
301	0	0	367	84	108	32	34	5	
301	0	108	367	84	216	32	34	5	
306	175	0	383	233	99	31	35	5	
306	175	99	383	233	198	31	35	5	
336	86	0	388	175	57	30	36	5	
336	115	57	387	175	107	29	37	5	
367	0	0	466	77	58	31	38	5	
367	0	58	456	77	84	28	39	5	
336	115	107	387	175	157	35	40	6	
336	115	157	387	175	207	35	40	6	
367	0	84	456	77	110	33	41	6	
367	0	110	456	77	136	33	41	6	
367	0	136	456	57	188	36	42	6	
383	175	0	482	233	77	37	43	6	
482	175	0	581	233	77	37	43	6	
383	176	77	435	233	166	36	44	6	
388	91	0	454	175	108	39	45	6	
388	91	108	454	175	216	39	45	6	
435	182	77	525	233	122	34	46	6	
454	91	0	520	175	108	39	47	6	
520	91	0	586	175	108	39	47	6	
454	109	108	515	175	212	38	48	6	
367	0	188	438	36	216	40	49	7	
383	200	166	431	233	201	41	50	7	
435	182	122	525	233	167	42	51	7	
435	182	167	525	233	212	42	51	7	
466	0	0	517	90	45	42	52	7	
517	0	0	568	90	45	42	52	7	
466	0	45	565	77	103	44	53	7	
466	0	103	565	77	161	44	53	7	
466	0	161	565	77	219	44	53	7	
515	91	108	581	175	216	46	54	7	
525	183	77	576	233	137	43	55	7	
587	0	0	669	76	59	45	56	7	
670	0	0	741	36	28	47	57	8	
742	0	0	790	35	33	48	58	8	
742	0	33	790	35	66	48	58	8	
742	0	66	790	35	99	48	58	8	
791	0	0	851	51	50	49	59	8	
791	0	50	851	51	100	49	59	8	
852	0	0	951	77	58	50	60	8	
952	0	0	1034	76	59	51	61	8	
1035	0	0	1139	66	61	52	62	8	
1140	0	0	1248	84	66	53	63	8	
1140	0	66	1248	84	132	53	63	8	
1249	0	0	1338	77	26	54	64	9	
1339	0	0	1387	35	33	55	65	9	
1388	0	0	1448	51	50	56	66	9	
1388	0	50	1448	51	100	56	66	9	
1449	0	0	1548	77	58	57	67	9	
1449	0	58	1548	77	116	57	67	9	
1549	0	0	1653	66	61	58	68	9	
1549	0	61	1653	66	122	58	68	9	
1654	0	0	1762	84	66	59	69	9	
