67	10	587	233	220
22376158	17216278
0	0	0	69	69	81	6	1	0	
0	69	0	69	138	81	6	1	0	
0	138	0	69	207	81	6	1	0	
0	0	81	69	42	163	4	2	0	
0	42	81	69	84	163	4	2	0	
0	84	81	69	126	163	4	2	0	
0	211	0	109	233	42	1	3	0	
0	0	163	53	109	187	2	4	0	
0	0	187	53	109	211	2	4	0	
0	130	81	66	207	178	5	5	0	
0	213	42	98	233	75	0	6	0	
0	213	75	98	233	108	0	6	0	
69	0	0	103	86	56	3	7	0	
0	213	108	98	233	141	7	8	1	
0	213	141	98	233	174	7	8	1	
69	0	56	103	86	112	9	9	1	
69	114	0	135	211	77	11	10	1	
135	114	0	201	211	77	11	10	1	
201	114	0	267	211	77	11	10	1	
69	86	0	178	108	42	8	11	1	
69	129	77	111	211	146	10	12	1	
103	0	0	172	81	69	12	13	1	
0	213	174	98	233	207	13	14	2	
69	0	112	103	86	168	16	15	2	
109	211	0	218	233	42	14	16	2	
218	211	0	327	233	42	14	16	2	
327	211	0	436	233	42	14	16	2	
103	0	69	172	81	138	19	17	2	
103	0	138	172	81	207	19	17	2	
111	114	77	188	211	143	18	18	2	
188	114	77	265	211	143	18	18	2	
111	127	143	193	169	212	17	19	2	
111	169	143	193	211	212	17	19	2	
193	130	143	262	211	212	19	20	2	
172	0	0	214	82	69	17	21	2	
214	0	0	267	109	24	15	22	2	
69	86	42	167	106	75	20	23	3	
69	86	75	167	106	108	20	23	3	
69	86	108	167	106	141	20	23	3	
69	86	141	167	106	174	20	23	3	
172	0	69	214	82	138	24	24	3	
172	0	138	214	82	207	24	24	3	
109	211	42	218	233	84	21	25	3	
214	0	24	264	76	59	23	26	3	
214	0	59	264	76	94	23	26	3	
214	0	94	264	76	129	23	26	3	
214	0	129	264	76	164	23	26	3	
267	0	0	336	69	81	25	27	3	
267	102	0	320	211	24	22	28	3	
267	102	24	320	211	48	22	28	3	
267	102	48	320	211	72	22	28	3	
69	86	174	167	106	207	26	29	4	
109	211	84	218	233	126	27	30	4	
267	135	72	317	211	107	30	31	4	
267	135	107	317	211	142	30	31	4	
267	135	142	317	211	177	30	31	4	
267	135	177	317	211	212	30	31	4	
267	0	81	336	69	162	33	32	4	
320	145	0	397	211	97	32	33	4	
320	145	97	397	211	194	32	33	4	
397	145	0	474	211	97	32	33	4	
397	145	97	474	211	194	32	33	4	
320	158	194	429	211	218	28	34	4	
320	69	0	362	138	82	31	35	4	
320	69	82	362	138	164	31	35	4	
336	0	0	422	34	56	29	36	4	
336	34	0	422	68	56	29	36	4	
109	213	126	207	233	159	34	37	5	
109	213	159	207	233	192	34	37	5	
336	0	56	413	66	153	39	38	5	
218	211	42	327	233	84	35	39	5	
362	68	0	444	110	69	38	40	5	
362	68	69	444	110	138	38	40	5	
362	68	138	444	110	207	38	40	5	
362	110	0	438	145	50	37	41	5	
362	110	50	438	145	100	37	41	5	
362	110	100	438	145	150	37	41	5	
422	0	0	508	34	56	36	42	5	
422	34	0	508	68	56	36	42	5	
422	0	56	499	66	153	39	43	5	
444	68	0	525	137	69	40	44	5	
327	211	42	436	233	84	41	45	6	
327	211	84	436	233	126	41	45	6	
422	0	153	498	35	203	44	46	6	
444	68	69	525	137	138	47	47	6	
444	68	138	525	137	207	47	47	6	
474	164	0	543	233	81	47	48	6	
474	164	81	543	233	162	47	48	6	
508	0	0	585	66	97	46	49	6	
525	66	0	567	148	69	45	50	6	
525	66	69	567	148	138	45	50	6	
525	66	138	567	148	207	45	50	6	
508	0	97	585	66	194	59	51	8	
543	164	0	585	233	82	58	52	8	
543	164	82	585	233	164	58	52	8	
567	66	0	587	164	33	54	53	8	
587	0	0	696	53	24	42	54	6	
587	0	24	696	53	48	42	54	6	
587	0	48	696	53	72	42	54	6	
697	0	0	783	56	34	43	55	6	
697	0	34	783	56	68	43	55	6	
697	0	68	783	56	102	43	55	6	
784	0	0	882	33	20	48	56	7	
784	0	20	882	33	40	48	56	7	
784	0	40	882	33	60	48	56	7	
784	0	60	882	33	80	48	56	7	
883	0	0	992	42	22	49	57	7	
883	0	22	992	42	44	49	57	7	
993	0	0	1102	53	24	50	58	7	
993	0	24	1102	53	48	50	58	7	
993	0	48	1102	53	72	50	58	7	
1103	0	0	1189	56	34	51	59	7	
1103	0	34	1189	56	68	51	59	7	
1103	0	68	1189	56	102	51	59	7	
1190	0	0	1266	50	35	52	60	7	
1190	0	35	1266	50	70	52	60	7	
1190	0	70	1266	50	105	52	60	7	
1267	0	0	1364	77	66	53	61	7	
1365	0	0	1474	53	24	55	62	8	
1475	0	0	1561	56	34	56	63	8	
1475	0	34	1561	56	68	56	63	8	
1562	0	0	1638	50	35	57	64	8	
1639	0	0	1720	69	69	60	65	8	
1639	0	69	1720	69	138	60	65	8	
1639	0	138	1720	69	207	60	65	8	
1721	0	0	1819	33	20	61	66	9	
1820	0	0	1929	42	22	62	67	9	
1820	0	22	1929	42	44	62	67	9	
1930	0	0	2039	53	24	63	68	9	
2040	0	0	2122	69	42	64	69	9	
2123	0	0	2220	77	66	65	70	9	
2221	0	0	2302	69	69	66	71	9	
2221	0	69	2302	69	138	66	71	9	
2221	0	138	2302	69	207	66	71	9	
