60	10	587	233	220
23553324	19001562
0	0	0	78	114	60	3	1	0	
0	0	60	78	114	120	3	1	0	
0	0	120	78	114	180	3	1	0	
0	0	180	74	53	213	0	2	0	
0	53	180	74	106	213	0	2	0	
0	121	0	36	233	54	1	3	0	
0	121	54	36	233	108	1	3	0	
0	121	108	36	233	162	1	3	0	
0	159	162	33	233	215	0	4	0	
36	125	0	100	179	71	2	5	0	
36	179	0	100	233	71	2	5	0	
78	0	0	144	90	74	4	6	0	
36	155	71	96	233	185	10	7	1	
36	159	185	89	233	218	7	8	1	
78	0	74	138	78	188	10	9	1	
78	0	188	126	68	219	6	10	1	
100	170	0	180	233	104	11	11	1	
180	170	0	260	233	104	11	11	1	
100	106	0	154	170	71	9	12	1	
100	106	71	154	170	142	9	12	1	
100	106	142	154	170	213	9	12	1	
100	187	104	182	233	125	5	13	1	
100	187	125	182	233	146	5	13	1	
100	187	146	182	233	167	5	13	1	
144	0	0	218	66	90	12	14	1	
144	66	0	256	102	54	8	15	1	
144	66	54	218	99	107	14	16	2	
144	66	107	218	99	160	14	16	2	
154	104	0	244	170	74	16	17	2	
154	106	74	225	170	128	15	18	2	
144	0	90	212	31	138	13	19	2	
144	31	90	212	62	138	13	19	2	
100	187	167	182	233	188	17	20	3	
100	187	188	182	233	209	17	20	3	
144	0	138	212	31	186	18	21	3	
144	31	138	212	62	186	18	21	3	
144	0	186	212	48	217	18	22	3	
144	66	160	218	99	213	19	23	3	
182	173	104	260	233	218	21	24	3	
218	0	0	298	63	104	22	25	3	
218	0	104	298	63	208	22	25	3	
244	104	0	318	170	90	23	26	3	
256	63	0	368	99	54	20	27	3	
154	139	128	222	170	176	25	28	4	
244	104	90	318	170	180	29	29	4	
256	63	54	368	99	108	26	30	4	
260	173	0	374	233	78	27	31	4	
260	173	78	374	233	156	27	31	4	
260	187	156	342	233	177	24	32	4	
260	187	177	342	233	198	24	32	4	
298	0	0	378	63	104	28	33	4	
298	0	104	378	63	208	28	33	4	
256	63	108	368	99	162	33	34	5	
244	117	180	318	170	213	32	35	5	
318	119	0	382	173	71	34	36	5	
318	119	71	382	173	142	34	36	5	
318	119	142	382	173	213	34	36	5	
382	119	0	446	173	71	34	36	5	
382	119	71	446	173	142	34	36	5	
382	119	142	446	173	213	34	36	5	
368	63	0	436	94	48	31	37	5	
368	63	48	436	94	96	31	37	5	
374	173	0	452	233	114	35	38	5	
378	0	0	458	63	104	36	39	5	
446	91	0	492	173	21	30	40	5	
446	91	21	492	173	42	30	40	5	
256	63	162	368	99	216	40	41	6	
260	187	198	342	233	219	37	42	6	
374	200	114	448	233	167	39	43	6	
374	200	167	448	233	220	39	43	6	
368	63	96	436	94	144	38	44	6	
378	0	104	458	63	208	41	45	6	
458	0	0	532	90	66	42	46	6	
458	0	66	532	90	132	42	46	6	
458	0	132	532	90	198	42	46	6	
446	99	42	479	173	95	45	47	7	
446	99	95	479	173	148	45	47	7	
446	105	148	477	173	196	44	48	7	
452	173	0	566	233	78	47	49	7	
452	173	78	566	233	156	47	49	7	
452	179	156	523	233	220	46	50	7	
458	0	198	504	82	219	43	51	7	
492	93	0	555	173	104	48	52	7	
492	102	104	546	173	168	46	53	7	
532	0	0	586	64	71	50	54	8	
532	0	71	586	64	142	50	54	8	
532	0	142	586	64	213	50	54	8	
587	0	0	661	53	33	49	55	8	
662	0	0	776	78	60	51	56	8	
662	0	60	776	78	120	51	56	8	
777	0	0	881	80	63	52	57	8	
882	0	0	972	74	66	53	58	8	
973	0	0	1055	46	21	54	59	9	
973	0	21	1055	46	42	54	59	9	
1056	0	0	1124	48	31	55	60	9	
1125	0	0	1199	53	33	56	61	9	
1200	0	0	1314	78	60	57	62	9	
1315	0	0	1419	80	63	58	63	9	
1315	0	63	1419	80	126	58	63	9	
1315	0	126	1419	80	189	58	63	9	
1420	0	0	1510	74	66	59	64	9	
1420	0	66	1510	74	132	59	64	9	
1420	0	132	1510	74	198	59	64	9	
