30	10	587	233	220
25481287	19144210
0	0	0	29	57	33	1	1	0	
0	57	0	29	114	33	1	1	0	
0	114	0	29	171	33	1	1	0	
0	171	0	29	228	33	1	1	0	
0	0	33	28	37	85	0	2	0	
0	0	85	28	37	137	0	2	0	
29	0	0	121	113	33	2	3	0	
29	0	33	121	113	66	2	3	0	
0	124	33	28	176	70	3	4	1	
0	124	70	28	176	107	3	4	1	
0	124	107	28	176	144	3	4	1	
0	124	144	28	176	181	3	4	1	
0	124	181	28	176	218	3	4	1	
0	176	33	28	228	70	3	4	1	
0	176	70	28	228	107	3	4	1	
0	176	107	28	228	144	3	4	1	
0	176	144	28	228	181	3	4	1	
0	176	181	28	228	218	3	4	1	
29	0	66	121	113	99	5	5	1	
29	0	99	121	113	132	5	6	1	
29	0	132	121	113	165	5	7	1	
29	0	165	121	113	198	5	7	1	
29	141	0	142	233	33	5	8	1	
29	141	33	142	233	66	5	8	1	
29	141	66	142	233	99	5	8	1	
29	146	99	62	175	156	4	9	1	
29	175	99	62	204	156	4	9	1	
29	204	99	62	233	156	4	9	1	
62	146	99	95	175	156	4	9	1	
62	175	99	95	204	156	4	9	1	
62	204	99	95	233	156	4	9	1	
29	204	156	62	233	213	4	10	1	
29	147	156	62	204	185	7	11	2	
29	147	185	62	204	214	7	11	2	
62	147	156	95	204	185	7	11	2	
62	147	185	95	204	214	7	11	2	
29	113	0	81	141	37	6	12	2	
81	113	0	133	141	37	6	12	2	
133	113	0	185	141	37	6	12	2	
185	113	0	237	141	37	6	12	2	
237	113	0	289	141	37	6	12	2	
289	113	0	341	141	37	6	12	2	
62	204	156	95	233	213	7	13	2	
121	0	0	213	113	33	8	14	2	
121	0	33	213	113	66	8	14	2	
121	0	66	213	113	99	8	14	2	
121	0	99	213	113	132	8	14	2	
121	0	132	213	113	165	8	14	2	
121	0	165	213	113	198	8	14	2	
142	141	0	255	233	33	8	15	2	
29	113	37	81	141	74	9	16	3	
29	113	74	81	141	111	9	16	3	
29	113	111	81	141	148	9	16	3	
29	113	148	81	141	185	9	16	3	
95	146	99	128	175	156	10	17	3	
95	146	156	128	175	213	10	17	3	
95	175	99	128	204	156	10	17	3	
95	175	156	128	204	213	10	17	3	
95	204	99	128	233	156	10	17	3	
95	204	156	128	233	213	10	17	3	
142	141	33	255	233	66	11	18	3	
142	141	66	255	233	99	11	19	3	
142	141	99	255	233	132	11	19	3	
142	141	132	255	233	165	11	19	3	
142	141	165	255	233	198	11	19	3	
213	0	0	305	113	33	11	20	3	
213	0	33	305	113	66	11	20	3	
213	0	66	242	33	123	10	21	3	
242	0	66	271	33	123	10	21	3	
271	0	66	300	33	123	10	21	3	
81	113	37	118	141	89	12	22	4	
81	113	89	118	141	141	12	22	4	
81	113	141	118	141	193	12	22	4	
118	113	37	155	141	89	12	22	4	
118	113	89	155	141	141	12	22	4	
118	113	141	155	141	193	12	22	4	
213	33	66	242	66	123	13	23	4	
213	66	66	242	99	123	13	23	4	
242	33	66	271	66	123	13	23	4	
242	66	66	271	99	123	13	23	4	
271	33	66	300	66	123	13	23	4	
271	66	66	300	99	123	13	23	4	
255	141	0	368	233	33	14	24	4	
255	141	33	368	233	66	14	24	4	
255	141	66	368	233	99	14	24	4	
255	141	99	368	233	132	14	24	4	
255	141	132	368	233	165	14	24	4	
155	113	37	207	141	74	15	25	5	
155	113	74	207	141	111	15	25	5	
155	113	111	207	141	148	15	25	5	
155	113	148	207	141	185	15	25	5	
255	141	165	368	233	198	17	26	5	
213	0	123	242	33	180	16	27	5	
242	0	123	271	33	180	16	27	5	
271	0	123	300	33	180	16	27	5	
213	0	180	270	33	209	16	28	5	
213	33	123	270	66	152	16	29	5	
213	33	152	270	66	181	16	29	5	
213	66	123	270	99	152	16	29	5	
213	66	152	270	99	181	16	29	5	
305	0	0	397	113	33	17	30	5	
305	0	33	397	113	66	17	30	5	
305	0	66	397	113	99	17	30	5	
397	0	0	489	113	33	17	30	5	
397	0	33	489	113	66	17	30	5	
397	0	66	489	113	99	17	30	5	
489	0	0	581	113	33	17	30	5	
489	0	33	581	113	66	17	30	5	
489	0	66	581	113	99	17	30	5	
305	0	99	397	113	132	17	31	5	
305	0	132	397	113	165	17	31	5	
213	33	181	270	66	210	19	32	6	
213	66	181	270	99	210	19	32	6	
368	117	0	401	146	57	19	33	6	
368	146	0	401	175	57	19	33	6	
368	175	0	401	204	57	19	33	6	
368	204	0	401	233	57	19	33	6	
207	113	37	244	141	89	18	34	6	
207	113	89	244	141	141	18	34	6	
207	113	141	244	141	193	18	34	6	
368	119	57	401	176	86	19	35	6	
368	176	57	401	233	86	19	35	6	
397	0	99	489	113	132	20	36	6	
397	0	132	489	113	165	20	36	6	
489	0	99	581	113	132	20	36	6	
489	0	132	581	113	165	20	36	6	
244	113	37	281	141	89	18	37	6	
281	113	37	318	141	89	18	37	6	
305	0	165	397	113	198	20	38	6	
368	176	86	401	233	115	19	39	6	
397	0	165	489	113	198	23	40	7	
368	176	115	401	233	144	22	41	7	
368	176	144	401	233	173	22	41	7	
368	176	173	401	233	202	22	41	7	
244	113	89	281	141	141	21	42	7	
244	113	141	281	141	193	21	42	7	
281	113	89	318	141	141	21	42	7	
281	113	141	318	141	193	21	42	7	
401	120	0	493	233	33	23	43	7	
401	120	33	493	233	66	23	43	7	
401	120	66	493	233	99	23	43	7	
493	120	0	585	233	33	23	43	7	
493	120	33	585	233	66	23	43	7	
493	120	66	585	233	99	23	43	7	
368	124	86	396	176	123	21	44	7	
368	124	123	396	176	160	21	44	7	
368	124	160	396	176	197	21	44	7	
489	0	165	526	28	217	21	45	7	
489	28	165	526	56	217	24	46	8	
489	56	165	526	84	217	24	46	8	
489	84	165	526	112	217	24	46	8	
526	28	165	563	56	217	24	46	8	
526	56	165	563	84	217	24	46	8	
526	84	165	563	112	217	24	46	8	
401	120	99	493	233	132	26	47	8	
401	120	132	493	233	165	26	47	8	
401	120	165	493	233	198	26	47	8	
493	120	99	585	233	132	26	47	8	
493	120	132	585	233	165	26	47	8	
493	120	165	585	233	198	26	47	8	
526	0	165	578	28	202	24	48	8	
587	0	0	639	37	28	24	49	8	
587	0	28	639	37	56	24	49	8	
640	0	0	697	33	29	25	50	8	
640	0	29	697	33	58	25	50	8	
640	0	58	697	33	87	25	50	8	
640	0	87	697	33	116	25	50	8	
640	0	116	697	33	145	25	50	8	
640	0	145	697	33	174	25	50	8	
640	0	174	697	33	203	25	50	8	
640	0	203	697	33	232	25	50	8	
640	0	232	697	33	261	25	50	8	
698	0	0	750	37	28	27	51	9	
698	0	28	750	37	56	27	51	9	
698	0	56	750	37	84	27	51	9	
698	0	84	750	37	112	27	51	9	
698	0	112	750	37	140	27	51	9	
698	0	140	750	37	168	27	51	9	
751	0	0	808	33	29	28	52	9	
751	0	29	808	33	58	28	52	9	
751	0	58	808	33	87	28	52	9	
751	0	87	808	33	116	28	52	9	
751	0	116	808	33	145	28	52	9	
751	0	145	808	33	174	28	52	9	
751	0	174	808	33	203	28	52	9	
751	0	203	808	33	232	28	52	9	
751	0	232	808	33	261	28	52	9	
751	0	261	808	33	290	28	52	9	
809	0	0	922	92	33	29	53	9	
809	0	33	922	92	66	29	53	9	
809	0	66	922	92	99	29	53	9	
809	0	99	922	92	132	29	53	9	
809	0	132	922	92	165	29	53	9	
809	0	165	922	92	198	29	53	9	
809	0	198	922	92	231	29	53	9	
809	0	231	922	92	264	29	53	9	
