88	10	587	233	220
20117211	15463735
0	0	0	64	37	72	11	1	1	
0	0	72	55	33	136	18	2	2	
0	0	136	55	33	200	18	2	2	
0	175	0	78	233	72	23	3	2	
0	175	72	78	233	144	23	3	2	
0	175	144	78	233	216	23	3	2	
0	37	0	39	138	56	21	4	2	
39	37	0	78	138	56	21	4	2	
78	37	0	117	138	56	21	4	2	
0	37	56	57	94	163	22	5	2	
0	94	56	106	129	97	19	6	2	
0	94	97	106	129	138	19	6	2	
0	138	0	64	175	72	20	7	2	
78	140	0	144	233	26	17	8	2	
117	0	0	194	82	24	16	9	2	
0	138	72	64	175	144	31	10	3	
0	138	144	64	175	216	31	10	3	
0	94	138	106	129	179	29	11	3	
57	37	56	114	94	163	34	12	3	
78	140	26	144	233	52	26	13	3	
78	140	52	144	233	78	26	13	3	
78	176	78	135	233	185	34	14	3	
78	143	78	133	176	142	28	15	3	
78	143	142	133	176	206	28	15	3	
117	0	24	175	78	96	36	16	3	
117	0	96	175	59	175	35	17	3	
117	82	0	218	138	39	32	18	3	
117	82	39	218	138	78	32	18	3	
117	82	78	190	135	143	33	19	3	
144	141	0	228	233	22	24	20	3	
144	141	22	228	233	44	24	20	3	
144	155	44	226	233	72	27	21	3	
144	155	72	226	233	100	27	21	3	
144	156	100	226	233	124	25	22	3	
194	0	0	310	67	35	30	23	3	
194	0	35	310	67	70	30	23	3	
0	94	179	106	129	220	41	24	4	
117	82	143	182	135	216	44	25	4	
144	161	124	222	233	182	47	26	4	
144	161	182	208	233	219	42	27	4	
194	0	70	301	57	127	45	28	4	
194	0	127	301	57	184	45	28	4	
194	0	184	258	55	217	40	29	4	
218	67	0	296	125	72	47	30	4	
218	67	72	277	125	151	46	31	4	
228	183	0	293	233	80	43	32	4	
228	183	80	293	233	160	43	32	4	
293	140	0	359	233	26	38	33	4	
310	0	0	394	92	22	37	34	4	
310	0	22	392	78	50	39	35	4	
293	140	26	359	233	52	49	36	5	
293	153	52	358	233	102	53	37	5	
293	154	102	351	233	161	54	38	5	
293	154	161	351	233	220	54	38	5	
296	92	0	360	129	72	51	39	5	
310	0	50	392	77	74	48	40	5	
359	133	0	467	233	39	52	41	5	
360	92	0	476	127	67	50	42	5	
218	67	151	251	122	215	57	43	6	
310	0	74	392	77	98	56	44	6	
310	0	98	392	77	122	56	44	6	
310	0	122	390	65	172	61	45	6	
359	133	39	467	233	78	60	46	6	
359	133	78	467	233	117	60	46	6	
359	176	117	466	233	174	62	47	6	
359	177	174	460	233	213	59	48	6	
360	92	67	476	127	134	58	49	6	
360	92	134	476	127	201	58	49	6	
394	0	0	478	92	22	55	50	6	
394	0	22	473	59	80	63	51	6	
310	0	172	382	64	209	67	52	7	
359	137	117	460	176	173	68	53	7	
394	0	80	459	50	160	70	54	7	
467	163	0	583	198	67	66	55	7	
467	198	0	583	233	67	66	55	7	
467	167	67	560	233	93	65	56	7	
467	167	93	560	233	119	65	56	7	
476	107	0	577	163	39	68	57	7	
476	107	39	577	163	78	68	57	7	
478	0	0	586	100	39	69	58	7	
478	0	39	555	82	63	64	59	7	
478	0	63	555	82	87	64	59	7	
394	0	160	458	33	215	73	60	8	
467	167	119	560	233	145	72	61	8	
467	167	145	560	233	171	72	61	8	
467	169	171	539	233	208	75	62	8	
478	0	87	543	80	137	78	63	8	
478	0	137	543	73	190	79	64	8	
476	107	78	577	163	117	76	65	8	
476	108	117	540	163	150	73	66	8	
587	0	0	679	84	22	0	67	0	
587	0	22	679	84	44	0	67	0	
587	0	44	679	84	66	0	67	0	
680	0	0	762	77	24	1	68	0	
680	0	24	762	77	48	1	68	0	
763	0	0	856	66	26	2	69	0	
857	0	0	973	67	35	3	70	0	
974	0	0	1047	65	53	4	71	0	
974	0	53	1047	65	106	4	71	0	
1048	0	0	1127	59	58	5	72	0	
1128	0	0	1206	72	58	6	73	0	
1207	0	0	1299	84	22	7	74	1	
1300	0	0	1393	66	26	8	75	1	
1300	0	26	1393	66	52	8	75	1	
1394	0	0	1500	41	35	9	76	1	
1501	0	0	1617	67	35	10	77	1	
1501	0	35	1617	67	70	10	77	1	
1618	0	0	1690	64	37	11	78	1	
1691	0	0	1799	100	39	12	79	1	
1691	0	39	1799	100	78	12	79	1	
1800	0	0	1880	65	50	13	80	1	
1881	0	0	1954	65	53	14	81	1	
1955	0	0	2033	72	58	15	82	1	
2034	0	0	2126	84	22	71	83	8	
2127	0	0	2243	67	35	74	84	8	
2127	0	35	2243	67	70	74	84	8	
2244	0	0	2352	100	39	77	85	8	
2244	0	39	2352	100	78	77	85	8	
2353	0	0	2445	84	22	80	86	9	
2446	0	0	2539	66	26	81	87	9	
2446	0	26	2539	66	52	81	87	9	
2540	0	0	2604	55	33	82	88	9	
2605	0	0	2711	41	35	83	89	9	
2605	0	35	2711	41	70	83	89	9	
2605	0	70	2711	41	105	83	89	9	
2712	0	0	2828	67	35	84	90	9	
2829	0	0	2901	64	37	85	91	9	
2829	0	37	2901	64	74	85	91	9	
2902	0	0	3010	100	39	86	92	9	
2902	0	39	3010	100	78	86	92	9	
3011	0	0	3091	65	50	87	93	9	
