106	10	587	233	220
21475084	16894743
0	0	0	54	78	52	8	1	0	
0	0	52	54	78	104	8	1	0	
0	127	0	57	233	63	10	2	0	
0	127	63	57	233	126	10	2	0	
0	0	104	50	55	161	7	3	0	
0	0	161	50	55	218	7	3	0	
0	169	126	53	233	216	9	4	0	
0	78	0	39	127	75	6	5	0	
0	78	75	39	127	150	6	5	0	
0	55	104	42	76	129	0	6	0	
0	128	126	36	169	188	5	7	0	
0	78	150	30	126	208	3	8	0	
39	78	0	69	126	58	3	9	0	
54	0	0	141	68	31	4	10	0	
54	0	31	135	59	55	1	11	0	
57	181	0	170	207	27	2	12	0	
57	207	0	170	233	27	2	12	0	
54	0	55	133	55	151	18	13	1	
54	0	151	132	54	203	17	14	1	
57	133	0	126	181	50	15	15	1	
57	133	50	126	181	100	15	15	1	
57	145	100	98	181	162	13	16	1	
57	145	162	98	181	212	12	17	1	
57	195	27	163	233	82	14	18	1	
69	68	0	126	131	106	19	19	1	
69	68	106	124	118	163	16	20	1	
126	100	0	185	181	24	11	21	1	
57	195	82	163	233	137	26	22	2	
57	197	137	107	233	178	25	23	2	
107	197	137	157	233	178	25	23	2	
57	212	178	99	233	203	20	24	2	
69	68	163	124	118	220	29	25	2	
126	68	0	241	97	44	22	26	2	
126	100	24	185	181	48	21	27	2	
126	100	48	185	181	72	21	27	2	
126	129	72	180	181	150	30	28	2	
126	131	150	174	181	219	28	29	2	
141	0	0	228	68	31	24	30	2	
141	0	31	224	67	106	31	31	2	
141	0	106	189	58	136	23	32	2	
141	0	136	182	56	207	27	33	2	
99	197	178	149	233	219	34	34	3	
170	193	0	281	233	76	37	35	3	
170	193	76	281	233	152	37	36	3	
170	197	152	211	233	214	35	37	3	
211	197	152	252	233	214	35	37	3	
185	97	0	240	193	79	40	38	3	
185	103	79	238	193	143	39	39	3	
185	154	143	234	193	218	36	40	3	
185	104	143	233	154	212	38	41	3	
228	0	0	315	68	31	33	42	3	
228	0	31	309	59	55	32	43	3	
228	0	55	309	59	79	32	43	3	
126	68	44	239	94	71	42	44	4	
126	68	71	168	89	96	41	45	4	
126	68	96	168	89	121	41	45	4	
228	0	79	307	55	175	49	46	4	
228	0	175	303	49	214	44	47	4	
240	136	0	303	193	106	50	48	4	
240	141	106	294	193	184	47	49	4	
240	97	0	289	136	75	44	50	4	
240	97	75	281	133	137	43	51	4	
281	193	0	392	233	76	45	52	4	
289	68	0	342	132	90	48	53	4	
289	68	90	339	125	145	46	54	4	
240	151	184	282	172	209	51	55	5	
240	172	184	282	193	209	51	55	5	
289	68	145	339	116	214	58	56	5	
281	193	76	392	233	152	56	57	5	
281	195	152	387	233	207	55	58	5	
303	136	0	366	193	106	62	59	5	
303	136	106	366	193	212	62	60	5	
315	0	0	378	57	106	62	61	5	
315	0	106	370	57	156	59	62	5	
342	57	0	394	135	54	61	63	5	
342	57	54	393	128	120	60	64	5	
342	57	120	383	128	176	57	65	5	
366	149	0	481	193	29	53	66	5	
394	0	0	462	87	31	54	67	5	
394	90	0	475	149	24	52	68	5	
342	57	176	378	119	217	66	69	6	
315	0	156	356	36	206	65	70	6	
315	36	156	357	57	181	63	71	6	
366	153	29	477	193	105	68	72	6	
366	153	105	477	193	181	68	72	6	
394	0	31	461	83	106	74	73	6	
392	195	0	498	233	55	67	74	6	
392	197	55	433	233	105	65	75	6	
394	0	106	460	71	157	70	76	6	
394	92	24	457	149	130	73	77	6	
394	0	157	442	69	207	69	78	6	
394	95	130	446	149	208	71	79	6	
462	0	0	526	90	53	72	80	6	
498	118	0	542	233	29	64	81	6	
433	197	55	474	233	117	78	82	7	
433	197	117	474	233	179	78	82	7	
462	0	53	526	90	106	84	83	7	
462	0	106	526	90	159	84	83	7	
462	0	159	526	90	212	84	83	7	
498	127	29	536	233	84	79	84	7	
498	127	84	536	233	139	79	84	7	
498	185	139	528	233	197	76	85	7	
526	0	0	583	63	106	86	86	7	
526	0	106	583	63	212	86	86	7	
526	63	0	576	111	69	83	87	7	
526	63	69	576	111	138	83	87	7	
526	63	138	576	111	207	83	87	7	
542	122	0	582	233	76	81	88	7	
542	184	76	581	233	151	80	89	7	
498	143	139	534	184	201	98	90	9	
542	185	151	572	233	209	96	91	9	
542	143	76	578	184	126	97	92	9	
587	0	0	668	59	24	75	93	7	
669	0	0	756	68	31	77	94	7	
757	0	0	828	56	41	82	95	7	
757	0	41	828	56	82	82	95	7	
829	0	0	925	79	55	85	96	7	
829	0	55	925	79	110	85	96	7	
829	0	110	925	79	165	85	96	7	
926	0	0	1039	27	26	87	97	8	
1040	0	0	1098	48	30	88	98	8	
1099	0	0	1149	41	36	89	99	8	
1150	0	0	1225	49	39	90	100	8	
1226	0	0	1295	50	48	91	101	8	
1226	0	48	1295	50	96	91	101	8	
1296	0	0	1353	55	50	92	102	8	
1354	0	0	1425	66	51	93	103	8	
1354	0	51	1425	66	102	93	103	8	
1426	0	0	1516	64	53	94	104	8	
1517	0	0	1613	79	55	95	105	8	
1614	0	0	1720	55	38	99	106	9	
1614	0	38	1720	55	76	99	106	9	
1721	0	0	1832	76	40	100	107	9	
1833	0	0	1904	66	51	101	108	9	
1905	0	0	1983	54	52	102	109	9	
1905	0	52	1983	54	104	102	109	9	
1984	0	0	2074	64	53	103	110	9	
2075	0	0	2171	79	55	104	111	9	
2075	0	55	2171	79	110	104	111	9	
2075	0	110	2171	79	165	104	111	9	
2172	0	0	2255	75	67	105	112	9	
2172	0	67	2255	75	134	105	112	9	
2172	0	134	2255	75	201	105	112	9	
