111	10	587	233	220
20720569	16254774
0	0	0	84	76	38	6	1	0	
84	0	0	168	76	38	6	1	0	
0	186	0	49	233	65	8	2	0	
0	186	65	49	233	130	8	2	0	
0	186	130	49	233	195	8	2	0	
0	0	38	54	49	117	9	3	0	
0	84	0	87	186	35	4	4	0	
0	0	117	32	27	169	1	5	0	
0	49	38	72	75	73	0	6	0	
0	49	73	72	75	108	0	6	0	
0	84	35	87	186	70	4	7	0	
0	84	70	87	186	105	4	7	0	
0	113	105	73	186	141	5	8	0	
0	113	141	33	186	198	2	9	0	
54	0	38	158	34	91	3	10	0	
87	136	0	180	233	45	7	11	0	
0	84	105	52	111	137	11	12	1	
0	84	137	52	111	169	11	12	1	
0	84	169	52	111	201	11	12	1	
0	49	108	72	75	143	10	13	1	
0	49	143	72	75	178	10	13	1	
33	118	141	73	186	216	17	14	1	
54	0	91	127	33	148	13	15	1	
87	76	0	159	135	84	19	16	1	
87	76	84	159	135	168	19	16	1	
72	34	38	152	69	103	14	17	1	
87	136	45	180	233	90	18	18	1	
87	136	90	180	233	135	18	18	1	
87	160	135	160	233	171	16	19	1	
168	0	0	255	102	35	15	20	1	
168	0	35	238	102	62	12	21	1	
0	49	178	72	75	213	20	22	2	
87	160	171	160	233	207	25	23	2	
54	0	148	127	33	205	23	24	2	
87	76	168	147	133	219	29	25	2	
72	34	103	142	61	134	21	26	2	
168	0	62	238	102	89	22	27	2	
168	0	89	238	102	116	22	27	2	
168	0	116	238	102	143	22	27	2	
168	0	143	221	71	217	31	28	2	
180	136	0	273	233	45	27	29	2	
180	136	45	273	233	90	27	29	2	
180	154	90	232	233	170	30	30	2	
180	168	170	227	233	219	28	31	2	
232	165	90	272	233	165	26	32	2	
255	0	0	342	102	35	24	33	2	
255	0	35	326	53	109	31	34	2	
273	160	0	346	233	36	25	35	2	
168	71	143	220	98	175	33	36	3	
168	71	175	220	98	207	33	36	3	
159	102	0	263	136	53	35	37	3	
159	103	53	232	136	110	34	38	3	
159	110	110	231	136	145	32	39	3	
255	0	109	326	53	183	40	40	3	
255	53	35	335	88	100	36	41	3	
255	53	100	335	88	165	36	41	3	
273	160	36	346	233	72	37	42	3	
273	160	72	346	233	108	37	42	3	
273	161	108	332	233	192	41	43	3	
273	107	0	344	160	74	40	44	3	
273	109	74	330	160	134	39	45	3	
273	116	134	326	160	202	38	46	3	
255	53	165	325	84	192	44	47	4	
255	53	192	325	84	219	44	47	4	
273	161	192	308	233	218	42	48	4	
342	0	0	422	35	65	47	49	4	
342	0	65	422	35	130	47	49	4	
344	35	0	403	107	84	55	50	4	
344	108	0	423	160	80	53	51	4	
344	35	84	397	106	158	54	52	4	
344	120	80	412	160	155	51	53	4	
344	35	158	395	92	218	52	54	4	
346	160	0	419	233	36	49	55	4	
346	160	36	419	233	72	49	55	4	
403	35	0	505	105	27	45	56	4	
403	35	27	490	61	76	43	57	4	
419	199	0	523	233	53	46	58	4	
423	112	0	525	199	35	48	59	4	
423	115	35	499	199	73	50	60	4	
255	0	183	325	27	214	58	61	5	
342	0	130	422	35	195	59	62	5	
403	35	76	490	61	125	57	63	5	
403	35	125	490	61	174	57	63	5	
403	35	174	475	61	209	56	64	5	
422	0	0	509	26	49	57	65	5	
423	140	73	495	199	157	63	66	5	
403	61	27	456	105	95	61	67	5	
505	26	0	559	75	79	62	68	5	
346	200	72	419	233	129	78	69	7	
346	207	129	418	233	164	75	70	7	
419	199	53	523	233	106	79	71	7	
419	199	106	523	233	159	79	71	7	
419	199	159	523	233	212	79	71	7	
422	0	49	509	26	98	76	72	7	
505	75	0	585	110	65	80	73	7	
505	26	79	558	70	147	84	74	7	
505	26	147	558	70	215	84	74	7	
525	162	0	578	233	74	87	75	7	
525	162	74	578	233	148	87	75	7	
525	189	148	578	233	216	84	76	7	
525	113	0	579	162	79	85	77	7	
403	70	95	455	97	127	100	78	9	
403	70	127	455	97	159	100	78	9	
403	70	159	455	97	191	100	78	9	
423	145	157	491	189	210	106	79	9	
422	0	98	509	26	147	98	80	9	
422	0	147	509	26	196	98	80	9	
505	75	65	585	110	130	104	81	9	
505	75	130	578	108	187	102	82	9	
505	75	187	575	102	218	99	83	9	
509	0	0	581	26	35	97	84	9	
509	0	35	581	26	70	97	84	9	
525	115	79	574	162	144	107	85	9	
525	115	144	574	162	209	107	85	9	
587	0	0	660	73	36	60	86	5	
661	0	0	733	35	26	64	87	6	
734	0	0	786	32	27	65	88	6	
734	0	27	786	32	54	65	88	6	
787	0	0	889	70	27	66	89	6	
890	0	0	970	65	35	67	90	6	
890	0	35	970	65	70	67	90	6	
971	0	0	1073	87	35	68	91	6	
1074	0	0	1147	73	36	69	92	6	
1148	0	0	1245	93	45	70	93	6	
1246	0	0	1311	49	47	71	94	6	
1312	0	0	1392	79	52	72	95	6	
1393	0	0	1467	71	53	73	96	6	
1468	0	0	1552	72	59	74	97	6	
1553	0	0	1655	70	27	77	98	7	
1656	0	0	1758	87	35	81	99	7	
1759	0	0	1843	76	38	82	100	7	
1844	0	0	1919	68	40	83	101	7	
1844	0	40	1919	68	80	83	101	7	
1920	0	0	2000	79	52	86	102	7	
2001	0	0	2085	72	59	88	103	7	
2086	0	0	2158	35	26	89	104	8	
2159	0	0	2246	49	26	90	105	8	
2159	0	26	2246	49	52	90	105	8	
2247	0	0	2299	32	27	91	106	8	
2247	0	27	2299	32	54	91	106	8	
2300	0	0	2402	70	27	92	107	8	
2403	0	0	2507	53	34	93	108	8	
2403	0	34	2507	53	68	93	108	8	
2508	0	0	2581	73	36	94	109	8	
2582	0	0	2657	68	40	95	110	8	
2582	0	40	2657	68	80	95	110	8	
2658	0	0	2742	72	59	96	111	8	
2743	0	0	2845	70	27	101	112	9	
2846	0	0	2950	53	34	103	113	9	
2951	0	0	3026	68	40	105	114	9	
3027	0	0	3106	54	49	108	115	9	
3027	0	49	3106	54	98	108	115	9	
3027	0	98	3106	54	147	108	115	9	
3027	0	147	3106	54	196	108	115	9	
3107	0	0	3187	79	52	109	116	9	
3107	0	52	3187	79	104	109	116	9	
3188	0	0	3262	71	53	110	117	9	
