78	10	587	233	220
23440024	19930307
0	0	0	37	91	54	5	1	0	
0	0	54	37	91	108	5	1	0	
0	0	108	37	91	162	5	1	0	
0	0	162	37	91	216	5	1	0	
0	101	0	31	167	59	0	2	0	
0	101	59	31	167	118	0	2	0	
0	101	118	31	167	177	0	2	0	
0	167	0	31	233	59	0	2	0	
0	167	59	31	233	118	0	2	0	
0	167	118	31	233	177	0	2	0	
31	123	0	75	178	62	6	3	0	
31	123	62	75	178	124	6	3	0	
31	178	0	75	233	62	6	3	0	
31	178	62	75	233	124	6	3	0	
31	133	124	68	233	156	1	4	0	
31	133	156	68	233	188	1	4	0	
31	133	188	68	233	220	1	4	0	
37	0	0	100	35	59	2	5	0	
37	0	59	100	35	118	2	5	0	
37	0	118	100	35	177	2	5	0	
37	35	0	89	111	46	7	6	0	
89	35	0	141	111	46	7	6	0	
141	35	0	193	111	46	7	6	0	
37	35	46	132	71	92	4	7	0	
37	35	92	132	71	138	4	7	0	
37	71	46	81	107	95	3	8	0	
37	71	95	81	107	144	3	8	0	
37	71	144	81	107	193	3	8	0	
37	35	138	132	71	184	12	9	1	
75	187	0	151	233	52	15	10	1	
75	187	52	151	233	104	15	10	1	
75	187	104	151	233	156	15	10	1	
75	189	156	130	233	218	14	11	1	
75	152	0	134	187	63	10	12	1	
134	152	0	193	187	63	10	12	1	
193	152	0	252	187	63	10	12	1	
75	155	63	175	187	100	9	13	1	
75	155	100	175	187	137	9	13	1	
75	155	137	175	187	174	9	13	1	
75	115	0	166	152	54	13	14	1	
75	115	54	166	152	108	13	14	1	
75	115	108	166	152	162	13	14	1	
75	115	162	166	152	216	13	14	1	
81	71	46	147	102	105	8	15	1	
81	71	105	147	102	164	8	15	1	
132	35	46	176	71	95	11	16	1	
132	35	95	176	71	144	11	16	1	
132	35	144	176	71	193	11	16	1	
151	189	0	206	233	62	14	17	1	
100	0	0	200	32	37	17	18	2	
200	0	0	300	32	37	17	18	2	
300	0	0	400	32	37	17	18	2	
400	0	0	500	32	37	17	18	2	
147	71	46	191	107	95	19	19	2	
147	71	95	191	107	144	19	19	2	
147	71	144	191	107	193	19	19	2	
100	0	37	166	31	96	16	20	2	
100	0	96	166	31	155	16	21	2	
166	115	0	257	152	54	20	22	2	
166	115	54	257	152	108	20	22	2	
166	115	108	257	152	162	20	22	2	
175	152	63	234	187	126	18	23	2	
175	152	126	234	187	189	18	23	2	
151	189	62	206	233	124	21	24	2	
151	189	124	206	233	186	21	24	2	
193	32	0	239	108	52	22	25	2	
193	32	52	239	108	104	22	25	2	
193	32	104	239	108	156	22	25	2	
193	32	156	237	87	218	21	26	2	
100	0	155	166	31	214	23	27	3	
166	115	162	257	152	216	28	28	3	
166	0	37	266	32	74	24	29	3	
166	0	74	266	32	111	24	29	3	
206	198	0	269	233	59	25	30	3	
269	198	0	332	233	59	25	30	3	
332	198	0	395	233	59	25	30	3	
395	198	0	458	233	59	25	30	3	
239	32	0	330	86	37	28	31	3	
239	32	37	330	86	74	28	31	3	
239	32	74	330	86	111	28	31	3	
239	32	111	330	86	148	28	31	3	
239	32	148	330	86	185	28	31	3	
252	152	0	304	198	76	30	32	3	
252	154	76	301	198	112	26	33	3	
252	154	112	301	198	148	26	33	3	
252	154	148	301	198	184	26	33	3	
252	154	184	301	198	220	26	33	3	
257	90	0	312	152	44	29	34	3	
257	90	44	312	152	88	29	34	3	
257	90	88	312	152	132	29	34	3	
304	152	0	399	198	36	27	35	3	
166	0	111	266	32	148	32	36	4	
166	0	148	266	32	185	32	36	4	
206	198	59	265	233	122	33	37	4	
206	198	122	265	233	185	33	37	4	
265	198	59	324	233	122	33	37	4	
265	198	122	324	233	185	33	37	4	
257	90	132	312	152	176	37	38	4	
257	90	176	312	152	220	37	38	4	
266	0	37	332	31	96	31	39	4	
266	0	96	332	31	155	31	39	4	
266	0	155	332	31	214	31	39	4	
304	161	36	395	198	90	36	40	4	
304	161	90	395	198	144	36	40	4	
304	163	144	367	198	203	33	41	4	
312	106	0	364	152	76	38	42	4	
312	106	76	364	152	152	38	42	4	
312	116	152	361	152	196	34	43	4	
324	202	59	390	233	118	31	44	4	
330	32	0	425	68	46	35	45	4	
330	32	46	425	68	92	35	45	4	
330	68	0	396	99	59	39	46	5	
330	68	59	396	99	118	39	46	5	
396	68	0	462	99	59	39	46	5	
396	68	59	462	99	118	39	46	5	
462	68	0	528	99	59	39	46	5	
462	68	59	528	99	118	39	46	5	
330	32	92	389	67	155	41	47	5	
330	32	155	389	67	218	41	47	5	
332	0	37	432	32	74	40	48	5	
332	0	74	432	32	111	40	48	5	
364	100	0	410	152	76	46	49	5	
364	100	76	410	152	152	46	49	5	
410	100	0	456	152	76	46	49	5	
410	100	76	456	152	152	46	49	5	
364	115	152	455	152	206	44	50	5	
390	198	59	449	233	122	41	51	5	
399	154	0	454	198	62	45	52	5	
399	154	62	454	198	124	45	52	5	
399	162	124	448	198	168	42	53	5	
399	162	168	448	198	212	42	53	5	
425	32	0	520	68	46	43	54	5	
454	161	0	545	198	54	44	55	5	
330	68	118	396	99	177	47	56	6	
396	68	118	462	99	177	47	56	6	
462	68	118	528	99	177	47	56	6	
332	0	111	432	32	148	48	57	6	
332	0	148	432	32	185	48	57	6	
390	198	122	449	233	185	49	58	6	
425	32	46	474	68	90	50	59	6	
425	32	90	474	68	134	50	59	6	
425	32	134	474	68	178	50	59	6	
432	0	37	498	31	96	47	60	6	
454	161	54	545	198	108	52	61	6	
454	161	108	545	198	162	52	61	6	
454	161	162	545	198	216	52	61	6	
456	109	0	502	161	76	54	62	6	
456	109	76	502	161	152	54	62	6	
502	109	0	548	161	76	54	62	6	
502	109	76	548	161	152	54	62	6	
456	124	152	547	161	206	52	63	6	
458	201	0	558	233	37	48	64	6	
458	201	37	558	233	74	48	64	6	
520	0	0	575	44	62	53	65	6	
548	110	0	585	201	54	52	66	6	
548	110	54	585	201	108	52	66	6	
432	0	96	498	31	155	63	67	8	
432	0	155	498	31	214	63	67	8	
458	201	74	558	233	111	64	68	8	
458	201	111	558	233	148	64	68	8	
458	201	148	558	233	185	64	68	8	
520	0	62	575	44	124	69	69	8	
520	0	124	575	44	186	69	69	8	
548	110	108	585	201	162	68	70	8	
548	110	162	585	201	216	68	70	8	
528	44	0	563	103	63	65	71	8	
528	44	63	563	103	126	65	71	8	
528	44	126	563	103	189	65	71	8	
587	0	0	682	46	36	51	72	6	
683	0	0	749	59	31	55	73	7	
683	0	31	749	59	62	55	73	7	
683	0	62	749	59	93	55	73	7	
683	0	93	749	59	124	55	73	7	
750	0	0	850	37	32	56	74	7	
750	0	32	850	37	64	56	74	7	
750	0	64	850	37	96	56	74	7	
851	0	0	914	59	35	57	75	7	
915	0	0	964	44	36	58	76	7	
915	0	36	964	44	72	58	76	7	
965	0	0	1060	46	36	59	77	7	
965	0	36	1060	46	72	59	77	7	
1061	0	0	1152	54	37	60	78	7	
1153	0	0	1215	55	44	61	79	7	
1216	0	0	1292	52	46	62	80	7	
1216	0	46	1292	52	92	62	80	7	
1293	0	0	1393	37	32	64	81	8	
1293	0	32	1393	37	64	64	81	8	
1394	0	0	1443	44	36	66	82	8	
1394	0	36	1443	44	72	66	82	8	
1444	0	0	1539	46	36	67	83	8	
1444	0	36	1539	46	72	67	83	8	
1444	0	72	1539	46	108	67	83	8	
1540	0	0	1631	54	37	68	84	8	
1632	0	0	1708	52	46	70	85	8	
1632	0	46	1708	52	92	70	85	8	
1709	0	0	1775	59	31	71	86	9	
1709	0	31	1775	59	62	71	86	9	
1709	0	62	1775	59	93	71	86	9	
1709	0	93	1775	59	124	71	86	9	
1776	0	0	1876	37	32	72	87	9	
1776	0	32	1876	37	64	72	87	9	
1877	0	0	1940	59	35	73	88	9	
1877	0	35	1940	59	70	73	88	9	
1877	0	70	1940	59	105	73	88	9	
1877	0	105	1940	59	140	73	88	9	
1877	0	140	1940	59	175	73	88	9	
1941	0	0	1990	44	36	74	89	9	
1991	0	0	2086	46	36	75	90	9	
1991	0	36	2086	46	72	75	90	9	
1991	0	72	2086	46	108	75	90	9	
2087	0	0	2178	54	37	76	91	9	
2087	0	37	2178	54	74	76	91	9	
2179	0	0	2241	55	44	77	92	9	
2179	0	44	2241	55	88	77	92	9	
2179	0	88	2241	55	132	77	92	9	
