30	10	587	233	220
24769314	18591786
0	0	0	78	108	54	2	1	0	
0	0	54	78	108	108	2	1	0	
0	0	108	78	108	162	2	1	0	
0	117	0	86	175	36	1	2	0	
0	117	36	86	175	72	1	2	0	
0	175	0	86	233	36	1	2	0	
0	175	36	86	233	72	1	2	0	
0	0	162	36	86	220	1	3	0	
0	164	72	71	233	94	0	4	0	
0	164	94	71	233	116	0	4	0	
0	164	116	71	233	138	0	4	0	
0	164	138	71	233	160	0	4	0	
0	128	72	86	164	130	4	5	1	
0	128	130	86	164	188	4	5	1	
0	164	160	71	233	182	3	6	1	
0	164	182	71	233	204	3	6	1	
36	0	162	72	86	220	4	7	1	
78	0	0	132	108	78	5	8	1	
132	0	0	186	108	78	5	8	1	
186	0	0	240	108	78	5	8	1	
240	0	0	294	108	78	5	8	1	
294	0	0	348	108	78	5	8	1	
78	0	78	114	86	136	7	9	2	
78	0	136	114	86	194	7	9	2	
114	0	78	150	86	136	7	9	2	
114	0	136	150	86	194	7	9	2	
150	0	78	228	108	132	8	10	2	
228	0	78	306	108	132	8	10	2	
86	162	0	155	233	22	6	11	2	
86	162	22	155	233	44	6	11	2	
86	162	44	155	233	66	6	11	2	
86	162	66	155	233	88	6	11	2	
86	162	88	155	233	110	6	11	2	
86	162	110	155	233	132	6	11	2	
78	0	194	147	71	216	9	12	3	
86	108	0	194	162	78	11	13	3	
86	108	78	194	162	156	11	13	3	
194	108	0	302	162	78	11	13	3	
194	108	78	302	162	156	11	13	3	
86	126	156	172	162	214	10	14	3	
155	179	0	263	233	78	11	15	3	
150	0	132	186	86	190	10	16	3	
86	162	132	155	233	154	12	17	4	
86	162	154	155	233	176	12	17	4	
86	162	176	155	233	198	12	17	4	
86	162	198	155	233	220	12	17	4	
186	0	132	240	108	210	14	18	4	
240	0	132	294	108	210	14	19	4	
155	179	78	263	233	156	14	20	4	
155	197	156	241	233	214	13	21	4	
306	0	78	342	86	136	13	22	4	
263	162	0	332	233	22	12	23	4	
263	162	22	332	233	44	12	24	4	
302	108	0	410	162	78	14	25	4	
410	108	0	518	162	78	14	25	4	
172	126	156	258	162	214	16	26	5	
306	0	136	342	86	194	16	27	5	
263	162	44	332	233	66	15	28	5	
263	162	66	332	233	88	15	28	5	
263	162	88	332	233	110	15	28	5	
263	162	110	332	233	132	15	28	5	
302	108	78	410	162	156	17	29	5	
302	126	156	388	162	214	16	30	5	
410	108	78	518	162	156	17	31	5	
332	175	0	418	233	36	16	32	5	
332	175	36	418	233	72	16	32	5	
418	175	0	504	233	36	16	32	5	
418	175	36	504	233	72	16	32	5	
263	162	132	332	233	154	18	33	6	
263	162	154	332	233	176	18	33	6	
410	126	156	496	162	214	19	34	6	
332	175	72	418	233	108	19	35	6	
348	0	0	426	108	54	20	36	6	
348	0	54	426	108	108	20	36	6	
348	0	108	426	108	162	20	36	6	
348	0	162	426	108	216	20	36	6	
263	162	176	332	233	198	21	37	7	
332	175	108	418	233	144	22	38	7	
332	175	144	418	233	180	22	38	7	
332	175	180	418	233	216	22	38	7	
426	0	0	504	108	54	23	39	7	
426	0	54	504	108	108	23	39	7	
426	0	108	504	108	162	23	39	7	
426	0	162	504	108	216	23	39	7	
504	0	0	582	108	54	23	40	7	
418	175	72	504	233	108	25	41	8	
418	175	108	504	233	144	25	41	8	
418	175	144	504	233	180	25	41	8	
418	175	180	504	233	216	25	41	8	
504	0	54	582	108	108	26	42	8	
504	0	108	582	108	162	26	42	8	
504	0	162	582	108	216	26	42	8	
504	162	0	573	233	22	24	43	8	
504	162	22	573	233	44	24	43	8	
504	162	44	573	233	66	24	43	8	
504	162	66	573	233	88	24	43	8	
504	162	88	573	233	110	24	43	8	
504	162	110	573	233	132	24	43	8	
504	162	132	573	233	154	24	43	8	
587	0	0	673	58	36	25	44	8	
674	0	0	745	69	22	27	45	9	
674	0	22	745	69	44	27	45	9	
674	0	44	745	69	66	27	45	9	
674	0	66	745	69	88	27	45	9	
746	0	0	832	58	36	28	46	9	
746	0	36	832	58	72	28	46	9	
746	0	72	832	58	108	28	46	9	
833	0	0	941	78	54	29	47	9	
833	0	54	941	78	108	29	47	9	
833	0	108	941	78	162	29	47	9	
833	0	162	941	78	216	29	47	9	
833	0	216	941	78	270	29	47	9	
833	0	270	941	78	324	29	47	9	
833	0	324	941	78	378	29	47	9	
833	0	378	941	78	432	29	47	9	
