85	10	587	233	220
22556927	18093606
0	0	0	119	88	51	7	1	0	
0	88	0	119	176	51	7	1	0	
0	0	51	61	69	137	8	2	0	
0	69	51	61	138	137	8	2	0	
0	0	137	60	67	162	1	3	0	
0	0	162	60	67	187	1	3	0	
0	0	187	60	67	212	1	3	0	
0	146	51	117	176	105	2	4	0	
0	152	105	45	176	142	0	5	0	
45	152	105	90	176	142	0	5	0	
0	67	137	51	102	192	5	6	0	
0	152	142	37	176	187	0	7	0	
0	182	0	119	233	88	7	8	0	
0	182	88	119	233	176	7	8	0	
61	0	51	103	95	125	6	9	0	
61	0	125	93	74	185	4	10	0	
119	0	0	189	95	30	3	11	0	
119	0	30	189	95	60	3	11	0	
119	0	60	189	95	90	3	11	0	
0	183	176	100	233	219	17	12	1	
0	103	137	51	138	192	15	13	1	
37	152	142	74	176	187	9	14	1	
119	0	90	189	95	120	13	15	1	
119	0	120	189	95	150	13	15	1	
119	0	150	189	95	180	13	15	1	
119	0	180	179	74	212	14	16	1	
119	145	0	238	233	51	18	17	1	
119	145	51	238	233	102	18	17	1	
119	103	0	214	145	74	16	18	1	
119	152	102	217	233	128	11	19	1	
119	152	128	217	233	154	11	19	1	
119	152	154	217	233	180	11	19	1	
119	166	180	179	233	205	10	20	1	
189	0	0	258	61	86	19	21	1	
189	61	0	306	91	54	12	22	1	
189	0	86	256	60	111	10	23	1	
119	103	74	214	145	148	23	24	2	
119	110	148	170	145	203	22	25	2	
189	0	111	256	60	136	20	26	2	
214	102	0	314	145	50	24	27	2	
238	172	0	307	233	86	25	28	2	
238	172	86	307	233	172	25	28	2	
258	0	0	329	61	76	26	29	2	
307	152	0	405	233	26	21	30	2	
189	61	54	226	85	99	27	31	3	
226	61	54	263	85	99	27	31	3	
189	0	136	240	55	171	31	32	3	
189	0	171	240	55	206	31	32	3	
214	103	50	309	145	124	32	33	3	
214	103	124	309	145	198	32	33	3	
238	178	172	289	233	207	31	34	3	
306	61	0	380	93	60	30	35	3	
307	152	26	405	233	52	28	36	3	
307	163	52	402	233	82	29	37	3	
307	163	82	402	233	112	29	37	3	
314	101	0	433	152	88	34	38	3	
433	101	0	552	152	88	34	38	3	
314	102	88	414	152	131	33	39	3	
307	163	112	402	233	142	38	40	4	
258	0	76	329	61	152	43	41	4	
258	0	152	325	60	177	35	42	4	
258	0	177	325	60	202	35	42	4	
307	191	142	402	233	216	40	43	4	
329	0	0	415	61	69	42	44	4	
329	0	69	415	61	138	42	44	4	
306	61	60	380	93	120	39	45	4	
306	61	120	380	93	180	39	45	4	
314	102	131	414	152	174	41	46	4	
329	0	138	400	61	214	43	47	4	
380	61	0	497	91	54	37	48	4	
380	61	54	497	91	108	37	48	4	
380	61	108	497	91	162	37	48	4	
405	152	0	503	233	26	36	49	4	
405	159	26	500	233	68	40	50	4	
306	61	180	351	85	217	44	51	5	
307	167	142	352	191	179	44	52	5	
307	167	179	352	191	216	44	52	5	
314	102	174	414	152	217	51	53	5	
380	61	162	497	91	216	46	54	5	
405	159	68	500	233	110	50	55	5	
405	159	110	500	233	152	50	55	5	
405	163	152	500	233	182	47	56	5	
405	163	182	500	233	212	47	56	5	
414	101	88	533	152	176	52	57	5	
414	101	176	469	152	211	49	58	5	
415	0	0	501	61	69	53	59	5	
415	0	69	489	60	101	48	60	5	
415	0	101	489	60	133	48	60	5	
415	0	133	482	60	158	45	61	5	
415	0	158	482	60	183	45	61	5	
501	0	0	544	100	50	51	62	5	
544	0	0	587	100	50	51	62	5	
415	0	183	482	60	208	55	63	6	
469	101	176	524	152	211	59	64	6	
501	0	50	587	69	111	61	65	6	
501	0	111	587	69	172	61	65	6	
501	0	172	546	37	196	54	66	6	
501	0	196	546	37	220	54	66	6	
503	157	0	564	233	71	62	67	6	
503	157	71	564	233	142	62	67	6	
503	157	142	564	233	213	62	67	6	
552	102	0	587	157	51	59	68	6	
587	0	0	685	81	26	56	69	6	
587	0	26	685	81	52	56	69	6	
686	0	0	781	70	30	57	70	6	
686	0	30	781	70	60	57	70	6	
782	0	0	856	60	32	58	71	6	
857	0	0	957	50	43	60	72	6	
958	0	0	1003	37	24	63	73	7	
1004	0	0	1071	60	25	64	74	7	
1072	0	0	1170	81	26	65	75	7	
1171	0	0	1288	54	30	66	76	7	
1289	0	0	1384	70	30	67	77	7	
1385	0	0	1459	60	32	68	78	7	
1385	0	32	1459	60	64	68	78	7	
1460	0	0	1515	51	35	69	79	7	
1516	0	0	1611	74	42	70	80	7	
1612	0	0	1712	50	43	71	81	7	
1713	0	0	1789	71	61	72	82	7	
1790	0	0	1857	60	25	73	83	8	
1858	0	0	1975	54	30	74	84	8	
1976	0	0	2050	60	32	75	85	8	
2051	0	0	2106	51	35	76	86	8	
2107	0	0	2202	74	42	77	87	8	
2203	0	0	2248	37	24	78	88	9	
2249	0	0	2366	54	30	79	89	9	
2249	0	30	2366	54	60	79	89	9	
2249	0	60	2366	54	90	79	89	9	
2367	0	0	2441	60	32	80	90	9	
2367	0	32	2441	60	64	80	90	9	
2442	0	0	2497	51	35	81	91	9	
2498	0	0	2598	50	43	82	92	9	
2599	0	0	2718	88	51	83	93	9	
2599	0	51	2718	88	102	83	93	9	
2599	0	102	2718	88	153	83	93	9	
2719	0	0	2805	69	61	84	94	9	
