47	10	587	233	220
23568636	19243896
0	0	0	47	118	66	3	1	0	
0	0	66	47	118	132	3	2	0	
0	0	132	47	118	198	3	2	0	
0	142	0	83	233	48	4	3	0	
83	142	0	166	233	48	4	3	0	
166	142	0	249	233	48	4	3	0	
0	167	48	104	233	88	2	4	0	
0	177	88	99	233	113	0	5	0	
0	177	113	99	233	138	0	5	0	
0	200	138	75	233	198	1	6	0	
47	0	0	165	47	66	8	7	1	
47	47	0	165	94	66	8	7	1	
47	94	0	165	141	66	8	7	1	
165	0	0	283	47	66	8	7	1	
165	47	0	283	94	66	8	7	1	
165	94	0	283	141	66	8	7	1	
47	0	66	146	56	91	5	8	1	
47	0	91	146	56	116	5	8	1	
47	0	116	146	56	141	5	8	1	
47	0	141	122	33	201	6	9	1	
47	56	66	138	139	114	9	10	1	
47	56	114	138	139	162	9	10	1	
47	56	162	107	131	195	6	11	1	
104	153	48	208	193	114	7	12	1	
104	153	114	208	193	180	7	12	1	
104	193	48	208	233	114	7	12	1	
104	193	114	208	233	180	7	12	1	
104	167	180	208	233	220	7	13	1	
138	56	66	229	139	114	14	14	2	
138	56	114	229	139	162	14	14	2	
138	56	162	229	139	210	14	14	2	
146	0	66	245	56	91	10	15	2	
146	0	91	245	56	116	10	15	2	
146	0	116	245	56	141	10	15	2	
208	158	48	241	233	108	11	16	2	
208	158	108	241	233	168	11	16	2	
229	56	66	277	139	157	14	17	2	
229	56	157	262	131	217	11	18	2	
249	186	0	367	233	66	13	19	2	
249	186	66	367	233	132	13	19	2	
249	193	132	353	233	198	12	20	2	
146	0	141	245	56	166	15	21	3	
146	0	166	245	56	191	15	21	3	
249	153	0	324	186	60	16	22	3	
324	153	0	399	186	60	16	22	3	
399	153	0	474	186	60	16	22	3	
283	0	0	331	83	91	18	23	3	
283	0	91	331	83	182	18	23	3	
283	87	0	387	153	40	17	24	3	
146	0	191	245	56	216	19	25	4	
283	87	40	387	153	80	20	26	4	
283	87	80	387	153	120	20	26	4	
283	87	120	387	153	160	20	26	4	
283	97	160	382	153	185	19	27	4	
331	0	0	449	66	47	21	28	4	
449	0	0	567	66	47	21	28	4	
331	0	47	449	66	94	21	29	4	
331	0	94	449	66	141	21	29	4	
283	97	185	382	153	210	22	30	5	
331	0	141	449	66	188	25	31	5	
249	153	60	324	186	120	23	32	5	
249	153	120	324	186	180	23	32	5	
331	0	188	430	56	213	22	33	5	
367	193	0	471	233	66	24	34	5	
387	66	0	478	149	48	26	35	5	
324	153	60	399	186	120	28	36	6	
324	153	120	399	186	180	28	36	6	
367	193	66	471	233	132	29	37	6	
367	200	132	442	233	192	28	38	6	
387	66	48	478	149	96	31	39	6	
387	66	96	478	149	144	31	39	6	
387	66	144	478	149	192	31	39	6	
449	0	47	567	66	94	30	40	6	
449	0	94	567	66	141	30	40	6	
449	0	141	567	66	188	30	40	6	
449	0	188	548	56	213	27	41	6	
478	115	0	544	233	47	30	42	6	
399	153	60	474	186	120	33	43	7	
399	153	120	474	186	180	33	43	7	
478	115	47	544	233	94	35	44	7	
478	115	94	544	233	141	35	44	7	
478	115	141	544	233	188	35	44	7	
478	134	188	534	233	213	32	45	7	
478	66	0	569	114	83	36	46	7	
544	129	0	584	233	66	34	47	7	
478	66	83	569	114	166	41	48	8	
544	129	66	584	233	132	39	49	8	
544	129	132	584	233	198	39	49	8	
587	0	0	686	56	25	37	50	8	
587	0	25	686	56	50	37	50	8	
587	0	50	686	56	75	37	50	8	
587	0	75	686	56	100	37	50	8	
687	0	0	762	60	33	38	51	8	
763	0	0	867	66	40	39	52	8	
868	0	0	986	66	47	40	53	8	
987	0	0	1078	83	48	41	54	8	
987	0	48	1078	83	96	41	54	8	
987	0	96	1078	83	144	41	54	8	
1079	0	0	1178	56	25	42	55	9	
1079	0	25	1178	56	50	42	55	9	
1179	0	0	1254	60	33	43	56	9	
1179	0	33	1254	60	66	43	56	9	
1179	0	66	1254	60	99	43	56	9	
1255	0	0	1359	66	40	44	57	9	
1255	0	40	1359	66	80	44	57	9	
1255	0	80	1359	66	120	44	57	9	
1255	0	120	1359	66	160	44	57	9	
1255	0	160	1359	66	200	44	57	9	
1255	0	200	1359	66	240	44	57	9	
1360	0	0	1478	66	47	45	58	9	
1360	0	47	1478	66	94	45	58	9	
1479	0	0	1570	83	48	46	59	9	
1479	0	48	1570	83	96	46	59	9	
