30	10	587	233	220
25558478	19496998
0	0	0	46	76	52	2	1	0	
0	0	52	46	76	104	2	1	0	
0	0	104	46	76	156	2	1	0	
0	0	156	46	76	208	2	1	0	
0	76	0	46	152	52	2	1	0	
0	76	52	46	152	104	2	1	0	
0	76	104	46	152	156	2	1	0	
0	76	156	46	152	208	2	1	0	
0	152	0	46	228	52	2	1	0	
0	152	52	46	228	104	2	1	0	
0	152	104	46	228	156	2	1	0	
0	152	156	46	228	208	2	1	0	
46	0	0	108	55	44	1	2	0	
46	0	44	108	55	88	1	2	0	
46	0	88	108	55	132	1	2	0	
46	0	132	108	55	176	1	2	0	
46	0	176	108	55	220	1	2	0	
46	56	0	112	115	31	0	3	0	
46	115	0	112	174	31	0	3	0	
46	174	0	112	233	31	0	3	0	
46	115	31	112	174	62	0	4	0	
46	174	31	112	233	62	0	4	0	
46	56	31	108	111	75	1	5	0	
46	56	75	108	111	119	1	5	0	
46	56	119	92	108	195	2	6	0	
46	167	62	105	233	93	3	7	1	
46	167	93	105	233	124	3	7	1	
46	167	124	105	233	155	3	7	1	
46	167	155	105	233	186	3	7	1	
46	167	186	105	233	217	3	7	1	
46	115	62	92	167	138	5	8	1	
46	115	138	92	167	214	5	8	1	
108	0	0	184	46	52	5	9	1	
108	0	52	184	46	104	5	9	1	
108	0	104	184	46	156	5	9	1	
108	0	156	184	46	208	5	9	1	
112	171	0	156	233	55	4	10	1	
112	171	55	156	233	110	4	10	1	
112	171	110	156	233	165	4	10	1	
112	171	165	156	233	220	4	10	1	
156	171	0	200	233	55	4	10	1	
156	171	55	200	233	110	4	10	1	
156	171	110	200	233	165	4	10	1	
156	171	165	200	233	220	4	10	1	
112	46	0	156	108	55	7	11	2	
156	46	0	200	108	55	7	11	2	
200	46	0	244	108	55	7	11	2	
244	46	0	288	108	55	7	11	2	
288	46	0	332	108	55	7	11	2	
332	46	0	376	108	55	7	11	2	
376	46	0	420	108	55	7	11	2	
420	46	0	464	108	55	7	11	2	
112	46	55	188	92	107	8	12	2	
112	46	107	188	92	159	8	12	2	
112	46	159	188	92	211	8	12	2	
188	46	55	254	77	114	6	13	2	
188	77	55	254	108	114	6	13	2	
112	119	0	158	171	76	8	14	2	
112	119	76	158	171	152	8	14	2	
158	119	0	234	171	46	8	15	2	
158	119	46	234	171	92	8	15	2	
158	119	92	234	171	138	11	16	3	
158	119	138	234	171	184	11	16	3	
188	46	114	250	101	158	10	17	3	
188	46	158	250	101	202	10	17	3	
184	0	0	239	44	62	10	18	3	
184	0	62	239	44	124	10	18	3	
184	0	124	239	44	186	10	18	3	
239	0	0	294	44	62	10	18	3	
239	0	62	294	44	124	10	18	3	
239	0	124	294	44	186	10	18	3	
200	171	0	266	202	59	9	19	3	
200	171	59	266	202	118	9	19	3	
200	171	118	266	202	177	9	19	3	
200	202	0	266	233	59	9	19	3	
200	202	59	266	233	118	9	19	3	
200	202	118	266	233	177	9	19	3	
200	174	177	266	233	208	9	20	3	
234	109	0	278	171	55	10	21	3	
254	46	55	300	98	131	11	22	3	
234	109	55	278	171	110	13	23	4	
234	109	110	278	171	165	13	23	4	
234	109	165	278	171	220	13	23	4	
254	46	131	300	98	207	14	24	4	
266	171	0	332	202	59	12	25	4	
266	171	59	332	202	118	12	25	4	
266	171	118	332	202	177	12	25	4	
266	202	0	332	233	59	12	25	4	
266	202	59	332	233	118	12	25	4	
266	202	118	332	233	177	12	25	4	
266	174	177	332	233	208	12	26	4	
278	109	0	322	171	55	13	27	4	
278	109	55	322	171	110	13	27	4	
300	46	55	352	92	131	14	28	4	
300	46	131	352	92	207	14	28	4	
352	46	55	404	92	131	14	28	4	
352	46	131	404	92	207	14	28	4	
404	46	55	456	92	131	14	28	4	
404	46	131	456	92	207	14	28	4	
278	109	110	322	171	165	16	29	5	
278	109	165	322	171	220	16	29	5	
294	0	0	370	46	52	17	30	5	
294	0	52	370	46	104	17	30	5	
294	0	104	370	46	156	17	30	5	
294	0	156	370	46	208	17	30	5	
370	0	0	446	46	52	17	30	5	
370	0	52	446	46	104	17	30	5	
370	0	104	446	46	156	17	30	5	
370	0	156	446	46	208	17	30	5	
446	0	0	522	46	52	17	30	5	
446	0	52	522	46	104	17	30	5	
446	0	104	522	46	156	17	30	5	
446	0	156	522	46	208	17	30	5	
322	112	0	388	171	31	15	31	5	
388	112	0	454	171	31	15	31	5	
454	112	0	520	171	31	15	31	5	
520	112	0	586	171	31	15	31	5	
322	116	31	366	171	93	16	32	5	
322	116	93	366	171	155	16	32	5	
322	116	155	366	171	217	19	33	6	
332	171	0	376	233	55	19	34	6	
332	171	55	376	233	110	19	34	6	
332	171	110	376	233	165	19	34	6	
332	171	165	376	233	220	19	34	6	
376	171	0	420	233	55	19	34	6	
376	171	55	420	233	110	19	34	6	
376	171	110	420	233	165	19	34	6	
376	171	165	420	233	220	19	34	6	
366	112	31	432	171	62	18	35	6	
366	112	62	432	171	93	18	36	6	
366	116	93	428	171	137	19	37	6	
366	119	137	412	171	213	20	38	6	
432	119	31	508	171	77	20	39	6	
508	119	31	584	171	77	20	39	6	
420	181	0	496	233	46	20	40	6	
420	181	46	496	233	92	20	40	6	
420	181	92	496	233	138	20	40	6	
496	181	0	572	233	46	20	40	6	
496	181	46	572	233	92	20	40	6	
496	181	92	572	233	138	20	40	6	
420	181	138	466	233	214	23	41	7	
432	119	77	508	171	123	23	42	7	
432	119	123	508	171	169	23	42	7	
432	119	169	508	171	215	23	42	7	
464	46	0	508	108	55	22	43	7	
464	46	55	508	108	110	22	43	7	
464	46	110	508	108	165	22	43	7	
464	46	165	508	108	220	22	43	7	
466	181	138	512	233	214	23	44	7	
508	119	77	584	171	123	23	45	7	
508	46	0	539	112	59	21	46	7	
508	46	59	539	112	118	21	46	7	
539	46	0	570	112	59	21	46	7	
539	46	59	570	112	118	21	46	7	
508	46	118	567	112	149	24	47	8	
508	46	149	567	112	180	24	47	8	
508	46	180	567	112	211	24	47	8	
508	119	123	584	171	169	26	48	8	
508	119	169	584	171	215	26	48	8	
512	181	138	558	233	214	26	49	8	
522	0	0	584	44	55	25	50	8	
522	0	55	584	44	110	25	50	8	
522	0	110	584	44	165	25	50	8	
522	0	165	584	44	220	25	50	8	
587	0	0	653	59	31	24	51	8	
587	0	31	653	59	62	24	51	8	
587	0	62	653	59	93	24	51	8	
654	0	0	716	55	44	25	52	8	
654	0	44	716	55	88	25	52	8	
654	0	88	716	55	132	25	52	8	
654	0	132	716	55	176	25	52	8	
654	0	176	716	55	220	25	52	8	
654	0	220	716	55	264	25	52	8	
717	0	0	793	52	46	26	53	8	
717	0	46	793	52	92	26	53	8	
794	0	0	860	59	31	27	54	9	
794	0	31	860	59	62	27	54	9	
794	0	62	860	59	93	27	54	9	
794	0	93	860	59	124	27	54	9	
794	0	124	860	59	155	27	54	9	
794	0	155	860	59	186	27	54	9	
794	0	186	860	59	217	27	54	9	
794	0	217	860	59	248	27	54	9	
794	0	248	860	59	279	27	54	9	
794	0	279	860	59	310	27	54	9	
861	0	0	923	55	44	28	55	9	
861	0	44	923	55	88	28	55	9	
861	0	88	923	55	132	28	55	9	
861	0	132	923	55	176	28	55	9	
924	0	0	1000	52	46	29	56	9	
924	0	46	1000	52	92	29	56	9	
924	0	92	1000	52	138	29	56	9	
924	0	138	1000	52	184	29	56	9	
924	0	184	1000	52	230	29	56	9	
