46	10	587	233	220
23539104	19068642
0	0	0	75	57	73	4	1	0	
0	57	0	75	114	73	4	1	0	
0	0	73	36	86	107	2	2	0	
0	0	107	36	86	141	2	2	0	
0	0	141	36	86	175	2	2	0	
0	0	175	36	86	209	2	2	0	
36	0	73	73	90	146	3	3	0	
0	138	0	102	233	33	1	4	0	
0	138	33	102	233	66	1	4	0	
0	138	66	102	233	99	1	4	0	
36	0	146	70	86	182	2	5	0	
75	0	0	105	117	38	0	6	0	
75	0	38	105	117	76	0	6	0	
0	138	99	102	233	132	5	7	1	
0	138	132	102	233	165	5	7	1	
0	138	165	102	233	198	5	7	1	
102	143	0	175	233	37	7	8	1	
175	143	0	248	233	37	7	8	1	
248	143	0	321	233	37	7	8	1	
321	143	0	394	233	37	7	8	1	
102	147	37	138	233	71	6	9	1	
102	147	71	138	233	105	6	9	1	
102	147	105	138	233	139	6	9	1	
138	158	37	195	233	110	8	10	1	
195	158	37	252	233	110	8	10	1	
105	0	0	200	102	33	5	11	1	
75	0	76	105	117	114	9	12	2	
75	0	114	105	117	152	9	12	2	
102	147	139	136	233	175	11	13	2	
102	147	175	136	233	211	11	13	2	
105	0	33	200	102	66	10	14	2	
105	0	66	200	102	99	10	14	2	
138	158	110	195	233	183	13	15	2	
195	158	110	252	233	183	13	15	2	
105	106	0	195	143	73	12	16	2	
105	106	73	195	143	146	12	16	2	
105	0	99	180	73	156	13	17	2	
105	0	156	180	73	213	13	17	2	
200	0	0	257	75	73	13	18	2	
105	106	146	195	143	219	17	19	3	
138	160	183	228	233	220	17	20	3	
195	106	0	285	143	73	17	21	3	
195	106	73	285	143	146	17	21	3	
195	109	146	281	143	182	16	22	3	
200	75	0	317	105	38	14	23	3	
200	75	38	317	105	76	14	23	3	
200	75	76	317	105	114	14	23	3	
200	0	73	257	75	146	18	24	3	
200	0	146	257	75	219	18	24	3	
257	0	0	332	57	73	18	25	3	
332	0	0	407	57	73	18	25	3	
394	131	0	489	233	33	15	26	3	
195	109	182	281	143	218	21	27	4	
200	75	114	317	105	152	19	28	4	
200	75	152	317	105	190	19	28	4	
257	0	73	332	57	146	23	29	4	
257	0	146	332	57	219	23	29	4	
332	0	73	407	57	146	23	29	4	
332	0	146	407	57	219	23	29	4	
252	143	37	369	173	75	19	30	4	
252	173	37	369	203	75	19	30	4	
252	203	37	369	233	75	19	30	4	
252	143	75	325	233	112	22	31	4	
252	147	112	286	233	148	21	32	4	
252	147	148	286	233	184	21	32	4	
252	147	184	286	233	220	21	32	4	
394	131	33	489	233	66	20	33	4	
317	57	0	374	130	75	23	34	4	
286	143	112	323	233	185	27	35	5	
286	147	185	322	233	219	26	36	5	
317	57	75	374	130	150	28	37	5	
325	143	75	362	233	148	27	38	5	
374	57	0	431	130	75	28	39	5	
374	57	75	431	130	150	28	39	5	
394	131	66	489	233	99	25	40	5	
394	131	99	489	233	132	25	40	5	
407	0	0	524	38	30	24	41	5	
325	147	148	359	233	184	31	42	6	
325	147	184	359	233	220	31	42	6	
394	131	132	489	233	165	30	43	6	
394	131	165	489	233	198	30	43	6	
407	0	30	524	30	68	29	44	6	
407	0	68	524	30	106	29	44	6	
407	0	106	524	30	144	29	44	6	
407	0	144	524	30	182	29	44	6	
407	0	182	524	30	220	29	44	6	
431	38	0	468	128	73	32	45	6	
431	38	73	468	128	146	32	45	6	
431	38	146	468	128	219	32	45	6	
468	38	0	543	95	73	33	46	6	
468	38	73	543	95	146	33	46	6	
468	38	146	543	95	219	33	46	6	
468	95	0	554	131	34	36	47	7	
468	95	34	554	131	68	36	47	7	
489	131	0	584	233	33	35	48	7	
489	131	33	584	233	66	35	48	7	
489	131	66	584	233	99	35	48	7	
489	131	99	584	233	132	35	48	7	
489	131	132	584	233	165	35	48	7	
489	160	165	579	233	202	37	49	7	
554	0	0	584	117	38	34	50	7	
468	95	68	554	131	102	40	51	8	
554	0	38	584	117	76	38	52	8	
554	0	76	584	117	114	38	52	8	
554	0	114	584	117	152	38	52	8	
554	0	152	584	117	190	38	52	8	
587	0	0	689	95	33	39	53	8	
587	0	33	689	95	66	39	53	8	
587	0	66	689	95	99	39	53	8	
587	0	99	689	95	132	39	53	8	
690	0	0	780	73	37	41	54	8	
690	0	37	780	73	74	41	54	8	
690	0	74	780	73	111	41	54	8	
690	0	111	780	73	148	41	54	8	
690	0	148	780	73	185	41	54	8	
690	0	185	780	73	222	41	54	8	
690	0	222	780	73	259	41	54	8	
690	0	259	780	73	296	41	54	8	
781	0	0	856	73	57	42	55	8	
781	0	57	856	73	114	42	55	8	
857	0	0	974	38	30	43	56	9	
857	0	30	974	38	60	43	56	9	
857	0	60	974	38	90	43	56	9	
857	0	90	974	38	120	43	56	9	
857	0	120	974	38	150	43	56	9	
857	0	150	974	38	180	43	56	9	
975	0	0	1077	95	33	44	57	9	
975	0	33	1077	95	66	44	57	9	
1078	0	0	1153	73	57	45	58	9	
1078	0	57	1153	73	114	45	58	9	
1078	0	114	1153	73	171	45	58	9	
