67	10	587	233	220
23064698	15367464
0	0	0	69	86	79	6	1	0	
0	0	79	61	71	167	4	2	0	
0	164	0	104	233	70	5	3	0	
0	0	167	46	31	220	0	4	0	
0	87	0	74	164	37	1	5	0	
0	113	37	68	164	80	2	6	0	
0	113	80	68	164	123	2	6	0	
0	113	123	68	164	166	2	6	0	
69	0	0	188	55	54	3	7	0	
0	164	70	79	233	156	13	8	1	
0	31	167	46	62	220	7	9	1	
0	121	166	68	164	217	9	10	1	
0	164	156	72	233	217	11	11	1	
69	0	54	188	54	109	10	12	1	
74	55	0	143	159	70	12	13	1	
74	55	70	143	141	149	13	14	1	
104	159	0	181	233	37	8	15	1	
104	159	37	181	233	74	8	16	1	
69	0	109	165	37	160	15	17	2	
69	0	160	115	31	213	14	18	2	
104	164	74	165	233	146	19	19	2	
74	55	149	141	130	203	18	20	2	
104	202	146	150	233	199	14	21	2	
143	55	0	263	148	46	16	22	2	
143	55	46	262	110	100	17	23	2	
181	163	0	250	233	104	20	24	2	
104	171	146	150	202	199	22	25	3	
143	55	100	262	109	155	25	26	3	
143	55	155	262	109	210	25	26	3	
181	163	104	250	233	208	27	27	3	
143	111	46	239	148	97	23	28	3	
143	111	97	239	148	148	23	28	3	
143	111	148	239	148	199	23	28	3	
188	0	0	255	54	75	26	29	3	
188	0	75	255	54	150	26	29	3	
250	154	0	319	233	86	28	30	3	
255	0	0	374	54	55	25	31	3	
263	54	0	383	147	46	24	32	3	
263	54	46	359	127	70	21	33	3	
263	54	70	359	127	94	21	33	3	
250	161	86	319	233	147	32	34	4	
250	161	147	319	233	208	32	34	4	
255	0	55	374	54	110	31	35	4	
263	54	94	359	127	118	29	36	4	
263	54	118	359	127	142	29	36	4	
263	54	142	359	127	166	29	36	4	
319	162	0	407	233	61	33	37	4	
407	162	0	495	233	61	33	37	4	
495	162	0	583	233	61	33	37	4	
319	164	61	380	233	133	32	38	4	
383	0	0	457	77	37	30	39	4	
263	54	166	359	127	190	34	40	5	
255	0	110	351	51	147	35	41	5	
255	0	147	351	51	184	35	41	5	
188	0	150	231	51	218	36	42	5	
319	164	133	380	233	205	38	43	5	
380	162	61	441	233	149	39	44	5	
383	0	37	453	69	141	40	45	5	
441	163	61	510	233	165	40	46	5	
510	163	61	579	233	165	40	46	5	
457	0	0	577	93	46	37	47	5	
457	0	46	577	93	92	37	47	5	
263	54	190	359	127	214	41	48	6	
383	93	0	444	162	72	45	49	6	
383	93	72	444	162	144	45	49	6	
383	0	141	434	68	184	43	50	6	
383	95	144	437	162	219	44	51	6	
441	196	165	537	233	216	42	52	6	
255	0	184	308	46	215	47	53	7	
444	93	0	516	162	61	53	54	7	
444	93	61	516	162	122	53	54	7	
444	101	122	515	162	210	54	55	7	
457	0	92	577	93	138	51	56	7	
457	0	138	577	93	184	51	56	7	
457	0	184	553	73	208	46	57	7	
516	101	0	587	162	88	54	58	7	
516	101	88	587	162	176	54	58	7	
516	111	176	584	162	219	50	59	7	
587	0	0	683	51	37	48	60	7	
587	0	37	683	51	74	48	60	7	
684	0	0	761	74	37	49	61	7	
684	0	37	761	74	74	49	61	7	
762	0	0	881	55	54	52	62	7	
882	0	0	978	73	24	55	63	8	
979	0	0	1032	46	31	56	64	8	
1033	0	0	1121	71	61	57	65	8	
1122	0	0	1208	79	69	58	66	8	
1209	0	0	1305	51	37	59	67	9	
1209	0	37	1305	51	74	59	67	9	
1306	0	0	1383	74	37	60	68	9	
1306	0	37	1383	74	74	60	68	9	
1384	0	0	1503	55	54	61	69	9	
1504	0	0	1579	67	54	62	70	9	
1580	0	0	1652	69	61	63	71	9	
1653	0	0	1741	71	61	64	72	9	
1653	0	61	1741	71	122	64	72	9	
1742	0	0	1846	70	69	65	73	9	
1742	0	69	1846	70	138	65	73	9	
1847	0	0	1933	79	69	66	74	9	
1847	0	69	1933	79	138	66	74	9	
