102	10	587	233	220
20779477	16848903
0	0	0	82	67	77	6	1	0	
0	193	0	116	233	41	3	2	0	
116	193	0	232	233	41	3	2	0	
0	89	0	44	193	72	4	3	0	
0	0	77	35	33	125	2	4	0	
0	33	77	35	66	125	2	4	0	
35	0	77	70	33	125	2	4	0	
35	33	77	70	66	125	2	4	0	
0	67	0	106	89	39	0	5	0	
0	0	125	53	59	173	5	6	0	
0	67	39	106	89	78	0	7	0	
44	104	0	100	193	24	1	8	0	
44	104	24	100	193	48	1	8	0	
0	196	41	69	233	106	12	9	1	
69	196	41	138	233	106	12	9	1	
0	196	106	100	233	164	11	10	1	
0	197	164	67	233	210	10	11	1	
44	131	48	85	193	111	14	12	1	
0	67	78	106	89	117	8	13	1	
0	89	72	44	193	144	15	14	1	
0	89	144	44	193	216	15	14	1	
82	0	0	159	67	82	17	15	1	
100	92	0	186	193	31	9	16	1	
100	98	31	180	193	88	16	17	1	
106	67	0	222	87	36	7	18	1	
106	67	36	222	87	72	7	18	1	
159	0	0	275	41	40	13	19	1	
0	0	173	53	56	208	21	20	2	
0	67	117	106	89	156	19	21	2	
0	67	156	106	89	195	19	21	2	
44	131	111	85	193	174	24	22	2	
100	113	88	157	193	183	26	23	2	
82	0	82	159	67	164	28	24	2	
100	126	183	146	193	219	22	25	2	
106	67	72	222	87	108	18	26	2	
159	0	40	275	40	81	23	27	2	
159	0	81	275	40	122	23	27	2	
159	0	122	275	40	163	23	27	2	
186	89	0	230	193	72	25	28	2	
186	89	72	230	193	144	25	28	2	
230	81	0	317	193	23	20	29	2	
230	85	23	290	193	82	27	30	2	
67	198	164	100	233	212	34	31	3	
82	0	164	133	66	217	42	32	3	
138	196	41	203	233	110	37	33	3	
138	196	110	203	233	179	37	33	3	
186	89	144	230	193	216	40	34	3	
106	67	108	222	87	144	29	35	3	
159	41	0	265	63	39	30	36	3	
159	0	163	275	40	204	38	37	3	
230	142	82	283	193	148	42	38	3	
230	142	148	283	193	214	42	38	3	
230	85	82	283	133	141	41	39	3	
230	85	141	283	133	200	41	39	3	
232	196	0	332	233	58	36	40	3	
232	196	58	297	233	127	37	41	3	
232	197	127	278	233	194	35	42	3	
275	0	0	357	77	67	44	43	3	
357	0	0	439	77	67	44	43	3	
439	0	0	521	77	67	44	43	3	
275	0	67	379	72	111	40	44	3	
275	0	111	373	56	191	43	45	3	
275	0	191	364	56	215	32	46	3	
317	84	0	404	196	23	31	47	3	
379	0	67	441	63	108	39	48	3	
317	95	23	403	196	54	33	49	3	
379	0	108	438	53	156	41	50	3	
297	200	58	332	233	106	47	51	4	
297	200	106	332	233	154	47	51	4	
379	0	156	432	35	212	48	52	4	
317	95	54	403	196	85	46	53	4	
317	95	85	403	196	116	46	53	4	
317	140	116	397	196	214	53	54	4	
317	103	116	382	140	185	50	55	4	
441	0	67	521	57	162	54	56	4	
332	196	0	432	233	58	49	57	4	
404	92	0	448	196	72	52	58	4	
432	211	0	538	233	39	45	59	4	
448	95	0	488	211	41	51	60	4	
404	92	72	448	196	144	60	61	5	
404	92	144	448	196	216	60	61	5	
332	197	58	399	233	104	58	62	5	
332	197	104	399	233	150	58	62	5	
448	158	41	483	211	97	57	63	5	
448	158	97	483	211	153	57	63	5	
488	145	0	541	211	51	62	64	5	
488	145	51	541	211	102	62	64	5	
488	145	102	541	211	153	62	64	5	
488	77	0	586	133	80	63	65	5	
488	77	80	541	125	139	61	66	5	
488	77	139	541	125	198	61	66	5	
488	149	153	529	211	216	59	67	5	
521	0	0	581	59	108	64	68	5	
432	211	39	538	233	78	73	69	7	
521	0	108	581	59	216	84	70	7	
441	0	162	507	51	215	81	71	7	
541	77	80	577	113	144	75	72	7	
541	77	144	577	113	208	75	72	7	
541	133	0	578	233	58	77	73	7	
541	133	58	578	233	116	77	74	7	
541	168	116	578	233	185	78	75	7	
541	185	185	574	233	220	74	76	7	
541	135	116	576	168	164	95	77	9	
541	135	164	576	168	212	95	77	9	
587	0	0	699	87	23	55	78	5	
587	0	23	699	87	46	55	78	5	
700	0	0	789	56	24	56	79	5	
790	0	0	872	77	67	65	80	5	
873	0	0	985	87	23	66	81	6	
873	0	23	985	87	46	66	81	6	
986	0	0	1053	46	36	67	82	6	
1054	0	0	1154	58	37	68	83	6	
1155	0	0	1271	41	40	69	84	6	
1272	0	0	1331	53	48	70	85	6	
1332	0	0	1440	60	59	71	86	6	
1332	0	59	1440	60	118	71	86	6	
1441	0	0	1557	36	20	72	87	7	
1558	0	0	1625	46	36	76	88	7	
1626	0	0	1689	62	41	79	89	7	
1690	0	0	1794	72	44	80	90	7	
1690	0	44	1794	72	88	80	90	7	
1795	0	0	1893	80	56	82	91	7	
1894	0	0	1989	80	57	83	92	7	
1990	0	0	2106	36	20	85	93	8	
2107	0	0	2155	35	33	86	94	8	
2156	0	0	2256	58	37	87	95	8	
2156	0	37	2256	58	74	87	95	8	
2257	0	0	2326	65	37	88	96	8	
2327	0	0	2390	62	41	89	97	8	
2391	0	0	2489	80	56	90	98	8	
2490	0	0	2585	80	57	91	99	8	
2586	0	0	2694	60	59	92	100	8	
2695	0	0	2811	36	20	93	101	9	
2695	0	20	2811	36	40	93	101	9	
2812	0	0	2913	86	31	94	102	9	
2914	0	0	2978	36	36	96	103	9	
2914	0	36	2978	36	72	96	103	9	
2914	0	72	2978	36	108	96	103	9	
2979	0	0	3079	58	37	97	104	9	
3080	0	0	3149	65	37	98	105	9	
3150	0	0	3266	41	40	99	106	9	
3267	0	0	3330	62	41	100	107	9	
3267	0	41	3330	62	82	100	107	9	
3267	0	82	3330	62	123	100	107	9	
3331	0	0	3413	77	67	101	108	9	
