83	10	587	233	220
22496858	18121824
0	0	0	78	92	64	8	1	0	
0	0	64	48	40	120	5	2	0	
0	40	64	48	80	120	5	2	0	
0	0	120	33	75	180	3	3	0	
0	115	0	66	233	47	7	4	0	
0	134	47	56	233	72	0	5	0	
0	134	72	56	233	97	0	5	0	
0	0	180	29	36	216	2	6	0	
0	140	97	34	233	162	4	7	0	
0	177	162	26	233	206	1	8	0	
66	129	0	106	233	66	6	9	0	
0	92	0	67	114	40	9	10	1	
0	92	40	67	114	80	9	10	1	
0	92	80	67	114	120	9	10	1	
66	129	66	106	233	132	13	11	1	
66	129	132	106	233	198	13	11	1	
48	0	64	74	56	108	11	12	1	
78	0	0	144	118	47	14	13	1	
144	0	0	210	118	47	14	13	1	
210	0	0	276	118	47	14	13	1	
78	0	47	191	63	97	16	14	1	
78	0	97	191	63	147	16	14	1	
78	0	147	191	63	197	16	14	1	
78	63	47	161	111	138	15	15	1	
78	63	138	134	111	178	12	16	1	
78	63	178	134	111	218	12	16	1	
106	121	0	205	177	25	10	17	1	
106	177	0	205	233	25	10	17	1	
106	155	25	198	233	89	18	18	1	
106	155	89	198	233	153	18	18	1	
106	161	153	164	233	219	17	19	1	
161	63	47	265	103	113	13	20	1	
106	124	25	179	155	86	21	21	2	
106	124	86	179	155	147	21	21	2	
106	126	147	142	155	183	20	22	2	
106	126	183	142	155	219	20	22	2	
142	126	147	178	155	183	20	22	2	
142	126	183	178	155	219	20	22	2	
164	177	153	190	233	197	19	23	2	
161	63	113	265	103	179	22	24	2	
191	0	47	269	60	160	26	25	2	
205	173	0	283	233	113	26	26	2	
205	125	0	288	173	91	24	27	2	
205	175	113	277	233	179	25	28	2	
276	0	0	323	118	66	23	29	2	
78	0	197	145	40	219	27	30	3	
161	63	179	197	92	215	29	31	3	
191	0	160	239	40	216	31	32	3	
205	177	179	249	233	205	28	33	3	
276	0	66	316	104	132	32	34	3	
276	0	132	316	104	198	32	34	3	
283	199	0	376	233	65	30	35	3	
283	199	65	376	233	130	30	36	3	
205	140	91	280	173	151	35	37	4	
283	177	0	350	199	40	33	38	4	
283	177	40	350	199	80	33	39	4	
288	121	0	387	177	25	34	40	4	
288	121	25	387	177	50	34	40	4	
288	121	50	387	177	75	34	40	4	
323	0	0	401	64	92	39	41	4	
323	64	0	436	114	63	38	42	4	
323	64	63	427	104	129	36	43	4	
376	186	0	494	233	66	37	44	4	
205	140	151	280	173	211	40	45	5	
323	0	92	401	60	205	43	46	5	
288	129	75	371	177	166	41	47	5	
387	114	0	445	186	66	42	48	5	
387	114	66	445	186	132	42	48	5	
401	0	0	493	64	78	44	49	5	
401	0	78	479	60	191	43	50	5	
283	207	130	339	233	174	45	51	6	
283	207	174	339	233	218	45	51	6	
288	137	166	344	177	214	47	52	6	
323	64	129	427	104	195	48	53	6	
376	186	66	494	233	132	49	54	6	
339	204	130	375	233	166	46	55	6	
339	204	166	375	233	202	46	55	6	
376	186	132	494	233	198	49	56	6	
387	120	132	445	186	204	51	57	6	
436	64	0	519	112	91	50	58	6	
436	64	91	519	112	182	50	58	6	
445	122	0	523	186	92	52	59	6	
401	0	191	437	36	220	54	60	7	
445	155	92	518	186	153	55	61	7	
445	155	153	518	186	214	55	61	7	
493	0	0	576	48	91	58	62	7	
493	0	91	576	48	182	58	62	7	
494	199	0	587	233	65	56	63	7	
494	199	65	587	233	130	56	63	7	
519	48	0	585	106	72	60	64	7	
323	64	195	390	104	217	72	65	9	
445	124	92	518	155	153	75	66	9	
445	124	153	518	155	214	75	66	9	
494	199	130	587	233	195	77	67	9	
519	48	72	585	106	144	81	68	9	
519	48	144	585	106	216	81	68	9	
523	121	0	587	199	92	82	69	9	
523	159	92	571	199	148	78	70	9	
523	159	148	571	199	204	78	70	9	
523	133	92	579	159	136	74	71	9	
523	133	136	579	159	180	74	71	9	
587	0	0	686	56	25	53	72	7	
687	0	0	805	66	47	57	73	7	
806	0	0	919	63	50	59	74	7	
920	0	0	987	40	22	61	75	8	
988	0	0	1044	44	26	62	76	8	
1045	0	0	1081	36	29	63	77	8	
1082	0	0	1175	65	34	64	78	8	
1176	0	0	1232	48	40	65	79	8	
1176	0	40	1232	48	80	65	79	8	
1233	0	0	1337	66	40	66	80	8	
1233	0	40	1337	66	80	66	80	8	
1233	0	80	1337	66	120	66	80	8	
1338	0	0	1456	66	47	67	81	8	
1457	0	0	1548	83	48	68	82	8	
1549	0	0	1662	63	50	69	83	8	
1663	0	0	1776	78	60	70	84	8	
1777	0	0	1869	78	64	71	85	8	
1777	0	64	1869	78	128	71	85	8	
1870	0	0	1969	56	25	73	86	9	
1970	0	0	2045	60	33	76	87	9	
2046	0	0	2139	65	34	77	88	9	
2140	0	0	2231	83	48	79	89	9	
2232	0	0	2345	63	50	80	90	9	
2232	0	50	2345	63	100	80	90	9	
2346	0	0	2438	78	64	82	91	9	
2346	0	64	2438	78	128	82	91	9	
