45	10	587	233	220
24977824	20877672
0	0	0	77	52	90	11	1	2	
0	0	90	60	38	150	9	2	2	
0	0	150	60	38	210	9	2	2	
0	135	0	44	233	73	10	3	2	
0	52	0	60	125	105	17	4	3	
0	52	105	60	125	210	17	4	3	
60	52	0	120	125	105	17	4	3	
60	52	105	120	125	210	17	4	3	
0	135	73	44	233	146	15	5	3	
0	135	146	44	233	219	15	5	3	
44	129	0	121	181	90	16	6	3	
44	129	90	121	181	180	16	6	3	
44	181	0	121	233	90	16	6	3	
44	181	90	121	233	180	16	6	3	
44	173	180	104	233	218	14	7	3	
77	0	0	175	44	73	15	8	3	
120	44	0	178	110	24	13	9	3	
120	44	24	178	110	48	13	9	3	
77	0	73	175	44	146	20	10	4	
77	0	146	175	44	219	20	10	4	
120	44	48	178	110	72	18	11	4	
120	44	72	178	110	96	18	11	4	
120	44	96	178	110	120	18	11	4	
120	44	120	178	110	144	18	11	4	
120	44	144	178	110	168	18	11	4	
121	113	0	194	173	105	22	12	4	
121	113	105	194	173	210	22	12	4	
121	173	0	194	233	105	22	12	4	
121	173	105	194	233	210	22	12	4	
175	0	0	273	44	73	20	13	4	
175	0	73	235	38	133	19	14	4	
178	44	0	255	96	90	21	15	4	
120	44	168	178	110	192	23	16	5	
178	44	90	255	96	180	26	17	5	
194	173	0	267	233	105	27	18	5	
194	173	105	267	233	210	27	18	5	
267	173	0	340	233	105	27	18	5	
267	173	105	340	233	210	27	18	5	
194	121	0	271	173	90	26	19	5	
271	121	0	348	173	90	26	19	5	
348	121	0	425	173	90	26	19	5	
425	121	0	502	173	90	26	19	5	
194	129	90	292	173	163	25	20	5	
255	44	0	315	82	60	24	21	5	
255	82	0	315	120	60	24	21	5	
273	0	0	371	44	73	25	22	5	
120	44	192	178	110	216	28	23	6	
175	0	133	235	38	193	29	24	6	
255	44	60	315	117	165	32	25	6	
255	44	165	313	110	189	28	26	6	
292	121	90	382	173	167	31	27	6	
382	121	90	472	173	167	31	27	6	
273	0	73	371	44	146	30	28	6	
315	44	0	367	121	90	31	29	6	
315	44	90	367	121	180	31	30	6	
340	173	0	413	233	105	32	31	6	
367	44	0	457	121	52	31	32	6	
255	44	189	313	110	213	33	33	7	
273	0	146	333	38	206	34	34	7	
340	173	105	413	233	210	36	35	7	
367	44	52	457	121	104	35	36	7	
367	44	104	425	110	128	33	37	7	
367	44	128	425	110	152	33	37	7	
367	44	152	405	104	212	34	38	7	
371	0	0	469	44	73	38	39	8	
371	0	73	469	44	146	38	39	8	
371	0	146	469	44	219	38	39	8	
413	173	0	518	233	73	40	40	8	
413	173	73	518	233	146	40	40	8	
413	173	146	518	233	219	40	40	8	
457	44	0	509	121	90	39	41	8	
457	44	90	509	121	180	39	41	8	
469	0	0	567	44	73	38	42	8	
469	0	73	567	44	146	38	42	8	
509	44	0	575	102	24	37	43	8	
509	102	0	575	160	24	37	43	8	
469	0	146	567	44	219	43	44	9	
509	44	24	575	102	48	41	45	9	
509	44	48	575	102	72	41	45	9	
509	102	24	575	160	48	41	45	9	
509	102	48	575	160	72	41	45	9	
509	44	72	569	149	145	44	46	9	
509	44	145	569	149	218	44	46	9	
518	160	0	578	233	105	44	47	9	
518	160	105	578	233	210	44	47	9	
587	0	0	653	58	24	0	48	0	
654	0	0	714	60	38	1	49	0	
654	0	38	714	60	76	1	49	0	
654	0	76	714	60	114	1	49	0	
715	0	0	813	73	44	2	50	0	
715	0	44	813	73	88	2	50	0	
814	0	0	904	77	52	3	51	0	
814	0	52	904	77	104	3	51	0	
905	0	0	971	58	24	4	52	1	
972	0	0	1032	60	38	5	53	1	
972	0	38	1032	60	76	5	53	1	
972	0	76	1032	60	114	5	53	1	
1033	0	0	1131	73	44	6	54	1	
1132	0	0	1222	77	52	7	55	1	
1132	0	52	1222	77	104	7	55	1	
1223	0	0	1289	58	24	8	56	2	
1290	0	0	1395	73	60	12	57	2	
1396	0	0	1456	60	38	42	58	9	
1457	0	0	1555	73	44	43	59	9	
