63	10	587	233	220
22841599	18192904
0	0	0	78	82	97	6	1	0	
0	137	0	69	185	84	4	2	0	
0	185	0	69	233	84	4	2	0	
0	82	0	95	125	66	2	3	0	
0	0	97	73	71	208	5	4	0	
0	82	66	40	113	101	1	5	0	
0	82	101	40	113	136	1	5	0	
0	82	136	40	113	171	1	5	0	
0	158	84	47	233	164	3	6	0	
69	160	0	140	233	111	5	7	0	
69	132	0	188	160	34	0	8	0	
0	171	164	35	202	204	8	9	1	
0	202	164	35	233	204	8	9	1	
78	0	0	125	75	80	10	10	1	
125	0	0	172	75	80	10	10	1	
172	0	0	219	75	80	10	10	1	
78	0	80	151	71	191	12	11	1	
95	75	0	164	123	84	11	12	1	
164	75	0	233	123	84	11	12	1	
233	75	0	302	123	84	11	12	1	
95	75	84	204	108	127	9	13	1	
95	75	127	204	108	170	9	13	1	
140	160	0	211	233	111	12	14	1	
151	0	80	213	74	110	7	15	1	
151	0	110	213	74	140	7	15	1	
69	164	111	117	233	195	19	16	2	
69	132	34	188	160	68	14	17	2	
69	132	68	188	160	102	14	17	2	
69	134	102	127	160	145	13	18	2	
127	134	102	185	160	145	13	18	2	
95	75	170	204	108	213	17	19	2	
140	171	111	175	202	151	16	20	2	
140	202	111	175	233	151	16	20	2	
151	0	140	213	74	170	15	21	2	
151	0	170	213	74	200	15	21	2	
204	75	84	299	118	150	18	22	2	
204	75	150	299	118	216	18	22	2	
211	136	0	289	233	82	20	23	2	
211	136	82	289	233	164	20	23	2	
211	138	164	277	233	207	18	24	2	
219	0	0	330	73	71	24	25	3	
219	0	71	267	69	155	23	26	3	
267	0	71	315	69	155	23	26	3	
219	0	155	293	62	185	21	27	3	
289	155	0	386	233	82	25	28	3	
289	155	82	386	233	164	25	28	3	
289	158	164	369	233	211	22	29	3	
302	73	0	380	155	97	25	30	3	
302	73	97	377	153	144	22	31	3	
219	0	185	293	62	215	27	32	4	
302	73	144	377	153	191	29	33	4	
330	0	0	401	73	111	31	34	4	
401	0	0	472	73	111	31	34	4	
330	0	111	378	69	195	30	35	4	
380	73	0	477	155	78	32	36	4	
386	190	0	495	233	33	28	37	4	
386	156	0	505	190	28	26	38	4	
378	0	111	418	35	142	34	39	5	
378	35	111	418	70	142	34	39	5	
380	73	78	477	155	156	38	40	5	
380	73	156	475	139	199	35	41	5	
386	190	33	481	233	99	35	42	5	
418	0	111	466	69	195	36	43	5	
472	0	0	583	73	71	37	44	5	
472	0	71	583	73	142	37	44	5	
472	0	142	556	69	190	36	45	5	
472	0	190	546	62	220	33	46	5	
477	73	0	574	155	78	38	47	5	
477	73	78	574	155	156	38	47	5	
477	73	156	539	147	186	33	48	5	
386	156	28	505	190	56	39	49	6	
386	156	56	505	190	84	39	49	6	
386	156	84	505	190	112	39	49	6	
386	157	112	495	190	155	42	50	6	
386	157	155	495	190	198	42	50	6	
477	73	186	539	147	216	40	51	6	
386	193	99	421	233	130	41	52	6	
421	193	99	456	233	130	41	52	6	
505	155	0	587	233	97	45	53	6	
505	155	97	587	233	194	45	53	6	
587	0	0	667	75	47	43	54	6	
668	0	0	779	73	71	44	55	6	
780	0	0	838	43	26	46	56	7	
839	0	0	879	35	31	47	57	7	
880	0	0	960	75	47	48	58	7	
961	0	0	1072	73	71	49	59	7	
1073	0	0	1170	82	78	50	60	7	
1171	0	0	1290	34	28	51	61	8	
1171	0	28	1290	34	56	51	61	8	
1171	0	56	1290	34	84	51	61	8	
1291	0	0	1365	62	30	52	62	8	
1291	0	30	1365	62	60	52	62	8	
1366	0	0	1475	43	33	53	63	8	
1366	0	33	1475	43	66	53	63	8	
1476	0	0	1560	69	48	54	64	8	
1561	0	0	1672	73	71	55	65	8	
1673	0	0	1792	34	28	56	66	9	
1673	0	28	1792	34	56	56	66	9	
1793	0	0	1867	62	30	57	67	9	
1793	0	30	1867	62	60	57	67	9	
1868	0	0	1908	35	31	58	68	9	
1868	0	31	1908	35	62	58	68	9	
1909	0	0	2018	43	33	59	69	9	
2019	0	0	2114	66	43	60	70	9	
2019	0	43	2114	66	86	60	70	9	
2115	0	0	2195	75	47	61	71	9	
2196	0	0	2280	69	48	62	72	9	
