80	10	587	233	220
21472548	16085956
0	0	0	46	93	80	3	1	0	
46	0	0	92	93	80	3	1	0	
0	0	80	86	66	172	6	2	0	
0	0	172	42	52	211	2	3	0	
42	0	172	84	52	211	2	3	0	
0	125	0	66	233	84	5	4	0	
0	139	84	61	233	120	1	5	0	
0	144	120	57	233	172	4	6	0	
0	200	172	35	233	220	0	7	0	
0	66	80	73	90	126	8	8	1	
0	167	172	35	200	220	9	9	1	
66	149	0	132	233	108	15	10	1	
66	103	0	159	149	80	11	11	1	
66	156	108	124	233	207	13	12	1	
66	104	80	156	149	131	10	13	1	
92	0	0	151	82	76	14	14	1	
92	0	76	144	57	165	12	15	1	
132	149	0	252	233	23	7	16	1	
92	0	165	127	33	213	18	17	2	
66	110	131	111	149	203	21	18	2	
111	110	131	156	149	203	21	18	2	
0	66	126	73	90	172	16	19	2	
132	197	23	226	233	84	19	20	2	
132	197	84	226	233	145	19	20	2	
132	151	23	225	197	103	22	21	2	
132	151	103	225	197	183	22	21	2	
132	169	183	203	197	219	17	22	2	
132	197	145	203	233	173	17	23	2	
151	0	0	201	51	60	23	24	2	
151	51	0	201	102	60	23	24	2	
159	112	0	271	149	71	20	25	2	
151	0	60	196	90	111	26	26	3	
151	0	111	196	90	162	26	26	3	
159	113	71	253	149	132	24	27	3	
159	113	132	253	149	193	24	27	3	
201	0	0	270	69	70	30	28	3	
270	0	0	339	69	70	30	28	3	
201	69	0	273	108	45	25	29	3	
201	69	45	273	108	90	25	29	3	
201	0	70	305	66	131	29	30	3	
201	0	131	253	57	220	27	31	3	
252	151	0	311	233	76	28	32	3	
0	66	172	73	90	218	32	33	4	
132	205	173	203	233	209	33	34	4	
201	69	90	243	108	142	34	35	4	
273	69	0	357	135	108	36	36	4	
273	69	108	334	135	212	35	37	4	
311	149	0	431	233	23	31	38	4	
253	0	131	292	52	173	39	39	5	
253	0	173	292	52	215	39	39	5	
252	156	76	310	233	175	40	40	5	
252	162	175	280	233	211	37	41	5	
305	0	70	338	35	118	38	42	5	
311	172	23	415	233	89	41	43	5	
311	172	89	415	233	155	41	43	5	
339	0	0	408	69	70	43	44	5	
339	0	70	408	69	140	43	44	5	
357	69	0	443	135	92	42	45	5	
280	162	175	308	233	211	46	46	6	
311	181	155	400	233	212	50	47	6	
339	0	140	381	39	192	48	48	6	
357	69	92	441	135	200	52	49	6	
408	0	0	520	37	71	47	50	6	
408	0	71	520	37	142	47	50	6	
431	141	0	517	233	66	53	51	6	
431	141	66	517	233	132	53	51	6	
431	141	132	517	233	198	53	51	6	
443	37	0	520	95	99	51	52	6	
443	37	99	500	89	188	50	53	6	
443	95	0	536	141	80	49	54	6	
408	0	142	520	37	213	66	55	8	
443	95	80	536	141	160	68	56	8	
443	96	160	533	141	211	67	57	8	
517	167	0	578	233	104	72	58	8	
517	167	104	578	233	208	72	58	8	
520	0	0	586	84	108	73	59	8	
520	0	108	578	77	207	70	60	8	
536	94	0	560	167	46	63	61	8	
536	94	46	560	167	92	63	61	8	
587	0	0	707	84	23	44	62	6	
708	0	0	797	77	26	45	63	6	
798	0	0	918	84	23	54	64	7	
798	0	23	918	84	46	54	64	7	
919	0	0	1031	64	27	55	65	7	
1032	0	0	1144	71	37	56	66	7	
1145	0	0	1217	45	39	57	67	7	
1145	0	39	1217	45	78	57	67	7	
1218	0	0	1308	51	45	58	68	7	
1309	0	0	1402	80	46	59	69	7	
1309	0	46	1402	80	92	59	69	7	
1403	0	0	1502	77	58	60	70	7	
1503	0	0	1585	76	59	61	71	7	
1586	0	0	1690	66	61	62	72	7	
1691	0	0	1803	64	27	64	73	8	
1804	0	0	1898	61	36	65	74	8	
1804	0	36	1898	61	72	65	74	8	
1899	0	0	1959	51	50	69	75	8	
1960	0	0	2042	76	59	71	76	8	
2043	0	0	2163	84	23	74	77	9	
2043	0	23	2163	84	46	74	77	9	
2164	0	0	2276	71	37	75	78	9	
2277	0	0	2370	80	46	76	79	9	
2371	0	0	2460	57	52	77	80	9	
2461	0	0	2565	66	61	78	81	9	
2461	0	61	2565	66	122	78	81	9	
2566	0	0	2674	84	66	79	82	9	
