94	10	587	233	220
20711800	16799646
0	0	0	87	40	68	6	1	0	
0	0	68	87	40	136	6	1	0	
0	195	0	119	233	41	5	2	0	
119	195	0	238	233	41	5	2	0	
0	0	136	87	36	189	4	3	0	
0	202	41	34	233	94	3	4	0	
0	202	94	34	233	147	3	4	0	
0	75	0	90	135	25	0	5	0	
0	135	0	90	195	25	0	5	0	
0	40	0	91	73	29	2	6	0	
0	40	29	91	73	58	2	6	0	
0	128	25	55	195	52	1	7	0	
0	128	52	55	195	79	7	8	1	
0	164	79	34	195	132	9	9	1	
0	40	58	91	69	91	8	10	1	
0	40	91	91	69	124	8	10	1	
34	198	41	131	233	97	12	11	1	
34	198	97	124	233	141	11	12	1	
34	198	141	124	233	185	11	12	1	
0	75	25	87	115	93	14	13	1	
0	75	93	87	111	146	13	14	1	
87	0	0	200	34	47	10	15	1	
91	34	0	142	145	64	15	16	1	
91	34	64	142	145	128	15	16	1	
142	34	0	212	122	75	16	17	1	
0	75	146	87	111	199	24	18	2	
87	0	47	200	34	94	21	19	2	
87	0	94	200	34	141	21	19	2	
87	0	141	200	34	188	21	19	2	
91	34	128	142	89	218	26	20	2	
91	89	128	142	144	218	26	20	2	
90	155	0	177	195	68	25	21	2	
177	155	0	264	195	68	25	21	2	
90	159	68	137	195	139	23	22	2	
142	34	75	212	122	150	27	23	2	
137	160	68	227	195	112	22	24	2	
142	122	0	233	155	29	19	25	2	
131	200	41	222	233	70	19	26	2	
142	34	150	209	89	177	18	27	2	
212	0	0	289	105	31	20	28	2	
212	0	31	272	90	56	17	29	2	
87	0	188	140	34	219	31	30	3	
140	0	188	193	34	219	31	30	3	
90	159	139	137	195	210	34	31	3	
131	204	70	222	233	103	30	32	3	
131	204	103	222	233	136	30	32	3	
212	0	56	263	90	111	36	33	3	
212	0	111	263	90	166	36	33	3	
233	120	0	330	155	56	33	34	3	
233	120	56	330	155	112	33	34	3	
238	199	0	351	233	47	32	35	3	
238	199	47	351	233	94	32	36	3	
264	159	0	351	199	68	35	37	3	
289	0	0	340	111	64	37	38	3	
289	0	64	340	111	128	37	38	3	
340	0	0	395	67	27	29	39	3	
340	67	0	395	134	27	29	39	3	
351	143	0	411	233	25	28	40	3	
131	204	136	222	233	169	39	41	4	
131	204	169	222	233	202	39	41	4	
142	34	177	173	87	211	40	42	4	
212	0	166	248	87	219	45	43	4	
142	90	150	176	121	203	40	44	4	
137	160	112	227	195	156	43	45	4	
137	160	156	227	195	200	43	45	4	
233	120	112	330	155	168	44	46	4	
238	199	94	351	233	141	42	47	4	
238	199	141	351	233	188	42	47	4	
264	159	68	351	199	136	46	48	4	
264	163	136	351	199	189	45	49	4	
289	0	128	340	55	218	47	50	4	
289	55	128	340	110	218	47	50	4	
340	0	27	391	111	91	48	51	4	
340	0	91	391	111	155	48	51	4	
351	143	25	411	233	50	38	52	4	
395	0	0	472	105	31	41	53	4	
395	0	31	472	105	62	41	53	4	
395	0	62	472	105	93	41	53	4	
395	0	93	465	88	168	49	54	4	
264	165	189	317	199	220	52	55	5	
395	108	0	492	143	56	55	56	5	
395	108	56	492	143	112	55	56	5	
395	108	112	492	143	168	55	56	5	
395	0	168	463	87	208	59	57	5	
351	143	50	402	233	105	60	58	5	
351	143	105	402	233	160	60	58	5	
351	146	160	387	233	213	57	59	5	
411	158	0	481	233	88	61	60	5	
411	158	88	481	233	176	61	60	5	
411	162	176	458	233	212	56	61	5	
472	0	0	585	47	34	54	62	5	
472	47	0	562	107	25	50	63	5	
472	0	34	563	33	63	51	64	5	
472	0	63	563	33	92	51	64	5	
472	0	92	563	33	121	51	64	5	
481	156	0	586	233	31	53	65	5	
481	156	31	586	233	62	53	65	5	
395	108	168	485	143	212	64	66	6	
472	47	25	562	107	50	62	67	6	
472	47	50	562	107	75	62	67	6	
472	47	75	562	102	126	67	68	6	
472	47	126	562	102	177	67	68	6	
481	156	62	586	233	93	63	69	6	
481	156	93	586	233	124	63	69	6	
481	177	124	578	233	159	65	70	6	
472	47	177	562	91	212	82	71	8	
481	180	159	568	233	195	83	72	8	
492	116	0	579	156	68	85	73	8	
492	116	68	579	156	136	85	73	8	
492	120	136	579	156	189	83	74	8	
587	0	0	706	41	38	58	75	5	
587	0	38	706	41	76	58	75	5	
707	0	0	826	41	38	66	76	6	
827	0	0	938	64	51	68	77	6	
939	0	0	1029	60	25	69	78	7	
1030	0	0	1097	55	27	70	79	7	
1098	0	0	1151	34	31	71	80	7	
1098	0	31	1151	34	62	71	80	7	
1152	0	0	1257	77	31	72	81	7	
1258	0	0	1348	44	35	73	82	7	
1349	0	0	1446	56	35	74	83	7	
1447	0	0	1518	47	36	75	84	7	
1519	0	0	1606	53	36	76	85	7	
1607	0	0	1726	41	38	77	86	7	
1727	0	0	1838	64	51	78	87	7	
1839	0	0	1927	75	70	79	88	7	
1839	0	70	1927	75	140	79	88	7	
1839	0	140	1927	75	210	79	88	7	
1839	0	210	1927	75	280	79	88	7	
1839	0	280	1927	75	350	79	88	7	
1928	0	0	2033	77	31	80	89	8	
2034	0	0	2147	47	34	81	90	8	
2034	0	34	2147	47	68	81	90	8	
2034	0	68	2147	47	102	81	90	8	
2034	0	102	2147	47	136	81	90	8	
2148	0	0	2267	41	38	84	91	8	
2148	0	38	2267	41	76	84	91	8	
2268	0	0	2379	64	51	86	92	8	
2268	0	51	2379	64	102	86	92	8	
2380	0	0	2470	60	25	87	93	9	
2380	0	25	2470	60	50	87	93	9	
2471	0	0	2524	34	31	88	94	9	
2471	0	31	2524	34	62	88	94	9	
2525	0	0	2615	44	35	89	95	9	
2616	0	0	2713	56	35	90	96	9	
2714	0	0	2785	47	36	91	97	9	
2786	0	0	2897	64	51	92	98	9	
2786	0	51	2897	64	102	92	98	9	
2898	0	0	2986	75	70	93	99	9	
