48	10	587	233	220
24033918	20198868
0	0	0	42	70	67	2	1	0	
0	0	67	42	70	134	2	1	0	
0	0	134	42	70	201	2	1	0	
42	0	0	84	70	67	2	1	0	
42	0	67	84	70	134	2	1	0	
42	0	134	84	70	201	2	1	0	
0	189	0	71	233	78	3	2	0	
71	189	0	142	233	78	3	2	0	
0	198	78	75	233	132	1	3	0	
0	198	132	75	233	186	1	3	0	
0	82	0	49	189	60	4	4	0	
0	114	60	35	189	114	1	5	0	
49	111	0	110	189	27	0	6	0	
49	111	27	110	189	54	0	7	0	
49	118	54	93	189	132	8	8	1	
49	118	132	93	189	210	8	8	1	
49	70	0	124	105	54	6	9	1	
49	70	54	124	105	108	6	9	1	
75	191	78	142	233	148	7	10	1	
75	191	148	142	233	218	7	10	1	
84	0	0	155	44	78	8	11	1	
84	0	78	155	44	156	8	11	1	
155	0	0	226	44	78	8	11	1	
155	0	78	226	44	156	8	11	1	
110	111	0	171	189	27	5	12	1	
110	111	27	171	189	54	5	12	1	
110	111	54	171	189	81	5	12	1	
49	70	108	124	105	162	10	13	2	
49	70	162	124	105	216	10	13	2	
84	0	156	159	35	210	10	14	2	
110	119	81	152	189	148	11	15	2	
110	119	148	152	189	215	11	15	2	
124	44	0	231	104	49	13	16	2	
124	44	49	231	104	98	13	16	2	
124	44	98	231	104	147	13	16	2	
124	44	147	231	104	196	13	16	2	
142	189	0	220	233	71	12	17	2	
142	189	71	220	233	142	12	17	2	
142	189	142	220	233	213	12	17	2	
171	147	0	238	189	70	11	18	2	
171	147	70	238	189	140	11	18	2	
171	147	140	238	189	210	11	18	2	
231	0	0	292	78	27	9	19	2	
231	0	27	292	78	54	9	19	2	
171	105	0	238	147	70	16	20	3	
171	105	70	238	147	140	16	20	3	
171	105	140	238	147	210	16	20	3	
220	198	0	295	233	54	15	21	3	
295	198	0	370	233	54	15	21	3	
231	0	54	292	78	81	14	22	3	
231	0	81	292	78	108	14	22	3	
231	0	108	275	71	186	17	23	3	
238	78	0	345	138	49	18	24	3	
238	78	49	345	138	98	18	24	3	
238	138	0	345	198	49	18	24	3	
238	138	49	345	198	98	18	24	3	
238	91	98	287	198	158	23	25	4	
287	91	98	336	198	158	23	25	4	
220	198	54	295	233	108	20	26	4	
295	198	54	370	233	108	20	26	4	
238	137	158	316	198	185	19	27	4	
238	137	185	316	198	212	19	27	4	
292	0	0	336	78	71	22	28	4	
292	0	71	336	78	142	22	28	4	
292	0	142	336	78	213	22	28	4	
336	0	0	380	78	71	22	29	4	
336	0	71	378	70	138	21	30	4	
336	0	138	378	70	205	21	30	4	
345	156	0	412	198	70	21	31	4	
345	156	70	412	198	140	21	31	4	
345	156	140	412	198	210	21	31	4	
345	78	0	406	156	27	19	32	4	
220	198	108	295	233	162	25	33	5	
220	198	162	295	233	216	25	33	5	
295	198	108	370	233	162	25	33	5	
295	198	162	370	233	216	25	33	5	
238	91	158	313	126	212	25	34	5	
345	78	27	406	156	54	24	35	5	
345	78	54	406	156	81	24	35	5	
345	78	81	406	156	108	24	35	5	
345	78	108	406	156	135	24	35	5	
345	78	135	406	156	162	24	35	5	
345	81	162	380	156	216	25	36	5	
370	198	0	445	233	54	25	37	5	
370	198	54	445	233	108	25	37	5	
380	0	0	451	78	44	27	38	5	
380	0	44	451	78	88	27	38	5	
380	0	88	451	78	132	27	38	5	
380	0	132	450	67	174	26	39	5	
380	0	174	450	67	216	26	39	5	
406	86	0	473	156	42	26	40	5	
445	173	0	552	233	49	28	41	5	
370	198	108	445	233	162	29	42	6	
370	198	162	445	233	216	29	42	6	
406	86	42	473	156	84	30	43	6	
406	86	84	473	156	126	30	43	6	
406	86	126	473	156	168	30	43	6	
445	173	49	552	233	98	32	44	6	
445	173	98	552	233	147	32	44	6	
445	173	147	552	233	196	32	44	6	
451	0	0	495	78	71	31	45	6	
495	0	0	539	78	71	31	45	6	
539	0	0	583	78	71	31	45	6	
451	0	71	522	78	115	31	46	6	
451	0	115	505	75	150	29	47	6	
473	113	0	580	173	49	32	48	6	
473	113	49	580	173	98	32	48	6	
406	86	168	473	156	210	35	49	7	
451	0	150	505	75	185	34	50	7	
451	0	185	505	75	220	34	50	7	
473	113	98	580	173	147	37	51	7	
473	113	147	580	173	196	37	51	7	
473	78	0	548	113	54	34	52	7	
473	78	54	548	113	108	34	52	7	
473	78	108	548	113	162	34	52	7	
473	78	162	548	113	216	34	52	7	
522	0	71	583	78	98	33	53	7	
522	0	98	583	78	125	33	53	7	
522	0	125	583	78	152	33	53	7	
522	0	152	583	78	179	33	53	7	
522	0	179	583	78	206	33	53	7	
587	0	0	662	54	35	34	54	7	
663	0	0	733	67	42	35	55	7	
734	0	0	812	71	44	36	56	7	
813	0	0	891	61	27	38	57	8	
892	0	0	967	54	35	39	58	8	
892	0	35	967	54	70	39	58	8	
892	0	70	967	54	105	39	58	8	
892	0	105	967	54	140	39	58	8	
892	0	140	967	54	175	39	58	8	
892	0	175	967	54	210	39	58	8	
968	0	0	1038	67	42	40	59	8	
1039	0	0	1117	71	44	41	60	8	
1039	0	44	1117	71	88	41	60	8	
1118	0	0	1225	60	49	42	61	8	
1118	0	49	1225	60	98	42	61	8	
1226	0	0	1304	61	27	43	62	9	
1226	0	27	1304	61	54	43	62	9	
1226	0	54	1304	61	81	43	62	9	
1226	0	81	1304	61	108	43	62	9	
1226	0	108	1304	61	135	43	62	9	
1305	0	0	1380	54	35	44	63	9	
1305	0	35	1380	54	70	44	63	9	
1305	0	70	1380	54	105	44	63	9	
1305	0	105	1380	54	140	44	63	9	
1381	0	0	1451	67	42	45	64	9	
1452	0	0	1530	71	44	46	65	9	
1452	0	44	1530	71	88	46	65	9	
1531	0	0	1638	60	49	47	66	9	
1531	0	49	1638	60	98	47	66	9	
1531	0	98	1638	60	147	47	66	9	
