110	10	587	233	220
20943711	16085234
0	0	0	93	118	80	29	1	2	
0	0	80	91	49	149	28	2	2	
0	0	149	91	49	218	28	2	2	
0	49	80	88	90	142	25	3	2	
0	49	142	88	90	204	25	3	2	
0	90	80	83	117	117	22	4	2	
0	90	117	77	115	166	21	5	2	
0	90	166	77	115	215	21	5	2	
0	128	0	28	233	47	23	6	2	
0	156	47	25	233	96	21	7	2	
0	156	96	25	233	145	21	7	2	
0	193	145	22	233	182	20	8	2	
0	193	182	22	233	219	20	8	2	
28	136	0	124	233	46	27	9	2	
28	136	46	124	233	92	27	9	2	
28	172	92	118	233	134	26	10	2	
28	189	134	57	233	165	24	11	2	
28	145	92	111	172	129	34	12	3	
28	145	129	111	172	166	34	12	3	
28	147	166	105	172	215	33	13	3	
57	184	134	108	233	190	38	14	3	
93	0	0	173	93	118	41	15	3	
93	93	0	183	135	61	37	16	3	
93	0	118	162	91	167	39	17	3	
93	0	167	162	91	216	39	17	3	
93	93	61	181	134	123	36	18	3	
124	138	0	149	233	43	32	19	3	
149	146	0	202	233	21	30	20	3	
149	146	21	202	233	42	30	20	3	
173	0	0	254	84	23	31	21	3	
173	0	23	254	84	46	31	21	3	
173	0	46	251	71	73	35	22	3	
173	0	73	251	71	100	35	22	3	
173	0	100	245	64	215	40	23	3	
57	193	190	94	233	212	50	24	5	
93	93	123	181	134	185	69	25	6	
93	93	185	130	133	207	62	26	6	
124	138	43	149	233	86	63	27	6	
124	156	86	149	233	135	64	28	6	
149	164	42	198	233	133	71	29	6	
149	192	133	196	233	189	68	30	6	
183	84	0	252	133	91	71	31	6	
183	84	91	252	133	182	71	31	6	
252	84	0	321	133	91	71	31	6	
252	84	91	321	133	182	71	31	6	
183	84	182	288	131	210	65	32	6	
202	168	0	270	233	103	72	33	6	
202	169	103	269	233	134	67	34	6	
270	164	0	360	233	28	66	35	6	
270	164	28	360	233	56	66	35	6	
254	0	0	344	42	61	70	36	6	
254	0	61	342	41	123	69	37	6	
149	202	189	193	233	218	77	38	7	
202	136	0	307	164	47	75	39	7	
202	182	134	251	233	190	82	40	7	
270	172	56	360	233	98	80	41	7	
270	172	98	360	233	140	80	41	7	
270	172	140	360	233	182	80	41	7	
202	139	47	279	164	96	73	42	7	
254	0	123	342	41	185	79	43	7	
254	42	0	337	69	37	74	44	7	
321	69	0	370	160	69	83	45	7	
344	0	0	434	69	28	76	46	7	
344	0	28	408	67	59	78	47	7	
370	137	0	467	233	46	81	48	7	
202	202	190	246	233	219	89	49	8	
254	0	185	294	37	207	84	50	8	
294	0	185	334	37	207	84	50	8	
202	139	96	279	164	145	87	51	8	
202	139	145	279	164	194	87	51	8	
270	184	182	347	233	207	87	52	8	
321	69	69	370	160	138	94	53	8	
321	69	138	363	159	199	92	54	8	
344	0	59	391	41	115	91	55	8	
344	0	115	391	41	171	91	55	8	
370	161	46	434	233	161	95	56	8	
370	69	0	435	137	103	96	57	8	
370	166	161	434	233	192	90	58	8	
434	138	46	459	233	89	86	59	8	
434	138	89	459	233	132	86	59	8	
434	138	132	459	233	175	86	59	8	
434	138	175	459	233	218	86	59	8	
434	0	0	539	47	28	88	60	8	
435	47	0	553	127	93	97	61	8	
467	136	0	563	233	46	93	62	8	
467	149	46	548	233	69	85	63	8	
344	0	171	388	29	202	103	64	9	
370	69	103	435	137	206	108	65	9	
435	47	93	528	127	211	109	66	9	
528	47	93	553	124	142	100	67	9	
434	0	28	524	42	89	106	68	9	
434	0	89	524	42	150	106	68	9	
434	0	150	481	41	206	105	69	9	
467	161	69	531	233	184	107	70	9	
467	166	184	531	233	215	104	71	9	
481	0	150	512	29	194	103	72	9	
553	0	0	578	95	43	99	73	9	
553	0	43	578	95	86	99	73	9	
553	0	86	578	95	129	99	73	9	
587	0	0	674	53	21	0	74	0	
587	0	21	674	53	42	0	74	0	
675	0	0	715	37	22	1	75	0	
675	0	22	715	37	44	1	75	0	
675	0	44	715	37	66	1	75	0	
716	0	0	811	43	25	2	76	0	
716	0	25	811	43	50	2	76	0	
812	0	0	889	49	25	3	77	0	
812	0	25	889	49	50	3	77	0	
890	0	0	973	37	27	4	78	0	
974	0	0	1018	31	29	5	79	0	
974	0	29	1018	31	58	5	79	0	
1019	0	0	1086	64	31	6	80	0	
1019	0	31	1086	64	62	6	80	0	
1019	0	62	1086	64	93	6	80	0	
1087	0	0	1174	53	21	7	81	1	
1175	0	0	1215	37	22	8	82	1	
1216	0	0	1300	81	23	9	83	1	
1301	0	0	1396	43	25	10	84	1	
1397	0	0	1474	49	25	11	85	1	
1475	0	0	1558	37	27	12	86	1	
1559	0	0	1664	47	28	13	87	1	
1665	0	0	1755	69	28	14	88	1	
1756	0	0	1823	64	31	15	89	1	
1824	0	0	1912	62	41	16	90	1	
1913	0	0	2010	96	46	17	91	1	
2011	0	0	2067	51	49	18	92	1	
2068	0	0	2159	69	49	19	93	1	
2160	0	0	2243	37	27	42	94	4	
2244	0	0	2322	71	27	43	95	4	
2323	0	0	2413	69	28	44	96	4	
2414	0	0	2458	31	29	45	97	4	
2459	0	0	2526	64	31	46	98	4	
2527	0	0	2583	47	41	47	99	4	
2584	0	0	2702	93	80	48	100	4	
2703	0	0	2790	53	21	49	101	5	
2791	0	0	2868	49	25	51	102	5	
2869	0	0	2952	37	27	52	103	5	
2953	0	0	3031	71	27	53	104	5	
2953	0	27	3031	71	54	53	104	5	
3032	0	0	3137	47	28	54	105	5	
3138	0	0	3228	69	28	55	106	5	
3229	0	0	3273	31	29	56	107	5	
3229	0	29	3273	31	58	56	107	5	
3274	0	0	3341	64	31	57	108	5	
3342	0	0	3430	62	41	58	109	5	
3342	0	41	3430	62	82	58	109	5	
3342	0	82	3430	62	123	58	109	5	
3431	0	0	3521	61	42	59	110	5	
3522	0	0	3619	96	46	60	111	5	
3620	0	0	3711	69	49	61	112	5	
3712	0	0	3799	53	21	98	113	9	
3712	0	21	3799	53	42	98	113	9	
3800	0	0	3878	71	27	101	114	9	
3879	0	0	3984	47	28	102	115	9	
3879	0	28	3984	47	56	102	115	9	
3985	0	0	4100	72	64	107	116	9	
