44	10	587	233	220
24249144	19967534
0	0	0	69	65	102	4	1	0	
0	0	102	69	65	204	4	1	0	
69	0	0	138	65	102	4	1	0	
69	0	102	138	65	204	4	1	0	
0	157	0	97	233	46	1	2	0	
0	157	46	97	233	92	1	2	0	
0	171	92	52	233	151	3	3	0	
0	171	151	52	233	210	3	3	0	
52	183	92	89	233	144	0	4	0	
52	183	144	89	233	196	0	4	0	
0	65	0	52	115	54	2	5	0	
0	65	54	52	115	108	7	6	1	
0	65	108	52	115	162	7	6	1	
0	65	162	52	115	216	7	6	1	
0	120	0	50	157	52	5	7	1	
0	120	52	50	157	104	5	7	1	
0	120	104	50	157	156	5	7	1	
52	65	0	121	130	102	8	8	1	
97	136	0	143	233	76	6	9	1	
52	65	102	121	130	204	13	10	2	
97	136	76	143	233	152	10	11	2	
121	65	0	180	117	62	12	12	2	
180	65	0	239	117	62	12	12	2	
239	65	0	298	117	62	12	12	2	
298	65	0	357	117	62	12	12	2	
121	65	62	218	111	138	10	13	2	
121	65	138	218	111	214	10	13	2	
143	122	0	193	159	52	9	14	2	
143	122	52	193	159	104	9	14	2	
143	159	0	193	196	52	9	14	2	
143	159	52	193	196	104	9	14	2	
143	196	0	193	233	52	9	14	2	
143	196	52	193	233	104	9	14	2	
143	181	104	193	233	158	11	15	2	
138	0	0	200	59	52	17	16	3	
138	0	52	200	59	104	17	16	3	
138	0	104	200	59	156	17	16	3	
138	0	156	200	59	208	17	16	3	
143	129	104	193	181	141	14	17	3	
143	129	141	193	181	178	14	17	3	
143	129	178	193	181	215	14	17	3	
143	181	158	193	233	212	16	18	3	
193	187	0	290	233	76	15	19	3	
193	187	76	290	233	152	15	19	3	
290	187	0	387	233	76	15	19	3	
290	187	76	387	233	152	15	19	3	
387	187	0	484	233	76	15	19	3	
387	187	76	484	233	152	15	19	3	
193	196	152	243	233	204	14	20	3	
193	118	0	258	187	102	18	21	3	
193	137	102	245	187	156	16	22	3	
193	137	156	245	187	210	16	22	3	
243	196	152	293	233	204	19	23	4	
200	0	0	269	65	102	22	24	4	
269	0	0	338	65	102	22	24	4	
218	65	62	315	111	138	20	25	4	
200	0	102	252	59	164	21	26	4	
200	0	164	250	37	216	19	27	4	
258	135	0	320	187	59	24	28	5	
320	135	0	382	187	59	24	28	5	
382	135	0	444	187	59	24	28	5	
444	135	0	506	187	59	24	28	5	
506	135	0	568	187	59	24	28	5	
252	0	102	321	65	204	25	29	5	
258	141	59	355	187	135	23	30	5	
258	141	135	355	187	211	23	30	5	
355	141	59	452	187	135	23	30	5	
355	141	135	452	187	211	23	30	5	
218	65	138	315	111	214	27	31	6	
293	196	152	343	233	204	26	32	6	
343	196	152	393	233	204	26	32	6	
393	196	152	443	233	204	26	32	6	
315	65	62	352	115	114	26	33	6	
315	65	114	352	115	166	26	33	6	
315	65	166	352	115	218	26	33	6	
338	0	0	440	65	69	30	34	6	
440	0	0	542	65	69	30	34	6	
338	0	69	440	65	138	30	35	6	
338	0	138	440	65	207	30	35	6	
357	65	0	416	117	62	29	36	6	
357	65	62	409	115	116	28	37	6	
357	65	116	407	102	168	31	38	7	
357	65	168	407	102	220	31	38	7	
440	0	69	542	65	138	34	39	7	
440	0	138	542	65	207	34	39	7	
416	65	0	518	130	69	34	40	7	
416	65	69	518	130	138	34	40	7	
416	65	138	518	130	207	34	40	7	
452	137	59	506	187	111	33	41	7	
452	137	111	506	187	163	33	41	7	
452	137	163	506	187	215	33	41	7	
484	187	0	581	233	76	32	42	7	
484	187	76	581	233	152	32	42	7	
484	196	152	534	233	204	31	43	7	
506	135	59	560	187	109	41	44	9	
506	135	109	560	187	159	41	44	9	
506	135	159	560	187	209	41	44	9	
518	65	0	587	130	102	43	45	9	
518	65	102	570	127	161	42	46	9	
518	65	161	570	127	220	42	46	9	
542	0	0	579	50	52	40	47	9	
587	0	0	684	76	46	32	48	7	
587	0	46	684	76	92	32	48	7	
587	0	92	684	76	138	32	48	7	
685	0	0	737	50	37	35	49	8	
685	0	37	737	50	74	35	49	8	
685	0	74	737	50	111	35	49	8	
738	0	0	835	76	46	36	50	8	
738	0	46	835	76	92	36	50	8	
738	0	92	835	76	138	36	50	8	
836	0	0	890	52	50	37	51	8	
836	0	50	890	52	100	37	51	8	
891	0	0	953	59	52	38	52	8	
891	0	52	953	59	104	38	52	8	
891	0	104	953	59	156	38	52	8	
954	0	0	1056	69	65	39	53	8	
954	0	65	1056	69	130	39	53	8	
954	0	130	1056	69	195	39	53	8	
954	0	195	1056	69	260	39	53	8	
1057	0	0	1111	52	50	41	54	9	
1057	0	50	1111	52	100	41	54	9	
