59	10	587	233	220
22619192	18264804
0	0	0	113	80	29	0	1	0	
0	0	29	113	80	58	0	1	0	
0	80	0	113	160	29	0	1	0	
0	80	29	113	160	58	0	1	0	
0	0	58	100	97	122	4	2	0	
0	0	122	100	97	186	4	2	0	
0	0	186	54	78	216	1	3	0	
0	111	58	106	160	91	2	4	0	
0	111	91	106	160	124	2	4	0	
0	111	124	106	160	157	2	4	0	
0	162	0	41	233	68	3	5	0	
0	130	157	78	160	211	1	6	0	
0	165	68	41	233	139	8	7	1	
0	165	139	41	233	210	8	7	1	
41	168	0	139	233	62	10	8	1	
139	168	0	237	233	62	10	8	1	
237	168	0	335	233	62	10	8	1	
41	192	62	112	233	130	8	9	1	
41	192	130	112	233	198	8	9	1	
112	179	62	190	233	92	6	10	1	
112	179	92	190	233	122	6	10	1	
112	179	122	190	233	152	6	10	1	
112	187	152	172	233	211	9	11	1	
113	0	0	193	113	29	5	12	1	
113	0	29	193	113	58	5	12	1	
113	0	58	162	106	91	7	13	1	
113	0	91	162	106	124	7	13	1	
113	0	124	146	106	173	13	14	2	
162	0	58	192	78	112	12	15	2	
162	0	112	192	78	166	12	15	2	
113	122	0	172	168	60	14	16	2	
193	0	0	257	100	97	15	17	2	
193	0	97	257	100	194	15	17	2	
257	0	0	321	100	97	15	17	2	
257	0	97	321	100	194	15	17	2	
193	0	194	281	99	217	11	18	2	
321	0	0	409	99	23	11	19	2	
113	122	60	172	168	120	18	20	3	
113	122	120	172	168	180	18	20	3	
190	171	62	288	233	127	19	21	3	
190	171	127	288	233	192	19	21	3	
288	173	62	334	233	121	18	22	3	
193	103	0	255	168	98	19	23	3	
255	104	0	355	168	97	20	24	3	
255	104	97	355	168	194	20	24	3	
321	0	23	409	99	46	16	25	3	
335	184	0	441	233	33	17	26	3	
321	0	46	409	99	69	21	27	4	
321	0	69	399	54	99	23	28	4	
335	184	33	441	233	66	24	29	4	
335	184	66	441	233	99	24	29	4	
355	104	0	468	184	29	22	30	4	
355	104	29	468	184	58	22	30	4	
355	104	58	468	184	87	22	30	4	
288	173	121	334	233	180	30	31	5	
321	0	99	399	54	129	27	32	5	
321	0	129	399	54	159	27	32	5	
335	184	99	441	233	132	28	33	5	
321	54	69	389	95	140	29	34	5	
321	54	140	389	95	211	29	34	5	
355	104	87	468	184	116	26	35	5	
355	104	116	468	184	145	26	35	5	
355	122	145	453	184	210	31	36	5	
409	0	0	497	99	23	25	37	5	
497	0	0	585	99	23	25	37	5	
409	0	23	471	98	88	31	38	5	
409	0	88	471	98	153	31	38	5	
471	0	23	571	97	87	32	39	5	
471	0	87	571	97	151	32	39	5	
321	0	159	399	54	189	34	40	6	
321	0	189	399	54	219	34	40	6	
335	184	132	441	233	165	35	41	6	
335	184	165	441	233	198	35	41	6	
441	192	0	512	233	68	36	42	6	
512	192	0	583	233	68	36	42	6	
471	0	151	571	97	215	37	43	6	
441	192	68	512	233	136	36	44	6	
468	104	0	567	192	23	33	45	6	
468	104	23	567	192	46	33	45	6	
441	192	136	512	233	204	42	46	7	
468	104	46	567	192	69	38	47	7	
468	104	69	567	192	92	38	47	7	
468	128	92	565	192	192	44	48	7	
587	0	0	700	80	29	39	49	7	
701	0	0	779	54	30	40	50	7	
701	0	30	779	54	60	40	50	7	
780	0	0	886	49	33	41	51	7	
887	0	0	947	59	46	43	52	7	
948	0	0	1048	97	64	44	53	7	
948	0	64	1048	97	128	44	53	7	
1049	0	0	1148	88	23	45	54	8	
1149	0	0	1262	80	29	46	55	8	
1149	0	29	1262	80	58	46	55	8	
1149	0	58	1262	80	87	46	55	8	
1263	0	0	1341	54	30	47	56	8	
1263	0	30	1341	54	60	47	56	8	
1342	0	0	1448	49	33	48	57	8	
1449	0	0	1520	68	41	49	58	8	
1449	0	41	1520	68	82	49	58	8	
1521	0	0	1581	59	46	50	59	8	
1582	0	0	1680	65	62	51	60	8	
1681	0	0	1781	97	64	52	61	8	
1782	0	0	1881	88	23	53	62	9	
1882	0	0	1960	54	30	54	63	9	
1882	0	30	1960	54	60	54	63	9	
1882	0	60	1960	54	90	54	63	9	
1882	0	90	1960	54	120	54	63	9	
1961	0	0	2067	49	33	55	64	9	
2068	0	0	2139	68	41	56	65	9	
2140	0	0	2200	59	46	57	66	9	
2201	0	0	2299	65	62	58	67	9	
