97	10	587	233	220
22454171	17514931
0	0	0	87	65	113	25	1	2	
0	0	113	77	65	190	24	2	2	
0	0	190	59	65	217	16	3	2	
0	158	0	95	233	80	26	4	2	
0	65	0	45	158	70	23	5	2	
0	65	70	44	122	123	22	6	2	
0	160	80	36	233	113	18	7	2	
0	65	123	42	119	154	17	8	2	
0	65	154	41	117	191	21	9	2	
0	186	113	34	233	166	20	10	2	
0	186	166	34	233	219	20	10	2	
45	65	0	121	144	33	19	11	2	
45	65	33	121	144	66	19	11	2	
0	127	70	42	158	124	29	12	3	
0	127	124	42	158	178	29	12	3	
36	171	80	90	233	153	32	13	3	
45	65	66	121	144	99	31	14	3	
45	65	99	106	140	123	27	15	3	
45	65	123	104	130	150	28	16	3	
87	0	0	200	65	87	33	17	3	
87	0	87	200	65	174	33	17	3	
87	0	174	160	33	210	30	18	3	
36	180	153	80	233	210	46	19	5	
45	65	150	82	106	202	43	20	5	
87	33	174	159	63	220	40	21	5	
95	155	0	184	233	93	50	22	5	
95	163	93	173	233	193	49	23	5	
121	65	0	165	110	87	45	24	5	
121	110	0	165	155	87	45	24	5	
160	0	174	191	54	216	41	25	5	
121	65	87	161	150	160	44	26	5	
121	65	160	151	137	206	40	27	5	
165	65	0	258	110	70	47	28	5	
184	187	0	238	233	87	48	29	5	
184	111	0	263	187	33	42	30	5	
95	168	193	154	233	220	51	31	6	
184	187	87	238	233	174	57	32	6	
165	65	70	255	106	133	55	33	6	
165	65	133	255	106	196	55	33	6	
184	122	33	261	187	110	59	34	6	
184	133	110	246	187	183	58	35	6	
184	135	183	225	187	220	54	36	6	
184	202	174	238	233	216	52	37	6	
200	0	0	287	65	113	60	38	6	
200	0	113	245	44	200	56	39	6	
263	158	0	343	233	95	61	40	6	
263	158	95	343	233	190	61	40	6	
263	65	0	339	144	33	53	41	6	
245	0	113	279	53	160	66	42	7	
263	161	190	309	233	220	64	43	7	
263	65	33	333	143	133	71	44	7	
263	65	133	308	109	220	68	45	7	
287	0	0	346	65	27	63	46	7	
287	0	27	341	62	100	70	47	7	
339	65	0	384	158	70	69	48	7	
339	65	70	384	158	140	69	48	7	
339	65	140	384	158	210	69	48	7	
343	158	0	423	233	95	72	49	7	
343	158	95	404	233	119	62	50	7	
343	160	119	379	233	152	65	51	7	
343	160	152	379	233	185	65	51	7	
343	160	185	379	233	218	65	51	7	
346	0	0	436	63	41	67	52	7	
346	0	41	418	46	71	64	53	7	
287	0	100	341	62	173	80	54	8	
287	0	173	339	37	214	76	55	8	
346	0	71	418	46	101	74	56	8	
346	0	101	390	45	188	79	57	8	
384	63	0	464	158	75	82	58	8	
384	63	75	462	156	164	83	59	8	
384	63	164	449	122	191	73	60	8	
384	63	191	449	122	218	73	60	8	
384	123	164	457	156	200	75	61	8	
423	160	0	508	233	40	77	62	8	
423	163	40	501	233	140	81	63	8	
436	0	0	526	63	41	78	64	8	
436	0	41	526	63	82	78	64	8	
436	0	82	523	45	126	79	65	8	
423	168	140	500	233	217	94	66	9	
436	0	126	493	44	179	92	67	9	
436	0	179	488	37	220	91	68	9	
464	63	0	553	156	78	96	69	9	
464	63	78	553	156	156	96	69	9	
464	63	156	551	109	210	93	70	9	
464	109	156	498	156	209	90	71	9	
498	114	156	552	156	187	87	72	9	
508	157	0	587	233	33	89	73	9	
508	157	33	587	233	66	89	73	9	
508	168	66	585	233	143	94	74	9	
508	168	143	585	233	220	94	74	9	
526	0	0	583	53	44	92	75	9	
553	53	0	586	126	36	88	76	9	
553	53	36	583	125	82	86	77	9	
587	0	0	662	61	24	0	78	0	
663	0	0	728	59	27	1	79	0	
729	0	0	819	63	41	2	80	0	
729	0	41	819	63	82	2	80	0	
820	0	0	913	70	45	3	81	0	
914	0	0	1001	54	46	4	82	0	
1002	0	0	1075	62	54	5	83	0	
1076	0	0	1153	77	65	6	84	0	
1154	0	0	1247	89	78	7	85	0	
1248	0	0	1321	36	33	8	86	1	
1248	0	33	1321	36	66	8	86	1	
1322	0	0	1375	47	34	9	87	1	
1376	0	0	1428	41	37	10	88	1	
1429	0	0	1514	73	40	11	89	1	
1429	0	40	1514	73	80	11	89	1	
1515	0	0	1602	45	44	12	90	1	
1515	0	44	1602	45	88	12	90	1	
1603	0	0	1690	54	46	13	91	1	
1691	0	0	1764	62	54	14	92	1	
1765	0	0	1878	87	65	15	93	1	
1879	0	0	1944	59	27	34	94	4	
1945	0	0	2017	46	30	35	95	4	
1945	0	30	2017	46	60	35	95	4	
2018	0	0	2072	42	31	36	96	4	
2073	0	0	2152	76	33	37	97	4	
2153	0	0	2206	47	34	38	98	4	
2207	0	0	2259	41	37	39	99	4	
2260	0	0	2335	61	24	84	100	9	
2260	0	24	2335	61	48	84	100	9	
2336	0	0	2401	59	27	85	101	9	
2402	0	0	2479	77	65	94	102	9	
2402	0	65	2479	77	130	94	102	9	
2480	0	0	2593	87	65	95	103	9	
