43	10	587	233	220
24363350	20208990
0	0	0	48	100	55	5	1	1	
0	0	55	48	100	110	10	2	2	
0	0	110	48	100	165	10	2	2	
0	0	165	48	100	220	10	2	2	
0	135	0	50	233	73	11	3	2	
0	135	73	50	233	146	11	3	2	
0	135	146	50	233	219	11	3	2	
0	101	0	100	135	53	8	4	2	
0	101	53	100	135	106	8	4	2	
0	101	106	100	135	159	8	4	2	
0	101	159	100	135	212	8	4	2	
48	0	0	96	100	55	10	5	2	
48	0	55	93	93	133	9	6	2	
48	0	133	93	93	211	9	6	2	
50	140	0	95	233	78	9	7	2	
95	135	0	168	233	50	16	8	3	
168	135	0	241	233	50	16	8	3	
241	135	0	314	233	50	16	8	3	
314	135	0	387	233	50	16	8	3	
95	185	50	195	233	105	14	9	3	
95	185	105	195	233	160	14	9	3	
95	185	160	195	233	215	14	9	3	
95	140	50	188	185	128	13	10	3	
95	140	128	188	185	206	13	10	3	
96	0	0	151	100	48	14	11	3	
96	0	48	151	100	96	14	11	3	
96	0	96	151	100	144	14	11	3	
96	0	144	149	100	178	12	12	3	
96	0	178	149	100	212	12	12	3	
151	0	0	201	63	70	15	13	3	
151	63	0	201	126	70	15	13	3	
151	0	70	201	98	143	20	14	4	
151	0	143	201	98	216	20	14	4	
188	135	50	286	185	123	20	15	4	
286	135	50	384	185	123	20	15	4	
188	135	123	286	185	196	20	16	4	
195	188	50	288	233	128	18	17	4	
195	188	128	288	233	206	18	17	4	
201	0	0	279	93	45	18	18	4	
201	0	45	279	93	90	18	18	4	
201	93	0	301	127	53	17	19	4	
201	0	90	251	70	153	19	20	4	
201	0	153	251	70	216	19	20	4	
201	93	53	301	127	106	21	21	5	
201	93	106	301	127	159	21	21	5	
201	93	159	301	127	212	21	21	5	
279	0	0	329	73	98	25	22	5	
329	0	0	379	73	98	25	22	5	
379	0	0	429	73	98	25	22	5	
429	0	0	479	73	98	25	22	5	
279	0	98	379	48	153	23	23	5	
279	0	153	379	48	208	23	23	5	
379	0	98	479	48	153	23	23	5	
379	0	153	479	48	208	23	23	5	
288	188	50	381	233	128	22	24	5	
288	188	128	381	233	206	22	24	5	
301	73	0	364	123	70	24	25	5	
301	73	70	364	123	140	24	25	5	
301	73	140	364	123	210	24	25	5	
364	73	0	464	128	48	23	26	5	
286	135	123	384	185	196	30	27	6	
364	73	48	457	118	126	27	28	6	
364	73	126	457	118	204	27	28	6	
387	183	0	450	233	70	29	29	6	
387	183	70	450	233	140	29	29	6	
387	183	140	450	233	210	29	29	6	
387	128	0	487	183	48	28	30	6	
387	130	48	487	183	82	26	31	6	
387	130	82	487	183	116	26	31	6	
387	130	116	487	183	150	26	31	6	
387	130	150	487	183	184	31	32	7	
387	130	184	487	183	218	31	32	7	
450	183	0	513	233	70	33	33	7	
450	183	70	513	233	140	33	33	7	
464	73	0	537	123	98	34	34	7	
479	0	0	579	53	34	31	35	7	
479	0	34	572	45	112	32	36	7	
450	183	140	513	233	210	36	37	8	
464	73	98	537	123	196	37	38	8	
487	135	0	587	183	55	35	39	8	
487	135	55	587	183	110	35	39	8	
487	135	110	587	183	165	35	39	8	
487	135	165	587	183	220	40	40	9	
479	0	112	572	45	190	39	41	9	
513	183	0	586	233	98	42	42	9	
513	183	98	586	233	196	42	42	9	
537	53	0	587	116	70	41	43	9	
537	53	70	587	116	140	41	43	9	
537	53	140	587	116	210	41	43	9	
587	0	0	680	78	45	0	44	0	
587	0	45	680	78	90	0	44	0	
681	0	0	781	55	48	1	45	0	
681	0	48	781	55	96	1	45	0	
681	0	96	781	55	144	1	45	0	
681	0	144	781	55	192	1	45	0	
782	0	0	852	63	50	2	46	0	
853	0	0	951	73	50	3	47	0	
853	0	50	951	73	100	3	47	0	
952	0	0	1045	78	45	4	48	1	
952	0	45	1045	78	90	4	48	1	
1046	0	0	1146	55	48	5	49	1	
1147	0	0	1217	63	50	6	50	1	
1147	0	50	1217	63	100	6	50	1	
1147	0	100	1217	63	150	6	50	1	
1147	0	150	1217	63	200	6	50	1	
1218	0	0	1316	73	50	7	51	1	
1218	0	50	1316	73	100	7	51	1	
1317	0	0	1417	53	34	38	52	9	
