47	10	587	233	220
25554610	19690900
0	0	0	50	96	73	3	1	0	
0	0	73	50	96	146	3	1	0	
0	96	0	50	192	73	3	1	0	
0	96	73	50	192	146	3	1	0	
0	196	0	110	233	43	2	2	0	
110	196	0	220	233	43	2	2	0	
220	196	0	330	233	43	2	2	0	
0	0	146	50	96	219	3	3	0	
0	198	43	114	233	96	1	4	0	
0	198	96	114	233	149	1	4	0	
0	206	149	105	233	171	0	5	0	
0	206	171	105	233	193	0	5	0	
0	206	193	105	233	215	0	5	0	
50	0	0	112	64	99	4	6	0	
50	0	99	112	64	198	4	6	0	
112	0	0	174	64	99	4	6	0	
112	0	99	174	64	198	4	6	0	
50	0	198	155	27	220	5	7	1	
50	27	198	155	54	220	5	7	1	
50	72	0	149	134	64	8	8	1	
50	134	0	149	196	64	8	8	1	
149	72	0	248	134	64	8	8	1	
149	134	0	248	196	64	8	8	1	
50	82	64	85	196	117	6	9	1	
50	82	117	85	196	170	6	9	1	
85	82	64	120	196	117	6	9	1	
85	82	117	120	196	170	6	9	1	
120	82	64	155	196	117	6	9	1	
120	82	117	155	196	170	6	9	1	
50	82	170	103	196	205	6	10	1	
103	86	170	146	196	207	7	11	1	
155	82	64	208	196	99	10	12	2	
155	82	99	208	196	134	10	12	2	
155	82	134	208	196	169	10	12	2	
155	82	169	208	196	204	10	12	2	
114	196	43	224	233	86	11	13	2	
114	196	86	224	233	129	11	13	2	
114	211	129	219	233	156	9	14	2	
114	211	156	219	233	183	9	14	2	
114	211	183	219	233	210	9	14	2	
174	0	0	273	62	64	12	15	2	
174	0	64	273	62	128	12	15	2	
174	0	128	273	62	192	12	15	2	
248	97	0	310	196	64	12	16	2	
208	86	64	245	196	107	15	17	3	
208	86	107	245	196	150	15	17	3	
208	91	150	235	196	172	13	18	3	
208	91	172	235	196	194	13	18	3	
208	91	194	235	196	216	13	18	3	
248	62	0	362	97	53	14	19	3	
224	211	43	329	233	70	13	20	3	
248	97	64	310	196	128	17	21	3	
248	97	128	310	196	192	17	21	3	
273	0	0	337	62	99	17	22	3	
273	0	99	337	62	198	17	22	3	
310	100	0	360	196	73	16	23	3	
224	211	70	329	233	97	18	24	4	
224	211	97	329	233	124	18	24	4	
224	211	124	329	233	151	18	24	4	
248	62	53	362	97	106	19	25	4	
310	100	73	360	196	146	21	26	4	
310	100	146	360	196	219	21	26	4	
330	196	0	440	233	43	20	27	4	
330	196	43	440	233	86	20	27	4	
440	196	0	550	233	43	20	27	4	
440	196	43	550	233	86	20	27	4	
337	0	0	401	62	99	22	28	4	
337	0	99	401	62	198	22	28	4	
360	100	0	410	196	73	21	29	4	
360	100	73	410	196	146	21	29	4	
224	211	151	329	233	178	23	30	5	
248	62	106	362	97	159	24	31	5	
360	100	146	410	196	219	26	32	5	
330	196	86	440	233	129	25	33	5	
401	0	0	463	99	64	27	34	5	
463	0	0	525	99	64	27	34	5	
525	0	0	587	99	64	27	34	5	
401	0	64	451	96	137	26	35	5	
224	211	178	329	233	205	28	36	6	
248	62	159	362	97	212	29	37	6	
330	196	129	440	233	172	30	38	6	
330	206	172	435	233	194	28	39	6	
401	0	137	451	96	210	31	40	6	
410	100	0	460	196	73	31	41	6	
410	100	73	460	196	146	31	41	6	
410	100	146	460	196	219	31	41	6	
451	0	64	513	99	128	32	42	6	
513	0	64	575	99	128	32	42	6	
330	206	194	435	233	216	33	43	7	
440	196	86	550	233	129	35	44	7	
451	0	128	513	99	192	37	45	7	
513	0	128	575	99	192	37	45	7	
460	100	0	533	196	50	36	46	7	
460	100	50	533	196	100	36	46	7	
460	100	100	533	196	150	36	46	7	
460	100	150	533	196	200	36	46	7	
550	119	0	585	233	53	34	47	7	
451	0	192	556	22	219	38	48	8	
451	22	192	556	44	219	38	48	8	
440	196	129	550	233	172	40	49	8	
440	196	172	550	233	215	40	49	8	
550	119	53	585	233	106	39	50	8	
550	119	106	585	233	159	39	50	8	
550	119	159	585	233	212	39	50	8	
587	0	0	683	73	50	41	51	8	
684	0	0	783	64	62	42	52	8	
684	0	62	783	64	124	42	52	8	
684	0	124	783	64	186	42	52	8	
784	0	0	889	27	22	43	53	9	
784	0	22	889	27	44	43	53	9	
784	0	44	889	27	66	43	53	9	
784	0	66	889	27	88	43	53	9	
890	0	0	1004	53	35	44	54	9	
890	0	35	1004	53	70	44	54	9	
1005	0	0	1115	43	37	45	55	9	
1005	0	37	1115	43	74	45	55	9	
1005	0	74	1115	43	111	45	55	9	
1005	0	111	1115	43	148	45	55	9	
1116	0	0	1212	73	50	46	56	9	
1116	0	50	1212	73	100	46	56	9	
1116	0	100	1212	73	150	46	56	9	
