15	15	587	233	220
27501936	22147890
0	0	0	67	98	90	13	1	1	
0	0	90	67	98	180	13	1	1	
67	0	0	134	98	90	13	1	1	
67	0	90	134	98	180	13	1	1	
134	0	0	201	98	90	13	1	1	
134	0	90	201	98	180	13	1	1	
201	0	0	268	98	90	13	1	1	
201	0	90	268	98	180	13	1	1	
0	0	180	51	62	219	7	2	2	
51	0	180	102	62	219	7	2	2	
102	0	180	153	62	219	7	2	2	
153	0	180	204	62	219	7	2	2	
204	0	180	255	62	219	7	2	2	
0	62	180	66	89	217	1	3	3	
66	62	180	132	89	217	1	4	4	
132	62	180	198	89	217	1	4	4	
198	62	180	264	89	217	1	4	4	
0	180	0	116	233	36	5	5	5	
0	180	36	116	233	72	5	5	5	
0	180	72	116	233	108	5	5	5	
0	180	108	116	233	144	5	5	5	
0	180	144	116	233	180	5	5	5	
0	180	180	116	233	216	5	5	5	
116	180	0	232	233	36	5	5	5	
116	180	36	232	233	72	5	5	5	
116	180	72	232	233	108	5	5	5	
116	180	108	232	233	144	5	5	5	
116	180	144	232	233	180	5	5	5	
116	180	180	232	233	216	5	5	5	
0	98	0	80	180	71	14	6	6	
0	98	71	80	180	142	14	6	6	
0	98	142	80	180	213	14	6	6	
80	98	0	160	180	71	14	6	6	
80	98	71	160	180	142	14	6	6	
80	98	142	160	180	213	14	6	6	
160	98	0	240	180	71	14	6	6	
160	98	71	240	180	142	14	6	6	
160	98	142	240	180	213	14	6	6	
232	187	0	317	233	79	9	7	7	
232	187	79	317	233	158	9	7	7	
317	187	0	402	233	79	9	7	7	
317	187	79	402	233	158	9	7	7	
402	187	0	487	233	79	9	7	7	
402	187	79	487	233	158	9	7	7	
487	187	0	572	233	79	9	7	7	
487	187	79	572	233	158	9	7	7	
232	194	158	283	233	220	7	8	8	
240	98	0	316	187	30	2	9	9	
240	98	30	316	187	60	2	9	9	
240	98	60	316	187	90	2	9	9	
240	98	90	316	187	120	2	9	9	
240	98	120	316	187	150	2	9	9	
240	98	150	316	187	180	2	9	9	
240	98	180	316	187	210	2	9	9	
283	194	158	334	233	220	7	10	10	
334	194	158	385	233	220	7	10	10	
268	0	0	374	91	24	0	11	11	
268	0	24	374	91	48	0	11	11	
268	0	48	374	91	72	0	11	11	
268	0	72	374	91	96	0	11	11	
268	0	96	374	91	120	0	11	11	
268	0	120	374	91	144	0	11	11	
268	0	144	374	91	168	0	11	11	
268	0	168	374	91	192	0	11	11	
268	0	192	374	91	216	0	11	11	
316	93	0	405	140	56	11	12	12	
316	140	0	405	187	56	11	12	12	
405	93	0	494	140	56	11	12	12	
405	140	0	494	187	56	11	12	12	
494	93	0	583	140	56	11	12	12	
494	140	0	583	187	56	11	12	12	
316	93	56	405	140	112	11	13	13	
316	93	112	405	140	168	11	13	13	
316	140	56	405	187	112	11	13	13	
316	140	112	405	187	168	11	13	13	
316	103	168	403	145	220	8	14	14	
316	145	168	403	187	220	8	14	14	
374	0	0	441	93	86	12	15	15	
441	0	0	508	93	86	12	15	15	
508	0	0	575	93	86	12	15	15	
385	191	158	420	233	211	4	16	16	
374	0	86	460	93	153	12	17	17	
374	0	153	460	93	220	12	17	17	
420	191	158	455	233	211	4	18	18	
455	191	158	490	233	211	4	19	19	
490	191	158	525	233	211	4	19	19	
525	191	158	560	233	211	4	19	19	
405	95	56	517	141	140	10	20	20	
405	141	56	517	187	140	10	20	20	
405	103	140	517	187	186	10	21	21	
405	110	186	481	187	217	3	22	22	
460	0	86	572	46	170	10	23	23	
460	46	86	572	92	170	10	23	23	
460	0	170	572	84	216	10	24	24	
517	113	56	583	150	83	1	25	25	
517	150	56	583	187	83	1	25	25	
587	0	0	693	91	24	0	26	0	
694	0	0	771	76	31	3	27	0	
694	0	31	771	76	62	3	27	0	
772	0	0	872	56	38	6	28	0	
772	0	38	872	56	76	6	28	0	
772	0	76	872	56	114	6	28	0	
772	0	114	872	56	152	6	28	0	
873	0	0	960	52	42	8	29	0	
873	0	42	960	52	84	8	29	0	
873	0	84	960	52	126	8	29	0	
873	0	126	960	52	168	8	29	0	
