15	15	587	233	220
27711387	22625167
0	0	0	81	69	69	14	1	1	
0	0	69	81	69	138	14	1	1	
0	0	138	81	69	207	14	1	1	
0	69	0	81	138	69	14	1	1	
0	69	69	81	138	138	14	1	1	
0	69	138	81	138	207	14	1	1	
0	138	0	81	207	69	14	1	1	
0	138	69	81	207	138	14	1	1	
0	138	138	81	207	207	14	1	1	
0	211	0	109	233	42	2	2	2	
0	211	42	109	233	84	2	2	2	
0	211	84	109	233	126	2	2	2	
0	211	126	109	233	168	2	2	2	
0	211	168	109	233	210	2	2	2	
81	0	0	129	99	80	11	3	3	
81	99	0	129	198	80	11	3	3	
129	0	0	177	99	80	11	3	3	
129	99	0	177	198	80	11	3	3	
177	0	0	225	99	80	11	3	3	
177	99	0	225	198	80	11	3	3	
225	0	0	273	99	80	11	3	3	
225	99	0	273	198	80	11	3	3	
273	0	0	321	99	80	11	3	3	
273	99	0	321	198	80	11	3	3	
81	0	80	193	51	150	12	4	4	
81	0	150	193	51	220	12	4	4	
81	51	80	193	102	150	12	4	4	
81	51	150	193	102	220	12	4	4	
81	102	80	193	153	150	12	4	4	
81	102	150	193	153	220	12	4	4	
81	159	80	170	198	148	8	5	5	
81	159	148	170	198	216	8	5	5	
170	159	80	259	198	148	8	5	5	
170	159	148	259	198	216	8	5	5	
109	198	0	185	233	50	7	6	6	
109	198	50	185	233	100	7	6	6	
109	198	100	185	233	150	7	6	6	
109	198	150	185	233	200	7	6	6	
185	198	0	261	233	50	7	6	6	
185	198	50	261	233	100	7	6	6	
185	198	100	261	233	150	7	6	6	
185	198	150	261	233	200	7	6	6	
109	204	200	182	233	220	0	7	7	
182	204	200	255	233	220	0	7	7	
193	0	80	232	89	148	8	8	8	
193	0	148	232	89	216	8	8	8	
232	0	80	271	89	148	8	8	8	
232	0	148	271	89	216	8	8	8	
271	0	80	310	89	148	8	8	8	
271	0	148	310	89	216	8	8	8	
193	90	80	274	159	149	14	9	9	
193	90	149	274	159	218	14	9	9	
259	167	80	317	198	123	4	10	10	
259	167	123	317	198	166	4	10	10	
259	167	166	317	198	209	4	10	10	
261	201	0	358	233	43	5	11	11	
261	201	43	358	233	86	5	11	11	
261	201	86	358	233	129	5	11	11	
261	201	129	358	233	172	5	11	11	
261	201	172	358	233	215	5	11	11	
358	201	0	455	233	43	5	11	11	
358	201	43	455	233	86	5	11	11	
358	201	86	455	233	129	5	11	11	
358	201	129	455	233	172	5	11	11	
358	201	172	455	233	215	5	11	11	
274	93	80	314	167	133	9	12	12	
274	93	133	314	167	186	9	12	12	
274	94	186	294	167	215	0	13	13	
294	94	186	314	167	215	0	13	13	
321	0	0	398	66	97	13	14	14	
321	66	0	398	132	97	13	14	14	
321	132	0	398	198	97	13	14	14	
398	0	0	475	66	97	13	14	14	
398	66	0	475	132	97	13	14	14	
398	132	0	475	198	97	13	14	14	
321	0	97	430	53	121	3	15	15	
321	0	121	430	53	145	3	15	15	
321	0	145	430	53	169	3	15	15	
321	0	169	430	53	193	3	15	15	
321	53	97	430	106	121	3	15	15	
321	53	121	430	106	145	3	15	15	
321	53	145	430	106	169	3	15	15	
321	53	169	430	106	193	3	15	15	
321	106	97	430	159	121	3	15	15	
321	106	121	430	159	145	3	15	15	
321	106	145	430	159	169	3	15	15	
321	106	169	430	159	193	3	15	15	
321	165	97	419	198	117	1	16	16	
321	165	117	419	198	137	1	16	16	
321	165	137	419	198	157	1	16	16	
321	165	157	419	198	177	1	16	16	
321	165	177	419	198	197	1	16	16	
321	165	197	419	198	217	1	16	16	
321	0	193	430	42	215	2	17	17	
321	42	193	430	84	215	2	17	17	
321	84	193	430	126	215	2	17	17	
321	126	193	419	159	213	1	18	18	
419	167	97	462	198	155	4	19	19	
419	167	155	462	198	213	4	19	19	
430	0	97	472	82	166	10	20	20	
430	82	97	472	164	166	10	20	20	
430	0	166	470	74	219	9	21	21	
430	74	166	470	148	219	9	21	21	
455	199	0	541	233	56	6	22	22	
455	199	56	541	233	112	6	22	22	
455	199	112	541	233	168	6	22	22	
455	204	168	528	233	188	0	23	23	
455	204	188	528	233	208	0	23	23	
475	0	0	526	112	70	12	24	24	
475	0	70	526	112	140	12	24	24	
475	0	140	526	112	210	12	24	24	
526	0	0	577	112	70	12	24	24	
526	0	70	577	112	140	12	24	24	
526	0	140	577	112	210	12	24	24	
475	117	0	544	199	42	10	25	25	
475	117	42	544	199	84	10	25	25	
475	117	84	544	199	126	10	25	25	
475	117	126	544	199	168	10	25	25	
475	117	168	544	199	210	10	25	25	
541	202	0	584	233	58	4	26	26	
541	202	58	584	233	116	4	26	26	
541	202	116	584	233	174	4	26	26	
544	116	0	578	202	56	6	27	27	
544	116	56	578	202	112	6	27	27	
544	116	112	578	202	168	6	27	27	
544	129	168	573	202	188	0	28	28	
544	129	188	573	202	208	0	28	28	
587	0	0	685	33	20	1	29	0	
587	0	20	685	33	40	1	29	0	
587	0	40	685	33	60	1	29	0	
686	0	0	795	42	22	2	30	0	
686	0	22	795	42	44	2	30	0	
796	0	0	872	50	35	7	31	0	
796	0	35	872	50	70	7	31	0	
873	0	0	962	68	39	8	32	0	
963	0	0	1037	53	40	9	33	0	
1038	0	0	1137	80	48	11	34	0	
1138	0	0	1219	69	69	14	35	0	
1138	0	69	1219	69	138	14	35	0	
