8	8	587	233	220
28010054	21299417
0	0	0	100	67	54	6	1	1	
0	0	54	100	67	108	6	1	1	
0	0	108	100	67	162	6	1	1	
0	0	162	100	67	216	6	1	1	
100	0	0	200	67	54	6	1	1	
100	0	54	200	67	108	6	1	1	
100	0	108	200	67	162	6	1	1	
100	0	162	200	67	216	6	1	1	
200	0	0	300	67	54	6	1	1	
200	0	54	300	67	108	6	1	1	
200	0	108	300	67	162	6	1	1	
200	0	162	300	67	216	6	1	1	
300	0	0	400	67	54	6	1	1	
300	0	54	400	67	108	6	1	1	
300	0	108	400	67	162	6	1	1	
300	0	162	400	67	216	6	1	1	
0	121	0	57	233	56	7	2	2	
0	121	56	57	233	112	7	2	2	
0	121	112	57	233	168	7	2	2	
57	121	0	114	233	56	7	2	2	
57	121	56	114	233	112	7	2	2	
57	121	112	114	233	168	7	2	2	
114	121	0	171	233	56	7	2	2	
114	121	56	171	233	112	7	2	2	
114	121	112	171	233	168	7	2	2	
171	121	0	228	233	56	7	2	2	
171	121	56	228	233	112	7	2	2	
171	121	112	228	233	168	7	2	2	
228	121	0	285	233	56	7	2	2	
228	121	56	285	233	112	7	2	2	
228	121	112	285	233	168	7	2	2	
285	121	0	342	233	56	7	2	2	
285	121	56	342	233	112	7	2	2	
285	121	112	342	233	168	7	2	2	
0	133	168	29	233	216	1	3	3	
29	133	168	58	233	216	1	3	3	
58	133	168	87	233	216	1	3	3	
87	133	168	116	233	216	1	3	3	
116	133	168	145	233	216	1	3	3	
145	133	168	174	233	216	1	3	3	
174	133	168	203	233	216	1	3	3	
203	133	168	232	233	216	1	3	3	
232	133	168	261	233	216	1	3	3	
261	133	168	290	233	216	1	3	3	
290	133	168	319	233	216	1	3	3	
0	67	0	108	120	78	4	4	4	
0	67	78	108	120	156	4	4	4	
108	67	0	216	120	78	4	4	4	
108	67	78	216	120	156	4	4	4	
216	67	0	324	120	78	4	4	4	
216	67	78	324	120	156	4	4	4	
324	67	0	432	120	78	4	4	4	
324	67	78	432	120	156	4	4	4	
432	67	0	540	120	78	4	4	4	
432	67	78	540	120	156	4	4	4	
0	67	156	120	119	176	0	5	5	
0	67	176	120	119	196	0	5	5	
0	67	196	120	119	216	0	5	5	
120	67	156	240	119	176	0	6	6	
120	67	176	240	119	196	0	6	6	
120	67	196	240	119	216	0	6	6	
240	67	156	360	119	176	0	6	6	
240	67	176	360	119	196	0	6	6	
240	67	196	360	119	216	0	6	6	
360	67	156	480	119	176	0	6	6	
360	67	176	480	119	196	0	6	6	
360	67	196	480	119	216	0	6	6	
342	122	0	433	159	59	3	7	7	
342	122	59	433	159	118	3	7	7	
342	122	118	433	159	177	3	7	7	
342	159	0	433	196	59	3	7	7	
342	159	59	433	196	118	3	7	7	
342	159	118	433	196	177	3	7	7	
342	196	0	433	233	59	3	7	7	
342	196	59	433	233	118	3	7	7	
342	196	118	433	233	177	3	7	7	
342	174	177	433	233	214	3	8	8	
342	128	177	430	174	211	2	9	9	
400	0	0	454	67	100	6	10	10	
454	0	0	508	67	100	6	10	10	
400	0	100	454	59	178	5	11	11	
454	0	100	508	59	178	5	11	11	
400	0	178	491	59	215	3	12	12	
433	122	0	524	159	59	3	13	13	
433	159	0	524	196	59	3	13	13	
433	196	0	524	233	59	3	13	13	
433	125	59	511	233	112	4	14	14	
433	125	112	511	233	165	4	14	14	
433	125	165	511	233	218	4	14	14	
508	0	0	586	59	54	5	15	15	
508	0	54	586	59	108	5	15	15	
508	0	108	586	59	162	5	15	15	
508	0	162	586	59	216	5	15	15	
524	155	0	583	233	54	5	16	16	
524	155	54	583	233	108	5	16	16	
524	155	108	583	233	162	5	16	16	
524	155	162	583	233	216	5	16	16	
540	59	0	586	147	34	2	17	17	
540	59	34	586	147	68	2	17	17	
540	59	68	586	147	102	2	17	17	
540	59	102	586	147	136	2	17	17	
540	59	136	586	147	170	2	17	17	
540	59	170	586	147	204	2	17	17	
587	0	0	687	48	29	1	18	0	
587	0	29	687	48	58	1	18	0	
587	0	58	687	48	87	1	18	0	
688	0	0	776	46	34	2	19	0	
688	0	34	776	46	68	2	19	0	
688	0	68	776	46	102	2	19	0	
688	0	102	776	46	136	2	19	0	
777	0	0	855	59	54	5	20	0	
777	0	54	855	59	108	5	20	0	
777	0	108	855	59	162	5	20	0	
