15	15	587	233	220
27811917	21238811
0	0	0	74	90	66	14	1	1	
0	0	66	74	90	132	14	1	1	
0	0	132	74	90	198	14	1	1	
74	0	0	148	90	66	14	1	1	
74	0	66	148	90	132	14	1	1	
74	0	132	148	90	198	14	1	1	
148	0	0	222	90	66	14	1	1	
148	0	66	222	90	132	14	1	1	
148	0	132	222	90	198	14	1	1	
0	171	0	57	233	75	11	2	2	
0	171	75	57	233	150	11	2	2	
57	171	0	114	233	75	11	2	2	
57	171	75	114	233	150	11	2	2	
114	171	0	171	233	75	11	2	2	
114	171	75	171	233	150	11	2	2	
171	171	0	228	233	75	11	2	2	
171	171	75	228	233	150	11	2	2	
0	178	150	45	233	185	5	3	3	
0	178	185	45	233	220	5	3	3	
45	178	150	90	233	185	5	3	3	
45	178	185	90	233	220	5	3	3	
90	178	150	135	233	185	5	3	3	
90	178	185	135	233	220	5	3	3	
135	178	150	180	233	185	5	3	3	
135	178	185	180	233	220	5	3	3	
180	178	150	225	233	185	5	3	3	
180	178	185	225	233	220	5	3	3	
0	0	198	46	82	219	0	4	4	
46	0	198	92	82	219	0	4	4	
92	0	198	138	82	219	0	4	4	
138	0	198	184	82	219	0	4	4	
0	93	0	114	171	60	12	5	5	
0	93	60	114	171	120	12	5	5	
0	93	120	114	171	180	12	5	5	
114	93	0	228	171	60	12	5	5	
114	93	60	228	171	120	12	5	5	
114	93	120	228	171	180	12	5	5	
0	97	180	53	171	213	3	6	6	
53	97	180	106	171	213	3	6	6	
106	97	180	159	171	213	3	6	6	
159	97	180	212	171	213	3	6	6	
222	0	0	290	52	62	9	7	7	
222	0	62	290	52	124	9	7	7	
222	0	124	290	52	186	9	7	7	
290	0	0	358	52	62	9	7	7	
290	0	62	358	52	124	9	7	7	
290	0	124	358	52	186	9	7	7	
358	0	0	426	52	62	9	7	7	
358	0	62	426	52	124	9	7	7	
358	0	124	426	52	186	9	7	7	
222	0	186	290	48	217	2	8	8	
290	0	186	358	48	217	2	8	8	
358	0	186	426	48	217	2	8	8	
222	52	0	334	88	54	7	9	9	
222	52	54	334	88	108	7	9	9	
222	52	108	334	88	162	7	9	9	
222	52	162	334	88	216	7	9	9	
228	89	0	267	125	60	6	10	10	
228	89	60	267	125	120	6	10	10	
228	125	0	267	161	60	6	10	10	
228	125	60	267	161	120	6	10	10	
228	161	0	267	197	60	6	10	10	
228	161	60	267	197	120	6	10	10	
228	197	0	267	233	60	6	10	10	
228	197	60	267	233	120	6	10	10	
228	113	120	267	173	156	6	11	11	
228	173	120	267	233	156	6	11	11	
228	197	156	267	233	216	6	12	12	
228	138	156	263	197	187	1	13	13	
228	138	187	263	197	218	1	13	13	
267	129	0	347	233	63	13	14	14	
267	129	63	347	233	126	13	14	14	
347	129	0	427	233	63	13	14	14	
347	129	63	427	233	126	13	14	14	
427	129	0	507	233	63	13	14	14	
427	129	63	507	233	126	13	14	14	
507	129	0	587	233	63	13	14	14	
507	129	63	587	233	126	13	14	14	
267	129	126	301	233	173	4	15	15	
267	129	173	301	233	220	4	15	15	
301	129	126	335	233	173	4	15	15	
301	129	173	335	233	220	4	15	15	
335	129	126	369	233	173	4	15	15	
335	129	173	369	233	220	4	15	15	
369	129	126	403	233	173	4	15	15	
369	129	173	403	233	220	4	15	15	
403	129	126	437	233	173	4	15	15	
403	129	173	437	233	220	4	15	15	
437	129	126	471	233	173	4	15	15	
437	129	173	471	233	220	4	15	15	
426	0	0	497	64	54	10	16	16	
426	0	54	497	64	108	10	16	16	
426	0	108	497	64	162	10	16	16	
426	0	162	497	64	216	10	16	16	
426	64	0	497	128	54	10	16	16	
426	64	54	497	128	108	10	16	16	
426	64	108	497	128	162	10	16	16	
426	64	162	497	128	216	10	16	16	
267	88	0	379	124	54	7	17	17	
267	88	54	379	124	108	7	17	17	
267	88	108	379	124	162	7	17	17	
267	88	162	379	124	216	7	17	17	
334	52	0	393	87	31	1	18	18	
334	52	31	393	87	62	1	18	18	
334	52	62	393	87	93	1	18	18	
334	52	93	393	87	124	1	18	18	
334	52	124	393	87	155	1	18	18	
334	52	155	393	87	186	1	18	18	
334	52	186	393	87	217	1	18	18	
379	87	0	424	122	55	5	19	19	
379	87	55	424	122	110	5	19	19	
471	135	126	535	184	173	8	20	20	
471	135	173	535	184	220	8	20	20	
471	184	126	535	233	173	8	20	20	
471	184	173	535	233	220	8	20	20	
497	0	0	587	74	66	14	21	21	
497	0	66	587	74	132	14	21	21	
497	0	132	550	74	165	3	22	22	
497	0	165	550	74	198	3	22	22	
497	74	0	571	127	33	3	23	23	
497	74	33	571	127	66	3	23	23	
497	74	66	571	127	99	3	23	23	
497	74	99	571	127	132	3	23	23	
535	169	126	584	233	173	8	24	24	
535	169	173	584	233	220	8	24	24	
497	74	132	565	126	194	9	25	25	
379	87	110	410	122	169	1	26	26	
393	52	0	424	87	59	1	27	27	
550	0	132	581	68	180	2	28	28	
587	0	0	669	46	21	0	29	0	
587	0	21	669	46	42	0	29	0	
587	0	42	669	46	63	0	29	0	
587	0	63	669	46	84	0	29	0	
587	0	84	669	46	105	0	29	0	
587	0	105	669	46	126	0	29	0	
587	0	126	669	46	147	0	29	0	
587	0	147	669	46	168	0	29	0	
670	0	0	738	48	31	2	30	0	
670	0	31	738	48	62	2	30	0	
670	0	62	738	48	93	2	30	0	
739	0	0	853	78	60	12	31	0	
854	0	0	958	80	63	13	32	0	
