15	15	587	233	220
27601927	22531388
0	0	0	47	95	77	12	1	1	
0	95	0	47	190	77	12	1	1	
47	0	0	94	95	77	12	1	1	
47	95	0	94	190	77	12	1	1	
94	0	0	141	95	77	12	1	1	
94	95	0	141	190	77	12	1	1	
141	0	0	188	95	77	12	1	1	
141	95	0	188	190	77	12	1	1	
188	0	0	235	95	77	12	1	1	
188	95	0	235	190	77	12	1	1	
235	0	0	282	95	77	12	1	1	
235	95	0	282	190	77	12	1	1	
282	0	0	329	95	77	12	1	1	
282	95	0	329	190	77	12	1	1	
0	0	77	75	55	175	13	2	2	
0	55	77	75	110	175	13	2	2	
0	110	77	75	165	175	13	2	2	
75	0	77	150	55	175	13	2	2	
75	55	77	150	110	175	13	2	2	
75	110	77	150	165	175	13	2	2	
150	0	77	225	55	175	13	2	2	
150	55	77	225	110	175	13	2	2	
150	110	77	225	165	175	13	2	2	
0	191	0	107	233	61	10	3	3	
0	191	61	107	233	122	10	3	3	
0	191	122	107	233	183	10	3	3	
107	191	0	214	233	61	10	3	3	
107	191	61	214	233	122	10	3	3	
107	191	122	214	233	183	10	3	3	
214	191	0	321	233	61	10	3	3	
214	191	61	321	233	122	10	3	3	
214	191	122	321	233	183	10	3	3	
0	165	77	119	190	111	3	4	4	
0	165	111	119	190	145	3	4	4	
0	165	145	119	190	179	3	4	4	
0	165	179	119	190	213	3	4	4	
119	165	77	238	190	111	3	4	4	
119	165	111	238	190	145	3	4	4	
119	165	145	238	190	179	3	4	4	
119	165	179	238	190	213	3	4	4	
0	0	175	97	66	220	11	5	5	
0	66	175	97	132	220	11	5	5	
97	0	175	194	66	220	11	5	5	
97	66	175	194	132	220	11	5	5	
0	193	183	69	213	215	0	6	6	
0	213	183	69	233	215	0	6	6	
69	193	183	138	213	215	0	6	6	
69	213	183	138	233	215	0	6	6	
138	193	183	207	213	215	0	6	6	
138	213	183	207	233	215	0	6	6	
207	193	183	276	213	215	0	6	6	
207	213	183	276	233	215	0	6	6	
225	0	77	288	78	115	7	7	7	
225	0	115	288	78	153	7	7	7	
225	0	153	288	78	191	7	7	7	
225	78	77	288	156	115	7	7	7	
225	78	115	288	156	153	7	7	7	
225	78	153	288	156	191	7	7	7	
0	135	175	34	165	215	5	8	8	
34	135	175	68	165	215	5	8	8	
68	135	175	102	165	215	5	8	8	
102	135	175	136	165	215	5	8	8	
136	135	175	170	165	215	5	8	8	
170	135	175	204	165	215	5	8	8	
225	0	191	260	66	217	4	9	9	
225	66	191	260	132	217	4	9	9	
194	0	175	220	66	210	4	10	10	
194	66	175	220	132	210	4	10	10	
238	158	77	278	190	137	6	11	11	
238	158	137	278	190	197	6	11	11	
278	158	77	318	190	137	6	11	11	
278	158	137	318	190	197	6	11	11	
276	193	183	310	233	213	5	12	12	
288	0	77	326	78	140	7	13	13	
288	0	140	326	78	203	7	13	13	
288	78	77	326	156	140	7	13	13	
288	78	140	326	156	203	7	13	13	
321	193	0	402	233	56	9	14	14	
321	193	56	402	233	112	9	14	14	
321	193	112	402	233	168	9	14	14	
402	193	0	483	233	56	9	14	14	
402	193	56	483	233	112	9	14	14	
402	193	112	483	233	168	9	14	14	
483	193	0	564	233	56	9	14	14	
483	193	56	564	233	112	9	14	14	
483	193	112	564	233	168	9	14	14	
321	201	168	381	233	208	6	15	15	
381	201	168	441	233	208	6	15	15	
441	201	168	501	233	208	6	15	15	
329	0	0	413	69	103	14	16	16	
329	0	103	413	69	206	14	16	16	
413	0	0	497	69	103	14	16	16	
413	0	103	497	69	206	14	16	16	
497	0	0	581	69	103	14	16	16	
497	0	103	581	69	206	14	16	16	
329	109	0	398	193	103	14	17	17	
329	109	103	398	193	206	14	17	17	
398	109	0	467	193	103	14	17	17	
398	109	103	467	193	206	14	17	17	
329	69	0	389	108	59	8	18	18	
329	69	59	389	108	118	8	18	18	
329	69	118	389	108	177	8	18	18	
389	69	0	449	108	59	8	18	18	
389	69	59	449	108	118	8	18	18	
389	69	118	449	108	177	8	18	18	
449	69	0	509	108	59	8	18	18	
449	69	59	509	108	118	8	18	18	
449	69	118	509	108	177	8	18	18	
329	69	177	398	101	197	0	19	19	
329	69	197	398	101	217	0	19	19	
398	69	177	467	101	197	0	19	19	
398	69	197	467	101	217	0	19	19	
467	112	0	523	193	40	9	20	20	
467	112	40	523	193	80	9	20	20	
467	112	80	523	193	120	9	20	20	
467	112	120	523	193	160	9	20	20	
523	112	0	579	193	40	9	20	20	
523	112	40	579	193	80	9	20	20	
523	112	80	579	193	120	9	20	20	
523	112	120	579	193	160	9	20	20	
467	116	160	562	193	207	12	21	21	
509	69	0	587	107	63	7	22	22	
509	69	63	587	107	126	7	22	22	
509	69	126	587	107	189	7	22	22	
509	69	189	575	104	215	4	23	23	
587	0	0	675	42	20	1	24	0	
587	0	20	675	42	40	1	24	0	
587	0	40	675	42	60	1	24	0	
587	0	60	675	42	80	1	24	0	
587	0	80	675	42	100	1	24	0	
587	0	100	675	42	120	1	24	0	
587	0	120	675	42	140	1	24	0	
587	0	140	675	42	160	1	24	0	
587	0	160	675	42	180	1	24	0	
587	0	180	675	42	200	1	24	0	
676	0	0	784	85	20	2	25	0	
676	0	20	784	85	40	2	25	0	
676	0	40	784	85	60	2	25	0	
676	0	60	784	85	80	2	25	0	
676	0	80	784	85	100	2	25	0	
785	0	0	904	34	25	3	26	0	
785	0	25	904	34	50	3	26	0	
905	0	0	971	35	26	4	27	0	
972	0	0	1079	61	42	10	28	0	
