5	5	587	233	220
28868554	22546388
0	0	0	79	66	34	3	1	1	
0	0	34	79	66	68	3	1	1	
0	0	68	79	66	102	3	1	1	
0	0	102	79	66	136	3	1	1	
0	0	136	79	66	170	3	1	1	
79	0	0	158	66	34	3	1	1	
79	0	34	158	66	68	3	1	1	
79	0	68	158	66	102	3	1	1	
79	0	102	158	66	136	3	1	1	
79	0	136	158	66	170	3	1	1	
158	0	0	237	66	34	3	1	1	
158	0	34	237	66	68	3	1	1	
158	0	68	237	66	102	3	1	1	
158	0	102	237	66	136	3	1	1	
158	0	136	237	66	170	3	1	1	
237	0	0	316	66	34	3	1	1	
237	0	34	316	66	68	3	1	1	
237	0	68	316	66	102	3	1	1	
237	0	102	316	66	136	3	1	1	
237	0	136	316	66	170	3	1	1	
316	0	0	395	66	34	3	1	1	
316	0	34	395	66	68	3	1	1	
316	0	68	395	66	102	3	1	1	
316	0	102	395	66	136	3	1	1	
316	0	136	395	66	170	3	1	1	
395	0	0	474	66	34	3	1	1	
395	0	34	474	66	68	3	1	1	
395	0	68	474	66	102	3	1	1	
395	0	102	474	66	136	3	1	1	
395	0	136	474	66	170	3	1	1	
474	0	0	553	66	34	3	1	1	
474	0	34	553	66	68	3	1	1	
474	0	68	553	66	102	3	1	1	
474	0	102	553	66	136	3	1	1	
474	0	136	553	66	170	3	1	1	
0	0	170	46	64	218	4	2	2	
46	0	170	92	64	218	4	2	2	
92	0	170	138	64	218	4	2	2	
138	0	170	184	64	218	4	2	2	
184	0	170	230	64	218	4	2	2	
230	0	170	276	64	218	4	2	2	
276	0	170	322	64	218	4	2	2	
322	0	170	368	64	218	4	2	2	
368	0	170	414	64	218	4	2	2	
414	0	170	460	64	218	4	2	2	
460	0	170	506	64	218	4	2	2	
506	0	170	552	64	218	4	2	2	
0	187	0	48	233	64	4	3	3	
0	187	64	48	233	128	4	3	3	
0	187	128	48	233	192	4	3	3	
48	187	0	96	233	64	4	3	3	
48	187	64	96	233	128	4	3	3	
48	187	128	96	233	192	4	3	3	
96	187	0	144	233	64	4	3	3	
96	187	64	144	233	128	4	3	3	
96	187	128	144	233	192	4	3	3	
144	187	0	192	233	64	4	3	3	
144	187	64	192	233	128	4	3	3	
144	187	128	192	233	192	4	3	3	
192	187	0	240	233	64	4	3	3	
192	187	64	240	233	128	4	3	3	
192	187	128	240	233	192	4	3	3	
240	187	0	288	233	64	4	3	3	
240	187	64	288	233	128	4	3	3	
240	187	128	288	233	192	4	3	3	
288	187	0	336	233	64	4	3	3	
288	187	64	336	233	128	4	3	3	
288	187	128	336	233	192	4	3	3	
336	187	0	384	233	64	4	3	3	
336	187	64	384	233	128	4	3	3	
336	187	128	384	233	192	4	3	3	
384	187	0	432	233	64	4	3	3	
384	187	64	432	233	128	4	3	3	
384	187	128	432	233	192	4	3	3	
432	187	0	480	233	64	4	3	3	
432	187	64	480	233	128	4	3	3	
432	187	128	480	233	192	4	3	3	
480	187	0	528	233	64	4	3	3	
480	187	64	528	233	128	4	3	3	
480	187	128	528	233	192	4	3	3	
528	187	0	576	233	64	4	3	3	
528	187	64	576	233	128	4	3	3	
528	187	128	576	233	192	4	3	3	
0	189	192	79	211	217	0	4	4	
0	211	192	79	233	217	0	4	4	
79	189	192	158	211	217	0	4	4	
79	211	192	158	233	217	0	4	4	
158	189	192	237	211	217	0	4	4	
158	211	192	237	233	217	0	4	4	
237	189	192	316	211	217	0	4	4	
237	211	192	316	233	217	0	4	4	
316	189	192	395	211	217	0	4	4	
316	211	192	395	233	217	0	4	4	
395	189	192	474	211	217	0	4	4	
395	211	192	474	233	217	0	4	4	
474	189	192	553	211	217	0	4	4	
474	211	192	553	233	217	0	4	4	
0	98	0	85	187	33	2	5	5	
0	98	33	85	187	66	2	5	5	
0	98	66	85	187	99	2	5	5	
0	98	99	85	187	132	2	5	5	
0	98	132	85	187	165	2	5	5	
0	98	165	85	187	198	2	5	5	
85	98	0	170	187	33	2	5	5	
85	98	33	170	187	66	2	5	5	
85	98	66	170	187	99	2	5	5	
85	98	99	170	187	132	2	5	5	
85	98	132	170	187	165	2	5	5	
85	98	165	170	187	198	2	5	5	
170	98	0	255	187	33	2	5	5	
170	98	33	255	187	66	2	5	5	
170	98	66	255	187	99	2	5	5	
170	98	99	255	187	132	2	5	5	
170	98	132	255	187	165	2	5	5	
170	98	165	255	187	198	2	5	5	
255	98	0	340	187	33	2	5	5	
255	98	33	340	187	66	2	5	5	
255	98	66	340	187	99	2	5	5	
255	98	99	340	187	132	2	5	5	
255	98	132	340	187	165	2	5	5	
255	98	165	340	187	198	2	5	5	
340	98	0	425	187	33	2	5	5	
340	98	33	425	187	66	2	5	5	
340	98	66	425	187	99	2	5	5	
340	98	99	425	187	132	2	5	5	
340	98	132	425	187	165	2	5	5	
340	98	165	425	187	198	2	5	5	
425	98	0	510	187	33	2	5	5	
425	98	33	510	187	66	2	5	5	
425	98	66	510	187	99	2	5	5	
425	98	99	510	187	132	2	5	5	
425	98	132	510	187	165	2	5	5	
425	98	165	510	187	198	2	5	5	
0	108	198	25	187	220	0	6	6	
25	108	198	50	187	220	0	6	6	
50	108	198	75	187	220	0	6	6	
75	108	198	100	187	220	0	6	6	
100	108	198	125	187	220	0	6	6	
125	108	198	150	187	220	0	6	6	
150	108	198	175	187	220	0	6	6	
175	108	198	200	187	220	0	6	6	
200	108	198	225	187	220	0	6	6	
225	108	198	250	187	220	0	6	6	
250	108	198	275	187	220	0	6	6	
275	108	198	300	187	220	0	6	6	
300	108	198	325	187	220	0	6	6	
325	108	198	350	187	220	0	6	6	
350	108	198	375	187	220	0	6	6	
375	108	198	400	187	220	0	6	6	
400	108	198	425	187	220	0	6	6	
425	108	198	450	187	220	0	6	6	
450	108	198	475	187	220	0	6	6	
475	108	198	500	187	220	0	6	6	
0	66	0	79	97	54	1	7	7	
0	66	54	79	97	108	1	7	7	
0	66	108	79	97	162	1	7	7	
0	66	162	79	97	216	1	7	7	
79	66	0	158	97	54	1	7	7	
79	66	54	158	97	108	1	7	7	
79	66	108	158	97	162	1	7	7	
79	66	162	158	97	216	1	7	7	
158	66	0	237	97	54	1	7	7	
158	66	54	237	97	108	1	7	7	
158	66	108	237	97	162	1	7	7	
158	66	162	237	97	216	1	7	7	
237	66	0	316	97	54	1	7	7	
237	66	54	316	97	108	1	7	7	
237	66	108	316	97	162	1	7	7	
237	66	162	316	97	216	1	7	7	
316	66	0	395	97	54	1	7	7	
316	66	54	395	97	108	1	7	7	
316	66	108	395	97	162	1	7	7	
316	66	162	395	97	216	1	7	7	
395	66	0	474	97	54	1	7	7	
395	66	54	474	97	108	1	7	7	
395	66	108	474	97	162	1	7	7	
395	66	162	474	97	216	1	7	7	
474	66	0	553	97	54	1	7	7	
474	66	54	553	97	108	1	7	7	
474	66	108	553	97	162	1	7	7	
474	66	162	553	97	216	1	7	7	
510	108	0	564	187	31	1	8	8	
510	108	31	564	187	62	1	8	8	
510	108	62	564	187	93	1	8	8	
510	108	93	564	187	124	1	8	8	
510	108	124	564	187	155	1	8	8	
510	108	155	564	187	186	1	8	8	
510	108	186	564	187	217	1	8	8	
553	0	0	584	79	54	1	9	9	
553	0	54	584	79	108	1	9	9	
553	0	108	584	79	162	1	9	9	
553	0	162	575	79	187	0	10	10	
553	0	187	575	79	212	0	10	10	
564	108	0	586	187	25	0	11	11	
564	108	25	586	187	50	0	11	11	
564	108	50	586	187	75	0	11	11	
564	108	75	586	187	100	0	11	11	
564	108	100	586	187	125	0	11	11	
564	108	125	586	187	150	0	11	11	
564	108	150	586	187	175	0	11	11	
587	0	0	676	85	33	2	12	0	
587	0	33	676	85	66	2	12	0	
587	0	66	676	85	99	2	12	0	
677	0	0	741	48	46	4	13	0	
677	0	46	741	48	92	4	13	0	
