12	12	587	233	220
27922476	23328846
0	0	0	82	56	108	11	1	1	
0	56	0	82	112	108	11	1	1	
0	112	0	82	168	108	11	1	1	
0	168	0	82	224	108	11	1	1	
82	0	0	164	56	108	11	1	1	
82	56	0	164	112	108	11	1	1	
82	112	0	164	168	108	11	1	1	
82	168	0	164	224	108	11	1	1	
164	0	0	246	56	108	11	1	1	
164	56	0	246	112	108	11	1	1	
164	112	0	246	168	108	11	1	1	
164	168	0	246	224	108	11	1	1	
246	0	0	328	56	108	11	1	1	
246	56	0	328	112	108	11	1	1	
246	112	0	328	168	108	11	1	1	
246	168	0	328	224	108	11	1	1	
0	0	108	96	44	164	7	2	2	
0	0	164	96	44	220	7	2	2	
0	44	108	96	88	164	7	2	2	
0	44	164	96	88	220	7	2	2	
0	88	108	96	132	164	7	2	2	
0	88	164	96	132	220	7	2	2	
0	132	108	96	176	164	7	2	2	
0	132	164	96	176	220	7	2	2	
0	176	108	96	220	164	7	2	2	
0	176	164	96	220	220	7	2	2	
96	0	108	213	64	150	5	3	3	
96	0	150	213	64	192	5	3	3	
96	64	108	213	128	150	5	3	3	
96	64	150	213	128	192	5	3	3	
96	128	108	213	192	150	5	3	3	
96	128	150	213	192	192	5	3	3	
96	0	192	171	36	220	1	4	4	
96	36	192	171	72	220	1	4	4	
96	72	192	171	108	220	1	4	4	
96	108	192	171	144	220	1	4	4	
96	144	192	171	180	220	1	4	4	
171	0	192	212	45	216	0	5	5	
171	45	192	212	90	216	0	5	5	
171	90	192	212	135	216	0	5	5	
171	135	192	212	180	216	0	5	5	
96	196	108	171	224	144	1	6	6	
96	196	144	171	224	180	1	6	6	
96	196	180	171	224	216	1	6	6	
171	196	108	246	224	144	1	6	6	
171	196	144	246	224	180	1	6	6	
171	196	180	246	224	216	1	6	6	
213	0	108	316	48	146	4	7	7	
213	0	146	316	48	184	4	7	7	
213	48	108	316	96	146	4	7	7	
213	48	146	316	96	184	4	7	7	
213	96	108	316	144	146	4	7	7	
213	96	146	316	144	184	4	7	7	
213	144	108	316	192	146	4	7	7	
213	144	146	316	192	184	4	7	7	
213	0	184	311	44	220	3	8	8	
213	44	184	311	88	220	3	8	8	
213	88	184	311	132	220	3	8	8	
213	132	184	311	176	220	3	8	8	
246	200	108	287	224	153	0	9	9	
246	200	153	287	224	198	0	9	9	
287	200	108	328	224	153	0	9	9	
287	200	153	328	224	198	0	9	9	
328	0	0	371	45	46	6	10	10	
328	0	46	371	45	92	6	10	10	
371	0	0	414	45	46	6	10	10	
371	0	46	414	45	92	6	10	10	
414	0	0	457	45	46	6	10	10	
414	0	46	457	45	92	6	10	10	
457	0	0	500	45	46	6	10	10	
457	0	46	500	45	92	6	10	10	
500	0	0	543	45	46	6	10	10	
500	0	46	543	45	92	6	10	10	
543	0	0	586	45	46	6	10	10	
543	0	46	586	45	92	6	10	10	
328	0	92	445	42	156	5	11	11	
328	0	156	445	42	220	5	11	11	
445	0	92	562	42	156	5	11	11	
445	0	156	562	42	220	5	11	11	
562	0	92	586	45	133	0	12	12	
562	0	133	586	45	174	0	12	12	
562	0	174	586	45	215	0	12	12	
328	45	0	377	92	78	9	13	13	
328	45	78	377	92	156	9	13	13	
328	92	0	377	139	78	9	13	13	
328	92	78	377	139	156	9	13	13	
328	139	0	377	186	78	9	13	13	
328	139	78	377	186	156	9	13	13	
328	186	0	377	233	78	9	13	13	
328	186	78	377	233	156	9	13	13	
328	116	156	370	233	220	5	14	14	
328	45	156	352	86	201	0	15	15	
352	45	156	376	86	201	0	15	15	
328	86	156	373	110	197	0	16	16	
377	45	0	485	92	76	10	17	17	
377	92	0	485	139	76	10	17	17	
377	139	0	485	186	76	10	17	17	
377	186	0	485	233	76	10	17	17	
377	157	76	485	233	123	10	18	18	
377	157	123	485	233	170	10	18	18	
377	157	170	485	233	217	10	18	18	
377	45	76	480	83	124	4	19	19	
377	45	124	480	83	172	4	19	19	
377	45	172	480	83	220	4	19	19	
377	83	76	439	157	122	8	20	20	
377	83	122	439	157	168	8	20	20	
377	83	168	439	157	214	8	20	20	
439	83	76	485	157	138	8	21	21	
439	83	138	485	157	200	8	21	21	
485	197	0	583	233	44	3	22	22	
485	197	44	583	233	88	3	22	22	
485	197	88	583	233	132	3	22	22	
485	197	132	583	233	176	3	22	22	
485	197	176	583	233	220	3	22	22	
485	108	0	585	197	31	2	23	23	
485	108	31	585	197	62	2	23	23	
485	108	62	585	197	93	2	23	23	
485	108	93	585	197	124	2	23	23	
485	108	124	585	197	155	2	23	23	
485	108	155	585	197	186	2	23	23	
485	108	186	585	197	217	2	23	23	
485	45	0	531	107	74	8	24	24	
485	45	74	531	107	148	8	24	24	
531	45	0	577	107	74	8	24	24	
531	45	74	577	107	148	8	24	24	
485	45	148	559	107	194	8	25	25	
587	0	0	662	36	28	1	26	0	
663	0	0	763	89	31	2	27	0	
663	0	31	763	89	62	2	27	0	
663	0	62	763	89	93	2	27	0	
663	0	93	763	89	124	2	27	0	
764	0	0	862	44	36	3	28	0	
863	0	0	980	64	42	5	29	0	
863	0	42	980	64	84	5	29	0	
