15	15	587	233	220
27311486	21982339
0	0	0	81	113	51	13	1	1	
0	0	51	81	113	102	13	1	1	
0	0	102	81	113	153	13	1	1	
0	113	0	81	226	51	13	1	1	
0	113	51	81	226	102	13	1	1	
0	113	102	81	226	153	13	1	1	
0	0	153	57	56	175	1	2	2	
0	0	175	57	56	197	1	2	2	
0	0	197	57	56	219	1	2	2	
0	56	153	57	112	175	1	2	2	
0	56	175	57	112	197	1	2	2	
0	56	197	57	112	219	1	2	2	
0	112	153	57	168	175	1	2	2	
0	112	175	57	168	197	1	2	2	
0	112	197	57	168	219	1	2	2	
0	168	153	57	224	175	1	2	2	
0	168	175	57	224	197	1	2	2	
0	168	197	57	224	219	1	2	2	
81	0	0	182	66	61	14	3	3	
81	0	61	182	66	122	14	3	3	
81	0	122	182	66	183	14	3	3	
81	66	0	182	132	61	14	3	3	
81	66	61	182	132	122	14	3	3	
81	66	122	182	132	183	14	3	3	
81	132	0	182	198	61	14	3	3	
81	132	61	182	198	122	14	3	3	
81	132	122	182	198	183	14	3	3	
81	0	183	167	25	217	3	4	4	
81	25	183	167	50	217	3	4	4	
81	50	183	167	75	217	3	4	4	
81	75	183	167	100	217	3	4	4	
81	100	183	167	125	217	3	4	4	
81	125	183	167	150	217	3	4	4	
81	150	183	167	175	217	3	4	4	
81	199	0	176	233	65	8	5	5	
81	199	65	176	233	130	8	5	5	
81	199	130	176	233	195	8	5	5	
176	199	0	271	233	65	8	5	5	
176	199	65	271	233	130	8	5	5	
176	199	130	271	233	195	8	5	5	
271	199	0	366	233	65	8	5	5	
271	199	65	366	233	130	8	5	5	
271	199	130	366	233	195	8	5	5	
366	199	0	461	233	65	8	5	5	
366	199	65	461	233	130	8	5	5	
366	199	130	461	233	195	8	5	5	
81	199	195	167	233	220	3	6	6	
167	199	195	253	233	220	3	7	7	
182	0	0	276	98	45	11	8	8	
182	0	45	276	98	90	11	8	8	
182	0	90	276	98	135	11	8	8	
182	0	135	276	98	180	11	8	8	
182	98	0	276	196	45	11	8	8	
182	98	45	276	196	90	11	8	8	
182	98	90	276	196	135	11	8	8	
182	98	135	276	196	180	11	8	8	
253	199	195	339	233	220	3	9	9	
182	0	180	276	58	206	4	10	10	
182	58	180	276	116	206	4	10	10	
182	116	180	276	174	206	4	10	10	
276	0	0	344	99	23	2	11	11	
276	0	23	344	99	46	2	11	11	
276	0	46	344	99	69	2	11	11	
276	0	69	344	99	92	2	11	11	
276	0	92	344	99	115	2	11	11	
276	0	115	344	99	138	2	11	11	
276	0	138	344	99	161	2	11	11	
276	0	161	344	99	184	2	11	11	
276	99	0	344	198	23	2	11	11	
276	99	23	344	198	46	2	11	11	
276	99	46	344	198	69	2	11	11	
276	99	69	344	198	92	2	11	11	
276	99	92	344	198	115	2	11	11	
276	99	115	344	198	138	2	11	11	
276	99	138	344	198	161	2	11	11	
276	99	161	344	198	184	2	11	11	
276	0	184	344	99	207	2	12	12	
339	199	195	425	233	220	3	13	13	
276	103	184	341	198	218	8	14	14	
344	0	0	425	47	54	12	15	15	
344	47	0	425	94	54	12	15	15	
344	94	0	425	141	54	12	15	15	
344	141	0	425	188	54	12	15	15	
425	0	0	506	47	54	12	15	15	
425	47	0	506	94	54	12	15	15	
425	94	0	506	141	54	12	15	15	
425	141	0	506	188	54	12	15	15	
506	0	0	587	47	54	12	15	15	
506	47	0	587	94	54	12	15	15	
506	94	0	587	141	54	12	15	15	
506	141	0	587	188	54	12	15	15	
344	0	54	402	94	80	4	16	16	
344	94	54	402	188	80	4	16	16	
402	0	54	460	94	80	4	16	16	
402	94	54	460	188	80	4	16	16	
460	0	54	518	94	80	4	16	16	
460	94	54	518	188	80	4	16	16	
344	0	80	373	105	137	7	17	17	
344	0	137	373	105	194	7	17	17	
373	0	80	402	105	137	7	17	17	
373	0	137	402	105	194	7	17	17	
402	0	80	431	105	137	7	17	17	
402	0	137	431	105	194	7	17	17	
431	0	80	460	105	137	7	17	17	
431	0	137	460	105	194	7	17	17	
460	0	80	489	105	137	7	17	17	
460	0	137	489	105	194	7	17	17	
489	0	80	518	105	137	7	17	17	
489	0	137	518	105	194	7	17	17	
344	125	80	464	188	108	6	18	18	
344	125	108	464	188	136	6	18	18	
344	125	136	464	188	164	6	18	18	
344	125	164	464	188	192	6	18	18	
344	125	192	464	188	220	6	18	18	
344	0	194	400	57	216	1	19	19	
400	0	194	456	57	216	1	19	19	
461	191	0	523	233	64	10	20	20	
461	191	64	523	233	128	10	20	20	
461	191	128	523	233	192	10	20	20	
523	191	0	585	233	64	10	20	20	
523	191	64	585	233	128	10	20	20	
523	191	128	585	233	192	10	20	20	
464	107	80	518	134	126	5	21	21	
464	107	126	518	134	172	5	21	21	
464	107	172	518	134	218	5	21	21	
464	134	80	518	161	126	5	21	21	
464	134	126	518	161	172	5	21	21	
464	134	172	518	161	218	5	21	21	
464	161	80	518	188	126	5	21	21	
464	161	126	518	188	172	5	21	21	
464	161	172	518	188	218	5	21	21	
518	0	54	586	52	94	9	22	22	
518	0	94	586	52	134	9	22	22	
518	0	134	586	52	174	9	22	22	
518	0	174	586	52	214	9	22	22	
518	52	54	586	104	94	9	22	22	
518	52	94	586	104	134	9	22	22	
518	52	134	586	104	174	9	22	22	
518	52	174	586	104	214	9	22	22	
518	104	54	586	156	94	9	22	22	
518	104	94	586	156	134	9	22	22	
518	104	134	586	156	174	9	22	22	
518	104	174	586	156	214	9	22	22	
518	161	54	572	188	100	5	23	23	
518	161	100	572	188	146	5	23	23	
518	161	146	572	188	192	5	23	23	
587	0	0	665	65	21	0	24	0	
587	0	21	665	65	42	0	24	0	
587	0	42	665	65	63	0	24	0	
587	0	63	665	65	84	0	24	0	
587	0	84	665	65	105	0	24	0	
587	0	105	665	65	126	0	24	0	
587	0	126	665	65	147	0	24	0	
587	0	147	665	65	168	0	24	0	
587	0	168	665	65	189	0	24	0	
587	0	189	665	65	210	0	24	0	
666	0	0	720	46	27	5	25	0	
666	0	27	720	46	54	5	25	0	
721	0	0	841	63	28	6	26	0	
721	0	28	841	63	56	6	26	0	
721	0	56	841	63	84	6	26	0	
842	0	0	947	57	29	7	27	0	
948	0	0	1012	62	42	10	28	0	
948	0	42	1012	62	84	10	28	0	
