12	12	587	233	220
27056264	18297988
0	0	0	70	69	104	10	1	1	
0	0	104	70	69	208	10	1	1	
0	69	0	70	138	104	10	1	1	
0	69	104	70	138	208	10	1	1	
0	138	0	70	207	104	10	1	1	
0	138	104	70	207	208	10	1	1	
70	0	0	158	61	71	9	2	2	
70	0	71	158	61	142	9	2	2	
158	0	0	246	61	71	9	2	2	
158	0	71	246	61	142	9	2	2	
246	0	0	334	61	71	9	2	2	
246	0	71	334	61	142	9	2	2	
334	0	0	422	61	71	9	2	2	
334	0	71	422	61	142	9	2	2	
422	0	0	510	61	71	9	2	2	
422	0	71	510	61	142	9	2	2	
70	0	142	139	61	214	8	3	3	
139	0	142	208	61	214	8	3	3	
208	0	142	277	61	214	8	3	3	
277	0	142	346	61	214	8	3	3	
346	0	142	415	61	214	8	3	3	
415	0	142	484	61	214	8	3	3	
70	71	0	189	125	55	6	4	4	
70	71	55	189	125	110	6	4	4	
70	71	110	189	125	165	6	4	4	
70	125	0	189	179	55	6	4	4	
70	125	55	189	179	110	6	4	4	
70	125	110	189	179	165	6	4	4	
70	179	0	189	233	55	6	4	4	
70	179	55	189	233	110	6	4	4	
70	179	110	189	233	165	6	4	4	
70	97	165	113	165	216	4	5	5	
70	165	165	113	233	216	4	5	5	
113	97	165	156	165	216	4	5	5	
113	165	165	156	233	216	4	5	5	
156	95	165	187	141	218	1	6	6	
156	141	165	187	187	218	1	6	6	
156	187	165	187	233	218	1	6	6	
189	140	0	309	233	46	5	7	7	
189	140	46	309	233	92	5	7	7	
189	140	92	309	233	138	5	7	7	
189	140	138	309	233	184	5	7	7	
189	141	184	242	187	215	1	8	8	
189	187	184	242	233	215	1	8	8	
242	141	184	295	187	215	1	8	8	
242	187	184	295	233	215	1	8	8	
189	61	0	275	140	69	11	9	9	
189	61	69	275	140	138	11	9	9	
189	61	138	275	140	207	11	9	9	
275	61	0	361	140	69	11	9	9	
275	61	69	361	140	138	11	9	9	
275	61	138	361	140	207	11	9	9	
309	140	0	429	233	46	5	10	10	
309	140	46	429	233	92	5	11	11	
309	145	92	380	233	153	9	12	12	
309	158	153	363	233	220	7	13	13	
380	165	92	423	233	143	4	14	14	
380	165	143	423	233	194	4	14	14	
361	61	0	430	140	86	11	15	15	
361	61	86	415	136	153	7	16	16	
361	61	153	415	136	220	7	16	16	
429	159	0	506	233	37	3	17	17	
429	159	37	506	233	74	3	17	17	
429	159	74	506	233	111	3	17	17	
429	159	111	506	233	148	3	17	17	
506	159	0	583	233	37	3	17	17	
506	159	37	583	233	74	3	17	17	
506	159	74	583	233	111	3	17	17	
506	159	111	583	233	148	3	17	17	
429	160	148	525	233	172	0	18	18	
429	160	172	525	233	196	0	18	18	
429	160	196	525	233	220	0	18	18	
430	61	0	481	157	37	2	19	19	
481	61	0	532	157	37	2	19	19	
532	61	0	583	157	37	2	19	19	
430	61	37	481	157	74	2	20	20	
430	61	74	481	157	111	2	20	20	
481	61	37	532	157	74	2	20	20	
481	61	74	532	157	111	2	20	20	
532	61	37	583	157	74	2	20	20	
532	61	74	583	157	111	2	20	20	
430	61	111	503	157	135	0	21	21	
503	61	111	576	157	135	0	21	21	
430	61	135	503	157	159	0	22	22	
503	61	135	576	157	159	0	22	22	
430	61	159	503	157	183	0	23	23	
503	61	159	576	157	183	0	23	23	
430	61	183	481	157	220	2	24	24	
481	61	183	532	157	220	2	25	25	
510	0	0	579	61	72	8	26	26	
510	0	72	579	61	144	8	26	26	
510	0	144	579	61	216	8	26	26	
525	190	148	576	233	216	4	27	27	
587	0	0	662	67	54	7	28	0	
587	0	54	662	67	108	7	28	0	
663	0	0	735	69	61	8	29	0	
663	0	61	735	69	122	8	29	0	
736	0	0	840	70	69	10	30	0	
736	0	69	840	70	138	10	30	0	
736	0	138	840	70	207	10	30	0	
