20	20	587	233	220
26996680	16439368
0	0	0	60	80	82	17	1	1	
0	80	0	60	160	82	17	1	1	
60	0	0	120	80	82	17	1	1	
60	80	0	120	160	82	17	1	1	
120	0	0	180	80	82	17	1	1	
120	80	0	180	160	82	17	1	1	
180	0	0	240	80	82	17	1	1	
180	80	0	240	160	82	17	1	1	
240	0	0	300	80	82	17	1	1	
240	80	0	300	160	82	17	1	1	
0	0	82	78	117	121	10	2	2	
0	0	121	78	117	160	10	2	2	
0	0	160	78	117	199	10	2	2	
78	0	82	156	117	121	10	2	2	
78	0	121	156	117	160	10	2	2	
78	0	160	156	117	199	10	2	2	
0	0	199	53	56	219	0	3	3	
0	56	199	53	112	219	0	3	3	
53	0	199	106	56	219	0	3	3	
53	56	199	106	112	219	0	3	3	
0	161	0	47	233	79	16	4	4	
47	161	0	94	233	79	16	4	4	
94	161	0	141	233	79	16	4	4	
141	161	0	188	233	79	16	4	4	
188	161	0	235	233	79	16	4	4	
235	161	0	282	233	79	16	4	4	
282	161	0	329	233	79	16	4	4	
0	118	82	116	160	112	6	5	5	
0	118	112	116	160	142	6	5	5	
0	118	142	116	160	172	6	5	5	
0	118	172	116	160	202	6	5	5	
0	167	79	118	233	125	15	6	6	
0	167	125	118	233	171	15	6	6	
0	167	171	118	233	217	15	6	6	
116	125	82	164	160	127	9	7	7	
116	125	127	164	160	172	9	7	7	
116	125	172	164	160	217	9	7	7	
164	125	82	212	160	127	9	7	7	
164	125	127	212	160	172	9	7	7	
164	125	172	212	160	217	9	7	7	
212	125	82	260	160	127	9	7	7	
212	125	127	260	160	172	9	7	7	
212	125	172	260	160	217	9	7	7	
156	0	82	274	46	148	15	8	8	
156	0	148	274	46	214	15	8	8	
156	46	82	274	92	148	15	8	8	
156	46	148	274	92	214	15	8	8	
156	92	82	272	122	124	6	9	9	
156	92	124	272	122	166	6	9	9	
156	92	166	272	122	208	6	9	9	
118	164	79	202	233	187	19	10	10	
202	164	79	286	233	187	19	10	10	
118	192	187	163	233	217	5	11	11	
163	192	187	208	233	217	5	11	11	
208	192	187	253	233	217	5	11	11	
274	0	82	300	89	124	2	12	12	
274	0	124	300	89	166	2	12	12	
274	0	166	300	89	208	2	12	12	
286	182	79	326	233	147	11	13	13	
286	182	147	326	233	215	11	13	13	
300	0	0	384	69	108	19	14	14	
300	0	108	384	69	216	19	14	14	
384	0	0	468	69	108	19	14	14	
384	0	108	468	69	216	19	14	14	
468	0	0	552	69	108	19	14	14	
468	0	108	552	69	216	19	14	14	
300	69	0	401	150	24	1	15	15	
300	69	24	401	150	48	1	15	15	
300	69	48	401	150	72	1	15	15	
300	69	72	401	150	96	1	15	15	
401	69	0	502	150	24	1	15	15	
401	69	24	502	150	48	1	15	15	
401	69	48	502	150	72	1	15	15	
401	69	72	502	150	96	1	15	15	
300	69	96	371	146	137	12	16	16	
300	69	137	371	146	178	12	16	16	
300	69	178	371	146	219	12	16	16	
371	69	96	442	146	137	12	16	16	
371	69	137	442	146	178	12	16	16	
371	69	178	442	146	219	12	16	16	
442	69	96	471	148	147	3	17	17	
442	69	147	471	148	198	3	17	17	
471	69	96	500	148	147	3	17	17	
471	69	147	500	148	198	3	17	17	
329	155	0	420	233	42	14	18	18	
329	155	42	420	233	84	14	18	18	
329	155	84	420	233	126	14	18	18	
329	155	126	420	233	168	14	18	18	
329	155	168	420	233	210	14	18	18	
442	69	198	498	122	218	0	19	19	
420	153	0	504	233	62	18	20	20	
420	153	62	504	233	124	18	20	20	
420	153	124	504	233	186	18	20	20	
420	154	186	471	233	215	3	21	21	
502	69	0	586	138	108	19	22	22	
502	69	108	581	120	137	3	23	23	
502	69	137	581	120	166	3	23	23	
502	69	166	581	120	195	3	23	23	
504	139	0	576	233	29	4	24	24	
504	139	29	576	233	58	4	24	24	
504	139	58	576	233	87	4	24	24	
504	139	87	576	233	116	4	24	24	
504	139	116	576	233	145	4	24	24	
504	143	145	539	233	181	8	25	25	
504	143	181	539	233	217	8	25	25	
539	143	145	574	233	181	8	25	25	
539	143	181	574	233	217	8	25	25	
552	0	0	587	45	48	9	26	26	
552	0	48	587	45	96	9	26	26	
587	0	0	643	53	20	0	27	0	
587	0	20	643	53	40	0	27	0	
587	0	40	643	53	60	0	27	0	
587	0	60	643	53	80	0	27	0	
587	0	80	643	53	100	0	27	0	
644	0	0	735	45	31	7	28	0	
644	0	31	735	45	62	7	28	0	
644	0	62	735	45	93	7	28	0	
644	0	93	735	45	124	7	28	0	
644	0	124	735	45	155	7	28	0	
644	0	155	735	45	186	7	28	0	
644	0	186	735	45	217	7	28	0	
736	0	0	826	36	35	8	29	0	
827	0	0	944	78	39	10	30	0	
945	0	0	1013	51	40	11	31	0	
945	0	40	1013	51	80	11	31	0	
945	0	80	1013	51	120	11	31	0	
1014	0	0	1098	78	42	13	32	0	
1014	0	42	1098	78	84	13	32	0	
