3	3	587	233	220
27348948	18132153
0	0	0	45	113	79	1	1	1	
0	0	79	45	113	158	1	1	1	
45	0	0	90	113	79	1	1	1	
45	0	79	90	113	158	1	1	1	
90	0	0	135	113	79	1	1	1	
90	0	79	135	113	158	1	1	1	
135	0	0	180	113	79	1	1	1	
135	0	79	180	113	158	1	1	1	
180	0	0	225	113	79	1	1	1	
180	0	79	225	113	158	1	1	1	
225	0	0	270	113	79	1	1	1	
225	0	79	270	113	158	1	1	1	
270	0	0	315	113	79	1	1	1	
270	0	79	315	113	158	1	1	1	
315	0	0	360	113	79	1	1	1	
315	0	79	360	113	158	1	1	1	
360	0	0	405	113	79	1	1	1	
360	0	79	405	113	158	1	1	1	
405	0	0	450	113	79	1	1	1	
405	0	79	450	113	158	1	1	1	
450	0	0	495	113	79	1	1	1	
450	0	79	495	113	158	1	1	1	
495	0	0	540	113	79	1	1	1	
495	0	79	540	113	158	1	1	1	
540	0	0	585	113	79	1	1	1	
540	0	79	585	113	158	1	1	1	
0	146	0	63	233	81	2	2	2	
63	146	0	126	233	81	2	2	2	
126	146	0	189	233	81	2	2	2	
189	146	0	252	233	81	2	2	2	
252	146	0	315	233	81	2	2	2	
315	146	0	378	233	81	2	2	2	
378	146	0	441	233	81	2	2	2	
441	146	0	504	233	81	2	2	2	
504	146	0	567	233	81	2	2	2	
0	146	81	81	233	144	2	3	3	
0	146	144	81	233	207	2	3	3	
81	146	81	162	233	144	2	3	3	
81	146	144	162	233	207	2	3	3	
162	146	81	243	233	144	2	3	3	
162	146	144	243	233	207	2	3	3	
243	146	81	324	233	144	2	3	3	
243	146	144	324	233	207	2	3	3	
324	146	81	405	233	144	2	3	3	
324	146	144	405	233	207	2	3	3	
405	146	81	486	233	144	2	3	3	
405	146	144	486	233	207	2	3	3	
486	146	81	567	233	144	2	3	3	
486	146	144	567	233	207	2	3	3	
0	0	158	113	79	203	1	4	4	
113	0	158	226	79	203	1	4	4	
226	0	158	339	79	203	1	4	4	
339	0	158	452	79	203	1	4	4	
452	0	158	565	79	203	1	4	4	
0	113	0	91	146	52	0	5	5	
91	113	0	182	146	52	0	5	5	
182	113	0	273	146	52	0	5	5	
273	113	0	364	146	52	0	5	5	
364	113	0	455	146	52	0	5	5	
455	113	0	546	146	52	0	5	5	
0	79	158	91	112	210	0	6	6	
0	113	52	91	146	104	0	7	7	
0	113	104	91	146	156	0	7	7	
0	113	156	91	146	208	0	7	7	
91	113	52	182	146	104	0	7	7	
91	113	104	182	146	156	0	7	7	
91	113	156	182	146	208	0	7	7	
182	113	52	273	146	104	0	7	7	
182	113	104	273	146	156	0	7	7	
182	113	156	273	146	208	0	7	7	
273	113	52	364	146	104	0	7	7	
273	113	104	364	146	156	0	7	7	
273	113	156	364	146	208	0	7	7	
364	113	52	455	146	104	0	7	7	
364	113	104	455	146	156	0	7	7	
364	113	156	455	146	208	0	7	7	
455	113	52	546	146	104	0	7	7	
455	113	104	546	146	156	0	7	7	
455	113	156	546	146	208	0	7	7	
91	79	158	182	112	210	0	8	8	
182	79	158	273	112	210	0	8	8	
273	79	158	364	112	210	0	8	8	
364	79	158	455	112	210	0	8	8	
455	79	158	546	112	210	0	8	8	
587	0	0	700	79	45	1	9	0	
587	0	45	700	79	90	1	9	0	
587	0	90	700	79	135	1	9	0	
701	0	0	788	81	63	2	10	0	
701	0	63	788	81	126	2	10	0	
