3	3	587	233	220
27653312	24229832
0	0	0	118	51	79	1	1	1	
0	0	79	118	51	158	1	1	1	
0	51	0	118	102	79	1	1	1	
0	51	79	118	102	158	1	1	1	
0	102	0	118	153	79	1	1	1	
0	102	79	118	153	158	1	1	1	
0	153	0	118	204	79	1	1	1	
0	153	79	118	204	158	1	1	1	
0	0	158	86	32	189	0	2	2	
0	0	189	86	32	220	0	2	2	
0	32	158	86	64	189	0	2	2	
0	32	189	86	64	220	0	2	2	
0	64	158	86	96	189	0	2	2	
0	64	189	86	96	220	0	2	2	
0	96	158	86	128	189	0	2	2	
0	96	189	86	128	220	0	2	2	
0	128	158	86	160	189	0	2	2	
0	128	189	86	160	220	0	2	2	
0	160	158	86	192	189	0	2	2	
0	160	189	86	192	220	0	2	2	
86	0	158	118	86	189	0	3	3	
86	0	189	118	86	220	0	3	3	
86	86	158	118	172	189	0	3	3	
86	86	189	118	172	220	0	3	3	
118	0	0	170	58	64	2	4	4	
118	58	0	170	116	64	2	4	4	
118	116	0	170	174	64	2	4	4	
118	174	0	170	232	64	2	4	4	
170	0	0	222	58	64	2	4	4	
170	58	0	222	116	64	2	4	4	
170	116	0	222	174	64	2	4	4	
170	174	0	222	232	64	2	4	4	
222	0	0	274	58	64	2	4	4	
222	58	0	274	116	64	2	4	4	
222	116	0	274	174	64	2	4	4	
222	174	0	274	232	64	2	4	4	
274	0	0	326	58	64	2	4	4	
274	58	0	326	116	64	2	4	4	
274	116	0	326	174	64	2	4	4	
274	174	0	326	232	64	2	4	4	
326	0	0	378	58	64	2	4	4	
326	58	0	378	116	64	2	4	4	
326	116	0	378	174	64	2	4	4	
326	174	0	378	232	64	2	4	4	
378	0	0	430	58	64	2	4	4	
378	58	0	430	116	64	2	4	4	
378	116	0	430	174	64	2	4	4	
378	174	0	430	232	64	2	4	4	
430	0	0	482	58	64	2	4	4	
430	58	0	482	116	64	2	4	4	
430	116	0	482	174	64	2	4	4	
430	174	0	482	232	64	2	4	4	
482	0	0	534	58	64	2	4	4	
482	58	0	534	116	64	2	4	4	
482	116	0	534	174	64	2	4	4	
482	174	0	534	232	64	2	4	4	
534	0	0	586	58	64	2	4	4	
534	58	0	586	116	64	2	4	4	
534	116	0	586	174	64	2	4	4	
534	174	0	586	232	64	2	4	4	
118	0	64	176	64	116	2	5	5	
118	0	116	176	64	168	2	5	5	
118	0	168	176	64	220	2	5	5	
118	64	64	176	128	116	2	5	5	
118	64	116	176	128	168	2	5	5	
118	64	168	176	128	220	2	5	5	
118	128	64	176	192	116	2	5	5	
118	128	116	176	192	168	2	5	5	
118	128	168	176	192	220	2	5	5	
118	200	64	204	232	95	0	6	6	
118	200	95	204	232	126	0	6	6	
118	200	126	204	232	157	0	6	6	
118	200	157	204	232	188	0	6	6	
118	200	188	204	232	219	0	6	6	
204	200	64	290	232	95	0	6	6	
204	200	95	290	232	126	0	6	6	
204	200	126	290	232	157	0	6	6	
204	200	157	290	232	188	0	6	6	
204	200	188	290	232	219	0	6	6	
290	200	64	376	232	95	0	6	6	
290	200	95	376	232	126	0	6	6	
290	200	126	376	232	157	0	6	6	
290	200	157	376	232	188	0	6	6	
290	200	188	376	232	219	0	6	6	
376	200	64	462	232	95	0	6	6	
376	200	95	462	232	126	0	6	6	
376	200	126	462	232	157	0	6	6	
376	200	157	462	232	188	0	6	6	
376	200	188	462	232	219	0	6	6	
462	200	64	548	232	95	0	6	6	
462	200	95	548	232	126	0	6	6	
462	200	126	548	232	157	0	6	6	
462	200	157	548	232	188	0	6	6	
462	200	188	548	232	219	0	6	6	
176	0	64	255	118	115	1	7	7	
176	0	115	255	118	166	1	7	7	
176	0	166	255	118	217	1	7	7	
255	0	64	334	118	115	1	7	7	
255	0	115	334	118	166	1	7	7	
255	0	166	334	118	217	1	7	7	
334	0	64	413	118	115	1	7	7	
334	0	115	413	118	166	1	7	7	
334	0	166	413	118	217	1	7	7	
413	0	64	492	118	115	1	7	7	
413	0	115	492	118	166	1	7	7	
413	0	166	492	118	217	1	7	7	
492	0	64	571	118	115	1	7	7	
492	0	115	571	118	166	1	7	7	
492	0	166	571	118	217	1	7	7	
176	121	64	294	200	115	1	8	8	
176	121	115	294	200	166	1	8	8	
176	121	166	294	200	217	1	8	8	
294	121	64	412	200	115	1	9	9	
294	121	115	412	200	166	1	9	9	
294	121	166	412	200	217	1	9	9	
412	121	64	530	200	115	1	9	9	
412	121	115	530	200	166	1	9	9	
412	121	166	530	200	217	1	9	9	
548	146	64	579	232	96	0	10	10	
548	146	96	579	232	128	0	10	10	
548	146	128	579	232	160	0	10	10	
587	0	0	705	79	51	1	11	0	
587	0	51	705	79	102	1	11	0	
587	0	102	705	79	153	1	11	0	
587	0	153	705	79	204	1	11	0	
