5	5	587	233	220
28654316	17542450
0	0	0	90	94	44	3	1	1	
0	0	44	90	94	88	3	1	1	
0	0	88	90	94	132	3	1	1	
0	0	132	90	94	176	3	1	1	
0	0	176	90	94	220	3	1	1	
90	0	0	180	94	44	3	1	1	
90	0	44	180	94	88	3	1	1	
90	0	88	180	94	132	3	1	1	
90	0	132	180	94	176	3	1	1	
90	0	176	180	94	220	3	1	1	
180	0	0	270	94	44	3	1	1	
180	0	44	270	94	88	3	1	1	
180	0	88	270	94	132	3	1	1	
180	0	132	270	94	176	3	1	1	
180	0	176	270	94	220	3	1	1	
270	0	0	360	94	44	3	1	1	
270	0	44	360	94	88	3	1	1	
270	0	88	360	94	132	3	1	1	
270	0	132	360	94	176	3	1	1	
270	0	176	360	94	220	3	1	1	
360	0	0	450	94	44	3	1	1	
360	0	44	450	94	88	3	1	1	
360	0	88	450	94	132	3	1	1	
360	0	132	450	94	176	3	1	1	
360	0	176	450	94	220	3	1	1	
450	0	0	540	94	44	3	1	1	
450	0	44	540	94	88	3	1	1	
450	0	88	540	94	132	3	1	1	
450	0	132	540	94	176	3	1	1	
450	0	176	540	94	220	3	1	1	
0	165	0	53	233	63	4	2	2	
0	165	63	53	233	126	4	2	2	
0	165	126	53	233	189	4	2	2	
53	165	0	106	233	63	4	2	2	
53	165	63	106	233	126	4	2	2	
53	165	126	106	233	189	4	2	2	
106	165	0	159	233	63	4	2	2	
106	165	63	159	233	126	4	2	2	
106	165	126	159	233	189	4	2	2	
159	165	0	212	233	63	4	2	2	
159	165	63	212	233	126	4	2	2	
159	165	126	212	233	189	4	2	2	
212	165	0	265	233	63	4	2	2	
212	165	63	265	233	126	4	2	2	
212	165	126	265	233	189	4	2	2	
265	165	0	318	233	63	4	2	2	
265	165	63	318	233	126	4	2	2	
265	165	126	318	233	189	4	2	2	
318	165	0	371	233	63	4	2	2	
318	165	63	371	233	126	4	2	2	
318	165	126	371	233	189	4	2	2	
371	165	0	424	233	63	4	2	2	
371	165	63	424	233	126	4	2	2	
371	165	126	424	233	189	4	2	2	
424	165	0	477	233	63	4	2	2	
424	165	63	477	233	126	4	2	2	
424	165	126	477	233	189	4	2	2	
477	165	0	530	233	63	4	2	2	
477	165	63	530	233	126	4	2	2	
477	165	126	530	233	189	4	2	2	
530	165	0	583	233	63	4	2	2	
530	165	63	583	233	126	4	2	2	
530	165	126	583	233	189	4	2	2	
0	171	189	42	202	220	1	3	3	
0	202	189	42	233	220	1	3	3	
42	171	189	84	202	220	1	3	3	
42	202	189	84	233	220	1	3	3	
84	171	189	126	202	220	1	3	3	
84	202	189	126	233	220	1	3	3	
126	171	189	168	202	220	1	3	3	
126	202	189	168	233	220	1	3	3	
168	171	189	210	202	220	1	3	3	
168	202	189	210	233	220	1	3	3	
210	171	189	252	202	220	1	3	3	
210	202	189	252	233	220	1	3	3	
252	171	189	294	202	220	1	3	3	
252	202	189	294	233	220	1	3	3	
294	171	189	336	202	220	1	3	3	
294	202	189	336	233	220	1	3	3	
336	171	189	378	202	220	1	3	3	
336	202	189	378	233	220	1	3	3	
378	171	189	420	202	220	1	3	3	
378	202	189	420	233	220	1	3	3	
420	171	189	462	202	220	1	3	3	
420	202	189	462	233	220	1	3	3	
462	171	189	504	202	220	1	3	3	
462	202	189	504	233	220	1	3	3	
504	171	189	546	202	220	1	3	3	
504	202	189	546	233	220	1	3	3	
0	97	0	90	131	41	2	4	4	
0	97	41	90	131	82	2	4	4	
0	97	82	90	131	123	2	4	4	
0	97	123	90	131	164	2	4	4	
0	97	164	90	131	205	2	4	4	
0	131	0	90	165	41	2	4	4	
0	131	41	90	165	82	2	4	4	
0	131	82	90	165	123	2	4	4	
0	131	123	90	165	164	2	4	4	
0	131	164	90	165	205	2	4	4	
90	97	0	180	131	41	2	5	5	
90	97	41	180	131	82	2	5	5	
90	97	82	180	131	123	2	5	5	
90	97	123	180	131	164	2	5	5	
90	97	164	180	131	205	2	5	5	
90	131	0	180	165	41	2	5	5	
90	131	41	180	165	82	2	5	5	
90	131	82	180	165	123	2	5	5	
90	131	123	180	165	164	2	5	5	
90	131	164	180	165	205	2	5	5	
180	97	0	270	131	41	2	6	6	
180	97	41	270	131	82	2	6	6	
180	97	82	270	131	123	2	6	6	
180	97	123	270	131	164	2	6	6	
180	97	164	270	131	205	2	6	6	
180	131	0	270	165	41	2	6	6	
180	131	41	270	165	82	2	6	6	
180	131	82	270	165	123	2	6	6	
180	131	123	270	165	164	2	6	6	
180	131	164	270	165	205	2	6	6	
270	97	0	333	165	53	4	7	7	
333	97	0	396	165	53	4	7	7	
396	97	0	459	165	53	4	7	7	
459	97	0	522	165	53	4	7	7	
522	97	0	585	165	53	4	7	7	
270	97	53	360	131	94	2	8	8	
270	97	94	360	131	135	2	8	8	
270	97	135	360	131	176	2	8	8	
270	97	176	360	131	217	2	8	8	
270	131	53	360	165	94	2	8	8	
270	131	94	360	165	135	2	8	8	
270	131	135	360	165	176	2	8	8	
270	131	176	360	165	217	2	8	8	
360	97	53	450	131	94	2	9	9	
360	97	94	450	131	135	2	9	9	
360	97	135	450	131	176	2	9	9	
360	97	176	450	131	217	2	9	9	
360	131	53	450	165	94	2	9	9	
360	131	94	450	165	135	2	9	9	
360	131	135	450	165	176	2	9	9	
360	131	176	450	165	217	2	9	9	
450	97	53	513	165	106	4	10	10	
513	97	53	576	165	106	4	10	10	
540	0	0	582	31	31	1	11	11	
540	0	31	582	31	62	1	11	11	
540	0	62	582	31	93	1	11	11	
540	0	93	582	31	124	1	11	11	
540	0	124	582	31	155	1	11	11	
540	0	155	582	31	186	1	11	11	
540	0	186	582	31	217	1	11	11	
450	101	106	482	165	134	0	12	12	
450	101	134	482	165	162	0	12	12	
450	101	162	482	165	190	0	12	12	
450	101	190	482	165	218	0	12	12	
482	101	106	514	165	134	0	12	12	
482	101	134	514	165	162	0	12	12	
482	101	162	514	165	190	0	12	12	
482	101	190	514	165	218	0	12	12	
514	101	106	546	165	134	0	12	12	
514	101	134	546	165	162	0	12	12	
514	101	162	546	165	190	0	12	12	
514	101	190	546	165	218	0	12	12	
540	31	0	572	95	28	0	13	13	
540	31	28	572	95	56	0	13	13	
540	31	56	572	95	84	0	13	13	
540	31	84	572	95	112	0	13	13	
540	31	112	572	95	140	0	13	13	
540	31	140	572	95	168	0	13	13	
540	31	168	572	95	196	0	13	13	
546	191	189	577	233	220	1	14	14	
546	101	106	574	165	138	0	15	15	
546	101	138	574	165	170	0	15	15	
546	101	170	574	165	202	0	15	15	
587	0	0	651	32	28	0	16	0	
587	0	28	651	32	56	0	16	0	
587	0	56	651	32	84	0	16	0	
587	0	84	651	32	112	0	16	0	
652	0	0	694	31	31	1	17	0	
695	0	0	789	90	44	3	18	0	
695	0	44	789	90	88	3	18	0	
695	0	88	789	90	132	3	18	0	
