15	15	587	233	220
27116273	21053824
0	0	0	62	71	77	14	1	1	
62	0	0	124	71	77	14	1	1	
124	0	0	186	71	77	14	1	1	
186	0	0	248	71	77	14	1	1	
248	0	0	310	71	77	14	1	1	
310	0	0	372	71	77	14	1	1	
372	0	0	434	71	77	14	1	1	
434	0	0	496	71	77	14	1	1	
496	0	0	558	71	77	14	1	1	
0	73	0	118	113	66	12	2	2	
0	113	0	118	153	66	12	2	2	
0	153	0	118	193	66	12	2	2	
0	193	0	118	233	66	12	2	2	
118	73	0	236	113	66	12	2	2	
118	113	0	236	153	66	12	2	2	
118	153	0	236	193	66	12	2	2	
118	193	0	236	233	66	12	2	2	
236	73	0	354	113	66	12	2	2	
236	113	0	354	153	66	12	2	2	
236	153	0	354	193	66	12	2	2	
236	193	0	354	233	66	12	2	2	
354	73	0	472	113	66	12	2	2	
354	113	0	472	153	66	12	2	2	
354	153	0	472	193	66	12	2	2	
354	193	0	472	233	66	12	2	2	
0	192	66	112	233	117	13	3	3	
0	192	117	112	233	168	13	3	3	
0	192	168	112	233	219	13	3	3	
112	192	66	224	233	117	13	3	3	
112	192	117	224	233	168	13	3	3	
112	192	168	224	233	219	13	3	3	
224	192	66	336	233	117	13	3	3	
224	192	117	336	233	168	13	3	3	
224	192	168	336	233	219	13	3	3	
0	0	77	97	69	110	10	4	4	
0	0	110	97	69	143	10	4	4	
0	0	143	97	69	176	10	4	4	
97	0	77	194	69	110	10	4	4	
97	0	110	194	69	143	10	4	4	
97	0	143	194	69	176	10	4	4	
194	0	77	291	69	110	10	4	4	
194	0	110	291	69	143	10	4	4	
194	0	143	291	69	176	10	4	4	
291	0	77	388	69	110	10	4	4	
291	0	110	388	69	143	10	4	4	
291	0	143	388	69	176	10	4	4	
388	0	77	485	69	110	10	4	4	
388	0	110	485	69	143	10	4	4	
388	0	143	485	69	176	10	4	4	
0	0	176	82	33	220	9	5	5	
0	33	176	82	66	220	9	5	5	
82	0	176	164	33	220	9	5	5	
82	33	176	164	66	220	9	5	5	
164	0	176	246	33	220	9	5	5	
164	33	176	246	66	220	9	5	5	
246	0	176	328	33	220	9	5	5	
246	33	176	328	66	220	9	5	5	
328	0	176	410	33	220	9	5	5	
328	33	176	410	66	220	9	5	5	
0	101	66	32	192	116	6	6	6	
32	101	66	64	192	116	6	6	6	
64	101	66	96	192	116	6	6	6	
96	101	66	128	192	116	6	6	6	
128	101	66	160	192	116	6	6	6	
160	101	66	192	192	116	6	6	6	
192	101	66	224	192	116	6	6	6	
224	101	66	256	192	116	6	6	6	
256	101	66	288	192	116	6	6	6	
288	101	66	320	192	116	6	6	6	
320	101	66	352	192	116	6	6	6	
0	108	116	116	192	143	3	7	7	
0	108	143	116	192	170	3	7	7	
0	108	170	116	192	197	3	7	7	
116	108	116	232	192	143	3	7	7	
116	108	143	232	192	170	3	7	7	
116	108	170	232	192	197	3	7	7	
232	108	116	348	192	143	3	7	7	
232	108	143	348	192	170	3	7	7	
232	108	170	348	192	197	3	7	7	
0	111	197	87	192	220	0	8	8	
87	111	197	174	192	220	0	8	8	
174	111	197	261	192	220	0	8	8	
261	111	197	348	192	220	0	8	8	
0	73	66	49	99	110	1	9	9	
0	73	110	49	99	154	1	9	9	
0	73	154	49	99	198	1	9	9	
49	73	66	98	99	110	1	9	9	
49	73	110	98	99	154	1	9	9	
49	73	154	98	99	198	1	9	9	
98	73	66	147	99	110	1	9	9	
98	73	110	147	99	154	1	9	9	
98	73	154	147	99	198	1	9	9	
147	73	66	196	99	110	1	9	9	
147	73	110	196	99	154	1	9	9	
147	73	154	196	99	198	1	9	9	
196	73	66	293	100	97	2	10	10	
196	73	97	293	100	128	2	10	10	
196	73	128	293	100	159	2	10	10	
196	73	159	293	100	190	2	10	10	
293	73	66	390	100	97	2	11	11	
293	73	97	390	100	128	2	11	11	
293	73	128	390	100	159	2	11	11	
293	73	159	390	100	190	2	11	11	
352	115	66	415	174	104	11	12	12	
352	115	104	415	174	142	11	12	12	
352	115	142	415	174	180	11	12	12	
352	115	180	415	174	218	11	12	12	
352	174	66	415	233	104	11	12	12	
352	174	104	415	233	142	11	12	12	
352	174	142	415	233	180	11	12	12	
352	174	180	415	233	218	11	12	12	
415	88	66	469	117	123	5	13	13	
415	88	123	469	117	180	5	13	13	
415	117	66	469	146	123	5	13	13	
415	117	123	469	146	180	5	13	13	
415	146	66	469	175	123	5	13	13	
415	146	123	469	175	180	5	13	13	
415	175	66	469	204	123	5	13	13	
415	175	123	469	204	180	5	13	13	
415	204	66	469	233	123	5	13	13	
415	204	123	469	233	180	5	13	13	
410	0	176	485	69	208	7	14	14	
415	119	180	469	176	209	5	15	15	
415	176	180	469	233	209	5	15	15	
472	71	0	545	152	32	8	16	16	
472	71	32	545	152	64	8	16	16	
472	71	64	545	152	96	8	16	16	
472	71	96	545	152	128	8	16	16	
472	152	0	545	233	32	8	16	16	
472	152	32	545	233	64	8	16	16	
472	152	64	545	233	96	8	16	16	
472	152	96	545	233	128	8	16	16	
472	83	128	541	158	160	7	17	17	
472	83	160	541	158	192	7	17	17	
472	158	128	541	233	160	7	17	17	
472	158	160	541	233	192	7	17	17	
472	136	192	503	233	219	2	18	18	
503	136	192	534	233	219	2	18	18	
472	83	192	521	127	218	1	19	19	
485	0	77	547	71	154	14	20	20	
485	0	154	523	63	213	11	21	21	
545	115	0	585	233	66	12	22	22	
545	115	66	585	233	132	12	22	22	
545	148	132	575	233	161	4	23	23	
545	148	161	575	233	190	4	23	23	
545	148	190	575	233	219	4	23	23	
558	0	0	587	85	30	4	24	24	
558	0	30	587	85	60	4	24	24	
558	0	60	587	85	90	4	24	24	
558	0	90	587	85	120	4	24	24	
558	0	120	587	85	150	4	24	24	
558	0	150	587	85	180	4	24	24	
587	0	0	674	81	23	0	25	0	
587	0	23	674	81	46	0	25	0	
587	0	46	674	81	69	0	25	0	
587	0	69	674	81	92	0	25	0	
587	0	92	674	81	115	0	25	0	
587	0	115	674	81	138	0	25	0	
587	0	138	674	81	161	0	25	0	
675	0	0	732	54	29	5	26	0	
733	0	0	808	69	32	7	27	0	
733	0	32	808	69	64	7	27	0	
733	0	64	808	69	96	7	27	0	
809	0	0	890	73	32	8	28	0	
891	0	0	1003	51	41	13	29	0	
891	0	41	1003	51	82	13	29	0	
