8	8	587	233	220
27372915	22009829
0	0	0	49	56	51	6	1	1	
0	0	51	49	56	102	6	1	1	
0	0	102	49	56	153	6	1	1	
0	0	153	49	56	204	6	1	1	
0	56	0	49	112	51	6	1	1	
0	56	51	49	112	102	6	1	1	
0	56	102	49	112	153	6	1	1	
0	56	153	49	112	204	6	1	1	
0	112	0	49	168	51	6	1	1	
0	112	51	49	168	102	6	1	1	
0	112	102	49	168	153	6	1	1	
0	112	153	49	168	204	6	1	1	
0	168	0	49	224	51	6	1	1	
0	168	51	49	224	102	6	1	1	
0	168	102	49	224	153	6	1	1	
0	168	153	49	224	204	6	1	1	
49	0	0	130	84	23	1	2	2	
49	0	23	130	84	46	1	2	2	
49	0	46	130	84	69	1	2	2	
49	0	69	130	84	92	1	2	2	
49	0	92	130	84	115	1	2	2	
49	0	115	130	84	138	1	2	2	
49	84	0	130	168	23	1	2	2	
49	84	23	130	168	46	1	2	2	
49	84	46	130	168	69	1	2	2	
49	84	69	130	168	92	1	2	2	
49	84	92	130	168	115	1	2	2	
49	84	115	130	168	138	1	2	2	
49	0	138	98	77	163	3	3	3	
49	0	163	98	77	188	3	3	3	
49	0	188	98	77	213	3	3	3	
49	77	138	98	154	163	3	3	3	
49	77	163	98	154	188	3	3	3	
49	77	188	98	154	213	3	3	3	
49	169	0	164	233	72	7	4	4	
49	169	72	164	233	144	7	4	4	
49	169	144	164	233	216	7	4	4	
164	169	0	279	233	72	7	4	4	
164	169	72	279	233	144	7	4	4	
164	169	144	279	233	216	7	4	4	
279	169	0	394	233	72	7	4	4	
279	169	72	394	233	144	7	4	4	
279	169	144	394	233	216	7	4	4	
394	169	0	509	233	72	7	4	4	
394	169	72	509	233	144	7	4	4	
394	169	144	509	233	216	7	4	4	
98	0	138	120	40	175	0	5	5	
98	0	175	120	40	212	0	5	5	
98	40	138	120	80	175	0	5	5	
98	40	175	120	80	212	0	5	5	
98	80	138	120	120	175	0	5	5	
98	80	175	120	120	212	0	5	5	
98	120	138	120	160	175	0	5	5	
98	120	175	120	160	212	0	5	5	
130	0	0	220	69	28	4	6	6	
130	0	28	220	69	56	4	6	6	
130	0	56	220	69	84	4	6	6	
130	0	84	220	69	112	4	6	6	
130	0	112	220	69	140	4	6	6	
130	0	140	220	69	168	4	6	6	
130	0	168	220	69	196	4	6	6	
130	73	0	227	169	46	5	7	7	
130	73	46	227	169	92	5	7	7	
130	73	92	227	169	138	5	7	7	
130	73	138	227	169	184	5	7	7	
227	73	0	324	169	46	5	7	7	
227	73	46	324	169	92	5	7	7	
227	73	92	324	169	138	5	7	7	
227	73	138	324	169	184	5	7	7	
324	73	0	421	169	46	5	7	7	
324	73	46	421	169	92	5	7	7	
324	73	92	421	169	138	5	7	7	
324	73	138	421	169	184	5	7	7	
421	73	0	518	169	46	5	7	7	
421	73	46	518	169	92	5	7	7	
421	73	92	518	169	138	5	7	7	
421	73	138	518	169	184	5	7	7	
130	74	184	173	169	209	2	8	8	
173	74	184	216	169	209	2	9	9	
216	74	184	259	169	209	2	10	10	
259	74	184	302	169	209	2	10	10	
302	74	184	345	169	209	2	10	10	
345	74	184	388	169	209	2	10	10	
388	74	184	431	169	209	2	10	10	
431	74	184	474	169	209	2	10	10	
474	74	184	517	169	209	2	10	10	
220	0	0	335	72	64	7	11	11	
220	0	64	335	72	128	7	11	11	
335	0	0	450	72	64	7	11	11	
335	0	64	450	72	128	7	11	11	
450	0	0	565	72	64	7	11	11	
450	0	64	565	72	128	7	11	11	
220	0	128	335	72	192	7	12	12	
220	0	192	310	69	220	4	13	13	
335	0	128	450	72	192	7	14	14	
335	0	192	425	69	220	4	15	15	
450	0	128	540	69	156	4	16	16	
450	0	156	540	69	184	4	16	16	
450	0	184	540	69	212	4	16	16	
509	183	0	586	208	49	3	17	17	
509	183	49	586	208	98	3	17	17	
509	183	98	586	208	147	3	17	17	
509	183	147	586	208	196	3	17	17	
509	208	0	586	233	49	3	17	17	
509	208	49	586	233	98	3	17	17	
509	208	98	586	233	147	3	17	17	
509	208	147	586	233	196	3	17	17	
518	93	0	587	183	28	4	18	18	
518	93	28	587	183	56	4	18	18	
518	93	56	587	183	84	4	18	18	
518	93	84	587	183	112	4	18	18	
518	93	112	587	183	140	4	18	18	
518	93	140	587	183	168	4	18	18	
518	93	168	587	183	196	4	18	18	
587	0	0	671	81	23	1	19	0	
672	0	0	767	43	25	2	20	0	
672	0	25	767	43	50	2	20	0	
672	0	50	767	43	75	2	20	0	
672	0	75	767	43	100	2	20	0	
768	0	0	845	49	25	3	21	0	
768	0	25	845	49	50	3	21	0	
846	0	0	936	69	28	4	22	0	
846	0	28	936	69	56	4	22	0	
846	0	56	936	69	84	4	22	0	
937	0	0	1034	96	46	5	23	0	
1035	0	0	1091	51	49	6	24	0	
1035	0	49	1091	51	98	6	24	0	
1035	0	98	1091	51	147	6	24	0	
1035	0	147	1091	51	196	6	24	0	
