15	15	587	233	220
27030000	16018440
0	0	0	69	114	75	14	1	1	
0	0	75	69	114	150	14	1	1	
69	0	0	138	114	75	14	1	1	
69	0	75	138	114	150	14	1	1	
138	0	0	207	114	75	14	1	1	
138	0	75	207	114	150	14	1	1	
207	0	0	276	114	75	14	1	1	
207	0	75	276	114	150	14	1	1	
276	0	0	345	114	75	14	1	1	
276	0	75	345	114	150	14	1	1	
0	0	150	76	78	218	13	2	2	
76	0	150	152	78	218	13	2	2	
152	0	150	228	78	218	13	2	2	
228	0	150	304	78	218	13	2	2	
0	153	0	76	233	54	11	3	3	
76	153	0	152	233	54	11	3	3	
152	153	0	228	233	54	11	3	3	
228	153	0	304	233	54	11	3	3	
304	153	0	380	233	54	11	3	3	
380	153	0	456	233	54	11	3	3	
456	153	0	532	233	54	11	3	3	
0	155	54	76	233	122	13	4	4	
76	155	54	152	233	122	13	4	4	
152	155	54	228	233	122	13	4	4	
228	155	54	304	233	122	13	4	4	
304	155	54	380	233	122	13	4	4	
380	155	54	456	233	122	13	4	4	
456	155	54	532	233	122	13	4	4	
0	78	150	84	111	211	4	5	5	
84	78	150	168	111	211	4	5	5	
168	78	150	252	111	211	4	5	5	
252	78	150	336	111	211	4	5	5	
0	116	0	53	153	72	5	6	6	
0	116	72	53	153	144	5	6	6	
0	116	144	53	153	216	5	6	6	
53	116	0	106	153	72	5	6	6	
53	116	72	106	153	144	5	6	6	
53	116	144	106	153	216	5	6	6	
106	116	0	159	153	72	5	6	6	
106	116	72	159	153	144	5	6	6	
106	116	144	159	153	216	5	6	6	
159	116	0	212	153	72	5	6	6	
159	116	72	212	153	144	5	6	6	
159	116	144	212	153	216	5	6	6	
0	155	122	107	194	162	7	7	7	
0	155	162	107	194	202	7	7	7	
0	194	122	107	233	162	7	7	7	
0	194	162	107	233	202	7	7	7	
107	155	122	191	233	150	2	8	8	
191	155	122	275	233	150	2	8	8	
275	155	122	359	233	150	2	8	8	
359	155	122	443	233	150	2	8	8	
443	155	122	527	233	150	2	8	8	
107	159	150	164	196	220	6	9	9	
107	196	150	164	233	220	6	9	9	
164	159	150	221	196	220	6	10	10	
164	196	150	221	233	220	6	10	10	
221	159	150	278	196	220	6	11	11	
221	196	150	278	233	220	6	11	11	
212	125	0	303	153	44	1	12	12	
212	125	44	303	153	88	1	12	12	
212	125	88	303	153	132	1	12	12	
212	125	132	303	153	176	1	12	12	
212	125	176	303	153	220	1	12	12	
278	170	150	368	233	220	12	13	13	
304	0	150	341	57	220	6	14	14	
303	114	0	410	153	40	7	15	15	
303	114	40	410	153	80	7	15	15	
303	114	80	410	153	120	7	15	15	
303	114	120	410	153	160	7	15	15	
410	114	0	517	153	40	7	15	15	
410	114	40	517	153	80	7	15	15	
410	114	80	517	153	120	7	15	15	
410	114	120	517	153	160	7	15	15	
303	114	160	410	153	200	7	16	16	
410	116	160	480	153	217	6	17	17	
345	0	0	437	29	44	3	18	18	
345	0	44	437	29	88	3	18	18	
345	0	88	437	29	132	3	18	18	
345	0	132	437	29	176	3	18	18	
345	0	176	437	29	220	3	18	18	
345	29	0	439	114	39	8	19	19	
345	29	39	439	114	78	8	19	19	
345	29	78	439	114	117	8	19	19	
345	29	117	439	114	156	8	19	19	
439	29	0	533	114	39	8	19	19	
439	29	39	533	114	78	8	19	19	
439	29	78	533	114	117	8	19	19	
439	29	117	533	114	156	8	19	19	
345	29	156	439	83	217	10	20	20	
439	29	156	533	83	217	10	20	20	
345	83	156	437	112	200	3	21	21	
437	83	156	529	112	200	3	21	21	
368	155	150	452	233	178	2	22	22	
368	172	178	452	233	211	4	23	23	
452	188	150	502	233	219	9	24	24	
437	0	0	529	29	44	3	25	25	
437	0	44	528	28	88	1	26	26	
437	0	88	528	28	132	1	26	26	
437	0	132	526	27	175	0	27	27	
437	0	175	526	27	218	0	27	27	
517	116	0	570	153	72	5	28	28	
532	153	0	586	233	76	11	29	29	
532	172	76	586	233	170	10	30	30	
533	0	0	587	94	61	10	31	31	
533	0	61	587	94	122	10	31	31	
533	0	122	560	89	165	0	32	32	
533	0	165	560	89	208	0	32	32	
560	0	122	587	89	165	0	32	32	
560	0	165	587	89	208	0	32	32	
587	0	0	676	43	27	0	33	0	
587	0	27	676	43	54	0	33	0	
677	0	0	771	85	39	8	34	0	
772	0	0	841	50	45	9	35	0	
772	0	45	841	50	90	9	35	0	
772	0	90	841	50	135	9	35	0	
772	0	135	841	50	180	9	35	0	
772	0	180	841	50	225	9	35	0	
772	0	225	841	50	270	9	35	0	
772	0	270	841	50	315	9	35	0	
772	0	315	841	50	360	9	35	0	
772	0	360	841	50	405	9	35	0	
842	0	0	956	75	69	14	36	0	
