20	20	587	233	220
27004284	22273406
0	0	0	113	93	40	11	1	1	
0	93	0	113	186	40	11	1	1	
113	0	0	226	93	40	11	1	1	
113	93	0	226	186	40	11	1	1	
226	0	0	339	93	40	11	1	1	
226	93	0	339	186	40	11	1	1	
0	188	0	95	233	62	14	2	2	
95	188	0	190	233	62	14	2	2	
190	188	0	285	233	62	14	2	2	
285	188	0	380	233	62	14	2	2	
380	188	0	475	233	62	14	2	2	
475	188	0	570	233	62	14	2	2	
0	0	40	55	87	119	18	3	3	
0	87	40	55	174	119	18	3	3	
55	0	40	110	87	119	18	3	3	
55	87	40	110	174	119	18	3	3	
110	0	40	165	87	119	18	3	3	
110	87	40	165	174	119	18	3	3	
165	0	40	220	87	119	18	3	3	
165	87	40	220	174	119	18	3	3	
0	0	119	81	80	187	19	4	4	
0	80	119	81	160	187	19	4	4	
81	0	119	162	80	187	19	4	4	
81	80	119	162	160	187	19	4	4	
0	0	187	100	40	220	7	5	5	
0	40	187	100	80	220	7	5	5	
0	80	187	100	120	220	7	5	5	
0	120	187	100	160	220	7	5	5	
100	0	187	156	42	212	3	6	6	
100	42	187	156	84	212	3	6	6	
100	84	187	156	126	212	3	6	6	
0	188	62	81	233	114	13	7	7	
81	188	62	162	233	114	13	7	7	
162	188	62	243	233	114	13	7	7	
243	188	62	324	233	114	13	7	7	
324	188	62	405	233	114	13	7	7	
405	188	62	486	233	114	13	7	7	
486	188	62	567	233	114	13	7	7	
0	188	114	81	233	166	13	8	8	
0	188	166	81	233	218	13	8	8	
81	188	114	162	233	166	13	8	8	
81	188	166	162	233	218	13	8	8	
162	188	114	243	233	166	13	8	8	
162	188	166	243	233	218	13	8	8	
162	0	119	211	72	165	15	9	9	
162	0	165	211	72	211	15	9	9	
162	72	119	211	144	165	15	9	9	
162	72	165	211	144	211	15	9	9	
162	149	119	218	174	161	3	10	10	
162	149	161	218	174	203	3	10	10	
243	191	114	356	233	166	12	11	11	
243	191	166	356	233	218	12	11	11	
356	191	114	469	233	166	12	11	11	
356	191	166	469	233	218	12	11	11	
220	0	40	333	54	130	17	12	12	
220	0	130	333	54	220	17	12	12	
220	54	40	333	108	130	17	12	12	
220	54	130	333	108	220	17	12	12	
220	108	40	333	162	130	17	12	12	
220	108	130	333	162	220	17	12	12	
220	162	40	333	186	72	2	13	13	
220	162	72	333	186	104	2	13	13	
220	162	104	333	186	136	2	13	13	
220	162	136	333	186	168	2	13	13	
220	162	168	333	186	200	2	13	13	
339	0	0	433	86	38	10	14	14	
339	0	38	433	86	76	10	14	14	
339	0	76	433	86	114	10	14	14	
433	0	0	527	86	38	10	14	14	
433	0	38	527	86	76	10	14	14	
433	0	76	527	86	114	10	14	14	
339	0	114	431	58	166	16	15	15	
339	0	166	431	58	218	16	15	15	
431	0	114	523	58	166	16	15	15	
431	0	166	523	58	218	16	15	15	
339	96	0	424	188	21	0	16	16	
339	96	21	424	188	42	0	16	16	
339	96	42	424	188	63	0	16	16	
339	96	63	424	188	84	0	16	16	
339	96	84	424	188	105	0	16	16	
339	96	105	424	188	126	0	16	16	
339	96	126	424	188	147	0	16	16	
339	96	147	424	188	168	0	16	16	
339	58	114	452	82	146	2	17	17	
339	58	146	452	82	178	2	17	17	
339	58	178	452	82	210	2	17	17	
339	96	168	411	142	217	15	18	18	
339	142	168	411	188	217	15	18	18	
424	114	0	489	188	22	1	19	19	
424	114	22	489	188	44	1	19	19	
424	114	44	489	188	66	1	19	19	
424	114	66	489	188	88	1	19	19	
424	114	88	489	188	110	1	19	19	
424	114	110	489	188	132	1	19	19	
489	114	0	554	188	22	1	19	19	
489	114	22	554	188	44	1	19	19	
489	114	44	554	188	66	1	19	19	
489	114	66	554	188	88	1	19	19	
489	114	88	554	188	110	1	19	19	
489	114	110	554	188	132	1	19	19	
424	86	0	488	112	42	6	20	20	
424	86	42	488	112	84	6	20	20	
424	86	84	488	112	126	6	20	20	
424	86	126	488	112	168	6	20	20	
424	86	168	488	112	210	6	20	20	
424	120	132	504	188	213	19	21	21	
452	58	114	516	84	148	5	22	22	
452	58	148	516	84	182	5	22	22	
452	58	182	516	84	216	5	22	22	
469	200	114	559	233	163	8	23	23	
469	200	163	559	233	212	8	23	23	
488	86	0	544	111	42	3	24	24	
488	86	42	544	111	84	3	24	24	
488	86	84	544	111	126	3	24	24	
488	86	126	544	111	168	3	24	24	
488	86	168	544	111	210	3	24	24	
504	124	132	546	188	158	6	25	25	
504	124	158	546	188	184	6	25	25	
504	124	184	546	188	210	6	25	25	
527	0	0	585	52	92	16	26	26	
527	0	92	585	52	184	16	26	26	
527	0	184	581	48	218	9	27	27	
527	52	0	575	86	54	9	28	28	
527	52	54	575	86	108	9	28	28	
527	52	108	575	86	162	9	28	28	
527	52	162	575	86	216	9	28	28	
554	98	0	587	188	49	8	29	29	
554	98	49	587	188	98	8	29	29	
554	98	98	587	188	147	8	29	29	
554	98	147	587	188	196	8	29	29	
587	0	0	661	65	22	1	30	0	
662	0	0	775	32	24	2	31	0	
662	0	24	775	32	48	2	31	0	
776	0	0	868	57	25	4	32	0	
776	0	25	868	57	50	4	32	0	
776	0	50	868	57	75	4	32	0	
776	0	75	868	57	100	4	32	0	
776	0	100	868	57	125	4	32	0	
869	0	0	933	34	26	5	33	0	
869	0	26	933	34	52	5	33	0	
934	0	0	998	42	26	6	34	0	
999	0	0	1099	40	33	7	35	0	
999	0	33	1099	40	66	7	35	0	
1100	0	0	1190	49	33	8	36	0	
1100	0	33	1190	49	66	8	36	0	
1191	0	0	1245	48	34	9	37	0	
1246	0	0	1359	52	42	12	38	0	
1360	0	0	1432	49	46	15	39	0	
1360	0	46	1432	49	92	15	39	0	
1433	0	0	1525	58	52	16	40	0	
