8	8	587	233	220
27984600	21549120
0	0	0	75	110	50	3	1	1	
0	0	50	75	110	100	3	1	1	
75	0	0	150	110	50	3	1	1	
75	0	50	150	110	100	3	1	1	
150	0	0	225	110	50	3	1	1	
150	0	50	225	110	100	3	1	1	
225	0	0	300	110	50	3	1	1	
225	0	50	300	110	100	3	1	1	
300	0	0	375	110	50	3	1	1	
300	0	50	375	110	100	3	1	1	
375	0	0	450	110	50	3	1	1	
375	0	50	450	110	100	3	1	1	
450	0	0	525	110	50	3	1	1	
450	0	50	525	110	100	3	1	1	
0	0	100	67	74	220	6	2	2	
67	0	100	134	74	220	6	2	2	
134	0	100	201	74	220	6	2	2	
201	0	100	268	74	220	6	2	2	
268	0	100	335	74	220	6	2	2	
335	0	100	402	74	220	6	2	2	
402	0	100	469	74	220	6	2	2	
0	74	100	103	106	160	0	3	3	
0	74	160	103	106	220	0	3	3	
103	74	100	206	106	160	0	3	3	
103	74	160	206	106	220	0	3	3	
206	74	100	309	106	160	0	3	3	
206	74	160	309	106	220	0	3	3	
309	74	100	412	106	160	0	3	3	
309	74	160	412	106	220	0	3	3	
412	74	100	515	106	160	0	3	3	
412	74	160	515	106	220	0	3	3	
469	0	100	518	70	160	2	4	4	
469	0	160	518	70	220	2	4	4	
0	113	0	74	233	67	6	5	5	
0	113	67	74	233	134	6	5	5	
0	113	134	74	233	201	6	5	5	
74	113	0	148	233	67	6	5	5	
74	113	67	148	233	134	6	5	5	
74	113	134	148	233	201	6	5	5	
148	113	0	258	173	55	4	6	6	
148	113	55	258	173	110	4	6	6	
148	113	110	258	173	165	4	6	6	
148	113	165	258	173	220	4	6	6	
148	173	0	258	233	55	4	6	6	
148	173	55	258	233	110	4	6	6	
148	173	110	258	233	165	4	6	6	
148	173	165	258	233	220	4	6	6	
258	113	0	358	153	72	1	7	7	
258	113	72	358	153	144	1	7	7	
258	113	144	358	153	216	1	7	7	
258	153	0	358	193	72	1	7	7	
258	153	72	358	193	144	1	7	7	
258	153	144	358	193	216	1	7	7	
258	193	0	358	233	72	1	7	7	
258	193	72	358	233	144	1	7	7	
258	193	144	358	233	216	1	7	7	
358	113	0	425	233	74	6	8	8	
358	113	74	425	233	148	6	8	8	
358	113	148	407	173	218	2	9	9	
358	173	148	407	233	218	2	9	9	
425	155	0	505	233	71	7	10	10	
425	155	71	505	233	142	7	10	10	
505	155	0	585	233	71	7	10	10	
505	155	71	585	233	142	7	10	10	
425	155	142	505	233	213	7	11	11	
505	161	142	585	233	204	5	12	12	
425	115	0	525	155	72	1	13	13	
425	115	72	525	155	144	1	13	13	
525	0	0	587	80	72	5	14	14	
525	0	72	587	80	144	5	14	14	
525	0	144	587	80	216	5	14	14	
525	83	0	587	155	80	5	15	15	
525	106	80	585	155	150	2	16	16	
525	106	150	585	155	220	2	16	16	
587	0	0	690	60	32	0	17	0	
691	0	0	761	60	49	2	18	0	
762	0	0	872	75	50	3	19	0	
762	0	50	872	75	100	3	19	0	
873	0	0	983	60	55	4	20	0	
