15	15	587	233	220
27815948	22780310
0	0	0	62	99	64	14	1	1	
0	0	64	62	99	128	14	1	1	
0	0	128	62	99	192	14	1	1	
62	0	0	124	99	64	14	1	1	
62	0	64	124	99	128	14	1	1	
62	0	128	124	99	192	14	1	1	
124	0	0	186	99	64	14	1	1	
124	0	64	186	99	128	14	1	1	
124	0	128	186	99	192	14	1	1	
186	0	0	248	99	64	14	1	1	
186	0	64	248	99	128	14	1	1	
186	0	128	248	99	192	14	1	1	
248	0	0	310	99	64	14	1	1	
248	0	64	310	99	128	14	1	1	
248	0	128	310	99	192	14	1	1	
0	0	192	73	98	213	0	2	2	
73	0	192	146	98	213	0	2	2	
146	0	192	219	98	213	0	2	2	
219	0	192	292	98	213	0	2	2	
0	175	0	74	233	90	13	3	3	
0	175	90	74	233	180	13	3	3	
74	175	0	148	233	90	13	3	3	
74	175	90	148	233	180	13	3	3	
148	175	0	222	233	90	13	3	3	
148	175	90	222	233	180	13	3	3	
222	175	0	296	233	90	13	3	3	
222	175	90	296	233	180	13	3	3	
296	175	0	370	233	90	13	3	3	
296	175	90	370	233	180	13	3	3	
370	175	0	444	233	90	13	3	3	
370	175	90	444	233	180	13	3	3	
444	175	0	518	233	90	13	3	3	
444	175	90	518	233	180	13	3	3	
0	100	0	51	175	66	12	4	4	
51	100	0	102	175	66	12	4	4	
102	100	0	153	175	66	12	4	4	
153	100	0	204	175	66	12	4	4	
204	100	0	255	175	66	12	4	4	
255	100	0	306	175	66	12	4	4	
306	100	0	357	175	66	12	4	4	
357	100	0	408	175	66	12	4	4	
0	180	180	114	233	215	6	5	5	
114	180	180	228	233	215	6	5	5	
228	180	180	342	233	215	6	5	5	
342	180	180	456	233	215	6	5	5	
0	102	66	50	175	162	11	6	6	
50	102	66	100	175	162	11	6	6	
100	102	66	150	175	162	11	6	6	
150	102	66	200	175	162	11	6	6	
200	102	66	250	175	162	11	6	6	
250	102	66	300	175	162	11	6	6	
300	102	66	350	175	162	11	6	6	
350	102	66	400	175	162	11	6	6	
0	102	162	96	175	212	11	7	7	
96	102	162	192	175	212	11	7	7	
192	102	162	288	175	212	11	7	7	
288	107	162	339	141	217	5	8	8	
288	141	162	339	175	217	5	8	8	
339	107	162	390	141	217	5	8	8	
339	141	162	390	175	217	5	8	8	
310	0	0	421	33	45	4	9	9	
310	0	45	421	33	90	4	9	9	
310	0	90	421	33	135	4	9	9	
310	0	135	421	33	180	4	9	9	
310	33	0	421	66	45	4	9	9	
310	33	45	421	66	90	4	9	9	
310	33	90	421	66	135	4	9	9	
310	33	135	421	66	180	4	9	9	
310	66	0	421	99	45	4	9	9	
310	66	45	421	99	90	4	9	9	
310	66	90	421	99	135	4	9	9	
310	66	135	421	99	180	4	9	9	
310	0	180	420	43	217	8	10	10	
310	43	180	420	86	217	8	10	10	
408	101	0	518	138	43	8	11	11	
408	101	43	518	138	86	8	11	11	
408	101	86	518	138	129	8	11	11	
408	101	129	518	138	172	8	11	11	
408	138	0	518	175	43	8	11	11	
408	138	43	518	175	86	8	11	11	
408	138	86	518	175	129	8	11	11	
408	138	129	518	175	172	8	11	11	
408	102	172	506	175	193	0	12	12	
408	102	193	506	175	214	0	12	12	
421	0	0	523	32	46	3	13	13	
421	0	46	523	32	92	3	13	13	
421	0	92	523	32	138	3	13	13	
421	0	138	523	32	184	3	13	13	
421	32	0	523	64	46	3	13	13	
421	32	46	523	64	92	3	13	13	
421	32	92	523	64	138	3	13	13	
421	32	138	523	64	184	3	13	13	
421	64	0	523	96	46	3	13	13	
421	64	46	523	96	92	3	13	13	
421	64	92	523	96	138	3	13	13	
421	64	138	523	96	184	3	13	13	
421	0	184	462	31	219	2	14	14	
421	31	184	462	62	219	2	14	14	
421	62	184	462	93	219	2	14	14	
462	0	184	503	31	219	2	14	14	
462	31	184	503	62	219	2	14	14	
462	62	184	503	93	219	2	14	14	
518	137	0	579	185	72	10	15	15	
518	137	72	579	185	144	10	15	15	
518	137	144	579	185	216	10	15	15	
518	185	0	579	233	72	10	15	15	
518	185	72	579	233	144	10	15	15	
518	185	144	579	233	216	10	15	15	
518	96	0	549	131	41	2	16	16	
518	96	41	549	131	82	2	16	16	
518	96	82	549	131	123	2	16	16	
549	96	0	580	131	41	2	16	16	
549	96	41	580	131	82	2	16	16	
549	96	82	580	131	123	2	16	16	
518	96	123	573	130	174	5	17	17	
523	0	0	584	85	35	7	18	18	
523	0	35	584	85	70	7	18	18	
523	0	70	584	85	105	7	18	18	
523	0	105	584	85	140	7	18	18	
523	0	140	584	85	175	7	18	18	
523	0	175	584	85	210	7	18	18	
587	0	0	685	73	21	0	19	0	
587	0	21	685	73	42	0	19	0	
587	0	42	685	73	63	0	19	0	
686	0	0	791	27	22	1	20	0	
686	0	22	791	27	44	1	20	0	
686	0	44	791	27	66	1	20	0	
686	0	66	791	27	88	1	20	0	
686	0	88	791	27	110	1	20	0	
792	0	0	894	46	32	3	21	0	
895	0	0	1009	53	35	6	22	0	
1010	0	0	1069	57	45	9	23	0	
1010	0	45	1069	57	90	9	23	0	
1010	0	90	1069	57	135	9	23	0	
1010	0	135	1069	57	180	9	23	0	
1010	0	180	1069	57	225	9	23	0	
