8	8	587	233	220
28311028	25070388
0	0	0	37	91	54	5	1	1	
0	0	54	37	91	108	5	1	1	
0	0	108	37	91	162	5	1	1	
0	0	162	37	91	216	5	1	1	
37	0	0	74	91	54	5	1	1	
37	0	54	74	91	108	5	1	1	
37	0	108	74	91	162	5	1	1	
37	0	162	74	91	216	5	1	1	
74	0	0	111	91	54	5	1	1	
74	0	54	111	91	108	5	1	1	
74	0	108	111	91	162	5	1	1	
74	0	162	111	91	216	5	1	1	
111	0	0	148	91	54	5	1	1	
111	0	54	148	91	108	5	1	1	
111	0	108	148	91	162	5	1	1	
111	0	162	148	91	216	5	1	1	
148	0	0	185	91	54	5	1	1	
148	0	54	185	91	108	5	1	1	
148	0	108	185	91	162	5	1	1	
148	0	162	185	91	216	5	1	1	
185	0	0	222	91	54	5	1	1	
185	0	54	222	91	108	5	1	1	
185	0	108	222	91	162	5	1	1	
185	0	162	222	91	216	5	1	1	
222	0	0	259	91	54	5	1	1	
222	0	54	259	91	108	5	1	1	
222	0	108	259	91	162	5	1	1	
222	0	162	259	91	216	5	1	1	
259	0	0	296	91	54	5	1	1	
259	0	54	296	91	108	5	1	1	
259	0	108	296	91	162	5	1	1	
259	0	162	296	91	216	5	1	1	
0	157	0	52	233	46	7	2	2	
0	157	46	52	233	92	7	2	2	
52	157	0	104	233	46	7	2	2	
52	157	46	104	233	92	7	2	2	
104	157	0	156	233	46	7	2	2	
104	157	46	156	233	92	7	2	2	
156	157	0	208	233	46	7	2	2	
156	157	46	208	233	92	7	2	2	
208	157	0	260	233	46	7	2	2	
208	157	46	260	233	92	7	2	2	
260	157	0	312	233	46	7	2	2	
260	157	46	312	233	92	7	2	2	
312	157	0	364	233	46	7	2	2	
312	157	46	364	233	92	7	2	2	
364	157	0	416	233	46	7	2	2	
364	157	46	416	233	92	7	2	2	
416	157	0	468	233	46	7	2	2	
416	157	46	468	233	92	7	2	2	
468	157	0	520	233	46	7	2	2	
468	157	46	520	233	92	7	2	2	
520	157	0	572	233	46	7	2	2	
520	157	46	572	233	92	7	2	2	
0	91	0	59	157	31	0	3	3	
0	91	31	59	157	62	0	3	3	
0	91	62	59	157	93	0	3	3	
0	91	93	59	157	124	0	3	3	
0	91	124	59	157	155	0	3	3	
0	91	155	59	157	186	0	3	3	
0	91	186	59	157	217	0	3	3	
59	91	0	118	157	31	0	3	3	
59	91	31	118	157	62	0	3	3	
59	91	62	118	157	93	0	3	3	
59	91	93	118	157	124	0	3	3	
59	91	124	118	157	155	0	3	3	
59	91	155	118	157	186	0	3	3	
59	91	186	118	157	217	0	3	3	
118	91	0	177	157	31	0	3	3	
118	91	31	177	157	62	0	3	3	
118	91	62	177	157	93	0	3	3	
118	91	93	177	157	124	0	3	3	
118	91	124	177	157	155	0	3	3	
118	91	155	177	157	186	0	3	3	
118	91	186	177	157	217	0	3	3	
177	91	0	236	157	31	0	3	3	
177	91	31	236	157	62	0	3	3	
177	91	62	236	157	93	0	3	3	
177	91	93	236	157	124	0	3	3	
177	91	124	236	157	155	0	3	3	
177	91	155	236	157	186	0	3	3	
177	91	186	236	157	217	0	3	3	
236	91	0	295	157	31	0	3	3	
236	91	31	295	157	62	0	3	3	
236	91	62	295	157	93	0	3	3	
236	91	93	295	157	124	0	3	3	
236	91	124	295	157	155	0	3	3	
236	91	155	295	157	186	0	3	3	
236	91	186	295	157	217	0	3	3	
0	159	92	100	196	124	1	4	4	
0	159	124	100	196	156	1	4	4	
0	159	156	100	196	188	1	4	4	
0	159	188	100	196	220	1	4	4	
0	196	92	100	233	124	1	4	4	
0	196	124	100	233	156	1	4	4	
0	196	156	100	233	188	1	4	4	
0	196	188	100	233	220	1	4	4	
100	198	92	159	233	155	2	5	5	
100	198	155	159	233	218	2	5	5	
159	198	92	218	233	155	2	5	5	
159	198	155	218	233	218	2	5	5	
218	198	92	277	233	155	2	5	5	
218	198	155	277	233	218	2	5	5	
277	198	92	336	233	155	2	5	5	
277	198	155	336	233	218	2	5	5	
336	198	92	395	233	155	2	5	5	
336	198	155	395	233	218	2	5	5	
395	198	92	454	233	155	2	5	5	
395	198	155	454	233	218	2	5	5	
454	198	92	513	233	155	2	5	5	
454	198	155	513	233	218	2	5	5	
513	198	92	572	233	155	2	5	5	
513	198	155	572	233	218	2	5	5	
100	161	92	200	198	124	1	6	6	
100	161	124	200	198	156	1	6	6	
100	161	156	200	198	188	1	6	6	
100	161	188	200	198	220	1	6	6	
200	161	92	300	198	124	1	6	6	
200	161	124	300	198	156	1	6	6	
200	161	156	300	198	188	1	6	6	
200	161	188	300	198	220	1	6	6	
300	161	92	400	198	124	1	6	6	
300	161	124	400	198	156	1	6	6	
300	161	156	400	198	188	1	6	6	
300	161	188	400	198	220	1	6	6	
400	161	92	500	198	124	1	6	6	
400	161	124	500	198	156	1	6	6	
400	161	156	500	198	188	1	6	6	
400	161	188	500	198	220	1	6	6	
295	95	0	350	157	44	6	7	7	
295	95	44	350	157	88	6	7	7	
295	95	88	350	157	132	6	7	7	
295	95	132	350	157	176	6	7	7	
295	95	176	350	157	220	6	7	7	
350	95	0	405	157	44	6	7	7	
350	95	44	405	157	88	6	7	7	
350	95	88	405	157	132	6	7	7	
350	95	132	405	157	176	6	7	7	
350	95	176	405	157	220	6	7	7	
405	95	0	460	157	44	6	7	7	
405	95	44	460	157	88	6	7	7	
405	95	88	460	157	132	6	7	7	
405	95	132	460	157	176	6	7	7	
405	95	176	460	157	220	6	7	7	
460	95	0	515	157	44	6	7	7	
460	95	44	515	157	88	6	7	7	
460	95	88	515	157	132	6	7	7	
460	95	132	515	157	176	6	7	7	
460	95	176	515	157	220	6	7	7	
296	0	0	332	95	46	4	8	8	
296	0	46	332	95	92	4	8	8	
332	0	0	368	95	46	4	8	8	
332	0	46	368	95	92	4	8	8	
368	0	0	404	95	46	4	8	8	
368	0	46	404	95	92	4	8	8	
404	0	0	440	95	46	4	8	8	
404	0	46	440	95	92	4	8	8	
440	0	0	476	95	46	4	8	8	
440	0	46	476	95	92	4	8	8	
476	0	0	512	95	46	4	8	8	
476	0	46	512	95	92	4	8	8	
512	0	0	548	95	46	4	8	8	
512	0	46	548	95	92	4	8	8	
548	0	0	584	95	46	4	8	8	
548	0	46	584	95	92	4	8	8	
296	0	92	332	44	141	3	9	9	
296	44	92	332	88	141	3	9	9	
332	0	92	368	44	141	3	9	9	
332	44	92	368	88	141	3	9	9	
368	0	92	404	44	141	3	9	9	
368	44	92	404	88	141	3	9	9	
404	0	92	440	44	141	3	9	9	
404	44	92	440	88	141	3	9	9	
440	0	92	476	44	141	3	9	9	
440	44	92	476	88	141	3	9	9	
476	0	92	512	44	141	3	9	9	
476	44	92	512	88	141	3	9	9	
512	0	92	548	44	141	3	9	9	
512	44	92	548	88	141	3	9	9	
548	0	92	584	44	141	3	9	9	
548	44	92	584	88	141	3	9	9	
296	0	141	345	44	177	3	10	10	
296	0	177	345	44	213	3	10	10	
296	44	141	345	88	177	3	10	10	
296	44	177	345	88	213	3	10	10	
345	0	141	394	44	177	3	11	11	
345	0	177	394	44	213	3	11	11	
345	44	141	394	88	177	3	11	11	
345	44	177	394	88	213	3	11	11	
394	0	141	449	44	203	6	12	12	
394	44	141	449	88	203	6	12	12	
449	0	141	495	52	217	7	13	13	
495	0	141	541	52	217	7	13	13	
449	52	141	512	87	200	2	14	14	
512	52	141	575	87	200	2	14	14	
500	163	92	559	198	155	2	15	15	
500	163	155	559	198	218	2	15	15	
515	98	0	550	157	63	2	16	16	
515	98	63	550	157	126	2	16	16	
515	98	126	550	157	189	2	16	16	
550	98	0	585	157	63	2	16	16	
550	98	63	585	157	126	2	16	16	
550	98	126	585	157	189	2	16	16	
587	0	0	687	37	32	1	17	0	
587	0	32	687	37	64	1	17	0	
587	0	64	687	37	96	1	17	0	
587	0	96	687	37	128	1	17	0	
587	0	128	687	37	160	1	17	0	
587	0	160	687	37	192	1	17	0	
688	0	0	751	59	35	2	18	0	
688	0	35	751	59	70	2	18	0	
688	0	70	751	59	105	2	18	0	
688	0	105	751	59	140	2	18	0	
752	0	0	843	54	37	5	19	0	
844	0	0	920	52	46	7	20	0	
