8	8	587	233	220
27482181	22611481
0	0	0	57	57	107	6	1	1	
0	57	0	57	114	107	6	1	1	
0	114	0	57	171	107	6	1	1	
0	171	0	57	228	107	6	1	1	
57	0	0	114	57	107	6	1	1	
57	57	0	114	114	107	6	1	1	
57	114	0	114	171	107	6	1	1	
57	171	0	114	228	107	6	1	1	
114	0	0	171	57	107	6	1	1	
114	57	0	171	114	107	6	1	1	
114	114	0	171	171	107	6	1	1	
114	171	0	171	228	107	6	1	1	
171	0	0	228	57	107	6	1	1	
171	57	0	228	114	107	6	1	1	
171	114	0	228	171	107	6	1	1	
171	171	0	228	228	107	6	1	1	
0	0	107	39	101	163	4	2	2	
0	0	163	39	101	219	4	2	2	
39	0	107	78	101	163	4	2	2	
39	0	163	78	101	219	4	2	2	
78	0	107	117	101	163	4	2	2	
78	0	163	117	101	219	4	2	2	
117	0	107	156	101	163	4	2	2	
117	0	163	156	101	219	4	2	2	
156	0	107	195	101	163	4	2	2	
156	0	163	195	101	219	4	2	2	
0	112	107	72	170	185	7	3	3	
0	170	107	72	228	185	7	3	3	
72	112	107	144	170	185	7	3	3	
72	170	107	144	228	185	7	3	3	
144	112	107	216	170	185	7	3	3	
144	170	107	216	228	185	7	3	3	
0	112	185	67	228	220	2	4	4	
67	112	185	134	228	220	2	4	4	
134	112	185	201	228	220	2	4	4	
195	0	107	228	55	171	1	5	5	
195	55	107	228	110	171	1	5	5	
228	0	0	344	67	35	2	6	6	
228	0	35	344	67	70	2	6	6	
228	0	70	344	67	105	2	6	6	
228	0	105	344	67	140	2	6	6	
228	0	140	344	67	175	2	6	6	
228	0	175	344	67	210	2	6	6	
344	0	0	460	67	35	2	6	6	
344	0	35	460	67	70	2	6	6	
344	0	70	460	67	105	2	6	6	
344	0	105	460	67	140	2	6	6	
344	0	140	460	67	175	2	6	6	
344	0	175	460	67	210	2	6	6	
228	125	0	328	233	39	5	7	7	
228	125	39	328	233	78	5	7	7	
228	125	78	328	233	117	5	7	7	
228	125	117	328	233	156	5	7	7	
328	125	0	428	233	39	5	7	7	
328	125	39	428	233	78	5	7	7	
328	125	78	428	233	117	5	7	7	
328	125	117	428	233	156	5	7	7	
428	125	0	528	233	39	5	7	7	
428	125	39	528	233	78	5	7	7	
428	125	78	528	233	117	5	7	7	
428	125	117	528	233	156	5	7	7	
228	67	0	306	125	72	7	8	8	
228	67	72	306	125	144	7	8	8	
228	67	144	306	125	216	7	8	8	
306	67	0	384	125	72	7	8	8	
306	67	72	384	125	144	7	8	8	
306	67	144	384	125	216	7	8	8	
384	67	0	462	125	72	7	8	8	
384	67	72	462	125	144	7	8	8	
384	67	144	462	125	216	7	8	8	
228	161	156	265	233	220	3	9	9	
265	161	156	302	233	220	3	9	9	
302	161	156	339	233	220	3	9	9	
339	161	156	376	233	220	3	9	9	
376	161	156	413	233	220	3	9	9	
413	161	156	450	233	220	3	9	9	
450	161	156	487	233	220	3	9	9	
487	161	156	524	233	220	3	9	9	
228	128	156	283	161	220	1	10	10	
283	128	156	338	161	220	1	10	10	
338	128	156	393	161	220	1	10	10	
393	128	156	448	161	220	1	10	10	
448	128	156	503	161	220	1	10	10	
460	0	0	553	66	26	0	11	11	
460	0	26	553	66	52	0	11	11	
460	0	52	553	66	78	0	11	11	
460	0	78	553	66	104	0	11	11	
460	0	104	553	66	130	0	11	11	
460	0	130	553	66	156	0	11	11	
460	0	156	553	66	182	0	11	11	
460	0	182	553	66	208	0	11	11	
462	66	0	569	123	57	6	12	12	
462	66	57	569	123	114	6	12	12	
462	66	114	569	123	171	6	12	12	
462	66	171	563	122	210	4	13	13	
528	169	0	565	233	72	3	14	14	
528	169	72	565	233	144	3	14	14	
528	169	144	565	233	216	3	14	14	
528	136	0	583	169	64	1	15	15	
528	136	64	583	169	128	1	15	15	
528	136	128	583	169	192	1	15	15	
553	0	0	586	64	55	1	16	16	
587	0	0	680	66	26	0	17	0	
587	0	26	680	66	52	0	17	0	
587	0	52	680	66	78	0	17	0	
681	0	0	753	64	37	3	18	0	
681	0	37	753	64	74	3	18	0	
681	0	74	753	64	111	3	18	0	
681	0	111	753	64	148	3	18	0	
681	0	148	753	64	185	3	18	0	
681	0	185	753	64	222	3	18	0	
754	0	0	862	100	39	5	19	0	
754	0	39	862	100	78	5	19	0	
