3	3	587	233	220
26705026	23999886
0	0	0	74	63	61	2	1	1	
0	0	61	74	63	122	2	1	1	
0	0	122	74	63	183	2	1	1	
74	0	0	148	63	61	2	1	1	
74	0	61	148	63	122	2	1	1	
74	0	122	148	63	183	2	1	1	
148	0	0	222	63	61	2	1	1	
148	0	61	222	63	122	2	1	1	
148	0	122	222	63	183	2	1	1	
222	0	0	296	63	61	2	1	1	
222	0	61	296	63	122	2	1	1	
222	0	122	296	63	183	2	1	1	
296	0	0	370	63	61	2	1	1	
296	0	61	370	63	122	2	1	1	
296	0	122	370	63	183	2	1	1	
370	0	0	444	63	61	2	1	1	
370	0	61	444	63	122	2	1	1	
370	0	122	444	63	183	2	1	1	
444	0	0	518	63	61	2	1	1	
444	0	61	518	63	122	2	1	1	
444	0	122	518	63	183	2	1	1	
0	0	183	71	60	208	0	2	2	
71	0	183	142	60	208	0	3	3	
142	0	183	213	60	208	0	3	3	
213	0	183	284	60	208	0	3	3	
284	0	183	355	60	208	0	3	3	
355	0	183	426	60	208	0	3	3	
426	0	183	497	60	208	0	3	3	
0	127	0	80	233	59	1	4	4	
80	127	0	160	233	59	1	4	4	
160	127	0	240	233	59	1	4	4	
240	127	0	320	233	59	1	4	4	
320	127	0	400	233	59	1	4	4	
400	127	0	480	233	59	1	4	4	
480	127	0	560	233	59	1	4	4	
0	63	0	61	126	74	2	5	5	
0	63	74	61	126	148	2	5	5	
61	63	0	122	126	74	2	5	5	
61	63	74	122	126	148	2	5	5	
122	63	0	183	126	74	2	5	5	
122	63	74	183	126	148	2	5	5	
183	63	0	244	126	74	2	5	5	
183	63	74	244	126	148	2	5	5	
244	63	0	305	126	74	2	5	5	
244	63	74	305	126	148	2	5	5	
305	63	0	366	126	74	2	5	5	
305	63	74	366	126	148	2	5	5	
0	127	59	59	233	139	1	6	6	
0	127	139	59	233	219	1	6	6	
59	127	59	118	233	139	1	6	6	
59	127	139	118	233	219	1	6	6	
118	127	59	177	233	139	1	6	6	
118	127	139	177	233	219	1	6	6	
177	127	59	236	233	139	1	6	6	
177	127	139	236	233	219	1	6	6	
236	127	59	295	233	139	1	6	6	
236	127	139	295	233	219	1	6	6	
295	127	59	354	233	139	1	6	6	
295	127	139	354	233	219	1	6	6	
354	127	59	413	233	139	1	6	6	
354	127	139	413	233	219	1	6	6	
413	127	59	472	233	139	1	6	6	
413	127	139	472	233	219	1	6	6	
472	127	59	531	233	139	1	6	6	
472	127	139	531	233	219	1	6	6	
0	63	148	71	123	173	0	7	7	
0	63	173	71	123	198	0	7	7	
71	63	148	142	123	173	0	7	7	
71	63	173	142	123	198	0	7	7	
142	63	148	213	123	173	0	7	7	
142	63	173	213	123	198	0	7	7	
213	63	148	284	123	173	0	7	7	
213	63	173	284	123	198	0	7	7	
284	63	148	355	123	173	0	7	7	
284	63	173	355	123	198	0	7	7	
366	63	0	446	122	106	1	8	8	
366	63	106	446	122	212	1	8	8	
446	63	0	526	122	106	1	8	8	
446	63	106	526	122	212	1	8	8	
526	0	0	585	80	106	1	9	9	
526	0	106	585	80	212	1	9	9	
587	0	0	658	60	25	0	10	0	
587	0	25	658	60	50	0	10	0	
587	0	50	658	60	75	0	10	0	
587	0	75	658	60	100	0	10	0	
587	0	100	658	60	125	0	10	0	
587	0	125	658	60	150	0	10	0	
587	0	150	658	60	175	0	10	0	
587	0	175	658	60	200	0	10	0	
587	0	200	658	60	225	0	10	0	
587	0	225	658	60	250	0	10	0	
587	0	250	658	60	275	0	10	0	
587	0	275	658	60	300	0	10	0	
587	0	300	658	60	325	0	10	0	
587	0	325	658	60	350	0	10	0	
587	0	350	658	60	375	0	10	0	
587	0	375	658	60	400	0	10	0	
587	0	400	658	60	425	0	10	0	
587	0	425	658	60	450	0	10	0	
587	0	450	658	60	475	0	10	0	
659	0	0	765	80	59	1	11	0	
