10	10	587	233	220
27978484	22516948
0	0	0	109	51	92	5	1	1	
0	0	92	109	51	184	5	1	1	
109	0	0	218	51	92	5	1	1	
109	0	92	218	51	184	5	1	1	
218	0	0	327	51	92	5	1	1	
218	0	92	327	51	184	5	1	1	
327	0	0	436	51	92	5	1	1	
327	0	92	436	51	184	5	1	1	
0	0	184	60	44	220	2	2	2	
60	0	184	120	44	220	2	2	2	
120	0	184	180	44	220	2	2	2	
180	0	184	240	44	220	2	2	2	
240	0	184	300	44	220	2	2	2	
300	0	184	360	44	220	2	2	2	
360	0	184	420	44	220	2	2	2	
0	53	0	96	143	55	6	3	3	
0	53	55	96	143	110	6	3	3	
0	53	110	96	143	165	6	3	3	
0	53	165	96	143	220	6	3	3	
0	143	0	96	233	55	6	3	3	
0	143	55	96	233	110	6	3	3	
0	143	110	96	233	165	6	3	3	
0	143	165	96	233	220	6	3	3	
96	115	0	194	233	57	7	4	4	
96	115	57	194	233	114	7	4	4	
96	115	114	194	233	171	7	4	4	
194	115	0	292	233	57	7	4	4	
194	115	57	292	233	114	7	4	4	
194	115	114	292	233	171	7	4	4	
292	115	0	390	233	57	7	4	4	
292	115	57	390	233	114	7	4	4	
292	115	114	390	233	171	7	4	4	
390	115	0	488	233	57	7	4	4	
390	115	57	488	233	114	7	4	4	
390	115	114	488	233	171	7	4	4	
96	51	0	179	115	59	8	5	5	
96	51	59	179	115	118	8	5	5	
96	51	118	179	115	177	8	5	5	
179	51	0	262	115	59	8	5	5	
179	51	59	262	115	118	8	5	5	
179	51	118	262	115	177	8	5	5	
96	51	177	189	82	219	1	6	6	
96	82	177	189	113	219	1	6	6	
189	51	177	241	82	219	0	7	7	
189	82	177	241	113	219	0	7	7	
96	168	171	145	233	219	4	8	8	
145	168	171	194	233	219	4	8	8	
194	168	171	243	233	219	4	8	8	
243	168	171	292	233	219	4	8	8	
292	168	171	341	233	219	4	8	8	
341	168	171	390	233	219	4	8	8	
390	168	171	439	233	219	4	8	8	
439	168	171	488	233	219	4	8	8	
96	120	171	161	168	220	4	9	9	
161	120	171	226	168	220	4	10	10	
226	120	171	291	168	220	4	11	11	
262	51	0	321	115	83	8	12	12	
262	51	83	314	82	125	0	13	13	
262	51	125	314	82	167	0	13	13	
262	51	167	314	82	209	0	13	13	
262	82	83	314	113	125	0	13	13	
262	82	125	314	113	167	0	13	13	
262	82	167	314	113	209	0	13	13	
291	116	171	322	168	213	0	14	14	
322	116	171	353	168	213	0	14	14	
353	116	171	384	168	213	0	14	14	
384	116	171	415	168	213	0	14	14	
415	116	171	446	168	213	0	14	14	
446	116	171	477	168	213	0	14	14	
321	51	0	414	82	42	1	15	15	
321	51	42	414	82	84	1	15	15	
321	51	84	414	82	126	1	15	15	
321	51	126	414	82	168	1	15	15	
321	51	168	414	82	210	1	15	15	
321	82	0	414	113	42	1	15	15	
321	82	42	414	113	84	1	15	15	
321	82	84	414	113	126	1	15	15	
321	82	126	414	113	168	1	15	15	
321	82	168	414	113	210	1	15	15	
414	51	0	512	112	72	9	16	16	
414	51	72	512	112	144	9	16	16	
414	51	144	512	112	216	9	16	16	
436	0	0	545	51	92	5	17	17	
436	0	92	512	40	134	3	18	18	
436	0	134	512	40	176	3	18	18	
436	0	176	512	40	218	3	18	18	
512	0	92	543	42	144	0	19	19	
488	172	0	586	233	72	9	20	20	
488	172	72	586	233	144	9	20	20	
488	172	144	586	233	216	9	20	20	
488	112	0	532	172	36	2	21	21	
532	112	0	576	172	36	2	21	21	
488	132	36	530	172	112	3	22	22	
488	132	112	530	172	188	3	22	22	
530	132	36	572	172	112	3	22	22	
530	132	112	572	172	188	3	22	22	
512	51	0	584	112	98	9	23	23	
512	51	98	584	112	196	9	23	23	
545	0	0	587	40	76	3	24	24	
587	0	0	683	90	55	6	25	0	
587	0	55	683	90	110	6	25	0	
587	0	110	683	90	165	6	25	0	
