12	12	587	233	220
27301585	21060408
0	0	0	74	76	50	7	1	1	
0	0	50	74	76	100	7	1	1	
74	0	0	148	76	50	7	1	1	
74	0	50	148	76	100	7	1	1	
148	0	0	222	76	50	7	1	1	
148	0	50	222	76	100	7	1	1	
222	0	0	296	76	50	7	1	1	
222	0	50	296	76	100	7	1	1	
296	0	0	370	76	50	7	1	1	
296	0	50	370	76	100	7	1	1	
370	0	0	444	76	50	7	1	1	
370	0	50	444	76	100	7	1	1	
444	0	0	518	76	50	7	1	1	
444	0	50	518	76	100	7	1	1	
0	0	100	79	75	168	11	2	2	
79	0	100	158	75	168	11	2	2	
158	0	100	237	75	168	11	2	2	
237	0	100	316	75	168	11	2	2	
316	0	100	395	75	168	11	2	2	
395	0	100	474	75	168	11	2	2	
0	77	0	66	155	80	9	3	3	
0	155	0	66	233	80	9	3	3	
66	77	0	132	155	80	9	3	3	
66	155	0	132	233	80	9	3	3	
132	77	0	198	155	80	9	3	3	
132	155	0	198	233	80	9	3	3	
198	77	0	264	155	80	9	3	3	
198	155	0	264	233	80	9	3	3	
0	0	168	58	74	220	8	4	4	
58	0	168	116	74	220	8	4	4	
116	0	168	174	74	220	8	4	4	
174	0	168	232	74	220	8	4	4	
232	0	168	290	74	220	8	4	4	
290	0	168	348	74	220	8	4	4	
348	0	168	406	74	220	8	4	4	
406	0	168	464	74	220	8	4	4	
0	166	80	99	233	148	10	5	5	
0	166	148	99	233	216	10	5	5	
99	166	80	198	233	148	10	5	5	
99	166	148	198	233	216	10	5	5	
264	134	0	331	233	68	10	6	6	
264	134	68	331	233	136	10	6	6	
264	134	136	331	233	204	10	6	6	
331	134	0	398	233	68	10	6	6	
331	134	68	398	233	136	10	6	6	
331	134	136	398	233	204	10	6	6	
398	134	0	465	233	68	10	6	6	
398	134	68	465	233	136	10	6	6	
398	134	136	465	233	204	10	6	6	
264	76	0	309	133	65	5	7	7	
264	76	65	309	133	130	5	7	7	
264	76	130	309	133	195	5	7	7	
309	76	0	354	133	65	5	7	7	
309	76	65	354	133	130	5	7	7	
309	76	130	354	133	195	5	7	7	
354	76	0	399	133	65	5	7	7	
354	76	65	399	133	130	5	7	7	
354	76	130	399	133	195	5	7	7	
399	76	0	444	133	65	5	7	7	
399	76	65	444	133	130	5	7	7	
399	76	130	444	133	195	5	7	7	
0	77	80	65	166	116	3	8	8	
0	77	116	65	166	152	3	8	8	
0	77	152	65	166	188	3	8	8	
65	77	80	130	166	116	3	8	8	
65	77	116	130	166	152	3	8	8	
65	77	152	130	166	188	3	8	8	
130	77	80	195	166	116	3	8	8	
130	77	116	195	166	152	3	8	8	
130	77	152	195	166	188	3	8	8	
195	77	80	260	166	116	3	8	8	
195	77	116	260	166	152	3	8	8	
195	77	152	260	166	188	3	8	8	
0	86	188	86	126	217	0	9	9	
0	126	188	86	166	217	0	9	9	
86	86	188	172	126	217	0	9	9	
86	126	188	172	166	217	0	9	9	
172	86	188	258	126	217	0	9	9	
172	126	188	258	166	217	0	9	9	
198	185	80	253	233	146	6	10	10	
198	185	146	253	233	212	6	10	10	
444	76	0	499	124	66	6	11	11	
444	76	66	499	124	132	6	11	11	
444	76	132	499	124	198	6	11	11	
499	76	0	554	124	66	6	11	11	
499	76	66	554	124	132	6	11	11	
499	76	132	554	124	198	6	11	11	
465	131	0	548	233	29	1	12	12	
465	131	29	548	233	58	1	12	12	
465	131	58	548	233	87	1	12	12	
465	131	87	548	233	116	1	12	12	
465	131	116	548	233	145	1	12	12	
465	131	145	548	233	174	1	12	12	
465	131	174	548	233	203	1	12	12	
474	0	100	511	75	157	4	13	13	
474	0	157	511	75	214	4	13	13	
518	0	0	586	67	99	10	14	14	
518	0	99	586	67	198	10	14	14	
548	158	0	585	233	57	4	15	15	
548	158	57	585	233	114	4	15	15	
548	158	114	585	233	171	4	15	15	
554	67	0	583	153	40	0	16	16	
587	0	0	699	59	30	2	17	0	
587	0	30	699	59	60	2	17	0	
587	0	60	699	59	90	2	17	0	
587	0	90	699	59	120	2	17	0	
587	0	120	699	59	150	2	17	0	
587	0	150	699	59	180	2	17	0	
700	0	0	766	55	48	6	18	0	
767	0	0	843	74	50	7	19	0	
767	0	50	843	74	100	7	19	0	
844	0	0	918	58	52	8	20	0	
