3	3	587	233	220
25866168	21153240
0	0	0	92	73	89	2	1	1	
0	73	0	92	146	89	2	1	1	
0	146	0	92	219	89	2	1	1	
92	0	0	184	73	89	2	1	1	
92	73	0	184	146	89	2	1	1	
92	146	0	184	219	89	2	1	1	
184	0	0	276	73	89	2	1	1	
184	73	0	276	146	89	2	1	1	
184	146	0	276	219	89	2	1	1	
276	0	0	368	73	89	2	1	1	
276	73	0	368	146	89	2	1	1	
276	146	0	368	219	89	2	1	1	
368	0	0	460	73	89	2	1	1	
368	73	0	460	146	89	2	1	1	
368	146	0	460	219	89	2	1	1	
460	0	0	552	73	89	2	1	1	
460	73	0	552	146	89	2	1	1	
460	146	0	552	219	89	2	1	1	
0	0	89	88	88	132	1	2	2	
0	0	132	88	88	175	1	2	2	
0	0	175	88	88	218	1	2	2	
88	0	89	176	88	132	1	2	2	
88	0	132	176	88	175	1	2	2	
88	0	175	176	88	218	1	2	2	
176	0	89	264	88	132	1	2	2	
176	0	132	264	88	175	1	2	2	
176	0	175	264	88	218	1	2	2	
264	0	89	352	88	132	1	2	2	
264	0	132	352	88	175	1	2	2	
264	0	175	352	88	218	1	2	2	
352	0	89	440	88	132	1	2	2	
352	0	132	440	88	175	1	2	2	
352	0	175	440	88	218	1	2	2	
440	0	89	528	88	132	1	2	2	
440	0	132	528	88	175	1	2	2	
440	0	175	528	88	218	1	2	2	
0	131	89	88	219	132	1	3	3	
0	131	132	88	219	175	1	3	3	
0	131	175	88	219	218	1	3	3	
88	131	89	176	219	132	1	3	3	
88	131	132	176	219	175	1	3	3	
88	131	175	176	219	218	1	3	3	
176	131	89	264	219	132	1	3	3	
176	131	132	264	219	175	1	3	3	
176	131	175	264	219	218	1	3	3	
264	131	89	352	219	132	1	3	3	
264	131	132	352	219	175	1	3	3	
264	131	175	352	219	218	1	3	3	
352	131	89	440	219	132	1	3	3	
352	131	132	440	219	175	1	3	3	
352	131	175	440	219	218	1	3	3	
0	88	89	104	118	144	0	4	4	
0	88	144	104	118	199	0	4	4	
104	88	89	208	118	144	0	4	4	
104	88	144	208	118	199	0	4	4	
208	88	89	312	118	144	0	4	4	
208	88	144	312	118	199	0	4	4	
312	88	89	416	118	144	0	4	4	
312	88	144	416	118	199	0	4	4	
416	88	89	520	118	144	0	4	4	
416	88	144	520	118	199	0	4	4	
440	129	89	544	159	144	0	5	5	
440	129	144	544	159	199	0	5	5	
440	159	89	544	189	144	0	5	5	
440	159	144	544	189	199	0	5	5	
440	189	89	544	219	144	0	5	5	
440	189	144	544	219	199	0	5	5	
552	0	0	582	104	55	0	6	6	
552	0	55	582	104	110	0	6	6	
552	0	110	582	104	165	0	6	6	
552	0	165	582	104	220	0	6	6	
552	104	0	582	208	55	0	6	6	
552	104	55	582	208	110	0	6	6	
552	104	110	582	208	165	0	6	6	
552	104	165	582	208	220	0	6	6	
587	0	0	691	55	30	0	7	0	
692	0	0	784	89	73	2	8	0	
692	0	73	784	89	146	2	8	0	
692	0	146	784	89	219	2	8	0	
692	0	219	784	89	292	2	8	0	
692	0	292	784	89	365	2	8	0	
