3	3	587	233	220
29075400	26683776
0	0	0	31	76	45	1	1	1	
0	0	45	31	76	90	1	1	1	
0	0	90	31	76	135	1	1	1	
0	0	135	31	76	180	1	1	1	
31	0	0	62	76	45	1	1	1	
31	0	45	62	76	90	1	1	1	
31	0	90	62	76	135	1	1	1	
31	0	135	62	76	180	1	1	1	
62	0	0	93	76	45	1	1	1	
62	0	45	93	76	90	1	1	1	
62	0	90	93	76	135	1	1	1	
62	0	135	93	76	180	1	1	1	
93	0	0	124	76	45	1	1	1	
93	0	45	124	76	90	1	1	1	
93	0	90	124	76	135	1	1	1	
93	0	135	124	76	180	1	1	1	
124	0	0	155	76	45	1	1	1	
124	0	45	155	76	90	1	1	1	
124	0	90	155	76	135	1	1	1	
124	0	135	155	76	180	1	1	1	
155	0	0	186	76	45	1	1	1	
155	0	45	186	76	90	1	1	1	
155	0	90	186	76	135	1	1	1	
155	0	135	186	76	180	1	1	1	
186	0	0	217	76	45	1	1	1	
186	0	45	217	76	90	1	1	1	
186	0	90	217	76	135	1	1	1	
186	0	135	217	76	180	1	1	1	
217	0	0	248	76	45	1	1	1	
217	0	45	248	76	90	1	1	1	
217	0	90	248	76	135	1	1	1	
217	0	135	248	76	180	1	1	1	
248	0	0	279	76	45	1	1	1	
248	0	45	279	76	90	1	1	1	
248	0	90	279	76	135	1	1	1	
248	0	135	279	76	180	1	1	1	
279	0	0	310	76	45	1	1	1	
279	0	45	310	76	90	1	1	1	
279	0	90	310	76	135	1	1	1	
279	0	135	310	76	180	1	1	1	
310	0	0	341	76	45	1	1	1	
310	0	45	341	76	90	1	1	1	
310	0	90	341	76	135	1	1	1	
310	0	135	341	76	180	1	1	1	
341	0	0	372	76	45	1	1	1	
341	0	45	372	76	90	1	1	1	
341	0	90	372	76	135	1	1	1	
341	0	135	372	76	180	1	1	1	
372	0	0	403	76	45	1	1	1	
372	0	45	403	76	90	1	1	1	
372	0	90	403	76	135	1	1	1	
372	0	135	403	76	180	1	1	1	
403	0	0	434	76	45	1	1	1	
403	0	45	434	76	90	1	1	1	
403	0	90	434	76	135	1	1	1	
403	0	135	434	76	180	1	1	1	
434	0	0	465	76	45	1	1	1	
434	0	45	465	76	90	1	1	1	
434	0	90	465	76	135	1	1	1	
434	0	135	465	76	180	1	1	1	
465	0	0	496	76	45	1	1	1	
465	0	45	496	76	90	1	1	1	
465	0	90	496	76	135	1	1	1	
465	0	135	496	76	180	1	1	1	
496	0	0	527	76	45	1	1	1	
496	0	45	527	76	90	1	1	1	
496	0	90	527	76	135	1	1	1	
496	0	135	527	76	180	1	1	1	
527	0	0	558	76	45	1	1	1	
527	0	45	558	76	90	1	1	1	
527	0	90	558	76	135	1	1	1	
527	0	135	558	76	180	1	1	1	
0	0	180	21	36	220	0	2	2	
0	36	180	21	72	220	0	2	2	
21	0	180	42	36	220	0	2	2	
21	36	180	42	72	220	0	2	2	
42	0	180	63	36	220	0	2	2	
42	36	180	63	72	220	0	2	2	
63	0	180	84	36	220	0	2	2	
63	36	180	84	72	220	0	2	2	
84	0	180	105	36	220	0	2	2	
84	36	180	105	72	220	0	2	2	
105	0	180	126	36	220	0	2	2	
105	36	180	126	72	220	0	2	2	
126	0	180	147	36	220	0	2	2	
126	36	180	147	72	220	0	2	2	
147	0	180	168	36	220	0	2	2	
147	36	180	168	72	220	0	2	2	
168	0	180	189	36	220	0	2	2	
168	36	180	189	72	220	0	2	2	
189	0	180	210	36	220	0	2	2	
189	36	180	210	72	220	0	2	2	
210	0	180	231	36	220	0	2	2	
210	36	180	231	72	220	0	2	2	
231	0	180	252	36	220	0	2	2	
231	36	180	252	72	220	0	2	2	
252	0	180	273	36	220	0	2	2	
252	36	180	273	72	220	0	2	2	
273	0	180	294	36	220	0	2	2	
273	36	180	294	72	220	0	2	2	
294	0	180	315	36	220	0	2	2	
294	36	180	315	72	220	0	2	2	
315	0	180	336	36	220	0	2	2	
315	36	180	336	72	220	0	2	2	
336	0	180	357	36	220	0	2	2	
336	36	180	357	72	220	0	2	2	
357	0	180	378	36	220	0	2	2	
357	36	180	378	72	220	0	2	2	
378	0	180	399	36	220	0	2	2	
378	36	180	399	72	220	0	2	2	
399	0	180	420	36	220	0	2	2	
399	36	180	420	72	220	0	2	2	
420	0	180	441	36	220	0	2	2	
420	36	180	441	72	220	0	2	2	
441	0	180	462	36	220	0	2	2	
441	36	180	462	72	220	0	2	2	
462	0	180	483	36	220	0	2	2	
462	36	180	483	72	220	0	2	2	
483	0	180	504	36	220	0	2	2	
483	36	180	504	72	220	0	2	2	
504	0	180	525	36	220	0	2	2	
504	36	180	525	72	220	0	2	2	
525	0	180	546	36	220	0	2	2	
525	36	180	546	72	220	0	2	2	
0	80	0	54	131	63	2	3	3	
0	131	0	54	182	63	2	3	3	
0	182	0	54	233	63	2	3	3	
54	80	0	108	131	63	2	3	3	
54	131	0	108	182	63	2	3	3	
54	182	0	108	233	63	2	3	3	
108	80	0	162	131	63	2	3	3	
108	131	0	162	182	63	2	3	3	
108	182	0	162	233	63	2	3	3	
162	80	0	216	131	63	2	3	3	
162	131	0	216	182	63	2	3	3	
162	182	0	216	233	63	2	3	3	
216	80	0	270	131	63	2	3	3	
216	131	0	270	182	63	2	3	3	
216	182	0	270	233	63	2	3	3	
270	80	0	324	131	63	2	3	3	
270	131	0	324	182	63	2	3	3	
270	182	0	324	233	63	2	3	3	
324	80	0	378	131	63	2	3	3	
324	131	0	378	182	63	2	3	3	
324	182	0	378	233	63	2	3	3	
378	80	0	432	131	63	2	3	3	
378	131	0	432	182	63	2	3	3	
378	182	0	432	233	63	2	3	3	
432	80	0	486	131	63	2	3	3	
432	131	0	486	182	63	2	3	3	
432	182	0	486	233	63	2	3	3	
486	80	0	540	131	63	2	3	3	
486	131	0	540	182	63	2	3	3	
486	182	0	540	233	63	2	3	3	
0	80	63	54	131	126	2	4	4	
0	131	63	54	182	126	2	4	4	
0	182	63	54	233	126	2	4	4	
54	80	63	108	131	126	2	4	4	
54	131	63	108	182	126	2	4	4	
54	182	63	108	233	126	2	4	4	
108	80	63	162	131	126	2	4	4	
108	131	63	162	182	126	2	4	4	
108	182	63	162	233	126	2	4	4	
162	80	63	216	131	126	2	4	4	
162	131	63	216	182	126	2	4	4	
162	182	63	216	233	126	2	4	4	
216	80	63	270	131	126	2	4	4	
216	131	63	270	182	126	2	4	4	
216	182	63	270	233	126	2	4	4	
270	80	63	324	131	126	2	4	4	
270	131	63	324	182	126	2	4	4	
270	182	63	324	233	126	2	4	4	
324	80	63	378	131	126	2	4	4	
324	131	63	378	182	126	2	4	4	
324	182	63	378	233	126	2	4	4	
378	80	63	432	131	126	2	4	4	
378	131	63	432	182	126	2	4	4	
378	182	63	432	233	126	2	4	4	
432	80	63	486	131	126	2	4	4	
432	131	63	486	182	126	2	4	4	
432	182	63	486	233	126	2	4	4	
486	80	63	540	131	126	2	4	4	
486	131	63	540	182	126	2	4	4	
486	182	63	540	233	126	2	4	4	
0	80	126	54	131	189	2	5	5	
0	131	126	54	182	189	2	5	5	
0	182	126	54	233	189	2	5	5	
54	80	126	108	131	189	2	5	5	
54	131	126	108	182	189	2	5	5	
54	182	126	108	233	189	2	5	5	
108	80	126	162	131	189	2	5	5	
108	131	126	162	182	189	2	5	5	
108	182	126	162	233	189	2	5	5	
162	80	126	216	131	189	2	5	5	
162	131	126	216	182	189	2	5	5	
162	182	126	216	233	189	2	5	5	
216	80	126	270	131	189	2	5	5	
216	131	126	270	182	189	2	5	5	
216	182	126	270	233	189	2	5	5	
270	80	126	324	131	189	2	5	5	
270	131	126	324	182	189	2	5	5	
270	182	126	324	233	189	2	5	5	
324	80	126	378	131	189	2	5	5	
324	131	126	378	182	189	2	5	5	
324	182	126	378	233	189	2	5	5	
378	80	126	432	131	189	2	5	5	
378	131	126	432	182	189	2	5	5	
378	182	126	432	233	189	2	5	5	
432	80	126	486	131	189	2	5	5	
432	131	126	486	182	189	2	5	5	
432	182	126	486	233	189	2	5	5	
486	80	126	540	131	189	2	5	5	
486	131	126	540	182	189	2	5	5	
486	182	126	540	233	189	2	5	5	
0	81	189	45	157	220	1	6	6	
0	157	189	45	233	220	1	6	6	
45	81	189	90	157	220	1	7	7	
45	157	189	90	233	220	1	7	7	
90	81	189	135	157	220	1	8	8	
90	157	189	135	233	220	1	8	8	
135	81	189	180	157	220	1	9	9	
135	157	189	180	233	220	1	9	9	
180	81	189	225	157	220	1	10	10	
180	157	189	225	233	220	1	10	10	
225	81	189	270	157	220	1	11	11	
225	157	189	270	233	220	1	11	11	
270	81	189	315	157	220	1	11	11	
270	157	189	315	233	220	1	11	11	
315	81	189	360	157	220	1	11	11	
315	157	189	360	233	220	1	11	11	
360	81	189	405	157	220	1	11	11	
360	157	189	405	233	220	1	11	11	
405	81	189	450	157	220	1	11	11	
405	157	189	450	233	220	1	11	11	
450	81	189	495	157	220	1	11	11	
450	157	189	495	233	220	1	11	11	
495	81	189	540	157	220	1	11	11	
495	157	189	540	233	220	1	11	11	
540	157	0	585	233	31	1	12	12	
540	157	31	585	233	62	1	12	12	
540	157	62	585	233	93	1	12	12	
540	157	93	585	233	124	1	12	12	
540	157	124	585	233	155	1	12	12	
540	157	155	585	233	186	1	12	12	
540	157	186	585	233	217	1	12	12	
540	76	0	561	116	36	0	13	13	
540	76	36	561	116	72	0	13	13	
540	76	72	561	116	108	0	13	13	
540	76	108	561	116	144	0	13	13	
540	76	144	561	116	180	0	13	13	
540	76	180	561	116	216	0	13	13	
540	116	0	561	156	36	0	13	13	
540	116	36	561	156	72	0	13	13	
540	116	72	561	156	108	0	13	13	
540	116	108	561	156	144	0	13	13	
540	116	144	561	156	180	0	13	13	
540	116	180	561	156	216	0	13	13	
558	0	0	579	36	40	0	14	14	
558	0	40	579	36	80	0	14	14	
558	0	80	579	36	120	0	14	14	
558	0	120	579	36	160	0	14	14	
558	0	160	579	36	200	0	14	14	
558	36	0	579	72	40	0	14	14	
558	36	40	579	72	80	0	14	14	
558	36	80	579	72	120	0	14	14	
558	36	120	579	72	160	0	14	14	
558	36	160	579	72	200	0	14	14	
561	72	0	582	112	36	0	15	15	
561	72	36	582	112	72	0	15	15	
561	72	72	582	112	108	0	15	15	
561	72	108	582	112	144	0	15	15	
561	72	144	582	112	180	0	15	15	
561	72	180	582	112	216	0	15	15	
561	117	0	582	157	36	0	16	16	
561	117	36	582	157	72	0	16	16	
561	117	72	582	157	108	0	16	16	
561	117	108	582	157	144	0	16	16	
587	0	0	650	54	51	2	17	0	
587	0	51	650	54	102	2	17	0	
587	0	102	650	54	153	2	17	0	
587	0	153	650	54	204	2	17	0	
