3	3	587	233	220
27366554	21168636
0	0	0	38	95	58	0	1	1	
0	0	58	38	95	116	0	1	1	
0	0	116	38	95	174	0	1	1	
38	0	0	76	95	58	0	1	1	
38	0	58	76	95	116	0	1	1	
38	0	116	76	95	174	0	1	1	
76	0	0	114	95	58	0	1	1	
76	0	58	114	95	116	0	1	1	
76	0	116	114	95	174	0	1	1	
114	0	0	152	95	58	0	1	1	
114	0	58	152	95	116	0	1	1	
114	0	116	152	95	174	0	1	1	
152	0	0	190	95	58	0	1	1	
152	0	58	190	95	116	0	1	1	
152	0	116	190	95	174	0	1	1	
190	0	0	228	95	58	0	1	1	
190	0	58	228	95	116	0	1	1	
190	0	116	228	95	174	0	1	1	
228	0	0	266	95	58	0	1	1	
228	0	58	266	95	116	0	1	1	
228	0	116	266	95	174	0	1	1	
266	0	0	304	95	58	0	1	1	
266	0	58	304	95	116	0	1	1	
266	0	116	304	95	174	0	1	1	
304	0	0	342	95	58	0	1	1	
304	0	58	342	95	116	0	1	1	
304	0	116	342	95	174	0	1	1	
342	0	0	380	95	58	0	1	1	
342	0	58	380	95	116	0	1	1	
342	0	116	380	95	174	0	1	1	
380	0	0	418	95	58	0	1	1	
380	0	58	418	95	116	0	1	1	
380	0	116	418	95	174	0	1	1	
418	0	0	456	95	58	0	1	1	
418	0	58	456	95	116	0	1	1	
418	0	116	456	95	174	0	1	1	
456	0	0	494	95	58	0	1	1	
456	0	58	494	95	116	0	1	1	
456	0	116	494	95	174	0	1	1	
494	0	0	532	95	58	0	1	1	
494	0	58	532	95	116	0	1	1	
494	0	116	532	95	174	0	1	1	
532	0	0	570	95	58	0	1	1	
532	0	58	570	95	116	0	1	1	
532	0	116	570	95	174	0	1	1	
0	174	0	48	233	49	2	2	2	
0	174	49	48	233	98	2	2	2	
0	174	98	48	233	147	2	2	2	
48	174	0	96	233	49	2	2	2	
48	174	49	96	233	98	2	2	2	
48	174	98	96	233	147	2	2	2	
96	174	0	144	233	49	2	2	2	
96	174	49	144	233	98	2	2	2	
96	174	98	144	233	147	2	2	2	
144	174	0	192	233	49	2	2	2	
144	174	49	192	233	98	2	2	2	
144	174	98	192	233	147	2	2	2	
192	174	0	240	233	49	2	2	2	
192	174	49	240	233	98	2	2	2	
192	174	98	240	233	147	2	2	2	
240	174	0	288	233	49	2	2	2	
240	174	49	288	233	98	2	2	2	
240	174	98	288	233	147	2	2	2	
288	174	0	336	233	49	2	2	2	
288	174	49	336	233	98	2	2	2	
288	174	98	336	233	147	2	2	2	
336	174	0	384	233	49	2	2	2	
336	174	49	384	233	98	2	2	2	
336	174	98	384	233	147	2	2	2	
384	174	0	432	233	49	2	2	2	
384	174	49	432	233	98	2	2	2	
384	174	98	432	233	147	2	2	2	
432	174	0	480	233	49	2	2	2	
432	174	49	480	233	98	2	2	2	
432	174	98	480	233	147	2	2	2	
480	174	0	528	233	49	2	2	2	
480	174	49	528	233	98	2	2	2	
480	174	98	528	233	147	2	2	2	
528	174	0	576	233	49	2	2	2	
528	174	49	576	233	98	2	2	2	
528	174	98	576	233	147	2	2	2	
0	95	0	63	174	46	1	3	3	
63	95	0	126	174	46	1	3	3	
126	95	0	189	174	46	1	3	3	
189	95	0	252	174	46	1	3	3	
252	95	0	315	174	46	1	3	3	
315	95	0	378	174	46	1	3	3	
378	95	0	441	174	46	1	3	3	
441	95	0	504	174	46	1	3	3	
504	95	0	567	174	46	1	3	3	
0	0	174	63	79	220	1	4	4	
63	0	174	126	79	220	1	4	4	
126	0	174	189	79	220	1	4	4	
189	0	174	252	79	220	1	4	4	
252	0	174	315	79	220	1	4	4	
315	0	174	378	79	220	1	4	4	
378	0	174	441	79	220	1	4	4	
441	0	174	504	79	220	1	4	4	
504	0	174	567	79	220	1	4	4	
0	174	147	48	233	196	2	5	5	
0	98	46	95	136	104	0	6	6	
0	98	104	95	136	162	0	6	6	
0	98	162	95	136	220	0	6	6	
0	136	46	95	174	104	0	6	6	
0	136	104	95	174	162	0	6	6	
0	136	162	95	174	220	0	6	6	
48	174	147	96	233	196	2	7	7	
96	174	147	144	233	196	2	7	7	
144	174	147	192	233	196	2	7	7	
192	174	147	240	233	196	2	7	7	
240	174	147	288	233	196	2	7	7	
288	174	147	336	233	196	2	7	7	
336	175	147	431	233	185	0	8	8	
431	175	147	526	233	185	0	8	8	
95	95	46	141	174	109	1	9	9	
95	95	109	141	174	172	1	9	9	
141	95	46	187	174	109	1	9	9	
141	95	109	187	174	172	1	9	9	
187	95	46	233	174	109	1	9	9	
187	95	109	233	174	172	1	9	9	
233	95	46	279	174	109	1	9	9	
233	95	109	279	174	172	1	9	9	
279	95	46	325	174	109	1	9	9	
279	95	109	325	174	172	1	9	9	
325	95	46	371	174	109	1	9	9	
325	95	109	371	174	172	1	9	9	
371	95	46	417	174	109	1	9	9	
371	95	109	417	174	172	1	9	9	
417	95	46	463	174	109	1	9	9	
417	95	109	463	174	172	1	9	9	
463	95	46	509	174	109	1	9	9	
463	95	109	509	174	172	1	9	9	
509	95	46	555	174	109	1	9	9	
509	95	109	555	174	172	1	9	9	
95	95	172	158	174	218	1	10	10	
158	95	172	221	174	218	1	10	10	
221	95	172	284	174	218	1	10	10	
284	95	172	347	174	218	1	10	10	
347	95	172	410	174	218	1	10	10	
410	95	172	473	174	218	1	10	10	
473	95	172	536	174	218	1	10	10	
587	0	0	682	58	38	0	11	0	
587	0	38	682	58	76	0	11	0	
587	0	76	682	58	114	0	11	0	
683	0	0	762	63	46	1	12	0	
683	0	46	762	63	92	1	12	0	
683	0	92	762	63	138	1	12	0	
683	0	138	762	63	184	1	12	0	
683	0	184	762	63	230	1	12	0	
683	0	230	762	63	276	1	12	0	
683	0	276	762	63	322	1	12	0	
683	0	322	762	63	368	1	12	0	
