10	10	587	233	220
27989254	24726466
0	0	0	70	73	107	8	1	1	
70	0	0	140	73	107	8	1	1	
140	0	0	210	73	107	8	1	1	
210	0	0	280	73	107	8	1	1	
280	0	0	350	73	107	8	1	1	
350	0	0	420	73	107	8	1	1	
420	0	0	490	73	107	8	1	1	
0	159	0	79	233	84	9	2	2	
0	159	84	79	233	168	9	2	2	
79	159	0	158	233	84	9	2	2	
79	159	84	158	233	168	9	2	2	
158	159	0	237	233	84	9	2	2	
158	159	84	237	233	168	9	2	2	
237	159	0	316	233	84	9	2	2	
237	159	84	316	233	168	9	2	2	
316	159	0	395	233	84	9	2	2	
316	159	84	395	233	168	9	2	2	
0	159	168	73	233	210	4	3	3	
73	159	168	146	233	210	4	3	3	
146	159	168	219	233	210	4	3	3	
219	159	168	292	233	210	4	3	3	
292	159	168	365	233	210	4	3	3	
0	0	107	54	73	187	5	4	4	
54	0	107	108	73	187	5	4	4	
108	0	107	162	73	187	5	4	4	
162	0	107	216	73	187	5	4	4	
216	0	107	270	73	187	5	4	4	
270	0	107	324	73	187	5	4	4	
324	0	107	378	73	187	5	4	4	
378	0	107	432	73	187	5	4	4	
432	0	107	486	73	187	5	4	4	
0	0	187	41	72	220	2	5	5	
41	0	187	82	72	220	2	5	5	
82	0	187	123	72	220	2	5	5	
123	0	187	164	72	220	2	5	5	
164	0	187	205	72	220	2	5	5	
205	0	187	246	72	220	2	5	5	
246	0	187	287	72	220	2	5	5	
287	0	187	328	72	220	2	5	5	
328	0	187	369	72	220	2	5	5	
369	0	187	410	72	220	2	5	5	
410	0	187	451	72	220	2	5	5	
0	73	0	74	115	73	4	6	6	
0	115	0	74	157	73	4	6	6	
74	73	0	148	115	73	4	6	6	
74	115	0	148	157	73	4	6	6	
148	73	0	222	115	73	4	6	6	
148	115	0	222	157	73	4	6	6	
222	73	0	296	115	73	4	6	6	
222	115	0	296	157	73	4	6	6	
296	73	0	370	115	73	4	6	6	
296	115	0	370	157	73	4	6	6	
370	73	0	444	115	73	4	6	6	
370	115	0	444	157	73	4	6	6	
444	73	0	518	115	73	4	6	6	
444	115	0	518	157	73	4	6	6	
0	73	73	96	156	97	1	7	7	
0	73	97	96	156	121	1	7	7	
0	73	121	96	156	145	1	7	7	
96	73	73	192	156	97	1	7	7	
96	73	97	192	156	121	1	7	7	
96	73	121	192	156	145	1	7	7	
192	73	73	288	156	97	1	7	7	
192	73	97	288	156	121	1	7	7	
192	73	121	288	156	145	1	7	7	
288	73	73	384	156	97	1	7	7	
288	73	97	384	156	121	1	7	7	
288	73	121	384	156	145	1	7	7	
384	73	73	480	156	97	1	7	7	
384	73	97	480	156	121	1	7	7	
384	73	121	480	156	145	1	7	7	
0	73	145	67	147	182	3	8	8	
0	73	182	67	147	219	3	8	8	
67	73	145	134	147	182	3	8	8	
67	73	182	134	147	219	3	8	8	
134	73	145	201	147	182	3	8	8	
134	73	182	201	147	219	3	8	8	
201	73	145	268	147	182	3	8	8	
201	73	182	268	147	219	3	8	8	
268	73	145	335	147	182	3	8	8	
268	73	182	335	147	219	3	8	8	
335	73	145	402	147	182	3	8	8	
335	73	182	402	147	219	3	8	8	
402	73	145	469	147	182	3	8	8	
402	73	182	469	147	219	3	8	8	
365	193	168	385	233	205	0	9	9	
395	165	0	459	233	109	7	10	10	
395	165	109	459	233	218	7	10	10	
459	165	0	523	233	109	7	10	10	
459	165	109	523	233	218	7	10	10	
523	165	0	587	233	109	7	10	10	
523	165	109	587	233	218	7	10	10	
480	73	73	517	113	93	0	11	11	
480	73	93	517	113	113	0	11	11	
480	73	113	517	113	133	0	11	11	
480	73	133	517	113	153	0	11	11	
480	73	153	517	113	173	0	11	11	
480	73	173	517	113	193	0	11	11	
480	113	73	517	153	93	0	11	11	
480	113	93	517	153	113	0	11	11	
480	113	113	517	153	133	0	11	11	
480	113	133	517	153	153	0	11	11	
480	113	153	517	153	173	0	11	11	
480	113	173	517	153	193	0	11	11	
480	73	193	517	113	213	0	12	12	
490	0	0	570	73	54	5	13	13	
490	0	54	570	73	108	5	13	13	
490	0	108	570	73	162	5	13	13	
490	0	162	570	73	216	5	13	13	
518	81	0	576	165	55	6	14	14	
518	81	55	576	165	110	6	14	14	
518	81	110	576	165	165	6	14	14	
518	81	165	576	165	220	6	14	14	
587	0	0	683	83	24	1	15	0	
684	0	0	756	41	33	2	16	0	
684	0	33	756	41	66	2	16	0	
757	0	0	831	73	42	4	17	0	
832	0	0	916	58	55	6	18	0	
832	0	55	916	58	110	6	18	0	
832	0	110	916	58	165	6	18	0	
