20	20	587	233	220
26873860	20863850
0	0	0	113	75	68	19	1	1	
0	0	68	113	75	136	19	1	1	
0	0	136	113	75	204	19	1	1	
113	0	0	226	75	68	19	1	1	
113	0	68	226	75	136	19	1	1	
113	0	136	226	75	204	19	1	1	
226	0	0	339	75	68	19	1	1	
226	0	68	339	75	136	19	1	1	
226	0	136	339	75	204	19	1	1	
339	0	0	452	75	68	19	1	1	
339	0	68	452	75	136	19	1	1	
339	0	136	452	75	204	19	1	1	
452	0	0	565	75	68	19	1	1	
452	0	68	565	75	136	19	1	1	
452	0	136	565	75	204	19	1	1	
0	83	0	92	133	87	16	2	2	
0	83	87	92	133	174	16	2	2	
0	133	0	92	183	87	16	2	2	
0	133	87	92	183	174	16	2	2	
0	183	0	92	233	87	16	2	2	
0	183	87	92	233	174	16	2	2	
0	123	174	38	178	217	9	3	3	
0	178	174	38	233	217	9	3	3	
38	123	174	76	178	217	9	3	3	
38	178	174	76	233	217	9	3	3	
0	83	174	55	121	217	9	4	4	
92	169	0	172	233	79	17	5	5	
172	169	0	252	233	79	17	5	5	
252	169	0	332	233	79	17	5	5	
332	169	0	412	233	79	17	5	5	
412	169	0	492	233	79	17	5	5	
92	169	79	197	201	110	7	6	6	
92	169	110	197	201	141	7	6	6	
92	201	79	197	233	110	7	6	6	
92	201	110	197	233	141	7	6	6	
92	169	141	145	201	195	8	7	7	
92	201	141	145	233	195	8	7	7	
92	75	0	146	122	60	14	8	8	
92	122	0	146	169	60	14	8	8	
92	109	60	146	169	107	14	9	9	
92	116	107	146	169	139	8	10	10	
145	178	141	188	233	179	9	11	11	
146	76	0	215	169	42	12	12	12	
146	76	42	215	169	84	12	12	12	
146	76	84	215	169	126	12	12	12	
146	76	126	215	169	168	12	12	12	
146	76	168	215	169	210	12	12	12	
197	170	79	307	233	108	5	13	13	
197	170	108	307	233	137	5	13	13	
197	170	137	307	233	166	5	13	13	
197	170	166	307	233	195	5	13	13	
197	173	195	262	203	216	1	14	14	
197	203	195	262	233	216	1	14	14	
215	77	0	289	169	67	18	15	15	
215	77	67	289	169	134	18	15	15	
289	77	0	363	169	67	18	15	15	
289	77	67	363	169	134	18	15	15	
363	77	0	437	169	67	18	15	15	
363	77	67	437	169	134	18	15	15	
437	77	0	511	169	67	18	15	15	
437	77	67	511	169	134	18	15	15	
511	77	0	585	169	67	18	15	15	
511	77	67	585	169	134	18	15	15	
215	77	134	282	169	208	18	16	16	
282	77	134	372	123	215	13	17	17	
282	123	134	372	169	215	13	17	17	
372	77	134	462	123	215	13	18	18	
372	123	134	462	169	215	13	18	18	
462	143	134	576	169	177	3	19	19	
462	143	177	576	169	220	3	19	19	
307	173	79	397	233	117	10	20	20	
307	173	117	397	233	155	10	20	20	
307	173	155	397	233	193	10	20	20	
397	173	79	487	233	117	10	20	20	
397	173	117	487	233	155	10	20	20	
397	173	155	487	233	193	10	20	20	
307	173	193	382	233	220	4	21	21	
382	173	193	457	233	220	4	22	22	
462	77	134	576	103	177	3	23	23	
462	77	177	576	103	220	3	23	23	
462	103	134	557	143	205	11	24	24	
492	173	0	582	233	38	10	25	25	
492	173	38	582	233	76	10	25	25	
492	173	76	567	233	103	4	26	26	
492	173	103	567	233	130	4	26	26	
492	173	130	567	233	157	4	26	26	
492	173	157	567	233	184	4	26	26	
492	173	184	567	233	211	4	26	26	
565	0	0	587	77	42	2	27	27	
565	0	42	587	77	84	2	27	27	
565	0	84	587	77	126	2	27	27	
565	0	126	586	65	156	1	28	28	
587	0	0	701	54	20	0	29	0	
587	0	20	701	54	40	0	29	0	
587	0	40	701	54	60	0	29	0	
587	0	60	701	54	80	0	29	0	
587	0	80	701	54	100	0	29	0	
587	0	100	701	54	120	0	29	0	
702	0	0	801	80	29	6	30	0	
702	0	29	801	80	58	6	30	0	
702	0	58	801	80	87	6	30	0	
702	0	87	801	80	116	6	30	0	
702	0	116	801	80	145	6	30	0	
802	0	0	869	66	49	15	31	0	
802	0	49	869	66	98	15	31	0	
802	0	98	869	66	147	15	31	0	
802	0	147	869	66	196	15	31	0	
