8	8	587	233	220
27066848	21576402
0	0	0	114	77	42	5	1	1	
0	0	42	114	77	84	5	1	1	
0	0	84	114	77	126	5	1	1	
0	0	126	114	77	168	5	1	1	
0	0	168	114	77	210	5	1	1	
0	77	0	114	154	42	5	1	1	
0	77	42	114	154	84	5	1	1	
0	77	84	114	154	126	5	1	1	
0	77	126	114	154	168	5	1	1	
0	77	168	114	154	210	5	1	1	
0	154	0	114	231	42	5	1	1	
0	154	42	114	231	84	5	1	1	
0	154	84	114	231	126	5	1	1	
0	154	126	114	231	168	5	1	1	
0	154	168	114	231	210	5	1	1	
114	0	0	195	74	105	7	2	2	
114	0	105	195	74	210	7	2	2	
114	74	0	195	148	105	7	2	2	
114	74	105	195	148	210	7	2	2	
114	148	0	195	222	105	7	2	2	
114	148	105	195	222	210	7	2	2	
195	0	0	286	104	41	4	3	3	
195	0	41	286	104	82	4	3	3	
195	0	82	286	104	123	4	3	3	
195	0	123	286	104	164	4	3	3	
195	0	164	286	104	205	4	3	3	
195	104	0	286	208	41	4	3	3	
195	104	41	286	208	82	4	3	3	
195	104	82	286	208	123	4	3	3	
195	104	123	286	208	164	4	3	3	
195	104	164	286	208	205	4	3	3	
286	0	0	360	81	105	7	4	4	
286	0	105	360	81	210	7	4	4	
360	0	0	434	81	105	7	4	4	
360	0	105	434	81	210	7	4	4	
434	0	0	508	81	105	7	4	4	
434	0	105	508	81	210	7	4	4	
508	0	0	582	81	105	7	4	4	
508	0	105	582	81	210	7	4	4	
286	81	0	336	157	73	6	5	5	
286	157	0	336	233	73	6	5	5	
336	81	0	386	157	73	6	5	5	
336	157	0	386	233	73	6	5	5	
386	81	0	436	157	73	6	5	5	
386	157	0	436	233	73	6	5	5	
436	81	0	486	157	73	6	5	5	
436	157	0	486	233	73	6	5	5	
486	81	0	536	157	73	6	5	5	
486	157	0	536	233	73	6	5	5	
536	81	0	586	157	73	6	5	5	
536	157	0	586	233	73	6	5	5	
286	93	73	361	163	96	1	6	6	
286	163	73	361	233	96	1	6	6	
361	93	73	436	163	96	1	6	6	
361	163	73	436	233	96	1	6	6	
436	93	73	511	163	96	1	6	6	
436	163	73	511	233	96	1	6	6	
511	93	73	586	163	96	1	6	6	
511	163	73	586	233	96	1	6	6	
286	93	96	361	163	119	1	7	7	
286	163	96	361	233	119	1	7	7	
361	93	96	436	163	119	1	7	7	
361	163	96	436	233	119	1	7	7	
436	93	96	511	163	119	1	7	7	
436	163	96	511	233	119	1	7	7	
511	93	96	586	163	119	1	7	7	
511	163	96	586	233	119	1	7	7	
286	93	119	375	121	165	3	8	8	
286	93	165	375	121	211	3	8	8	
286	121	119	375	149	165	3	8	8	
286	121	165	375	149	211	3	8	8	
286	149	119	375	177	165	3	8	8	
286	149	165	375	177	211	3	8	8	
286	177	119	375	205	165	3	8	8	
286	177	165	375	205	211	3	8	8	
286	205	119	375	233	165	3	8	8	
286	205	165	375	233	211	3	8	8	
375	152	119	480	233	193	7	9	9	
480	152	119	585	233	193	7	9	9	
375	179	193	464	233	218	2	10	10	
464	179	193	553	233	218	2	10	10	
375	96	119	464	124	165	3	11	11	
375	96	165	464	124	211	3	11	11	
375	124	119	464	152	165	3	11	11	
375	124	165	464	152	211	3	11	11	
464	98	119	553	152	144	2	12	12	
464	98	144	553	152	169	2	12	12	
464	98	169	553	152	194	2	12	12	
464	98	194	553	152	219	2	12	12	
587	0	0	680	67	20	0	13	0	
587	0	20	680	67	40	0	13	0	
587	0	40	680	67	60	0	13	0	
587	0	60	680	67	80	0	13	0	
681	0	0	756	70	23	1	14	0	
757	0	0	846	54	25	2	15	0	
757	0	25	846	54	50	2	15	0	
847	0	0	951	91	41	4	16	0	
847	0	41	951	91	82	4	16	0	
952	0	0	1066	77	42	5	17	0	
1067	0	0	1143	73	50	6	18	0	
