3	3	587	233	220
27279864	21056232
0	0	0	95	76	60	2	1	1	
0	0	60	95	76	120	2	1	1	
0	0	120	95	76	180	2	1	1	
0	76	0	95	152	60	2	1	1	
0	76	60	95	152	120	2	1	1	
0	76	120	95	152	180	2	1	1	
0	152	0	95	228	60	2	1	1	
0	152	60	95	228	120	2	1	1	
0	152	120	95	228	180	2	1	1	
0	0	180	66	68	211	1	2	2	
0	68	180	66	136	211	1	2	2	
0	136	180	66	204	211	1	2	2	
95	0	0	155	76	95	2	3	3	
95	76	0	155	152	95	2	3	3	
95	152	0	155	228	95	2	3	3	
155	0	0	215	76	95	2	3	3	
155	76	0	215	152	95	2	3	3	
155	152	0	215	228	95	2	3	3	
215	0	0	275	76	95	2	3	3	
215	76	0	275	152	95	2	3	3	
215	152	0	275	228	95	2	3	3	
275	0	0	335	76	95	2	3	3	
275	76	0	335	152	95	2	3	3	
275	152	0	335	228	95	2	3	3	
335	0	0	395	76	95	2	3	3	
335	76	0	395	152	95	2	3	3	
335	152	0	395	228	95	2	3	3	
395	0	0	455	76	95	2	3	3	
395	76	0	455	152	95	2	3	3	
395	152	0	455	228	95	2	3	3	
455	0	0	515	76	95	2	3	3	
455	76	0	515	152	95	2	3	3	
455	152	0	515	228	95	2	3	3	
515	0	0	575	76	95	2	3	3	
515	76	0	575	152	95	2	3	3	
515	152	0	575	228	95	2	3	3	
95	0	95	190	76	155	2	4	4	
95	0	155	190	76	215	2	4	4	
95	76	95	190	152	155	2	4	4	
95	76	155	190	152	215	2	4	4	
95	152	95	190	228	155	2	4	4	
95	152	155	190	228	215	2	4	4	
190	0	95	285	76	155	2	5	5	
190	0	155	285	76	215	2	5	5	
190	76	95	285	152	155	2	5	5	
190	76	155	285	152	215	2	5	5	
190	152	95	285	228	155	2	5	5	
190	152	155	285	228	215	2	5	5	
285	0	95	353	66	126	1	6	6	
285	0	126	353	66	157	1	6	6	
285	0	157	353	66	188	1	6	6	
285	0	188	353	66	219	1	6	6	
353	0	95	421	66	126	1	6	6	
353	0	126	421	66	157	1	6	6	
353	0	157	421	66	188	1	6	6	
353	0	188	421	66	219	1	6	6	
421	0	95	489	66	126	1	6	6	
421	0	126	489	66	157	1	6	6	
421	0	157	489	66	188	1	6	6	
421	0	188	489	66	219	1	6	6	
489	0	95	557	66	126	1	6	6	
489	0	126	557	66	157	1	6	6	
489	0	157	557	66	188	1	6	6	
489	0	188	557	66	219	1	6	6	
285	160	95	351	228	126	1	7	7	
285	160	126	351	228	157	1	7	7	
285	160	157	351	228	188	1	7	7	
285	160	188	351	228	219	1	7	7	
351	160	95	417	228	126	1	7	7	
351	160	126	417	228	157	1	7	7	
351	160	157	417	228	188	1	7	7	
351	160	188	417	228	219	1	7	7	
417	160	95	483	228	126	1	7	7	
417	160	126	483	228	157	1	7	7	
417	160	157	483	228	188	1	7	7	
417	160	188	483	228	219	1	7	7	
483	160	95	549	228	126	1	7	7	
483	160	126	549	228	157	1	7	7	
483	160	157	549	228	188	1	7	7	
483	160	188	549	228	219	1	7	7	
285	66	95	351	134	126	1	8	8	
285	66	126	351	134	157	1	8	8	
285	66	157	351	134	188	1	8	8	
285	66	188	351	134	219	1	8	8	
351	66	95	417	134	126	1	8	8	
351	66	126	417	134	157	1	8	8	
351	66	157	417	134	188	1	8	8	
351	66	188	417	134	219	1	8	8	
285	134	95	405	160	129	0	9	9	
285	134	129	405	160	163	0	9	9	
285	134	163	405	160	197	0	9	9	
405	134	95	525	160	129	0	10	10	
405	134	129	525	160	163	0	10	10	
405	134	163	525	160	197	0	10	10	
417	66	95	537	100	121	0	11	11	
417	66	121	537	100	147	0	11	11	
417	66	147	537	100	173	0	11	11	
417	66	173	537	100	199	0	11	11	
417	100	95	537	134	121	0	11	11	
417	100	121	537	134	147	0	11	11	
417	100	147	537	134	173	0	11	11	
417	100	173	537	134	199	0	11	11	
549	108	95	575	228	129	0	12	12	
549	108	129	575	228	163	0	12	12	
549	108	163	575	228	197	0	12	12	
587	0	0	707	34	26	0	13	0	
587	0	26	707	34	52	0	13	0	
587	0	52	707	34	78	0	13	0	
587	0	78	707	34	104	0	13	0	
587	0	104	707	34	130	0	13	0	
587	0	130	707	34	156	0	13	0	
587	0	156	707	34	182	0	13	0	
587	0	182	707	34	208	0	13	0	
587	0	208	707	34	234	0	13	0	
587	0	234	707	34	260	0	13	0	
587	0	260	707	34	286	0	13	0	
587	0	286	707	34	312	0	13	0	
587	0	312	707	34	338	0	13	0	
587	0	338	707	34	364	0	13	0	
587	0	364	707	34	390	0	13	0	
587	0	390	707	34	416	0	13	0	
587	0	416	707	34	442	0	13	0	
587	0	442	707	34	468	0	13	0	
587	0	468	707	34	494	0	13	0	
587	0	494	707	34	520	0	13	0	
587	0	520	707	34	546	0	13	0	
587	0	546	707	34	572	0	13	0	
587	0	572	707	34	598	0	13	0	
708	0	0	776	66	31	1	14	0	
