15	15	587	233	220
27452322	23910820
0	0	0	79	76	71	14	1	1	
0	0	71	79	76	142	14	1	1	
0	0	142	79	76	213	14	1	1	
0	76	0	79	152	71	14	1	1	
0	76	71	79	152	142	14	1	1	
0	76	142	79	152	213	14	1	1	
0	152	0	79	228	71	14	1	1	
0	152	71	79	228	142	14	1	1	
0	152	142	79	228	213	14	1	1	
79	0	0	155	119	61	12	2	2	
79	0	61	155	119	122	12	2	2	
79	0	122	155	119	183	12	2	2	
155	0	0	231	119	61	12	2	2	
155	0	61	231	119	122	12	2	2	
155	0	122	231	119	183	12	2	2	
231	0	0	307	119	61	12	2	2	
231	0	61	307	119	122	12	2	2	
231	0	122	307	119	183	12	2	2	
307	0	0	383	119	61	12	2	2	
307	0	61	383	119	122	12	2	2	
307	0	122	383	119	183	12	2	2	
79	0	183	142	52	218	5	3	3	
79	52	183	142	104	218	5	3	3	
142	0	183	205	52	218	5	3	3	
142	52	183	205	104	218	5	3	3	
205	0	183	268	52	218	5	3	3	
205	52	183	268	104	218	5	3	3	
268	0	183	331	52	218	5	3	3	
268	52	183	331	104	218	5	3	3	
331	0	183	383	63	218	5	4	4	
331	63	183	351	117	216	0	5	5	
351	63	183	371	117	216	0	5	5	
79	162	0	143	233	99	13	6	6	
143	162	0	207	233	99	13	6	6	
207	162	0	271	233	99	13	6	6	
271	162	0	335	233	99	13	6	6	
335	162	0	399	233	99	13	6	6	
79	163	99	174	233	122	2	7	7	
79	163	122	174	233	145	2	7	7	
79	163	145	174	233	168	2	7	7	
79	163	168	174	233	191	2	7	7	
174	163	99	269	233	122	2	7	7	
174	163	122	269	233	145	2	7	7	
174	163	145	269	233	168	2	7	7	
174	163	168	269	233	191	2	7	7	
269	163	99	364	233	122	2	7	7	
269	163	122	364	233	145	2	7	7	
269	163	145	364	233	168	2	7	7	
269	163	168	364	233	191	2	7	7	
79	119	0	162	162	79	9	8	8	
79	119	79	162	162	158	9	8	8	
162	119	0	245	162	79	9	8	8	
162	119	79	245	162	158	9	8	8	
245	119	0	328	162	79	9	8	8	
245	119	79	328	162	158	9	8	8	
79	121	158	140	162	198	7	9	9	
140	121	158	201	162	198	7	9	9	
201	121	158	262	162	198	7	9	9	
262	121	158	323	162	198	7	9	9	
79	165	191	172	233	216	3	10	10	
172	165	191	265	233	216	3	10	10	
265	165	191	358	233	216	3	10	10	
79	129	198	133	162	218	0	11	11	
133	129	198	187	162	218	0	11	11	
187	129	198	241	162	218	0	11	11	
241	129	198	295	162	218	0	11	11	
364	173	99	390	233	144	4	12	12	
364	173	144	390	233	189	4	12	12	
328	120	0	429	162	57	8	13	13	
328	120	57	429	162	114	8	13	13	
328	120	114	429	162	171	8	13	13	
429	120	0	530	162	57	8	13	13	
429	120	57	530	162	114	8	13	13	
429	120	114	530	162	171	8	13	13	
328	123	171	399	162	214	6	14	14	
399	123	171	470	162	214	6	14	14	
470	136	171	530	162	216	4	15	15	
383	0	0	464	91	48	10	16	16	
383	0	48	464	91	96	10	16	16	
383	0	96	464	91	144	10	16	16	
464	0	0	545	91	48	10	16	16	
464	0	48	545	91	96	10	16	16	
464	0	96	545	91	144	10	16	16	
383	91	0	443	117	45	4	17	17	
383	91	45	443	117	90	4	17	17	
383	91	90	443	117	135	4	17	17	
383	91	135	443	117	180	4	17	17	
443	91	0	503	117	45	4	17	17	
443	91	45	503	117	90	4	17	17	
443	91	90	503	117	135	4	17	17	
443	91	135	503	117	180	4	17	17	
383	0	144	459	79	215	14	18	18	
459	0	144	535	79	215	14	18	18	
383	91	180	437	111	213	0	19	19	
399	165	0	492	233	25	3	20	20	
399	165	25	492	233	50	3	20	20	
399	165	50	492	233	75	3	20	20	
399	165	75	492	233	100	3	20	20	
492	165	0	585	233	25	3	20	20	
492	165	25	585	233	50	3	20	20	
492	165	50	585	233	75	3	20	20	
492	165	75	585	233	100	3	20	20	
399	179	100	477	233	122	1	21	21	
399	179	122	477	233	144	1	21	21	
399	179	144	477	233	166	1	21	21	
399	179	166	477	233	188	1	21	21	
399	179	188	477	233	210	1	21	21	
477	179	100	555	233	122	1	21	21	
477	179	122	555	233	144	1	21	21	
477	179	144	555	233	166	1	21	21	
477	179	166	555	233	188	1	21	21	
477	179	188	555	233	210	1	21	21	
530	103	0	587	165	51	11	22	22	
530	103	51	587	165	102	11	22	22	
530	103	102	587	165	153	11	22	22	
530	103	153	587	165	204	11	22	22	
545	0	0	584	43	71	6	23	23	
545	0	71	584	43	142	6	23	23	
545	0	142	584	43	213	6	23	23	
545	43	0	584	86	71	6	23	23	
545	43	71	584	86	142	6	23	23	
545	43	142	584	86	213	6	23	23	
587	0	0	682	70	23	2	24	0	
587	0	23	682	70	46	2	24	0	
683	0	0	754	43	39	6	25	0	
755	0	0	816	41	40	7	26	0	
755	0	40	816	41	80	7	26	0	
817	0	0	908	81	48	10	27	0	
909	0	0	1028	76	61	12	28	0	
1029	0	0	1108	76	71	14	29	0	
1029	0	71	1108	76	142	14	29	0	
