8	8	587	233	220
28265313	23548164
0	0	0	109	58	54	6	1	1	
0	0	54	109	58	108	6	1	1	
0	0	108	109	58	162	6	1	1	
0	0	162	109	58	216	6	1	1	
0	58	0	109	116	54	6	1	1	
0	58	54	109	116	108	6	1	1	
0	58	108	109	116	162	6	1	1	
0	58	162	109	116	216	6	1	1	
0	116	0	109	174	54	6	1	1	
0	116	54	109	174	108	6	1	1	
0	116	108	109	174	162	6	1	1	
0	116	162	109	174	216	6	1	1	
0	174	0	109	232	54	6	1	1	
0	174	54	109	232	108	6	1	1	
0	174	108	109	232	162	6	1	1	
0	174	162	109	232	216	6	1	1	
109	0	0	196	77	43	5	2	2	
109	0	43	196	77	86	5	2	2	
109	0	86	196	77	129	5	2	2	
109	0	129	196	77	172	5	2	2	
109	0	172	196	77	215	5	2	2	
109	77	0	196	154	43	5	2	2	
109	77	43	196	154	86	5	2	2	
109	77	86	196	154	129	5	2	2	
109	77	129	196	154	172	5	2	2	
109	77	172	196	154	215	5	2	2	
109	154	0	196	231	43	5	2	2	
109	154	43	196	231	86	5	2	2	
109	154	86	196	231	129	5	2	2	
109	154	129	196	231	172	5	2	2	
109	154	172	196	231	215	5	2	2	
196	0	0	296	80	72	7	3	3	
196	80	0	296	160	72	7	3	3	
296	0	0	396	80	72	7	3	3	
296	80	0	396	160	72	7	3	3	
396	0	0	496	80	72	7	3	3	
396	80	0	496	160	72	7	3	3	
196	0	72	296	80	144	7	4	4	
196	0	144	296	80	216	7	4	4	
196	80	72	296	160	144	7	4	4	
196	80	144	296	160	216	7	4	4	
196	161	0	296	233	80	7	5	5	
196	161	80	296	233	160	7	5	5	
296	161	0	396	233	80	7	5	5	
296	161	80	396	233	160	7	5	5	
396	161	0	496	233	80	7	5	5	
396	161	80	496	233	160	7	5	5	
196	161	160	290	197	214	3	6	6	
196	197	160	290	233	214	3	6	6	
290	161	160	384	197	214	3	6	6	
290	197	160	384	233	214	3	6	6	
384	161	160	478	197	214	3	6	6	
384	197	160	478	233	214	3	6	6	
296	0	72	335	88	126	4	7	7	
296	0	126	335	88	180	4	7	7	
335	0	72	374	88	126	4	7	7	
335	0	126	374	88	180	4	7	7	
374	0	72	413	88	126	4	7	7	
374	0	126	413	88	180	4	7	7	
413	0	72	452	88	126	4	7	7	
413	0	126	452	88	180	4	7	7	
452	0	72	491	88	126	4	7	7	
452	0	126	491	88	180	4	7	7	
296	0	180	350	88	219	4	8	8	
350	0	180	404	88	219	4	8	8	
404	0	180	458	88	219	4	8	8	
296	88	72	390	124	126	3	9	9	
296	88	126	390	124	180	3	9	9	
296	124	72	390	160	126	3	9	9	
296	124	126	390	160	180	3	9	9	
296	88	180	379	124	220	2	10	10	
296	124	180	379	160	220	2	10	10	
390	88	72	484	124	126	3	11	11	
390	88	126	484	124	180	3	11	11	
390	124	72	484	160	126	3	11	11	
390	124	126	484	160	180	3	11	11	
390	88	180	473	124	220	2	12	12	
390	124	180	473	160	220	2	12	12	
496	0	0	550	91	22	0	13	13	
496	0	22	550	91	44	0	13	13	
496	0	44	550	91	66	0	13	13	
496	0	66	550	91	88	0	13	13	
496	0	88	550	91	110	0	13	13	
496	0	110	550	91	132	0	13	13	
496	0	132	550	91	154	0	13	13	
496	91	0	550	182	22	0	13	13	
496	91	22	550	182	44	0	13	13	
496	91	44	550	182	66	0	13	13	
496	91	66	550	182	88	0	13	13	
496	91	88	550	182	110	0	13	13	
496	91	110	550	182	132	0	13	13	
496	91	132	550	182	154	0	13	13	
496	0	154	535	88	208	4	14	14	
496	88	154	535	176	208	4	14	14	
496	190	0	583	233	77	5	15	15	
496	190	77	583	233	154	5	15	15	
496	197	154	579	233	194	2	16	16	
550	0	0	580	94	55	1	17	17	
550	0	55	580	94	110	1	17	17	
550	0	110	580	94	165	1	17	17	
550	0	165	580	94	220	1	17	17	
550	94	0	580	188	55	1	17	17	
550	94	55	580	188	110	1	17	17	
550	94	110	580	188	165	1	17	17	
550	94	165	580	188	220	1	17	17	
587	0	0	678	54	22	0	18	0	
679	0	0	773	55	30	1	19	0	
774	0	0	857	40	36	2	20	0	
858	0	0	946	54	39	4	21	0	
947	0	0	1034	77	43	5	22	0	
947	0	43	1034	77	86	5	22	0	
1035	0	0	1144	58	54	6	23	0	
