12	12	587	233	220
28181282	22403498
0	0	0	89	48	54	10	1	1	
0	48	0	89	96	54	10	1	1	
0	96	0	89	144	54	10	1	1	
0	144	0	89	192	54	10	1	1	
89	0	0	178	48	54	10	1	1	
89	48	0	178	96	54	10	1	1	
89	96	0	178	144	54	10	1	1	
89	144	0	178	192	54	10	1	1	
178	0	0	267	48	54	10	1	1	
178	48	0	267	96	54	10	1	1	
178	96	0	267	144	54	10	1	1	
178	144	0	267	192	54	10	1	1	
267	0	0	356	48	54	10	1	1	
267	48	0	356	96	54	10	1	1	
267	96	0	356	144	54	10	1	1	
267	144	0	356	192	54	10	1	1	
0	0	54	74	99	81	1	2	2	
0	0	81	74	99	108	1	2	2	
0	0	108	74	99	135	1	2	2	
0	0	135	74	99	162	1	2	2	
0	0	162	74	99	189	1	2	2	
0	0	189	74	99	216	1	2	2	
74	0	54	148	99	81	1	2	2	
74	0	81	148	99	108	1	2	2	
74	0	108	148	99	135	1	2	2	
74	0	135	148	99	162	1	2	2	
74	0	162	148	99	189	1	2	2	
74	0	189	148	99	216	1	2	2	
148	0	54	222	99	81	1	2	2	
148	0	81	222	99	108	1	2	2	
148	0	108	222	99	135	1	2	2	
148	0	135	222	99	162	1	2	2	
148	0	162	222	99	189	1	2	2	
148	0	189	222	99	216	1	2	2	
0	192	0	90	233	34	7	3	3	
0	192	34	90	233	68	7	3	3	
0	192	68	90	233	102	7	3	3	
0	192	102	90	233	136	7	3	3	
90	192	0	180	233	34	7	3	3	
90	192	34	180	233	68	7	3	3	
90	192	68	180	233	102	7	3	3	
90	192	102	180	233	136	7	3	3	
180	192	0	270	233	34	7	3	3	
180	192	34	270	233	68	7	3	3	
180	192	68	270	233	102	7	3	3	
180	192	102	270	233	136	7	3	3	
270	192	0	360	233	34	7	3	3	
270	192	34	360	233	68	7	3	3	
270	192	68	360	233	102	7	3	3	
270	192	102	360	233	136	7	3	3	
360	192	0	450	233	34	7	3	3	
360	192	34	450	233	68	7	3	3	
360	192	68	450	233	102	7	3	3	
360	192	102	450	233	136	7	3	3	
450	192	0	540	233	34	7	3	3	
450	192	34	540	233	68	7	3	3	
450	192	68	540	233	102	7	3	3	
450	192	102	540	233	136	7	3	3	
0	137	54	79	192	86	6	4	4	
0	137	86	79	192	118	6	4	4	
0	137	118	79	192	150	6	4	4	
0	137	150	79	192	182	6	4	4	
0	137	182	79	192	214	6	4	4	
79	137	54	158	192	86	6	4	4	
79	137	86	158	192	118	6	4	4	
79	137	118	158	192	150	6	4	4	
79	137	150	158	192	182	6	4	4	
79	137	182	158	192	214	6	4	4	
158	137	54	237	192	86	6	4	4	
158	137	86	237	192	118	6	4	4	
158	137	118	237	192	150	6	4	4	
158	137	150	237	192	182	6	4	4	
158	137	182	237	192	214	6	4	4	
0	199	136	62	233	167	4	5	5	
0	199	167	62	233	198	4	5	5	
62	199	136	124	233	167	4	5	5	
62	199	167	124	233	198	4	5	5	
124	199	136	186	233	167	4	5	5	
124	199	167	186	233	198	4	5	5	
186	199	136	248	233	167	4	5	5	
186	199	167	248	233	198	4	5	5	
248	199	136	310	233	167	4	5	5	
248	199	167	310	233	198	4	5	5	
310	199	136	372	233	167	4	5	5	
310	199	167	372	233	198	4	5	5	
372	199	136	434	233	167	4	5	5	
372	199	167	434	233	198	4	5	5	
434	199	136	496	233	167	4	5	5	
434	199	167	496	233	198	4	5	5	
0	203	198	55	233	219	0	6	6	
0	103	54	75	137	110	8	7	7	
0	103	110	75	137	166	8	7	7	
75	103	54	150	137	110	8	7	7	
75	103	110	150	137	166	8	7	7	
150	103	54	225	137	110	8	7	7	
150	103	110	225	137	166	8	7	7	
225	103	54	300	137	110	8	7	7	
225	103	110	300	137	166	8	7	7	
0	103	166	90	137	207	7	8	8	
90	103	166	180	137	207	7	8	8	
55	203	198	110	233	219	0	9	9	
110	203	198	165	233	219	0	10	10	
165	203	198	220	233	219	0	11	11	
180	103	166	242	137	197	4	12	12	
220	203	198	275	233	219	0	13	13	
275	203	198	330	233	219	0	13	13	
330	203	198	385	233	219	0	13	13	
385	203	198	440	233	219	0	13	13	
440	203	198	495	233	219	0	13	13	
180	107	197	235	137	218	0	14	14	
222	0	54	297	34	110	8	15	15	
222	0	110	297	34	166	8	15	15	
222	34	54	297	68	110	8	15	15	
222	34	110	297	68	166	8	15	15	
222	68	54	297	102	110	8	15	15	
222	68	110	297	102	166	8	15	15	
222	0	166	296	99	193	1	16	16	
222	0	193	296	99	220	1	16	16	
237	137	54	258	192	84	0	17	17	
237	137	84	258	192	114	0	17	17	
258	137	54	279	192	84	0	17	17	
258	137	84	279	192	114	0	17	17	
279	137	54	300	192	84	0	17	17	
279	137	84	300	192	114	0	17	17	
300	137	54	321	192	84	0	17	17	
300	137	84	321	192	114	0	17	17	
321	137	54	342	192	84	0	17	17	
321	137	84	342	192	114	0	17	17	
237	137	114	316	192	146	6	18	18	
237	137	146	316	192	178	6	18	18	
237	137	178	316	192	210	6	18	18	
242	107	166	297	137	187	0	19	19	
242	107	187	297	137	208	0	19	19	
297	0	54	325	64	86	2	20	20	
297	0	86	325	64	118	2	20	20	
297	0	118	325	64	150	2	20	20	
297	0	150	325	64	182	2	20	20	
297	0	182	325	64	214	2	20	20	
325	0	54	353	64	86	2	20	20	
325	0	86	353	64	118	2	20	20	
325	0	118	353	64	150	2	20	20	
325	0	150	353	64	182	2	20	20	
325	0	182	353	64	214	2	20	20	
300	64	54	328	128	86	2	21	21	
328	64	54	356	128	86	2	21	21	
300	64	86	328	128	118	2	22	22	
300	64	118	328	128	150	2	22	22	
300	64	150	328	128	182	2	22	22	
328	64	86	356	128	118	2	22	22	
328	64	118	356	128	150	2	22	22	
328	64	150	356	128	182	2	22	22	
300	64	182	328	128	214	2	23	23	
316	137	114	337	192	144	0	24	24	
356	0	0	446	94	44	9	25	25	
356	0	44	446	94	88	9	25	25	
356	0	88	446	94	132	9	25	25	
356	0	132	446	94	176	9	25	25	
356	0	176	446	94	220	9	25	25	
356	94	0	446	188	44	9	25	25	
356	94	44	446	188	88	9	25	25	
356	94	88	446	188	132	9	25	25	
356	94	132	446	188	176	9	25	25	
356	94	176	446	188	220	9	25	25	
496	202	136	527	233	178	3	26	26	
496	202	178	527	233	220	3	26	26	
446	0	0	518	64	31	5	27	27	
446	0	31	518	64	62	5	27	27	
446	0	62	518	64	93	5	27	27	
446	0	93	518	64	124	5	27	27	
446	0	124	518	64	155	5	27	27	
446	0	155	518	64	186	5	27	27	
446	64	0	518	128	31	5	27	27	
446	64	31	518	128	62	5	27	27	
446	64	62	518	128	93	5	27	27	
446	64	93	518	128	124	5	27	27	
446	64	124	518	128	155	5	27	27	
446	64	155	518	128	186	5	27	27	
446	128	0	518	192	31	5	27	27	
446	128	31	518	192	62	5	27	27	
446	128	62	518	192	93	5	27	27	
446	128	93	518	192	124	5	27	27	
446	128	124	518	192	155	5	27	27	
446	128	155	518	192	186	5	27	27	
446	0	186	518	64	217	5	28	28	
446	64	186	518	128	217	5	28	28	
446	130	186	477	192	220	4	29	29	
477	150	186	508	192	217	3	30	30	
518	0	0	586	63	53	11	31	31	
518	0	53	586	63	106	11	31	31	
518	0	106	586	63	159	11	31	31	
518	0	159	586	63	212	11	31	31	
518	63	0	586	126	53	11	31	31	
518	63	53	586	126	106	11	31	31	
518	63	106	586	126	159	11	31	31	
518	63	159	586	126	212	11	31	31	
518	126	0	586	189	53	11	31	31	
518	126	53	586	189	106	11	31	31	
518	126	106	586	189	159	11	31	31	
518	126	159	586	189	212	11	31	31	
540	191	0	571	233	31	3	32	32	
540	191	31	571	233	62	3	32	32	
540	191	62	571	233	93	3	32	32	
540	191	93	571	233	124	3	32	32	
540	191	124	571	233	155	3	32	32	
540	191	155	571	233	186	3	32	32	
540	191	186	571	233	217	3	32	32	
587	0	0	686	74	27	1	33	0	
587	0	27	686	74	54	1	33	0	
687	0	0	729	31	31	3	34	0	
687	0	31	729	31	62	3	34	0	
687	0	62	729	31	93	3	34	0	
687	0	93	729	31	124	3	34	0	
730	0	0	809	55	32	6	35	0	
810	0	0	885	56	34	8	36	0	
886	0	0	980	90	44	9	37	0	
981	0	0	1070	54	48	10	38	0	
981	0	48	1070	54	96	10	38	0	
