12	12	587	233	220
28095878	25037172
0	0	0	90	113	54	11	1	1	
0	0	54	90	113	108	11	1	1	
0	0	108	90	113	162	11	1	1	
0	0	162	90	113	216	11	1	1	
0	113	0	90	226	54	11	1	1	
0	113	54	90	226	108	11	1	1	
0	113	108	90	226	162	11	1	1	
0	113	162	90	226	216	11	1	1	
90	0	0	176	94	38	6	2	2	
90	0	38	176	94	76	6	2	2	
90	0	76	176	94	114	6	2	2	
90	0	114	176	94	152	6	2	2	
90	0	152	176	94	190	6	2	2	
90	94	0	176	188	38	6	2	2	
90	94	38	176	188	76	6	2	2	
90	94	76	176	188	114	6	2	2	
90	94	114	176	188	152	6	2	2	
90	94	152	176	188	190	6	2	2	
90	0	190	132	56	215	1	3	3	
90	56	190	132	112	215	1	3	3	
90	112	190	132	168	215	1	3	3	
132	0	190	174	56	215	1	3	3	
132	56	190	174	112	215	1	3	3	
132	112	190	174	168	215	1	3	3	
90	191	0	203	233	52	7	4	4	
90	191	52	203	233	104	7	4	4	
90	191	104	203	233	156	7	4	4	
203	191	0	316	233	52	7	4	4	
203	191	52	316	233	104	7	4	4	
203	191	104	316	233	156	7	4	4	
316	191	0	429	233	52	7	4	4	
316	191	52	429	233	104	7	4	4	
316	191	104	429	233	156	7	4	4	
429	191	0	542	233	52	7	4	4	
429	191	52	542	233	104	7	4	4	
429	191	104	542	233	156	7	4	4	
90	191	156	154	233	182	3	5	5	
90	191	182	154	233	208	3	5	5	
154	191	156	218	233	182	3	5	5	
154	191	182	218	233	208	3	5	5	
218	191	156	282	233	182	3	5	5	
218	191	182	282	233	208	3	5	5	
282	191	156	346	233	182	3	5	5	
282	191	182	346	233	208	3	5	5	
346	191	156	410	233	182	3	5	5	
346	191	182	410	233	208	3	5	5	
410	191	156	474	233	182	3	5	5	
410	191	182	474	233	208	3	5	5	
474	191	156	538	233	182	3	5	5	
474	191	182	538	233	208	3	5	5	
176	0	0	234	92	52	10	6	6	
176	0	52	234	92	104	10	6	6	
176	0	104	234	92	156	10	6	6	
176	0	156	234	92	208	10	6	6	
234	0	0	292	92	52	10	6	6	
234	0	52	292	92	104	10	6	6	
234	0	104	292	92	156	10	6	6	
234	0	156	292	92	208	10	6	6	
292	0	0	350	92	52	10	6	6	
292	0	52	350	92	104	10	6	6	
292	0	104	350	92	156	10	6	6	
292	0	156	350	92	208	10	6	6	
176	92	0	266	125	49	4	7	7	
176	92	49	266	125	98	4	7	7	
176	92	98	266	125	147	4	7	7	
176	125	0	266	158	49	4	7	7	
176	125	49	266	158	98	4	7	7	
176	125	98	266	158	147	4	7	7	
176	158	0	266	191	49	4	7	7	
176	158	49	266	191	98	4	7	7	
176	158	98	266	191	147	4	7	7	
176	93	147	266	142	180	4	8	8	
176	142	147	266	191	180	4	8	8	
176	97	180	262	191	218	6	9	9	
266	93	0	312	142	72	9	10	10	
266	93	72	312	142	144	9	10	10	
266	93	144	312	142	216	9	10	10	
266	142	0	312	191	72	9	10	10	
266	142	72	312	191	144	9	10	10	
266	142	144	312	191	216	9	10	10	
312	93	0	358	142	72	9	11	11	
312	93	72	358	142	144	9	11	11	
312	93	144	358	142	216	9	11	11	
312	142	0	358	191	72	9	11	11	
312	142	72	358	191	144	9	11	11	
312	142	144	358	191	216	9	11	11	
350	0	0	435	92	21	0	12	12	
350	0	21	435	92	42	0	12	12	
350	0	42	435	92	63	0	12	12	
350	0	63	435	92	84	0	12	12	
350	0	84	435	92	105	0	12	12	
350	0	105	435	92	126	0	12	12	
350	0	126	435	92	147	0	12	12	
350	0	147	435	92	168	0	12	12	
350	0	168	435	92	189	0	12	12	
350	0	189	435	92	210	0	12	12	
358	95	0	392	143	54	5	13	13	
358	95	54	392	143	108	5	13	13	
358	95	108	392	143	162	5	13	13	
358	95	162	392	143	216	5	13	13	
358	143	0	392	191	54	5	13	13	
358	143	54	392	191	108	5	13	13	
358	143	108	392	191	162	5	13	13	
358	143	162	392	191	216	5	13	13	
392	95	0	426	143	54	5	14	14	
392	95	54	426	143	108	5	14	14	
392	95	108	426	143	162	5	14	14	
392	95	162	426	143	216	5	14	14	
392	143	0	426	191	54	5	14	14	
392	143	54	426	191	108	5	14	14	
392	143	108	426	191	162	5	14	14	
392	143	162	426	191	216	5	14	14	
426	96	0	471	191	62	8	15	15	
426	96	62	471	191	124	8	15	15	
426	96	124	471	191	186	8	15	15	
471	96	0	516	191	62	8	15	15	
471	96	62	516	191	124	8	15	15	
471	96	124	516	191	186	8	15	15	
516	96	0	561	191	62	8	15	15	
516	96	62	561	191	124	8	15	15	
516	96	124	561	191	186	8	15	15	
426	127	186	452	191	220	2	16	16	
452	127	186	478	191	220	2	16	16	
478	127	186	504	191	220	2	16	16	
504	127	186	530	191	220	2	16	16	
530	127	186	556	191	220	2	16	16	
426	96	186	490	122	220	2	17	17	
490	96	186	554	122	220	2	18	18	
435	0	0	497	95	45	8	19	19	
435	0	45	493	92	97	10	20	20	
435	0	97	493	92	149	10	20	20	
435	0	149	491	42	174	1	21	21	
435	42	149	491	84	174	1	21	21	
435	0	174	491	25	216	1	22	22	
497	0	0	583	94	38	6	23	23	
497	0	38	583	94	76	6	23	23	
497	0	76	583	94	114	6	23	23	
497	0	114	583	94	152	6	23	23	
497	0	152	583	94	190	6	23	23	
497	0	190	582	92	211	0	24	24	
561	105	0	587	169	34	2	25	25	
561	105	34	587	169	68	2	25	25	
561	105	68	587	169	102	2	25	25	
561	105	102	587	169	136	2	25	25	
561	105	136	587	169	170	2	25	25	
561	169	0	587	233	34	2	25	25	
561	169	34	587	233	68	2	25	25	
561	169	68	587	233	102	2	25	25	
561	169	102	587	233	136	2	25	25	
561	169	136	587	233	170	2	25	25	
561	169	170	587	233	204	2	26	26	
587	0	0	700	52	42	7	27	0	
701	0	0	814	90	54	11	28	0	
701	0	54	814	90	108	11	28	0	
