8	8	587	233	220
28317744	24380538
0	0	0	105	77	72	7	1	1	
0	0	72	105	77	144	7	1	1	
0	0	144	105	77	216	7	1	1	
105	0	0	210	77	72	7	1	1	
105	0	72	210	77	144	7	1	1	
105	0	144	210	77	216	7	1	1	
210	0	0	315	77	72	7	1	1	
210	0	72	315	77	144	7	1	1	
210	0	144	315	77	216	7	1	1	
315	0	0	420	77	72	7	1	1	
315	0	72	420	77	144	7	1	1	
315	0	144	420	77	216	7	1	1	
420	0	0	525	77	72	7	1	1	
420	0	72	525	77	144	7	1	1	
420	0	144	525	77	216	7	1	1	
0	155	0	48	233	79	4	2	2	
48	155	0	96	233	79	4	2	2	
96	155	0	144	233	79	4	2	2	
144	155	0	192	233	79	4	2	2	
192	155	0	240	233	79	4	2	2	
240	155	0	288	233	79	4	2	2	
288	155	0	336	233	79	4	2	2	
336	155	0	384	233	79	4	2	2	
384	155	0	432	233	79	4	2	2	
0	77	0	79	153	54	5	3	3	
0	77	54	79	153	108	5	3	3	
0	77	108	79	153	162	5	3	3	
0	77	162	79	153	216	5	3	3	
79	77	0	158	153	54	5	3	3	
79	77	54	158	153	108	5	3	3	
79	77	108	158	153	162	5	3	3	
79	77	162	158	153	216	5	3	3	
158	77	0	237	153	54	5	3	3	
158	77	54	237	153	108	5	3	3	
158	77	108	237	153	162	5	3	3	
158	77	162	237	153	216	5	3	3	
237	77	0	316	153	54	5	3	3	
237	77	54	316	153	108	5	3	3	
237	77	108	316	153	162	5	3	3	
237	77	162	316	153	216	5	3	3	
0	157	79	59	233	188	6	4	4	
59	157	79	118	233	188	6	4	4	
118	157	79	177	233	188	6	4	4	
177	157	79	236	233	188	6	4	4	
236	157	79	295	233	188	6	4	4	
295	157	79	354	233	188	6	4	4	
354	157	79	413	233	188	6	4	4	
0	159	188	48	196	218	2	5	5	
0	196	188	48	233	218	2	5	5	
48	159	188	96	196	218	2	5	5	
48	196	188	96	233	218	2	5	5	
96	159	188	144	196	218	2	5	5	
96	196	188	144	233	218	2	5	5	
144	159	188	192	196	218	2	5	5	
144	196	188	192	233	218	2	5	5	
192	159	188	240	196	218	2	5	5	
192	196	188	240	233	218	2	5	5	
240	159	188	288	196	218	2	5	5	
240	196	188	288	233	218	2	5	5	
288	159	188	332	196	215	1	6	6	
288	196	188	332	233	215	1	6	6	
332	159	188	376	196	215	1	6	6	
332	196	188	376	233	215	1	6	6	
316	77	0	432	155	20	0	7	7	
316	77	20	432	155	40	0	7	7	
316	77	40	432	155	60	0	7	7	
316	77	60	432	155	80	0	7	7	
316	77	80	432	155	100	0	7	7	
316	77	100	432	155	120	0	7	7	
316	77	120	432	155	140	0	7	7	
316	77	140	432	155	160	0	7	7	
316	77	160	432	155	180	0	7	7	
316	77	180	432	155	200	0	7	7	
316	77	200	432	155	220	0	7	7	
432	142	0	477	233	54	3	8	8	
432	142	54	477	233	108	3	8	8	
432	142	108	477	233	162	3	8	8	
432	142	162	477	233	216	3	8	8	
477	142	0	522	233	54	3	8	8	
477	142	54	522	233	108	3	8	8	
477	142	108	522	233	162	3	8	8	
477	142	162	522	233	216	3	8	8	
522	142	0	567	233	54	3	8	8	
522	142	54	567	233	108	3	8	8	
522	142	108	567	233	162	3	8	8	
522	142	162	567	233	216	3	8	8	
432	77	0	508	136	109	6	9	9	
432	77	109	508	136	218	6	9	9	
508	77	0	584	136	109	6	9	9	
508	77	109	584	136	218	6	9	9	
525	0	0	584	76	109	6	10	10	
525	0	109	579	76	188	5	11	11	
525	0	188	569	37	215	1	12	12	
525	37	188	569	74	215	1	12	12	
587	0	0	703	78	20	0	13	0	
587	0	20	703	78	40	0	13	0	
587	0	40	703	78	60	0	13	0	
587	0	60	703	78	80	0	13	0	
587	0	80	703	78	100	0	13	0	
704	0	0	748	37	27	1	14	0	
704	0	27	748	37	54	1	14	0	
704	0	54	748	37	81	1	14	0	
749	0	0	797	37	30	2	15	0	
798	0	0	889	54	45	3	16	0	
