3	3	587	233	220
28094080	23090240
0	0	0	74	50	76	2	1	1	
0	50	0	74	100	76	2	1	1	
0	100	0	74	150	76	2	1	1	
0	150	0	74	200	76	2	1	1	
74	0	0	148	50	76	2	1	1	
74	50	0	148	100	76	2	1	1	
74	100	0	148	150	76	2	1	1	
74	150	0	148	200	76	2	1	1	
148	0	0	222	50	76	2	1	1	
148	50	0	222	100	76	2	1	1	
148	100	0	222	150	76	2	1	1	
148	150	0	222	200	76	2	1	1	
222	0	0	296	50	76	2	1	1	
222	50	0	296	100	76	2	1	1	
222	100	0	296	150	76	2	1	1	
222	150	0	296	200	76	2	1	1	
296	0	0	370	50	76	2	1	1	
296	50	0	370	100	76	2	1	1	
296	100	0	370	150	76	2	1	1	
296	150	0	370	200	76	2	1	1	
370	0	0	444	50	76	2	1	1	
370	50	0	444	100	76	2	1	1	
370	100	0	444	150	76	2	1	1	
370	150	0	444	200	76	2	1	1	
444	0	0	518	50	76	2	1	1	
444	50	0	518	100	76	2	1	1	
444	100	0	518	150	76	2	1	1	
444	150	0	518	200	76	2	1	1	
0	0	76	74	50	152	2	2	2	
0	50	76	74	100	152	2	2	2	
0	100	76	74	150	152	2	2	2	
0	150	76	74	200	152	2	2	2	
74	0	76	148	50	152	2	2	2	
74	50	76	148	100	152	2	2	2	
74	100	76	148	150	152	2	2	2	
74	150	76	148	200	152	2	2	2	
148	0	76	222	50	152	2	2	2	
148	50	76	222	100	152	2	2	2	
148	100	76	222	150	152	2	2	2	
148	150	76	222	200	152	2	2	2	
222	0	76	296	50	152	2	2	2	
222	50	76	296	100	152	2	2	2	
222	100	76	296	150	152	2	2	2	
222	150	76	296	200	152	2	2	2	
296	0	76	370	50	152	2	2	2	
296	50	76	370	100	152	2	2	2	
296	100	76	370	150	152	2	2	2	
296	150	76	370	200	152	2	2	2	
0	0	152	55	48	218	1	3	3	
0	48	152	55	96	218	1	3	3	
0	96	152	55	144	218	1	3	3	
0	144	152	55	192	218	1	3	3	
55	0	152	110	48	218	1	3	3	
55	48	152	110	96	218	1	3	3	
55	96	152	110	144	218	1	3	3	
55	144	152	110	192	218	1	3	3	
110	0	152	165	48	218	1	3	3	
110	48	152	165	96	218	1	3	3	
110	96	152	165	144	218	1	3	3	
110	144	152	165	192	218	1	3	3	
165	0	152	220	48	218	1	3	3	
165	48	152	220	96	218	1	3	3	
165	96	152	220	144	218	1	3	3	
165	144	152	220	192	218	1	3	3	
220	0	152	275	48	218	1	3	3	
220	48	152	275	96	218	1	3	3	
220	96	152	275	144	218	1	3	3	
220	144	152	275	192	218	1	3	3	
275	0	152	330	48	218	1	3	3	
275	48	152	330	96	218	1	3	3	
275	96	152	330	144	218	1	3	3	
275	144	152	330	192	218	1	3	3	
0	204	0	86	233	40	0	4	4	
0	204	40	86	233	80	0	4	4	
0	204	80	86	233	120	0	4	4	
0	204	120	86	233	160	0	4	4	
0	204	160	86	233	200	0	4	4	
86	204	0	172	233	40	0	4	4	
86	204	40	172	233	80	0	4	4	
86	204	80	172	233	120	0	4	4	
86	204	120	172	233	160	0	4	4	
86	204	160	172	233	200	0	4	4	
172	204	0	258	233	40	0	4	4	
172	204	40	258	233	80	0	4	4	
172	204	80	258	233	120	0	4	4	
172	204	120	258	233	160	0	4	4	
172	204	160	258	233	200	0	4	4	
258	204	0	344	233	40	0	4	4	
258	204	40	344	233	80	0	4	4	
258	204	80	344	233	120	0	4	4	
258	204	120	344	233	160	0	4	4	
258	204	160	344	233	200	0	4	4	
344	204	0	430	233	40	0	4	4	
344	204	40	430	233	80	0	4	4	
344	204	80	430	233	120	0	4	4	
344	204	120	430	233	160	0	4	4	
344	204	160	430	233	200	0	4	4	
430	204	0	516	233	40	0	4	4	
430	204	40	516	233	80	0	4	4	
430	204	80	516	233	120	0	4	4	
430	204	120	516	233	160	0	4	4	
430	204	160	516	233	200	0	4	4	
330	0	152	370	86	181	0	5	5	
330	0	181	370	86	210	0	5	5	
330	86	152	370	172	181	0	5	5	
330	86	181	370	172	210	0	5	5	
370	0	76	425	66	124	1	6	6	
370	0	124	425	66	172	1	6	6	
370	0	172	425	66	220	1	6	6	
370	66	76	425	132	124	1	6	6	
370	66	124	425	132	172	1	6	6	
370	66	172	425	132	220	1	6	6	
370	132	76	425	198	124	1	6	6	
370	132	124	425	198	172	1	6	6	
370	132	172	425	198	220	1	6	6	
425	0	76	480	66	124	1	7	7	
425	0	124	480	66	172	1	7	7	
425	0	172	480	66	220	1	7	7	
425	66	76	480	132	124	1	7	7	
425	66	124	480	132	172	1	7	7	
425	66	172	480	132	220	1	7	7	
425	132	76	480	198	124	1	7	7	
425	132	124	480	198	172	1	7	7	
425	132	172	480	198	220	1	7	7	
480	0	76	509	86	116	0	8	8	
480	0	116	509	86	156	0	8	8	
480	0	156	509	86	196	0	8	8	
480	86	76	509	172	116	0	8	8	
480	86	116	509	172	156	0	8	8	
480	86	156	509	172	196	0	8	8	
518	0	0	584	48	55	1	9	9	
518	0	55	584	48	110	1	9	9	
518	0	110	584	48	165	1	9	9	
518	0	165	584	48	220	1	9	9	
518	185	0	584	233	55	1	10	10	
518	185	55	584	233	110	1	10	10	
518	185	110	584	233	165	1	10	10	
518	185	165	584	233	220	1	10	10	
518	48	0	584	96	55	1	11	11	
518	48	55	584	96	110	1	11	11	
518	48	110	584	96	165	1	11	11	
518	48	165	584	96	220	1	11	11	
518	99	0	558	185	29	0	12	12	
518	99	29	558	185	58	0	12	12	
518	99	58	558	185	87	0	12	12	
518	99	87	558	185	116	0	12	12	
518	99	116	558	185	145	0	12	12	
518	99	145	558	185	174	0	12	12	
518	99	174	558	185	203	0	12	12	
558	99	0	587	185	40	0	13	13	
558	99	40	587	185	80	0	13	13	
558	99	80	587	185	120	0	13	13	
558	99	120	587	185	160	0	13	13	
558	99	160	587	185	200	0	13	13	
587	0	0	673	40	29	0	14	0	
587	0	29	673	40	58	0	14	0	
587	0	58	673	40	87	0	14	0	
587	0	87	673	40	116	0	14	0	
587	0	116	673	40	145	0	14	0	
587	0	145	673	40	174	0	14	0	
587	0	174	673	40	203	0	14	0	
587	0	203	673	40	232	0	14	0	
587	0	232	673	40	261	0	14	0	
674	0	0	740	55	48	1	15	0	
674	0	48	740	55	96	1	15	0	
674	0	96	740	55	144	1	15	0	
741	0	0	817	74	50	2	16	0	
