10	10	587	233	220
27935092	23881916
0	0	0	78	114	60	7	1	1	
0	0	60	78	114	120	7	1	1	
0	0	120	78	114	180	7	1	1	
0	114	0	78	228	60	7	1	1	
0	114	60	78	228	120	7	1	1	
0	114	120	78	228	180	7	1	1	
0	0	180	54	112	216	3	2	2	
0	112	180	54	224	216	3	2	2	
78	0	0	158	104	63	8	3	3	
78	0	63	158	104	126	8	3	3	
78	0	126	158	104	189	8	3	3	
158	0	0	238	104	63	8	3	3	
158	0	63	238	104	126	8	3	3	
158	0	126	238	104	189	8	3	3	
238	0	0	318	104	63	8	3	3	
238	0	63	318	104	126	8	3	3	
238	0	126	318	104	189	8	3	3	
318	0	0	398	104	63	8	3	3	
318	0	63	398	104	126	8	3	3	
318	0	126	398	104	189	8	3	3	
398	0	0	478	104	63	8	3	3	
398	0	63	478	104	126	8	3	3	
398	0	126	478	104	189	8	3	3	
78	167	0	168	233	74	9	4	4	
78	167	74	168	233	148	9	4	4	
168	167	0	258	233	74	9	4	4	
168	167	74	258	233	148	9	4	4	
258	167	0	348	233	74	9	4	4	
258	167	74	348	233	148	9	4	4	
348	167	0	438	233	74	9	4	4	
348	167	74	438	233	148	9	4	4	
438	167	0	528	233	74	9	4	4	
438	167	74	528	233	148	9	4	4	
78	105	0	135	167	75	6	5	5	
78	105	75	135	167	150	6	5	5	
135	105	0	192	167	75	6	5	5	
135	105	75	192	167	150	6	5	5	
192	105	0	249	167	75	6	5	5	
192	105	75	249	167	150	6	5	5	
249	105	0	306	167	75	6	5	5	
249	105	75	306	167	150	6	5	5	
306	105	0	363	167	75	6	5	5	
306	105	75	363	167	150	6	5	5	
363	105	0	420	167	75	6	5	5	
363	105	75	420	167	150	6	5	5	
78	169	148	132	233	219	5	6	6	
132	169	148	186	233	219	5	6	6	
186	169	148	240	233	219	5	6	6	
240	169	148	294	233	219	5	6	6	
294	169	148	348	233	219	5	6	6	
348	169	148	402	233	219	5	6	6	
402	169	148	456	233	219	5	6	6	
78	0	189	146	48	220	1	7	7	
78	48	189	146	96	220	1	7	7	
146	0	189	214	48	220	1	7	7	
146	48	189	214	96	220	1	7	7	
214	0	189	282	48	220	1	7	7	
214	48	189	282	96	220	1	7	7	
282	0	189	350	48	220	1	7	7	
282	48	189	350	96	220	1	7	7	
350	0	189	418	48	220	1	7	7	
350	48	189	418	96	220	1	7	7	
78	105	150	130	167	218	4	8	8	
130	105	150	182	167	218	4	8	8	
182	105	150	234	167	218	4	8	8	
234	105	150	286	167	218	4	8	8	
286	105	150	338	167	218	4	8	8	
338	105	150	390	167	218	4	8	8	
418	0	189	464	82	210	0	9	9	
456	181	148	518	233	216	4	10	10	
420	114	0	494	167	33	2	11	11	
420	114	33	494	167	66	2	11	11	
420	114	66	494	167	99	2	11	11	
420	114	99	494	167	132	2	11	11	
420	114	132	494	167	165	2	11	11	
420	114	165	494	167	198	2	11	11	
494	114	0	568	167	33	2	11	11	
494	114	33	568	167	66	2	11	11	
494	114	66	568	167	99	2	11	11	
494	114	99	568	167	132	2	11	11	
494	114	132	568	167	165	2	11	11	
494	114	165	568	167	198	2	11	11	
420	121	198	502	167	219	0	12	12	
478	0	0	532	112	36	3	13	13	
478	0	36	532	112	72	3	13	13	
478	0	72	532	112	108	3	13	13	
532	0	0	586	112	36	3	13	13	
532	0	36	586	112	72	3	13	13	
532	0	72	586	112	108	3	13	13	
478	0	108	558	63	212	8	14	14	
478	63	108	560	109	129	0	15	15	
478	63	129	560	109	150	0	15	15	
478	63	150	560	109	171	0	15	15	
478	63	171	560	109	192	0	15	15	
478	63	192	560	109	213	0	15	15	
528	171	0	580	233	68	4	16	16	
528	171	68	580	233	136	4	16	16	
528	171	136	580	233	204	4	16	16	
587	0	0	669	46	21	0	17	0	
670	0	0	782	54	36	3	18	0	
783	0	0	851	62	52	4	19	0	
783	0	52	851	62	104	4	19	0	
852	0	0	966	78	60	7	20	0	
967	0	0	1057	74	66	9	21	0	
