20	20	587	233	220
27225005	24199495
0	0	0	47	120	71	13	1	1	
0	0	71	47	120	142	13	1	1	
0	0	142	47	120	213	13	1	1	
47	0	0	94	120	71	13	1	1	
47	0	71	94	120	142	13	1	1	
47	0	142	94	120	213	13	1	1	
0	124	0	41	233	57	11	2	2	
0	124	57	41	233	114	11	2	2	
0	124	114	41	233	171	11	2	2	
41	124	0	82	233	57	11	2	2	
41	124	57	82	233	114	11	2	2	
41	124	114	82	233	171	11	2	2	
82	124	0	123	233	57	11	2	2	
82	124	57	123	233	114	11	2	2	
82	124	114	123	233	171	11	2	2	
0	143	171	32	173	220	3	3	3	
0	173	171	32	203	220	3	3	3	
0	203	171	32	233	220	3	3	3	
32	143	171	64	173	220	3	3	3	
32	173	171	64	203	220	3	3	3	
32	203	171	64	233	220	3	3	3	
64	143	171	96	173	220	3	3	3	
64	173	171	96	203	220	3	3	3	
64	203	171	96	233	220	3	3	3	
94	0	0	195	75	75	19	4	4	
195	0	0	296	75	75	19	4	4	
296	0	0	397	75	75	19	4	4	
397	0	0	498	75	75	19	4	4	
94	0	75	169	75	176	19	5	5	
169	0	75	244	75	176	19	5	5	
244	0	75	319	75	176	19	5	5	
94	0	176	171	37	219	8	6	6	
94	37	176	171	74	219	8	6	6	
171	0	176	248	37	219	8	6	6	
171	37	176	248	74	219	8	6	6	
248	0	176	315	74	213	9	7	7	
123	178	0	196	233	93	17	8	8	
123	178	93	196	233	186	17	8	8	
196	178	0	269	233	93	17	8	8	
196	178	93	269	233	186	17	8	8	
269	178	0	342	233	93	17	8	8	
269	178	93	342	233	186	17	8	8	
94	75	0	212	106	53	4	9	9	
94	75	53	212	106	106	4	9	9	
94	75	106	212	106	159	4	9	9	
94	75	159	212	106	212	4	9	9	
212	75	0	330	106	53	4	9	9	
212	75	53	330	106	106	4	9	9	
212	75	106	330	106	159	4	9	9	
212	75	159	330	106	212	4	9	9	
123	180	186	187	233	218	6	10	10	
123	107	0	202	178	55	16	11	11	
123	107	55	202	178	110	16	11	11	
123	107	110	202	178	165	16	11	11	
123	107	165	202	178	220	16	11	11	
187	180	186	251	233	218	6	12	12	
251	180	186	315	233	218	6	12	12	
202	106	0	300	142	53	7	13	13	
202	106	53	300	142	106	7	13	13	
202	106	106	300	142	159	7	13	13	
202	142	0	300	178	53	7	13	13	
202	142	53	300	178	106	7	13	13	
202	142	106	300	178	159	7	13	13	
202	146	159	251	178	189	3	14	14	
202	146	189	251	178	219	3	14	14	
251	146	159	300	178	189	3	14	14	
251	146	189	300	178	219	3	14	14	
202	110	159	300	146	212	7	15	15	
319	0	75	408	38	122	10	16	16	
319	0	122	408	38	169	10	16	16	
319	0	169	408	38	216	10	16	16	
408	0	75	497	38	122	10	16	16	
408	0	122	497	38	169	10	16	16	
408	0	169	497	38	216	10	16	16	
300	107	0	379	178	55	16	17	17	
300	107	55	379	178	110	16	17	17	
300	107	110	379	178	165	16	17	17	
300	108	165	376	178	216	14	18	18	
319	38	75	393	75	142	9	19	19	
319	38	142	393	75	209	9	19	19	
393	38	75	467	75	142	9	19	19	
393	38	142	467	75	209	9	19	19	
330	75	0	396	107	43	5	20	20	
330	75	43	396	107	86	5	20	20	
330	75	86	396	107	129	5	20	20	
330	75	129	396	107	172	5	20	20	
330	75	172	396	107	215	5	20	20	
342	180	0	400	233	89	15	21	21	
400	180	0	458	233	89	15	21	21	
458	180	0	516	233	89	15	21	21	
516	180	0	574	233	89	15	21	21	
342	180	89	400	233	178	15	22	22	
400	180	89	458	233	178	15	22	22	
458	180	89	516	233	178	15	22	22	
516	180	89	574	233	178	15	22	22	
342	182	178	370	233	220	1	23	23	
370	182	178	398	233	220	1	23	23	
398	182	178	426	233	220	1	23	23	
426	182	178	454	233	220	1	23	23	
454	182	178	482	233	220	1	23	23	
482	182	178	510	233	220	1	23	23	
510	182	178	538	233	220	1	23	23	
538	182	178	566	233	220	1	23	23	
379	112	0	438	180	109	18	24	24	
379	112	109	438	180	218	18	24	24	
396	75	0	473	112	43	8	25	25	
473	75	0	550	112	43	8	25	25	
396	75	43	462	107	86	5	26	26	
396	75	86	462	107	129	5	26	26	
462	75	43	528	107	86	5	26	26	
462	75	86	528	107	129	5	26	26	
396	75	129	460	107	182	6	27	27	
460	75	129	526	107	172	5	28	28	
460	75	172	511	103	214	1	29	29	
438	116	0	484	180	60	12	30	30	
484	116	0	530	180	60	12	30	30	
530	116	0	576	180	60	12	30	30	
438	154	60	523	180	100	0	31	31	
438	154	100	523	180	140	0	31	31	
438	154	140	523	180	180	0	31	31	
438	154	180	523	180	220	0	31	31	
438	116	60	527	154	107	10	32	32	
438	116	107	527	154	154	10	32	32	
438	116	154	527	154	201	10	32	32	
498	0	0	574	70	51	14	33	33	
498	0	51	574	70	102	14	33	33	
498	0	102	574	70	153	14	33	33	
498	0	153	574	70	204	14	33	33	
527	116	60	573	180	120	12	34	34	
527	116	120	573	180	180	12	34	34	
527	129	180	569	180	208	1	35	35	
587	0	0	687	70	28	2	36	0	
587	0	28	687	70	56	2	36	0	
587	0	56	687	70	84	2	36	0	
587	0	84	687	70	112	2	36	0	
587	0	112	687	70	140	2	36	0	
587	0	140	687	70	168	2	36	0	
688	0	0	752	53	32	6	37	0	
753	0	0	862	57	41	11	38	0	
863	0	0	983	71	47	13	39	0	
984	0	0	1060	70	51	14	40	0	
984	0	51	1060	70	102	14	40	0	
