8	8	587	233	220
27804306	22641998
0	0	0	46	77	54	7	1	1	
0	77	0	46	154	54	7	1	1	
0	154	0	46	231	54	7	1	1	
46	0	0	92	77	54	7	1	1	
46	77	0	92	154	54	7	1	1	
46	154	0	92	231	54	7	1	1	
92	0	0	138	77	54	7	1	1	
92	77	0	138	154	54	7	1	1	
92	154	0	138	231	54	7	1	1	
138	0	0	184	77	54	7	1	1	
138	77	0	184	154	54	7	1	1	
138	154	0	184	231	54	7	1	1	
184	0	0	230	77	54	7	1	1	
184	77	0	230	154	54	7	1	1	
184	154	0	230	231	54	7	1	1	
230	0	0	276	77	54	7	1	1	
230	77	0	276	154	54	7	1	1	
230	154	0	276	231	54	7	1	1	
0	0	54	100	60	94	6	2	2	
0	0	94	100	60	134	6	2	2	
0	0	134	100	60	174	6	2	2	
0	0	174	100	60	214	6	2	2	
0	60	54	100	120	94	6	2	2	
0	60	94	100	120	134	6	2	2	
0	60	134	100	120	174	6	2	2	
0	60	174	100	120	214	6	2	2	
0	120	54	100	180	94	6	2	2	
0	120	94	100	180	134	6	2	2	
0	120	134	100	180	174	6	2	2	
0	120	174	100	180	214	6	2	2	
0	182	54	90	231	87	2	3	3	
0	182	87	90	231	120	2	3	3	
0	182	120	90	231	153	2	3	3	
0	182	153	90	231	186	2	3	3	
0	182	186	90	231	219	2	3	3	
90	197	54	179	231	121	3	4	4	
90	197	121	179	231	188	3	4	4	
179	197	54	268	231	121	3	4	4	
179	197	121	268	231	188	3	4	4	
100	0	54	184	52	92	4	5	5	
100	0	92	184	52	130	4	5	5	
100	0	130	184	52	168	4	5	5	
100	0	168	184	52	206	4	5	5	
100	52	54	184	104	92	4	5	5	
100	52	92	184	104	130	4	5	5	
100	52	130	184	104	168	4	5	5	
100	52	168	184	104	206	4	5	5	
100	104	54	184	156	92	4	5	5	
100	104	92	184	156	130	4	5	5	
100	104	130	184	156	168	4	5	5	
100	104	168	184	156	206	4	5	5	
100	159	54	184	197	106	4	6	6	
100	159	106	184	197	158	4	6	6	
100	159	158	184	197	210	4	6	6	
184	159	54	268	197	106	4	6	6	
184	159	106	268	197	158	4	6	6	
184	159	158	268	197	210	4	6	6	
184	0	54	276	80	92	5	7	7	
184	0	92	276	80	130	5	7	7	
184	0	130	276	80	168	5	7	7	
184	0	168	276	80	206	5	7	7	
184	81	54	229	159	81	1	8	8	
184	81	81	229	159	108	1	8	8	
184	81	108	229	159	135	1	8	8	
184	81	135	229	159	162	1	8	8	
184	81	162	229	159	189	1	8	8	
184	81	189	229	159	216	1	8	8	
229	81	54	274	159	81	1	8	8	
229	81	81	274	159	108	1	8	8	
229	81	108	274	159	135	1	8	8	
229	81	135	274	159	162	1	8	8	
229	81	162	274	159	189	1	8	8	
229	81	189	274	159	216	1	8	8	
276	0	0	368	80	38	5	9	9	
276	0	38	368	80	76	5	9	9	
276	0	76	368	80	114	5	9	9	
276	0	114	368	80	152	5	9	9	
276	0	152	368	80	190	5	9	9	
276	80	0	368	160	38	5	9	9	
276	80	38	368	160	76	5	9	9	
276	80	76	368	160	114	5	9	9	
276	80	114	368	160	152	5	9	9	
276	80	152	368	160	190	5	9	9	
276	0	190	321	78	217	1	10	10	
276	78	190	321	156	217	1	10	10	
321	0	190	366	78	217	1	10	10	
321	78	190	366	156	217	1	10	10	
276	188	0	354	233	27	1	11	11	
276	188	27	354	233	54	1	11	11	
276	188	54	354	233	81	1	11	11	
276	188	81	354	233	108	1	11	11	
276	188	108	354	233	135	1	11	11	
276	188	135	354	233	162	1	11	11	
276	188	162	354	233	189	1	11	11	
276	188	189	354	233	216	1	11	11	
276	161	0	354	188	45	1	12	12	
276	161	45	354	188	90	1	12	12	
276	161	90	354	188	135	1	12	12	
276	161	135	354	188	180	1	12	12	
354	165	0	443	199	67	3	13	13	
354	165	67	443	199	134	3	13	13	
354	165	134	443	199	201	3	13	13	
354	199	0	443	233	67	3	13	13	
354	199	67	443	233	134	3	13	13	
354	199	134	443	233	201	3	13	13	
368	0	0	458	33	49	2	14	14	
368	33	0	458	66	49	2	14	14	
368	66	0	458	99	49	2	14	14	
368	99	0	458	132	49	2	14	14	
368	132	0	458	165	49	2	14	14	
458	0	0	548	33	49	2	14	14	
458	33	0	548	66	49	2	14	14	
458	66	0	548	99	49	2	14	14	
458	99	0	548	132	49	2	14	14	
458	132	0	548	165	49	2	14	14	
368	0	49	458	81	73	0	15	15	
368	0	73	458	81	97	0	15	15	
368	0	97	458	81	121	0	15	15	
368	0	121	458	81	145	0	15	15	
368	0	145	458	81	169	0	15	15	
368	0	169	458	81	193	0	15	15	
368	0	193	458	81	217	0	15	15	
458	0	49	548	81	73	0	15	15	
458	0	73	548	81	97	0	15	15	
458	0	97	548	81	121	0	15	15	
458	0	121	548	81	145	0	15	15	
458	0	145	548	81	169	0	15	15	
458	0	169	548	81	193	0	15	15	
458	0	193	548	81	217	0	15	15	
368	84	49	458	165	73	0	16	16	
368	84	73	458	165	97	0	16	16	
368	84	97	458	165	121	0	16	16	
368	84	121	458	165	145	0	16	16	
368	84	145	458	165	169	0	16	16	
368	84	169	458	165	193	0	16	16	
368	84	193	458	165	217	0	16	16	
458	84	49	548	165	73	0	16	16	
458	84	73	548	165	97	0	16	16	
458	84	97	548	165	121	0	16	16	
458	84	121	548	165	145	0	16	16	
458	84	145	548	165	169	0	16	16	
458	84	169	548	165	193	0	16	16	
458	84	193	548	165	217	0	16	16	
443	165	0	532	199	67	3	17	17	
443	165	67	532	199	134	3	17	17	
443	165	134	532	199	201	3	17	17	
443	199	0	532	233	67	3	17	17	
443	199	67	532	233	134	3	17	17	
443	199	134	532	233	201	3	17	17	
532	187	0	586	233	77	7	18	18	
532	187	77	586	233	154	7	18	18	
548	0	0	582	89	67	3	19	19	
548	0	67	582	89	134	3	19	19	
548	0	134	582	89	201	3	19	19	
548	89	0	582	178	67	3	19	19	
548	89	67	582	178	134	3	19	19	
548	89	134	582	178	201	3	19	19	
587	0	0	677	81	24	0	20	0	
678	0	0	768	49	33	2	21	0	
769	0	0	858	67	34	3	22	0	
769	0	34	858	67	68	3	22	0	
769	0	68	858	67	102	3	22	0	
769	0	102	858	67	136	3	22	0	
859	0	0	951	80	38	5	23	0	
859	0	38	951	80	76	5	23	0	
952	0	0	1052	60	40	6	24	0	
