12	12	587	233	220
27913758	20130007
0	0	0	80	76	54	9	1	1	
0	0	54	80	76	108	9	1	1	
0	0	108	80	76	162	9	1	1	
0	0	162	80	76	216	9	1	1	
80	0	0	160	76	54	9	1	1	
80	0	54	160	76	108	9	1	1	
80	0	108	160	76	162	9	1	1	
80	0	162	160	76	216	9	1	1	
160	0	0	240	76	54	9	1	1	
160	0	54	240	76	108	9	1	1	
160	0	108	240	76	162	9	1	1	
160	0	162	240	76	216	9	1	1	
0	77	0	76	155	68	11	2	2	
0	155	0	76	233	68	11	2	2	
76	77	0	152	155	68	11	2	2	
76	155	0	152	233	68	11	2	2	
152	77	0	228	155	68	11	2	2	
152	155	0	228	233	68	11	2	2	
228	77	0	304	155	68	11	2	2	
228	155	0	304	233	68	11	2	2	
304	77	0	380	155	68	11	2	2	
304	155	0	380	233	68	11	2	2	
380	77	0	456	155	68	11	2	2	
380	155	0	456	233	68	11	2	2	
456	77	0	532	155	68	11	2	2	
456	155	0	532	233	68	11	2	2	
0	139	68	85	233	107	6	3	3	
0	139	107	85	233	146	6	3	3	
0	139	146	85	233	185	6	3	3	
85	139	68	170	233	107	6	3	3	
85	139	107	170	233	146	6	3	3	
85	139	146	170	233	185	6	3	3	
170	139	68	255	233	107	6	3	3	
170	139	107	255	233	146	6	3	3	
170	139	146	255	233	185	6	3	3	
255	139	68	340	233	107	6	3	3	
255	139	107	340	233	146	6	3	3	
255	139	146	340	233	185	6	3	3	
0	155	185	84	233	213	2	4	4	
84	155	185	168	233	213	2	4	4	
168	155	185	252	233	213	2	4	4	
252	155	185	336	233	213	2	4	4	
0	77	68	80	131	144	9	5	5	
0	77	144	80	131	220	9	5	5	
80	77	68	174	138	122	8	6	6	
80	77	122	174	138	176	8	6	6	
174	77	68	268	138	122	8	6	6	
174	77	122	268	138	176	8	6	6	
268	77	68	362	138	122	8	6	6	
268	77	122	362	138	176	8	6	6	
362	77	68	456	138	122	8	6	6	
362	77	122	456	138	176	8	6	6	
80	77	176	172	106	220	3	7	7	
80	106	176	172	135	220	3	7	7	
172	77	176	264	106	220	3	7	7	
172	106	176	264	135	220	3	7	7	
264	77	176	356	106	220	3	7	7	
264	106	176	356	135	220	3	7	7	
356	77	176	448	106	220	3	7	7	
356	106	176	448	135	220	3	7	7	
340	139	68	401	233	122	8	8	8	
340	139	122	401	233	176	8	8	8	
401	139	68	462	233	122	8	8	8	
401	139	122	462	233	176	8	8	8	
462	139	68	523	233	122	8	8	8	
462	139	122	523	233	176	8	8	8	
240	0	0	331	28	44	1	9	9	
240	0	44	331	28	88	1	9	9	
240	0	88	331	28	132	1	9	9	
240	0	132	331	28	176	1	9	9	
240	0	176	331	28	220	1	9	9	
240	28	0	331	56	44	1	9	9	
240	28	44	331	56	88	1	9	9	
240	28	88	331	56	132	1	9	9	
240	28	132	331	56	176	1	9	9	
240	28	176	331	56	220	1	9	9	
331	0	0	399	76	78	11	10	10	
331	0	78	388	37	148	5	11	11	
331	0	148	388	37	218	5	11	11	
331	37	78	388	74	148	5	11	11	
331	37	148	388	74	218	5	11	11	
340	177	176	431	205	220	1	12	12	
340	205	176	431	233	220	1	12	12	
431	177	176	522	205	220	1	12	12	
431	205	176	522	233	220	1	12	12	
340	148	176	432	177	220	3	13	13	
399	0	0	452	37	72	4	14	14	
399	0	72	452	37	144	4	14	14	
399	0	144	452	37	216	4	14	14	
399	37	0	452	74	72	4	14	14	
399	37	72	452	74	144	4	14	14	
399	37	144	452	74	216	4	14	14	
432	149	176	523	177	220	1	15	15	
452	0	0	497	69	50	7	16	16	
452	0	50	497	69	100	7	16	16	
452	0	100	497	69	150	7	16	16	
497	0	0	542	69	50	7	16	16	
497	0	50	542	69	100	7	16	16	
497	0	100	542	69	150	7	16	16	
542	0	0	587	69	50	7	16	16	
542	0	50	587	69	100	7	16	16	
542	0	100	587	69	150	7	16	16	
452	0	150	542	63	220	10	17	17	
542	0	150	587	69	200	7	18	18	
456	77	68	493	134	138	5	19	19	
493	77	68	530	134	138	5	19	19	
456	77	138	526	134	175	5	20	20	
456	77	175	525	127	220	7	21	21	
532	144	0	559	233	43	0	22	22	
532	144	43	559	233	86	0	22	22	
532	144	86	559	233	129	0	22	22	
532	144	129	559	233	172	0	22	22	
532	144	172	559	233	215	0	22	22	
559	144	0	586	233	43	0	22	22	
559	144	43	586	233	86	0	22	22	
559	144	86	586	233	129	0	22	22	
559	144	129	586	233	172	0	22	22	
559	144	172	586	233	215	0	22	22	
532	69	0	585	106	72	4	23	23	
532	69	72	585	106	144	4	23	23	
532	106	0	585	143	72	4	23	23	
532	106	72	585	143	144	4	23	23	
532	69	144	585	141	181	4	24	24	
587	0	0	676	43	27	0	25	0	
587	0	27	676	43	54	0	25	0	
587	0	54	676	43	81	0	25	0	
677	0	0	761	78	28	2	26	0	
677	0	28	761	78	56	2	26	0	
677	0	56	761	78	84	2	26	0	
677	0	84	761	78	112	2	26	0	
677	0	112	761	78	140	2	26	0	
677	0	140	761	78	168	2	26	0	
762	0	0	854	44	29	3	27	0	
762	0	29	854	44	58	3	27	0	
