3	3	587	233	220
27768090	21122940
0	0	0	81	92	55	2	1	1	
0	0	55	81	92	110	2	1	1	
0	0	110	81	92	165	2	1	1	
0	0	165	81	92	220	2	1	1	
81	0	0	162	92	55	2	1	1	
81	0	55	162	92	110	2	1	1	
81	0	110	162	92	165	2	1	1	
81	0	165	162	92	220	2	1	1	
162	0	0	243	92	55	2	1	1	
162	0	55	243	92	110	2	1	1	
162	0	110	243	92	165	2	1	1	
162	0	165	243	92	220	2	1	1	
243	0	0	324	92	55	2	1	1	
243	0	55	324	92	110	2	1	1	
243	0	110	324	92	165	2	1	1	
243	0	165	324	92	220	2	1	1	
324	0	0	405	92	55	2	1	1	
324	0	55	405	92	110	2	1	1	
324	0	110	405	92	165	2	1	1	
324	0	165	405	92	220	2	1	1	
405	0	0	486	92	55	2	1	1	
405	0	55	486	92	110	2	1	1	
405	0	110	486	92	165	2	1	1	
405	0	165	486	92	220	2	1	1	
486	0	0	567	92	55	2	1	1	
486	0	55	567	92	110	2	1	1	
486	0	110	567	92	165	2	1	1	
486	0	165	567	92	220	2	1	1	
0	125	0	76	233	30	1	2	2	
0	125	30	76	233	60	1	2	2	
0	125	60	76	233	90	1	2	2	
0	125	90	76	233	120	1	2	2	
0	125	120	76	233	150	1	2	2	
0	125	150	76	233	180	1	2	2	
0	125	180	76	233	210	1	2	2	
76	125	0	152	233	30	1	2	2	
76	125	30	152	233	60	1	2	2	
76	125	60	152	233	90	1	2	2	
76	125	90	152	233	120	1	2	2	
76	125	120	152	233	150	1	2	2	
76	125	150	152	233	180	1	2	2	
76	125	180	152	233	210	1	2	2	
152	125	0	228	233	30	1	2	2	
152	125	30	228	233	60	1	2	2	
152	125	60	228	233	90	1	2	2	
152	125	90	228	233	120	1	2	2	
152	125	120	228	233	150	1	2	2	
152	125	150	228	233	180	1	2	2	
152	125	180	228	233	210	1	2	2	
228	125	0	304	233	30	1	2	2	
228	125	30	304	233	60	1	2	2	
228	125	60	304	233	90	1	2	2	
228	125	90	304	233	120	1	2	2	
228	125	120	304	233	150	1	2	2	
228	125	150	304	233	180	1	2	2	
228	125	180	304	233	210	1	2	2	
304	125	0	380	233	30	1	2	2	
304	125	30	380	233	60	1	2	2	
304	125	60	380	233	90	1	2	2	
304	125	90	380	233	120	1	2	2	
304	125	120	380	233	150	1	2	2	
304	125	150	380	233	180	1	2	2	
304	125	180	380	233	210	1	2	2	
0	92	0	110	117	43	0	3	3	
0	92	43	110	117	86	0	3	3	
0	92	86	110	117	129	0	3	3	
0	92	129	110	117	172	0	3	3	
0	92	172	110	117	215	0	3	3	
110	92	0	220	117	43	0	3	3	
110	92	43	220	117	86	0	3	3	
110	92	86	220	117	129	0	3	3	
110	92	129	220	117	172	0	3	3	
110	92	172	220	117	215	0	3	3	
220	92	0	330	117	43	0	3	3	
220	92	43	330	117	86	0	3	3	
220	92	86	330	117	129	0	3	3	
220	92	129	330	117	172	0	3	3	
220	92	172	330	117	215	0	3	3	
330	92	0	440	117	43	0	3	3	
330	92	43	440	117	86	0	3	3	
330	92	86	440	117	129	0	3	3	
330	92	129	440	117	172	0	3	3	
330	92	172	440	117	215	0	3	3	
440	92	0	550	117	43	0	3	3	
440	92	43	550	117	86	0	3	3	
440	92	86	550	117	129	0	3	3	
440	92	129	550	117	172	0	3	3	
440	92	172	550	117	215	0	3	3	
380	123	0	461	178	92	2	4	4	
380	178	0	461	233	92	2	4	4	
461	123	0	542	178	92	2	4	4	
461	178	0	542	233	92	2	4	4	
380	123	92	461	178	184	2	5	5	
380	178	92	461	233	184	2	5	5	
461	123	92	542	178	184	2	5	5	
461	178	92	542	233	184	2	5	5	
380	125	184	456	233	214	1	6	6	
456	125	184	532	233	214	1	6	6	
542	123	0	585	233	25	0	7	7	
542	123	25	585	233	50	0	7	7	
542	123	50	585	233	75	0	7	7	
542	123	75	585	233	100	0	7	7	
542	123	100	585	233	125	0	7	7	
542	123	125	585	233	150	0	7	7	
542	123	150	585	233	175	0	7	7	
542	123	175	585	233	200	0	7	7	
587	0	0	695	76	30	1	8	0	
587	0	30	695	76	60	1	8	0	
587	0	60	695	76	90	1	8	0	
696	0	0	788	81	55	2	9	0	
696	0	55	788	81	110	2	9	0	
