20	20	587	233	220
26828053	21820272
0	0	0	65	99	106	18	1	1	
0	0	106	65	99	212	18	1	1	
65	0	0	130	99	106	18	1	1	
65	0	106	130	99	212	18	1	1	
0	154	0	57	233	76	16	2	2	
0	154	76	57	233	152	16	2	2	
57	154	0	114	233	76	16	2	2	
57	154	76	114	233	152	16	2	2	
114	154	0	171	233	76	16	2	2	
114	154	76	171	233	152	16	2	2	
0	157	152	52	233	198	12	3	3	
52	157	152	104	233	198	12	3	3	
104	157	152	156	233	198	12	3	3	
0	105	0	109	154	66	14	4	4	
109	105	0	218	154	66	14	4	4	
218	105	0	327	154	66	14	4	4	
327	105	0	436	154	66	14	4	4	
0	108	66	95	154	102	7	5	5	
0	108	102	95	154	138	7	5	5	
0	108	138	95	154	174	7	5	5	
0	108	174	95	154	210	7	5	5	
95	108	66	190	154	102	7	5	5	
95	108	102	190	154	138	7	5	5	
95	108	138	190	154	174	7	5	5	
95	108	174	190	154	210	7	5	5	
130	0	0	216	100	30	2	6	6	
130	0	30	216	100	60	2	6	6	
130	0	60	216	100	90	2	6	6	
130	0	90	216	100	120	2	6	6	
130	0	120	216	100	150	2	6	6	
130	0	150	172	47	198	10	7	7	
130	47	150	172	94	198	10	7	7	
172	0	150	214	47	198	10	7	7	
172	47	150	214	94	198	10	7	7	
171	157	0	283	233	79	19	8	8	
171	157	79	283	233	158	19	8	8	
283	157	0	395	233	79	19	8	8	
283	157	79	395	233	158	19	8	8	
395	157	0	507	233	79	19	8	8	
395	157	79	507	233	158	19	8	8	
171	194	158	227	233	219	9	9	9	
227	194	158	283	233	219	9	9	9	
283	194	158	339	233	219	9	9	9	
339	194	158	395	233	219	9	9	9	
395	194	158	451	233	219	9	9	9	
451	194	158	507	233	219	9	9	9	
171	157	158	262	194	212	8	10	10	
190	106	66	257	154	143	13	11	11	
190	106	143	257	154	220	13	11	11	
257	106	66	324	154	143	13	11	11	
257	106	143	324	154	220	13	11	11	
324	106	66	391	154	143	13	11	11	
324	106	143	391	154	220	13	11	11	
216	0	0	278	44	55	11	12	12	
216	0	55	278	44	110	11	12	12	
216	0	110	278	44	165	11	12	12	
216	0	165	278	44	220	11	12	12	
216	44	0	278	88	55	11	12	12	
216	44	55	278	88	110	11	12	12	
216	44	110	278	88	165	11	12	12	
216	44	165	278	88	220	11	12	12	
262	157	158	353	194	212	8	13	13	
353	157	158	444	194	212	8	13	13	
278	0	0	337	35	63	5	14	14	
278	0	63	337	35	126	5	14	14	
278	35	0	337	70	63	5	14	14	
278	35	63	337	70	126	5	14	14	
278	70	0	337	105	63	5	14	14	
278	70	63	337	105	126	5	14	14	
278	0	126	337	66	157	3	15	15	
278	0	157	337	66	188	3	15	15	
278	0	188	337	66	219	3	15	15	
278	66	126	334	105	187	9	16	16	
337	0	0	387	86	73	15	17	17	
387	0	0	437	86	73	15	17	17	
437	0	0	487	86	73	15	17	17	
487	0	0	537	86	73	15	17	17	
537	0	0	587	86	73	15	17	17	
337	0	73	399	85	182	17	18	18	
399	0	73	461	85	182	17	18	18	
461	0	73	523	85	182	17	18	18	
523	0	73	585	85	182	17	18	18	
337	0	182	437	32	219	4	19	19	
337	32	182	437	64	219	4	19	19	
437	0	182	537	32	219	4	19	19	
437	32	182	537	64	219	4	19	19	
391	105	66	435	154	102	6	20	20	
391	105	102	435	154	138	6	20	20	
391	105	138	435	154	174	6	20	20	
391	105	174	435	154	210	6	20	20	
436	88	0	463	157	48	0	21	21	
436	88	48	463	157	96	0	21	21	
436	88	96	463	157	144	0	21	21	
436	88	144	463	157	192	0	21	21	
444	159	158	507	194	217	5	22	22	
463	91	0	494	157	59	3	23	23	
494	91	0	525	157	59	3	23	23	
525	91	0	556	157	59	3	23	23	
556	91	0	587	157	59	3	23	23	
463	101	59	565	129	99	1	24	24	
463	101	99	565	129	139	1	24	24	
463	101	139	565	129	179	1	24	24	
463	101	179	565	129	219	1	24	24	
463	129	59	565	157	99	1	24	24	
463	129	99	565	157	139	1	24	24	
463	129	139	565	157	179	1	24	24	
463	129	179	565	157	219	1	24	24	
507	157	0	586	233	112	19	25	25	
507	157	112	586	233	169	16	26	26	
507	157	169	559	233	215	12	27	27	
537	0	182	585	69	209	0	28	28	
587	0	0	689	40	28	1	29	0	
690	0	0	790	37	32	4	30	0	
690	0	32	790	37	64	4	30	0	
690	0	64	790	37	96	4	30	0	
791	0	0	886	46	36	7	31	0	
887	0	0	978	54	37	8	32	0	
979	0	0	1040	56	39	9	33	0	
1041	0	0	1089	47	42	10	34	0	
1041	0	42	1089	47	84	10	34	0	
1041	0	84	1089	47	126	10	34	0	
1041	0	126	1089	47	168	10	34	0	
1090	0	0	1152	55	44	11	35	0	
1153	0	0	1229	52	46	12	36	0	
1153	0	46	1229	52	92	12	36	0	
1153	0	92	1229	52	138	12	36	0	
1153	0	138	1229	52	184	12	36	0	
1230	0	0	1339	85	62	17	37	0	
