20	20	587	233	220
27088868	21138739
0	0	0	108	70	97	18	1	1	
0	0	97	108	70	194	18	1	1	
108	0	0	216	70	97	18	1	1	
108	0	97	216	70	194	18	1	1	
216	0	0	324	70	97	18	1	1	
216	0	97	324	70	194	18	1	1	
324	0	0	432	70	97	18	1	1	
324	0	97	432	70	194	18	1	1	
0	146	0	53	233	72	14	2	2	
0	146	72	53	233	144	14	2	2	
0	146	144	53	233	216	14	2	2	
53	146	0	106	233	72	14	2	2	
53	146	72	106	233	144	14	2	2	
53	146	144	106	233	216	14	2	2	
0	0	194	86	56	217	0	3	3	
86	0	194	172	56	217	0	4	4	
0	70	0	83	139	100	17	5	5	
0	70	100	83	139	200	17	5	5	
83	70	0	166	139	100	17	5	5	
83	70	100	166	139	200	17	5	5	
106	151	0	167	233	64	15	6	6	
106	151	64	167	233	128	15	6	6	
106	151	128	167	233	192	15	6	6	
167	151	0	228	233	64	15	6	6	
167	151	64	228	233	128	15	6	6	
167	151	128	228	233	192	15	6	6	
106	159	192	136	233	219	2	7	7	
136	159	192	166	233	219	2	7	7	
166	159	192	196	233	219	2	7	7	
196	159	192	226	233	219	2	7	7	
166	70	0	263	146	40	10	8	8	
166	70	40	263	146	80	10	8	8	
166	70	80	263	146	120	10	8	8	
166	70	120	263	146	160	10	8	8	
166	70	160	263	146	200	10	8	8	
228	158	0	300	233	82	19	9	9	
300	158	0	372	233	82	19	9	9	
372	158	0	444	233	82	19	9	9	
444	158	0	516	233	82	19	9	9	
228	158	82	335	233	106	1	10	10	
228	158	106	335	233	130	1	10	10	
228	158	130	335	233	154	1	10	10	
228	158	154	335	233	178	1	10	10	
228	158	178	335	233	202	1	10	10	
335	158	82	442	233	106	1	10	10	
335	158	106	442	233	130	1	10	10	
335	158	130	442	233	154	1	10	10	
335	158	154	442	233	178	1	10	10	
335	158	178	442	233	202	1	10	10	
442	160	82	513	233	109	3	11	11	
442	160	109	513	233	136	3	11	11	
442	160	136	513	233	163	3	11	11	
442	160	163	513	233	190	3	11	11	
442	160	190	513	233	217	3	11	11	
263	70	0	356	113	71	12	12	12	
263	70	71	356	113	142	12	12	12	
263	70	142	356	113	213	12	12	12	
263	113	0	356	156	71	12	12	12	
263	113	71	356	156	142	12	12	12	
263	113	142	356	156	213	12	12	12	
356	70	0	441	158	35	7	13	13	
356	70	35	441	158	70	7	13	13	
356	70	70	441	158	105	7	13	13	
356	70	105	441	158	140	7	13	13	
356	70	140	441	158	175	7	13	13	
441	70	0	526	158	35	7	13	13	
441	70	35	526	158	70	7	13	13	
441	70	70	526	158	105	7	13	13	
441	70	105	526	158	140	7	13	13	
441	70	140	526	158	175	7	13	13	
356	70	175	412	136	216	11	14	14	
412	70	175	468	136	216	11	14	14	
468	70	175	524	136	216	11	14	14	
432	0	0	520	68	72	16	15	15	
432	0	72	520	68	144	16	15	15	
432	0	144	520	68	216	16	15	15	
516	166	0	579	233	47	13	16	16	
516	166	47	579	233	94	13	16	16	
516	166	94	579	233	141	13	16	16	
516	166	141	579	233	188	13	16	16	
516	195	188	579	233	220	6	17	17	
520	0	0	583	47	67	13	18	18	
520	0	67	583	47	134	13	18	18	
520	0	134	583	47	201	13	18	18	
526	47	0	583	145	38	8	19	19	
526	47	38	583	145	76	8	19	19	
526	47	76	583	145	114	8	19	19	
526	47	114	583	145	152	8	19	19	
526	47	152	582	88	218	11	20	20	
526	88	152	582	129	218	11	20	20	
587	0	0	682	35	28	4	21	0	
587	0	28	682	35	56	4	21	0	
587	0	56	682	35	84	4	21	0	
587	0	84	682	35	112	4	21	0	
683	0	0	784	31	30	5	22	0	
683	0	30	784	31	60	5	22	0	
683	0	60	784	31	90	5	22	0	
683	0	90	784	31	120	5	22	0	
683	0	120	784	31	150	5	22	0	
683	0	150	784	31	180	5	22	0	
785	0	0	848	38	32	6	23	0	
785	0	32	848	38	64	6	23	0	
785	0	64	848	38	96	6	23	0	
785	0	96	848	38	128	6	23	0	
785	0	128	848	38	160	6	23	0	
785	0	160	848	38	192	6	23	0	
849	0	0	937	85	35	7	24	0	
938	0	0	981	40	39	9	25	0	
938	0	39	981	40	78	9	25	0	
938	0	78	981	40	117	9	25	0	
938	0	117	981	40	156	9	25	0	
938	0	156	981	40	195	9	25	0	
938	0	195	981	40	234	9	25	0	
938	0	234	981	40	273	9	25	0	
982	0	0	1079	76	40	10	26	0	
1080	0	0	1146	56	41	11	27	0	
1147	0	0	1240	71	43	12	28	0	
