12	12	587	233	220
27354111	20922396
0	0	0	57	57	107	9	1	1	
57	0	0	114	57	107	9	1	1	
114	0	0	171	57	107	9	1	1	
171	0	0	228	57	107	9	1	1	
228	0	0	285	57	107	9	1	1	
285	0	0	342	57	107	9	1	1	
342	0	0	399	57	107	9	1	1	
399	0	0	456	57	107	9	1	1	
456	0	0	513	57	107	9	1	1	
513	0	0	570	57	107	9	1	1	
0	59	0	78	117	72	11	2	2	
0	59	72	78	117	144	11	2	2	
0	59	144	78	117	216	11	2	2	
0	117	0	78	175	72	11	2	2	
0	117	72	78	175	144	11	2	2	
0	117	144	78	175	216	11	2	2	
0	175	0	78	233	72	11	2	2	
0	175	72	78	233	144	11	2	2	
0	175	144	78	233	216	11	2	2	
0	0	107	101	56	146	6	3	3	
0	0	146	101	56	185	6	3	3	
101	0	107	202	56	146	6	3	3	
101	0	146	202	56	185	6	3	3	
202	0	107	303	56	146	6	3	3	
202	0	146	303	56	185	6	3	3	
303	0	107	404	56	146	6	3	3	
303	0	146	404	56	185	6	3	3	
404	0	107	505	56	146	6	3	3	
404	0	146	505	56	185	6	3	3	
0	0	185	64	55	218	2	4	4	
64	0	185	128	55	218	2	4	4	
128	0	185	192	55	218	2	4	4	
192	0	185	256	55	218	2	4	4	
256	0	185	320	55	218	2	4	4	
320	0	185	384	55	218	2	4	4	
384	0	185	448	55	218	2	4	4	
78	59	0	137	117	79	10	5	5	
78	117	0	137	175	79	10	5	5	
78	175	0	137	233	79	10	5	5	
137	59	0	196	117	79	10	5	5	
137	117	0	196	175	79	10	5	5	
137	175	0	196	233	79	10	5	5	
196	59	0	255	117	79	10	5	5	
196	117	0	255	175	79	10	5	5	
196	175	0	255	233	79	10	5	5	
255	166	0	371	233	35	4	6	6	
255	166	35	371	233	70	4	6	6	
255	166	70	371	233	105	4	6	6	
255	166	105	371	233	140	4	6	6	
255	166	140	371	233	175	4	6	6	
255	166	175	371	233	210	4	6	6	
371	166	0	487	233	35	4	6	6	
371	166	35	487	233	70	4	6	6	
371	166	70	487	233	105	4	6	6	
371	166	105	487	233	140	4	6	6	
371	166	140	487	233	175	4	6	6	
371	166	175	487	233	210	4	6	6	
255	57	0	320	110	73	8	7	7	
255	57	73	320	110	146	8	7	7	
255	57	146	320	110	219	8	7	7	
255	110	0	320	163	73	8	7	7	
255	110	73	320	163	146	8	7	7	
255	110	146	320	163	219	8	7	7	
78	69	79	156	151	107	1	8	8	
78	69	107	156	151	135	1	8	8	
78	69	135	156	151	163	1	8	8	
78	69	163	156	151	191	1	8	8	
78	69	191	156	151	219	1	8	8	
78	151	79	156	233	107	1	8	8	
78	151	107	156	233	135	1	8	8	
78	151	135	156	233	163	1	8	8	
78	151	163	156	233	191	1	8	8	
78	151	191	156	233	219	1	8	8	
156	127	79	197	233	114	3	9	9	
156	127	114	197	233	149	3	9	9	
156	127	149	197	233	184	3	9	9	
156	127	184	197	233	219	3	9	9	
197	127	79	238	233	114	3	9	9	
197	127	114	238	233	149	3	9	9	
197	127	149	238	233	184	3	9	9	
197	127	184	238	233	219	3	9	9	
320	57	0	420	165	39	7	10	10	
320	57	39	420	165	78	7	10	10	
320	57	78	420	165	117	7	10	10	
320	57	117	420	165	156	7	10	10	
320	57	156	420	165	195	7	10	10	
420	57	0	520	165	39	7	11	11	
420	57	39	520	165	78	7	11	11	
420	57	78	520	165	117	7	11	11	
420	57	117	520	165	156	7	11	11	
156	59	79	249	125	105	0	12	12	
156	59	105	249	125	131	0	12	12	
156	59	131	249	125	157	0	12	12	
156	59	157	249	125	183	0	12	12	
156	59	183	249	125	209	0	12	12	
420	57	156	457	129	220	5	13	13	
457	57	156	494	129	220	5	13	13	
420	132	156	475	165	220	2	14	14	
487	167	0	580	233	26	0	15	15	
487	167	26	580	233	52	0	15	15	
487	167	52	580	233	78	0	15	15	
487	167	78	580	233	104	0	15	15	
487	167	104	580	233	130	0	15	15	
487	167	130	580	233	156	0	15	15	
487	167	156	580	233	182	0	15	15	
487	167	182	580	233	208	0	15	15	
505	0	107	570	53	180	8	16	16	
520	57	0	584	94	72	5	17	17	
520	57	72	584	94	144	5	17	17	
520	57	144	584	94	216	5	17	17	
520	94	0	584	131	72	5	17	17	
520	94	72	584	131	144	5	17	17	
520	94	144	584	131	216	5	17	17	
520	134	0	584	167	55	2	18	18	
587	0	0	669	78	28	1	19	0	
670	0	0	776	41	35	3	20	0	
670	0	35	776	41	70	3	20	0	
777	0	0	849	64	37	5	21	0	
777	0	37	849	64	74	5	21	0	
777	0	74	849	64	111	5	21	0	
777	0	111	849	64	148	5	21	0	
777	0	148	849	64	185	5	21	0	
777	0	185	849	64	222	5	21	0	
850	0	0	951	56	39	6	22	0	
952	0	0	1059	57	57	9	23	0	
1060	0	0	1138	72	58	11	24	0	
