15	15	587	233	220
27514030	23117758
0	0	0	87	55	79	13	1	1	
0	0	79	87	55	158	13	1	1	
87	0	0	174	55	79	13	1	1	
87	0	79	174	55	158	13	1	1	
174	0	0	261	55	79	13	1	1	
174	0	79	261	55	158	13	1	1	
261	0	0	348	55	79	13	1	1	
261	0	79	348	55	158	13	1	1	
348	0	0	435	55	79	13	1	1	
348	0	79	435	55	158	13	1	1	
435	0	0	522	55	79	13	1	1	
435	0	79	522	55	158	13	1	1	
0	0	158	92	52	216	11	2	2	
92	0	158	184	52	216	11	2	2	
184	0	158	276	52	216	11	2	2	
276	0	158	368	52	216	11	2	2	
368	0	158	460	52	216	11	2	2	
0	138	0	62	233	45	9	3	3	
0	138	45	62	233	90	9	3	3	
0	138	90	62	233	135	9	3	3	
0	138	135	62	233	180	9	3	3	
62	138	0	124	233	45	9	3	3	
62	138	45	124	233	90	9	3	3	
62	138	90	124	233	135	9	3	3	
62	138	135	124	233	180	9	3	3	
124	138	0	186	233	45	9	3	3	
124	138	45	186	233	90	9	3	3	
124	138	90	186	233	135	9	3	3	
124	138	135	186	233	180	9	3	3	
0	55	0	113	109	90	12	4	4	
0	55	90	113	109	180	12	4	4	
113	55	0	226	109	90	12	4	4	
113	55	90	226	109	180	12	4	4	
0	139	180	86	233	218	6	5	5	
86	139	180	172	233	218	6	5	5	
0	55	180	64	81	214	2	6	6	
0	81	180	64	107	214	2	6	6	
64	55	180	128	81	214	2	6	6	
64	81	180	128	107	214	2	6	6	
128	55	180	192	81	214	2	6	6	
128	81	180	192	107	214	2	6	6	
0	112	0	64	138	42	3	7	7	
0	112	42	64	138	84	3	7	7	
0	112	84	64	138	126	3	7	7	
0	112	126	64	138	168	3	7	7	
0	112	168	64	138	210	3	7	7	
64	112	0	128	138	42	3	7	7	
64	112	42	128	138	84	3	7	7	
64	112	84	128	138	126	3	7	7	
64	112	126	128	138	168	3	7	7	
64	112	168	128	138	210	3	7	7	
128	112	0	192	138	34	2	8	8	
128	112	34	192	138	68	2	8	8	
128	113	68	184	138	110	1	9	9	
128	113	110	184	138	152	1	9	9	
128	113	152	184	138	194	1	9	9	
186	139	0	272	233	38	6	10	10	
186	139	38	272	233	76	6	10	10	
186	139	76	272	233	114	6	10	10	
186	139	114	272	233	152	6	10	10	
186	139	152	272	233	190	6	10	10	
272	139	0	358	233	38	6	10	10	
272	139	38	358	233	76	6	10	10	
272	139	76	358	233	114	6	10	10	
272	139	114	358	233	152	6	10	10	
272	139	152	358	233	190	6	10	10	
186	141	190	271	233	211	0	11	11	
226	55	0	339	97	52	7	12	12	
226	55	52	339	97	104	7	12	12	
226	55	104	339	97	156	7	12	12	
226	55	156	339	97	208	7	12	12	
226	97	0	339	139	52	7	12	12	
226	97	52	339	139	104	7	12	12	
226	97	104	339	139	156	7	12	12	
226	97	156	339	139	208	7	12	12	
271	141	190	356	233	211	0	13	13	
339	55	0	419	136	68	14	14	14	
419	55	0	499	136	68	14	14	14	
499	55	0	579	136	68	14	14	14	
339	55	68	384	136	120	8	15	15	
339	55	120	384	136	172	8	15	15	
384	55	68	429	136	120	8	15	15	
384	55	120	429	136	172	8	15	15	
429	55	68	474	136	120	8	15	15	
429	55	120	474	136	172	8	15	15	
474	55	68	519	136	120	8	15	15	
474	55	120	519	136	172	8	15	15	
519	55	68	564	136	120	8	15	15	
519	55	120	564	136	172	8	15	15	
339	55	172	391	136	217	8	16	16	
358	137	0	392	185	54	5	17	17	
358	137	54	392	185	108	5	17	17	
358	137	108	392	185	162	5	17	17	
358	137	162	392	185	216	5	17	17	
358	185	0	392	233	54	5	17	17	
358	185	54	392	233	108	5	17	17	
358	185	108	392	233	162	5	17	17	
358	185	162	392	233	216	5	17	17	
391	55	172	443	136	217	8	18	18	
443	55	172	495	136	217	8	19	19	
495	55	172	547	136	217	8	19	19	
392	139	0	478	233	38	6	20	20	
460	0	158	508	54	192	5	21	21	
392	141	38	477	233	59	0	22	22	
392	141	59	477	233	80	0	22	22	
392	141	80	477	233	101	0	22	22	
392	141	101	477	233	122	0	22	22	
392	141	122	477	233	143	0	22	22	
392	141	143	477	233	164	0	22	22	
392	141	164	477	233	185	0	22	22	
392	141	185	477	233	206	0	22	22	
478	141	0	527	187	72	10	23	23	
478	141	72	527	187	144	10	23	23	
478	141	144	527	187	216	10	23	23	
478	187	0	527	233	72	10	23	23	
478	187	72	527	233	144	10	23	23	
478	187	144	527	233	216	10	23	23	
522	0	0	580	52	92	11	24	24	
522	0	92	580	52	184	11	24	24	
527	141	0	585	233	52	11	25	25	
527	141	52	585	233	104	11	25	25	
527	141	104	585	233	156	11	25	25	
527	143	156	576	233	189	4	26	26	
587	0	0	677	49	33	4	27	0	
587	0	33	677	49	66	4	27	0	
587	0	66	677	49	99	4	27	0	
587	0	99	677	49	132	4	27	0	
678	0	0	791	90	54	12	28	0	
792	0	0	873	80	68	14	29	0	
792	0	68	873	80	136	14	29	0	
