20	20	587	233	220
26940014	20659485
0	0	0	118	93	80	19	1	1	
0	93	0	118	186	80	19	1	1	
118	0	0	236	93	80	19	1	1	
118	93	0	236	186	80	19	1	1	
0	0	80	96	97	126	14	2	2	
0	0	126	96	97	172	14	2	2	
0	0	172	96	97	218	14	2	2	
96	0	80	192	97	126	14	2	2	
96	0	126	192	97	172	14	2	2	
96	0	172	192	97	218	14	2	2	
0	121	80	68	186	183	18	3	3	
68	121	80	136	186	183	18	3	3	
136	121	80	204	186	183	18	3	3	
0	122	183	67	186	214	10	4	4	
67	122	183	134	186	214	10	4	4	
134	122	183	201	186	214	10	4	4	
0	97	80	40	119	117	1	5	5	
0	97	117	40	119	154	1	5	5	
40	97	80	80	119	117	1	5	5	
40	97	117	80	119	154	1	5	5	
80	97	80	120	119	117	1	5	5	
80	97	117	120	119	154	1	5	5	
120	97	80	160	119	117	1	5	5	
120	97	117	160	119	154	1	5	5	
160	97	80	200	119	117	1	5	5	
160	97	117	200	119	154	1	5	5	
0	192	0	88	233	62	12	6	6	
0	192	62	88	233	124	12	6	6	
0	192	124	88	233	186	12	6	6	
88	192	0	176	233	62	12	6	6	
88	192	62	176	233	124	12	6	6	
88	192	124	176	233	186	12	6	6	
176	192	0	264	233	62	12	6	6	
176	192	62	264	233	124	12	6	6	
176	192	124	264	233	186	12	6	6	
0	196	186	83	233	213	5	7	7	
83	196	186	166	233	213	5	7	7	
166	196	186	249	233	213	5	7	7	
192	0	80	233	47	136	11	8	8	
192	0	136	233	47	192	11	8	8	
192	47	80	233	94	136	11	8	8	
192	47	136	233	94	192	11	8	8	
204	99	80	235	128	124	9	9	9	
204	99	124	235	128	168	9	9	9	
204	99	168	235	128	212	9	9	9	
204	128	80	235	157	124	9	9	9	
204	128	124	235	157	168	9	9	9	
204	128	168	235	157	212	9	9	9	
204	157	80	235	186	124	9	9	9	
204	157	124	235	186	168	9	9	9	
204	157	168	235	186	212	9	9	9	
236	0	0	305	91	49	16	10	10	
236	0	49	305	91	98	16	10	10	
236	0	98	305	91	147	16	10	10	
236	0	147	305	91	196	16	10	10	
236	91	0	305	182	49	16	10	10	
236	91	49	305	182	98	16	10	10	
236	91	98	305	182	147	16	10	10	
236	91	147	305	182	196	16	10	10	
236	0	196	289	87	217	0	11	11	
236	87	196	289	174	217	0	11	11	
264	184	0	333	233	91	16	12	12	
264	184	91	333	233	182	16	12	12	
333	184	0	402	233	91	16	12	12	
333	184	91	402	233	182	16	12	12	
264	186	182	369	233	210	7	13	13	
305	0	0	347	90	61	13	14	14	
305	90	0	347	180	61	13	14	14	
347	0	0	389	90	61	13	14	14	
347	90	0	389	180	61	13	14	14	
389	0	0	431	90	61	13	14	14	
389	90	0	431	180	61	13	14	14	
431	0	0	473	90	61	13	14	14	
431	90	0	473	180	61	13	14	14	
473	0	0	515	90	61	13	14	14	
473	90	0	515	180	61	13	14	14	
305	0	61	377	64	176	17	15	15	
305	64	61	377	128	176	17	15	15	
377	0	61	449	64	176	17	15	15	
377	64	61	449	128	176	17	15	15	
305	0	176	372	64	207	10	16	16	
305	64	176	372	128	207	10	16	16	
372	0	176	439	64	207	10	16	16	
372	64	176	439	128	207	10	16	16	
305	131	61	382	180	86	4	17	17	
305	131	86	382	180	111	4	17	17	
305	131	111	382	180	136	4	17	17	
305	131	136	382	180	161	4	17	17	
305	131	161	382	180	186	4	17	17	
305	131	186	382	180	211	4	17	17	
382	131	61	459	180	86	4	17	17	
382	131	86	459	180	111	4	17	17	
382	131	111	459	180	136	4	17	17	
382	131	136	459	180	161	4	17	17	
382	131	161	459	180	186	4	17	17	
382	131	186	459	180	211	4	17	17	
402	183	0	497	208	43	3	18	18	
402	183	43	497	208	86	3	18	18	
402	183	86	497	208	129	3	18	18	
402	183	129	497	208	172	3	18	18	
402	183	172	497	208	215	3	18	18	
402	208	0	497	233	43	3	18	18	
402	208	43	497	233	86	3	18	18	
402	208	86	497	233	129	3	18	18	
402	208	129	497	233	172	3	18	18	
402	208	172	497	233	215	3	18	18	
449	0	61	477	105	108	7	19	19	
449	0	108	477	105	155	7	19	19	
449	0	155	477	105	202	7	19	19	
477	0	61	505	105	108	7	19	19	
477	0	108	505	105	155	7	19	19	
477	0	155	505	105	202	7	19	19	
459	124	61	508	180	112	15	20	20	
459	124	112	508	180	163	15	20	20	
459	124	163	508	180	214	15	20	20	
497	180	0	584	233	21	0	21	21	
497	180	21	584	233	42	0	21	21	
497	180	42	584	233	63	0	21	21	
497	180	63	584	233	84	0	21	21	
497	180	84	584	233	105	0	21	21	
497	180	105	584	233	126	0	21	21	
497	184	126	566	233	217	16	22	22	
515	0	0	586	78	27	6	23	23	
515	0	27	586	78	54	6	23	23	
515	0	54	586	78	81	6	23	23	
515	0	81	586	78	108	6	23	23	
515	0	108	586	78	135	6	23	23	
515	0	135	586	78	162	6	23	23	
515	0	162	586	78	189	6	23	23	
515	90	0	584	180	28	8	24	24	
515	90	28	584	180	56	8	24	24	
515	90	56	584	180	84	8	24	24	
515	90	84	584	180	112	8	24	24	
515	90	112	584	180	140	8	24	24	
515	90	140	584	180	168	8	24	24	
515	92	168	577	180	209	12	25	25	
515	0	189	579	67	220	10	26	26	
587	0	0	671	81	23	2	27	0	
587	0	23	671	81	46	2	27	0	
587	0	46	671	81	69	2	27	0	
587	0	69	671	81	92	2	27	0	
672	0	0	767	43	25	3	28	0	
768	0	0	845	49	25	4	29	0	
768	0	25	845	49	50	4	29	0	
768	0	50	845	49	75	4	29	0	
846	0	0	929	37	27	5	30	0	
846	0	27	929	37	54	5	30	0	
846	0	54	929	37	81	5	30	0	
846	0	81	929	37	108	5	30	0	
846	0	108	929	37	135	5	30	0	
930	0	0	1035	47	28	7	31	0	
1036	0	0	1080	31	29	9	32	0	
1081	0	0	1148	64	31	10	33	0	
1081	0	31	1148	64	62	10	33	0	
1149	0	0	1205	47	41	11	34	0	
1206	0	0	1324	93	80	19	35	0	
