5	5	587	233	220
28135844	20702984
0	0	0	42	118	54	4	1	1	
0	0	54	42	118	108	4	1	1	
42	0	0	84	118	54	4	1	1	
42	0	54	84	118	108	4	1	1	
84	0	0	126	118	54	4	1	1	
84	0	54	126	118	108	4	1	1	
126	0	0	168	118	54	4	1	1	
126	0	54	168	118	108	4	1	1	
168	0	0	210	118	54	4	1	1	
168	0	54	210	118	108	4	1	1	
210	0	0	252	118	54	4	1	1	
210	0	54	252	118	108	4	1	1	
252	0	0	294	118	54	4	1	1	
252	0	54	294	118	108	4	1	1	
294	0	0	336	118	54	4	1	1	
294	0	54	336	118	108	4	1	1	
336	0	0	378	118	54	4	1	1	
336	0	54	378	118	108	4	1	1	
378	0	0	420	118	54	4	1	1	
378	0	54	420	118	108	4	1	1	
420	0	0	462	118	54	4	1	1	
420	0	54	462	118	108	4	1	1	
462	0	0	504	118	54	4	1	1	
462	0	54	504	118	108	4	1	1	
504	0	0	546	118	54	4	1	1	
504	0	54	546	118	108	4	1	1	
0	121	0	95	233	20	0	2	2	
0	121	20	95	233	40	0	2	2	
0	121	40	95	233	60	0	2	2	
0	121	60	95	233	80	0	2	2	
0	121	80	95	233	100	0	2	2	
0	121	100	95	233	120	0	2	2	
0	121	120	95	233	140	0	2	2	
0	121	140	95	233	160	0	2	2	
0	121	160	95	233	180	0	2	2	
0	121	180	95	233	200	0	2	2	
0	121	200	95	233	220	0	2	2	
95	121	0	190	233	20	0	2	2	
95	121	20	190	233	40	0	2	2	
95	121	40	190	233	60	0	2	2	
95	121	60	190	233	80	0	2	2	
95	121	80	190	233	100	0	2	2	
95	121	100	190	233	120	0	2	2	
95	121	120	190	233	140	0	2	2	
95	121	140	190	233	160	0	2	2	
95	121	160	190	233	180	0	2	2	
95	121	180	190	233	200	0	2	2	
95	121	200	190	233	220	0	2	2	
190	121	0	285	233	20	0	2	2	
190	121	20	285	233	40	0	2	2	
190	121	40	285	233	60	0	2	2	
190	121	60	285	233	80	0	2	2	
190	121	80	285	233	100	0	2	2	
190	121	100	285	233	120	0	2	2	
190	121	120	285	233	140	0	2	2	
190	121	140	285	233	160	0	2	2	
190	121	160	285	233	180	0	2	2	
190	121	180	285	233	200	0	2	2	
190	121	200	285	233	220	0	2	2	
0	0	108	38	118	145	2	3	3	
0	0	145	38	118	182	2	3	3	
38	0	108	76	118	145	2	3	3	
38	0	145	76	118	182	2	3	3	
76	0	108	114	118	145	2	3	3	
76	0	145	114	118	182	2	3	3	
114	0	108	152	118	145	2	3	3	
114	0	145	152	118	182	2	3	3	
152	0	108	190	118	145	2	3	3	
152	0	145	190	118	182	2	3	3	
190	0	108	228	118	145	2	3	3	
190	0	145	228	118	182	2	3	3	
228	0	108	266	118	145	2	3	3	
228	0	145	266	118	182	2	3	3	
266	0	108	304	118	145	2	3	3	
266	0	145	304	118	182	2	3	3	
304	0	108	342	118	145	2	3	3	
304	0	145	342	118	182	2	3	3	
342	0	108	380	118	145	2	3	3	
342	0	145	380	118	182	2	3	3	
380	0	108	418	118	145	2	3	3	
380	0	145	418	118	182	2	3	3	
418	0	108	456	118	145	2	3	3	
418	0	145	456	118	182	2	3	3	
456	0	108	494	118	145	2	3	3	
456	0	145	494	118	182	2	3	3	
494	0	108	532	118	145	2	3	3	
494	0	145	532	118	182	2	3	3	
0	0	182	76	38	220	3	4	4	
0	38	182	76	76	220	3	4	4	
0	76	182	76	114	220	3	4	4	
76	0	182	152	38	220	3	4	4	
76	38	182	152	76	220	3	4	4	
76	76	182	152	114	220	3	4	4	
152	0	182	228	38	220	3	4	4	
152	38	182	228	76	220	3	4	4	
152	76	182	228	114	220	3	4	4	
228	0	182	304	38	220	3	4	4	
228	38	182	304	76	220	3	4	4	
228	76	182	304	114	220	3	4	4	
304	0	182	380	38	220	3	4	4	
304	38	182	380	76	220	3	4	4	
304	76	182	380	114	220	3	4	4	
380	0	182	456	38	220	3	4	4	
380	38	182	456	76	220	3	4	4	
380	76	182	456	114	220	3	4	4	
456	0	182	532	38	220	3	4	4	
456	38	182	532	76	220	3	4	4	
456	76	182	532	114	220	3	4	4	
285	177	0	385	233	34	1	5	5	
285	177	34	385	233	68	1	5	5	
285	177	68	385	233	102	1	5	5	
285	177	102	385	233	136	1	5	5	
285	177	136	385	233	170	1	5	5	
285	177	170	385	233	204	1	5	5	
385	177	0	485	233	34	1	5	5	
385	177	34	485	233	68	1	5	5	
385	177	68	485	233	102	1	5	5	
385	177	102	485	233	136	1	5	5	
385	177	136	485	233	170	1	5	5	
385	177	170	485	233	204	1	5	5	
485	177	0	585	233	34	1	5	5	
485	177	34	585	233	68	1	5	5	
485	177	68	585	233	102	1	5	5	
485	177	102	585	233	136	1	5	5	
485	177	136	585	233	170	1	5	5	
485	177	170	585	233	204	1	5	5	
285	121	0	385	177	34	1	6	6	
285	121	34	385	177	68	1	6	6	
285	121	68	385	177	102	1	6	6	
285	121	102	385	177	136	1	6	6	
385	121	0	485	177	34	1	6	6	
385	121	34	485	177	68	1	6	6	
385	121	68	485	177	102	1	6	6	
385	121	102	485	177	136	1	6	6	
485	121	0	585	177	34	1	6	6	
485	121	34	585	177	68	1	6	6	
485	121	68	585	177	102	1	6	6	
485	121	102	585	177	136	1	6	6	
285	139	136	403	177	173	2	7	7	
285	139	173	403	177	210	2	7	7	
403	139	136	521	177	173	2	7	7	
403	139	173	521	177	210	2	7	7	
546	0	0	583	118	38	2	8	8	
546	0	38	583	118	76	2	8	8	
546	0	76	583	118	114	2	8	8	
546	0	114	583	118	152	2	8	8	
546	0	152	583	118	190	2	8	8	
587	0	0	699	95	20	0	9	0	
700	0	0	818	38	37	2	10	0	
700	0	37	818	38	74	2	10	0	
819	0	0	895	38	38	3	11	0	
819	0	38	895	38	76	3	11	0	
819	0	76	895	38	114	3	11	0	
819	0	114	895	38	152	3	11	0	
819	0	152	895	38	190	3	11	0	
819	0	190	895	38	228	3	11	0	
819	0	228	895	38	266	3	11	0	
819	0	266	895	38	304	3	11	0	
896	0	0	1014	54	42	4	12	0	
