8	8	587	233	220
27783340	22169782
0	0	0	86	69	79	7	1	1	
0	0	79	86	69	158	7	1	1	
86	0	0	172	69	79	7	1	1	
86	0	79	172	69	158	7	1	1	
172	0	0	258	69	79	7	1	1	
172	0	79	258	69	158	7	1	1	
258	0	0	344	69	79	7	1	1	
258	0	79	344	69	158	7	1	1	
344	0	0	430	69	79	7	1	1	
344	0	79	430	69	158	7	1	1	
0	114	0	55	233	54	4	2	2	
0	114	54	55	233	108	4	2	2	
0	114	108	55	233	162	4	2	2	
0	114	162	55	233	216	4	2	2	
55	114	0	110	233	54	4	2	2	
55	114	54	110	233	108	4	2	2	
55	114	108	110	233	162	4	2	2	
55	114	162	110	233	216	4	2	2	
110	114	0	165	233	54	4	2	2	
110	114	54	165	233	108	4	2	2	
110	114	108	165	233	162	4	2	2	
110	114	162	165	233	216	4	2	2	
165	114	0	220	233	54	4	2	2	
165	114	54	220	233	108	4	2	2	
165	114	108	220	233	162	4	2	2	
165	114	162	220	233	216	4	2	2	
0	69	0	96	106	51	2	3	3	
0	69	51	96	106	102	2	3	3	
0	69	102	96	106	153	2	3	3	
0	69	153	96	106	204	2	3	3	
96	69	0	192	106	51	2	3	3	
96	69	51	192	106	102	2	3	3	
96	69	102	192	106	153	2	3	3	
96	69	153	192	106	204	2	3	3	
192	69	0	288	106	51	2	3	3	
192	69	51	288	106	102	2	3	3	
192	69	102	288	106	153	2	3	3	
192	69	153	288	106	204	2	3	3	
0	0	158	75	67	212	5	4	4	
75	0	158	150	67	212	5	4	4	
150	0	158	225	67	212	5	4	4	
225	0	158	300	67	212	5	4	4	
300	0	158	375	67	212	5	4	4	
220	145	0	281	233	71	6	5	5	
220	145	71	281	233	142	6	5	5	
281	145	0	342	233	71	6	5	5	
281	145	71	342	233	142	6	5	5	
342	145	0	403	233	71	6	5	5	
342	145	71	403	233	142	6	5	5	
403	145	0	464	233	71	6	5	5	
403	145	71	464	233	142	6	5	5	
464	145	0	525	233	71	6	5	5	
464	145	71	525	233	142	6	5	5	
525	145	0	586	233	71	6	5	5	
525	145	71	586	233	142	6	5	5	
220	114	0	266	145	53	1	6	6	
220	114	53	266	145	106	1	6	6	
220	114	106	266	145	159	1	6	6	
220	114	159	266	145	212	1	6	6	
220	145	142	281	233	213	6	7	7	
281	145	142	342	233	213	6	7	7	
342	145	142	403	233	213	6	7	7	
403	145	142	464	233	213	6	7	7	
464	145	142	525	233	213	6	7	7	
288	69	0	355	144	54	5	8	8	
288	69	54	355	144	108	5	8	8	
288	69	108	355	144	162	5	8	8	
288	69	162	355	144	216	5	8	8	
355	69	0	432	143	37	3	9	9	
355	69	37	432	143	74	3	9	9	
355	69	74	432	143	111	3	9	9	
355	69	111	432	143	148	3	9	9	
432	69	0	509	143	37	3	9	9	
432	69	37	509	143	74	3	9	9	
432	69	74	509	143	111	3	9	9	
432	69	111	509	143	148	3	9	9	
509	69	0	586	143	37	3	9	9	
509	69	37	586	143	74	3	9	9	
509	69	74	586	143	111	3	9	9	
509	69	111	586	143	148	3	9	9	
375	0	158	428	46	189	1	10	10	
375	0	189	428	46	220	1	10	10	
355	69	148	451	142	172	0	11	11	
355	69	172	451	142	196	0	11	11	
355	69	196	451	142	220	0	11	11	
451	69	148	547	142	172	0	11	11	
451	69	172	547	142	196	0	11	11	
451	69	196	547	142	220	0	11	11	
430	0	0	505	67	54	5	12	12	
430	0	54	505	67	108	5	12	12	
430	0	108	505	67	162	5	12	12	
505	0	0	580	67	54	5	12	12	
505	0	54	580	67	108	5	12	12	
505	0	108	580	67	162	5	12	12	
430	0	162	505	67	216	5	13	13	
505	0	162	551	31	215	1	14	14	
505	31	162	551	62	215	1	14	14	
547	69	148	578	115	201	1	15	15	
525	187	142	578	233	173	1	16	16	
525	187	173	578	233	204	1	16	16	
525	156	142	578	187	188	1	17	17	
587	0	0	683	73	24	0	18	0	
587	0	24	683	73	48	0	18	0	
587	0	48	683	73	72	0	18	0	
587	0	72	683	73	96	0	18	0	
587	0	96	683	73	120	0	18	0	
587	0	120	683	73	144	0	18	0	
587	0	144	683	73	168	0	18	0	
684	0	0	737	46	31	1	19	0	
684	0	31	737	46	62	1	19	0	
684	0	62	737	46	93	1	19	0	
684	0	93	737	46	124	1	19	0	
738	0	0	815	74	37	3	20	0	
