3	3	587	233	220
28035888	26394488
0	0	0	96	72	31	1	1	1	
0	0	31	96	72	62	1	1	1	
0	0	62	96	72	93	1	1	1	
0	0	93	96	72	124	1	1	1	
0	0	124	96	72	155	1	1	1	
0	0	155	96	72	186	1	1	1	
0	0	186	96	72	217	1	1	1	
96	0	0	192	72	31	1	1	1	
96	0	31	192	72	62	1	1	1	
96	0	62	192	72	93	1	1	1	
96	0	93	192	72	124	1	1	1	
96	0	124	192	72	155	1	1	1	
96	0	155	192	72	186	1	1	1	
96	0	186	192	72	217	1	1	1	
192	0	0	288	72	31	1	1	1	
192	0	31	288	72	62	1	1	1	
192	0	62	288	72	93	1	1	1	
192	0	93	288	72	124	1	1	1	
192	0	124	288	72	155	1	1	1	
192	0	155	288	72	186	1	1	1	
192	0	186	288	72	217	1	1	1	
288	0	0	384	72	31	1	1	1	
288	0	31	384	72	62	1	1	1	
288	0	62	384	72	93	1	1	1	
288	0	93	384	72	124	1	1	1	
288	0	124	384	72	155	1	1	1	
288	0	155	384	72	186	1	1	1	
288	0	186	384	72	217	1	1	1	
384	0	0	480	72	31	1	1	1	
384	0	31	480	72	62	1	1	1	
384	0	62	480	72	93	1	1	1	
384	0	93	480	72	124	1	1	1	
384	0	124	480	72	155	1	1	1	
384	0	155	480	72	186	1	1	1	
384	0	186	480	72	217	1	1	1	
480	0	0	576	72	31	1	1	1	
480	0	31	576	72	62	1	1	1	
480	0	62	576	72	93	1	1	1	
480	0	93	576	72	124	1	1	1	
480	0	124	576	72	155	1	1	1	
480	0	155	576	72	186	1	1	1	
480	0	186	576	72	217	1	1	1	
0	92	0	72	139	75	2	2	2	
0	139	0	72	186	75	2	2	2	
0	186	0	72	233	75	2	2	2	
72	92	0	144	139	75	2	2	2	
72	139	0	144	186	75	2	2	2	
72	186	0	144	233	75	2	2	2	
144	92	0	216	139	75	2	2	2	
144	139	0	216	186	75	2	2	2	
144	186	0	216	233	75	2	2	2	
216	92	0	288	139	75	2	2	2	
216	139	0	288	186	75	2	2	2	
216	186	0	288	233	75	2	2	2	
288	92	0	360	139	75	2	2	2	
288	139	0	360	186	75	2	2	2	
288	186	0	360	233	75	2	2	2	
360	92	0	432	139	75	2	2	2	
360	139	0	432	186	75	2	2	2	
360	186	0	432	233	75	2	2	2	
432	92	0	504	139	75	2	2	2	
432	139	0	504	186	75	2	2	2	
432	186	0	504	233	75	2	2	2	
504	92	0	576	139	75	2	2	2	
504	139	0	576	186	75	2	2	2	
504	186	0	576	233	75	2	2	2	
0	186	75	75	233	147	2	3	3	
0	186	147	75	233	219	2	3	3	
75	186	75	150	233	147	2	3	3	
75	186	147	150	233	219	2	3	3	
150	186	75	225	233	147	2	3	3	
150	186	147	225	233	219	2	3	3	
225	186	75	300	233	147	2	3	3	
225	186	147	300	233	219	2	3	3	
300	186	75	375	233	147	2	3	3	
300	186	147	375	233	219	2	3	3	
375	186	75	450	233	147	2	3	3	
375	186	147	450	233	219	2	3	3	
450	186	75	525	233	147	2	3	3	
450	186	147	525	233	219	2	3	3	
0	92	75	72	139	150	2	4	4	
0	139	75	72	186	150	2	4	4	
72	92	75	144	139	150	2	4	4	
72	139	75	144	186	150	2	4	4	
144	92	75	216	139	150	2	4	4	
144	139	75	216	186	150	2	4	4	
216	92	75	288	139	150	2	4	4	
216	139	75	288	186	150	2	4	4	
288	92	75	360	139	150	2	4	4	
288	139	75	360	186	150	2	4	4	
360	92	75	432	139	150	2	4	4	
360	139	75	432	186	150	2	4	4	
432	92	75	504	139	150	2	4	4	
432	139	75	504	186	150	2	4	4	
504	92	75	576	139	150	2	4	4	
504	139	75	576	186	150	2	4	4	
0	114	150	96	186	181	1	5	5	
0	114	181	96	186	212	1	5	5	
96	114	150	192	186	181	1	5	5	
96	114	181	192	186	212	1	5	5	
192	114	150	288	186	181	1	5	5	
192	114	181	288	186	212	1	5	5	
288	114	150	384	186	181	1	5	5	
288	114	181	384	186	212	1	5	5	
384	114	150	480	186	181	1	5	5	
384	114	181	480	186	212	1	5	5	
480	114	150	576	186	181	1	5	5	
480	114	181	576	186	212	1	5	5	
0	72	0	80	92	25	0	6	6	
0	72	25	80	92	50	0	6	6	
0	72	50	80	92	75	0	6	6	
0	72	75	80	92	100	0	6	6	
0	72	100	80	92	125	0	6	6	
0	72	125	80	92	150	0	6	6	
0	72	150	80	92	175	0	6	6	
0	72	175	80	92	200	0	6	6	
80	72	0	160	92	25	0	6	6	
80	72	25	160	92	50	0	6	6	
80	72	50	160	92	75	0	6	6	
80	72	75	160	92	100	0	6	6	
80	72	100	160	92	125	0	6	6	
80	72	125	160	92	150	0	6	6	
80	72	150	160	92	175	0	6	6	
80	72	175	160	92	200	0	6	6	
160	72	0	240	92	25	0	6	6	
160	72	25	240	92	50	0	6	6	
160	72	50	240	92	75	0	6	6	
160	72	75	240	92	100	0	6	6	
160	72	100	240	92	125	0	6	6	
160	72	125	240	92	150	0	6	6	
160	72	150	240	92	175	0	6	6	
160	72	175	240	92	200	0	6	6	
240	72	0	320	92	25	0	6	6	
240	72	25	320	92	50	0	6	6	
240	72	50	320	92	75	0	6	6	
240	72	75	320	92	100	0	6	6	
240	72	100	320	92	125	0	6	6	
240	72	125	320	92	150	0	6	6	
240	72	150	320	92	175	0	6	6	
240	72	175	320	92	200	0	6	6	
320	72	0	400	92	25	0	6	6	
320	72	25	400	92	50	0	6	6	
320	72	50	400	92	75	0	6	6	
320	72	75	400	92	100	0	6	6	
320	72	100	400	92	125	0	6	6	
320	72	125	400	92	150	0	6	6	
320	72	150	400	92	175	0	6	6	
320	72	175	400	92	200	0	6	6	
400	72	0	480	92	25	0	6	6	
400	72	25	480	92	50	0	6	6	
400	72	50	480	92	75	0	6	6	
400	72	75	480	92	100	0	6	6	
400	72	100	480	92	125	0	6	6	
400	72	125	480	92	150	0	6	6	
400	72	150	480	92	175	0	6	6	
400	72	175	480	92	200	0	6	6	
480	72	0	560	92	25	0	6	6	
480	72	25	560	92	50	0	6	6	
480	72	50	560	92	75	0	6	6	
480	72	75	560	92	100	0	6	6	
480	72	100	560	92	125	0	6	6	
480	72	125	560	92	150	0	6	6	
480	72	150	560	92	175	0	6	6	
480	72	175	560	92	200	0	6	6	
0	92	150	80	112	175	0	7	7	
0	92	175	80	112	200	0	7	7	
80	92	150	160	112	175	0	7	7	
80	92	175	160	112	200	0	7	7	
160	92	150	240	112	175	0	7	7	
160	92	175	240	112	200	0	7	7	
240	92	150	320	112	175	0	7	7	
240	92	175	320	112	200	0	7	7	
320	92	150	400	112	175	0	7	7	
320	92	175	400	112	200	0	7	7	
400	92	150	480	112	175	0	7	7	
400	92	175	480	112	200	0	7	7	
480	92	150	560	112	175	0	8	8	
587	0	0	683	72	31	1	9	0	
587	0	31	683	72	62	1	9	0	
587	0	62	683	72	93	1	9	0	
587	0	93	683	72	124	1	9	0	
587	0	124	683	72	155	1	9	0	
587	0	155	683	72	186	1	9	0	
587	0	186	683	72	217	1	9	0	
684	0	0	759	72	47	2	10	0	
684	0	47	759	72	94	2	10	0	
