20	20	587	233	220
26965936	20647342
0	0	0	119	76	48	16	1	1	
0	0	48	119	76	96	16	1	1	
0	0	96	119	76	144	16	1	1	
0	0	144	119	76	192	16	1	1	
119	0	0	238	76	48	16	1	1	
119	0	48	238	76	96	16	1	1	
119	0	96	238	76	144	16	1	1	
119	0	144	238	76	192	16	1	1	
0	81	0	98	119	65	11	2	2	
0	81	65	98	119	130	11	2	2	
0	119	0	98	157	65	11	2	2	
0	119	65	98	157	130	11	2	2	
0	157	0	98	195	65	11	2	2	
0	157	65	98	195	130	11	2	2	
0	195	0	98	233	65	11	2	2	
0	195	65	98	233	130	11	2	2	
0	0	192	79	56	217	1	3	3	
79	0	192	158	56	217	1	3	3	
158	0	192	237	56	217	1	3	3	
0	114	130	45	233	166	10	4	4	
0	114	166	45	233	202	10	4	4	
45	114	130	90	233	166	10	4	4	
45	114	166	90	233	202	10	4	4	
0	81	130	35	111	169	4	5	5	
0	81	169	35	111	208	4	5	5	
35	81	130	70	111	169	4	5	5	
35	81	169	70	111	208	4	5	5	
98	79	0	165	156	53	17	6	6	
98	79	53	165	156	106	17	6	6	
98	79	106	165	156	159	17	6	6	
98	79	159	165	156	212	17	6	6	
98	156	0	165	233	53	17	6	6	
98	156	53	165	233	106	17	6	6	
98	156	106	165	233	159	17	6	6	
98	156	159	165	233	212	17	6	6	
165	89	0	274	161	93	19	7	7	
165	161	0	274	233	93	19	7	7	
274	89	0	383	161	93	19	7	7	
274	161	0	383	233	93	19	7	7	
383	89	0	492	161	93	19	7	7	
383	161	0	492	233	93	19	7	7	
165	144	93	281	233	125	9	8	8	
165	144	125	281	233	157	9	8	8	
165	144	157	281	233	189	9	8	8	
281	144	93	397	233	125	9	8	8	
281	144	125	397	233	157	9	8	8	
281	144	157	397	233	189	9	8	8	
165	182	189	240	233	220	5	9	9	
240	182	189	315	233	220	5	9	9	
315	182	189	390	233	220	5	9	9	
165	147	189	204	182	219	4	10	10	
204	147	189	243	182	219	4	10	10	
243	147	189	282	182	219	4	10	10	
282	147	189	321	182	219	4	10	10	
165	89	93	197	144	134	7	11	11	
165	89	134	197	144	175	7	11	11	
165	89	175	197	144	216	7	11	11	
197	89	93	229	144	134	7	11	11	
197	89	134	229	144	175	7	11	11	
197	89	175	229	144	216	7	11	11	
229	89	93	335	141	124	6	12	12	
229	89	124	335	141	155	6	12	12	
229	89	155	335	141	186	6	12	12	
229	89	186	335	141	217	6	12	12	
335	89	93	441	141	124	6	12	12	
335	89	124	441	141	155	6	12	12	
335	89	155	441	141	186	6	12	12	
335	89	186	441	141	217	6	12	12	
238	0	0	340	88	26	2	13	13	
238	0	26	340	88	52	2	13	13	
238	0	52	340	88	78	2	13	13	
340	0	0	442	88	26	2	13	13	
340	0	26	442	88	52	2	13	13	
340	0	52	442	88	78	2	13	13	
442	0	0	544	88	26	2	13	13	
442	0	26	544	88	52	2	13	13	
442	0	52	544	88	78	2	13	13	
238	0	78	337	44	125	14	14	14	
238	0	125	337	44	172	14	14	14	
238	0	172	337	44	219	14	14	14	
238	44	78	337	88	125	14	14	14	
238	44	125	337	88	172	14	14	14	
238	44	172	337	88	219	14	14	14	
337	0	78	378	40	138	12	15	15	
337	40	78	378	80	138	12	15	15	
378	0	78	419	40	138	12	15	15	
378	40	78	419	80	138	12	15	15	
419	0	78	460	40	138	12	15	15	
419	40	78	460	80	138	12	15	15	
460	0	78	501	40	138	12	15	15	
460	40	78	501	80	138	12	15	15	
501	0	78	542	40	138	12	15	15	
501	40	78	542	80	138	12	15	15	
337	0	138	423	40	194	13	16	16	
337	40	138	423	80	194	13	16	16	
423	0	138	509	40	194	13	16	16	
423	40	138	509	80	194	13	16	16	
337	0	194	388	72	218	0	17	17	
388	0	194	439	72	218	0	18	18	
397	155	93	492	233	155	18	19	19	
397	155	155	492	233	217	18	19	19	
439	0	194	490	72	218	0	20	20	
441	97	93	489	155	150	15	21	21	
441	97	150	489	155	207	15	21	21	
492	99	0	587	166	32	8	22	22	
492	99	32	587	166	64	8	22	22	
492	166	0	587	233	32	8	22	22	
492	166	32	587	233	64	8	22	22	
492	171	64	587	233	142	18	23	23	
492	171	142	587	233	220	18	23	23	
509	0	138	540	75	189	5	24	24	
492	99	64	543	171	88	0	25	25	
492	99	88	543	171	112	0	25	25	
492	99	112	543	171	136	0	25	25	
492	99	136	543	171	160	0	25	25	
492	114	160	540	171	218	15	26	26	
544	0	0	575	75	51	5	27	27	
544	0	51	575	75	102	5	27	27	
544	0	102	575	75	153	5	27	27	
544	0	153	575	75	204	5	27	27	
587	0	0	658	65	29	3	28	0	
587	0	29	658	65	58	3	28	0	
587	0	58	658	65	87	3	28	0	
587	0	87	658	65	116	3	28	0	
587	0	116	658	65	145	3	28	0	
587	0	145	658	65	174	3	28	0	
587	0	174	658	65	203	3	28	0	
587	0	203	658	65	232	3	28	0	
587	0	232	658	65	261	3	28	0	
659	0	0	758	47	44	14	29	0	
759	0	0	817	57	48	15	30	0	
818	0	0	937	76	48	16	31	0	
