8	8	587	233	220
28512904	22951884
0	0	0	94	90	44	6	1	1	
0	0	44	94	90	88	6	1	1	
0	0	88	94	90	132	6	1	1	
0	0	132	94	90	176	6	1	1	
0	0	176	94	90	220	6	1	1	
94	0	0	188	90	44	6	1	1	
94	0	44	188	90	88	6	1	1	
94	0	88	188	90	132	6	1	1	
94	0	132	188	90	176	6	1	1	
94	0	176	188	90	220	6	1	1	
188	0	0	282	90	44	6	1	1	
188	0	44	282	90	88	6	1	1	
188	0	88	282	90	132	6	1	1	
188	0	132	282	90	176	6	1	1	
188	0	176	282	90	220	6	1	1	
282	0	0	376	90	44	6	1	1	
282	0	44	376	90	88	6	1	1	
282	0	88	376	90	132	6	1	1	
282	0	132	376	90	176	6	1	1	
282	0	176	376	90	220	6	1	1	
0	158	0	56	233	34	5	2	2	
0	158	34	56	233	68	5	2	2	
0	158	68	56	233	102	5	2	2	
0	158	102	56	233	136	5	2	2	
0	158	136	56	233	170	5	2	2	
0	158	170	56	233	204	5	2	2	
56	158	0	112	233	34	5	2	2	
56	158	34	112	233	68	5	2	2	
56	158	68	112	233	102	5	2	2	
56	158	102	112	233	136	5	2	2	
56	158	136	112	233	170	5	2	2	
56	158	170	112	233	204	5	2	2	
112	158	0	168	233	34	5	2	2	
112	158	34	168	233	68	5	2	2	
112	158	68	168	233	102	5	2	2	
112	158	102	168	233	136	5	2	2	
112	158	136	168	233	170	5	2	2	
112	158	170	168	233	204	5	2	2	
168	158	0	224	233	34	5	2	2	
168	158	34	224	233	68	5	2	2	
168	158	68	224	233	102	5	2	2	
168	158	102	224	233	136	5	2	2	
168	158	136	224	233	170	5	2	2	
168	158	170	224	233	204	5	2	2	
224	158	0	280	233	34	5	2	2	
224	158	34	280	233	68	5	2	2	
224	158	68	280	233	102	5	2	2	
224	158	102	280	233	136	5	2	2	
224	158	136	280	233	170	5	2	2	
224	158	170	280	233	204	5	2	2	
0	90	0	53	158	63	7	3	3	
0	90	63	53	158	126	7	3	3	
0	90	126	53	158	189	7	3	3	
53	90	0	106	158	63	7	3	3	
53	90	63	106	158	126	7	3	3	
53	90	126	106	158	189	7	3	3	
106	90	0	159	158	63	7	3	3	
106	90	63	159	158	126	7	3	3	
106	90	126	159	158	189	7	3	3	
159	90	0	212	158	63	7	3	3	
159	90	63	212	158	126	7	3	3	
159	90	126	212	158	189	7	3	3	
212	90	0	265	158	63	7	3	3	
212	90	63	265	158	126	7	3	3	
212	90	126	265	158	189	7	3	3	
265	90	0	318	158	63	7	3	3	
265	90	63	318	158	126	7	3	3	
265	90	126	318	158	189	7	3	3	
318	90	0	371	158	63	7	3	3	
318	90	63	371	158	126	7	3	3	
318	90	126	371	158	189	7	3	3	
0	94	189	72	158	220	3	4	4	
72	94	189	144	158	220	3	4	4	
144	94	189	216	158	220	3	4	4	
216	94	189	288	158	220	3	4	4	
288	94	189	360	158	220	3	4	4	
280	161	0	344	233	31	3	5	5	
280	161	31	344	233	62	3	5	5	
280	161	62	344	233	93	3	5	5	
280	161	93	344	233	124	3	5	5	
280	161	124	344	233	155	3	5	5	
280	161	155	344	233	186	3	5	5	
344	161	0	408	233	31	3	5	5	
344	161	31	408	233	62	3	5	5	
344	161	62	408	233	93	3	5	5	
344	161	93	408	233	124	3	5	5	
344	161	124	408	233	155	3	5	5	
344	161	155	408	233	186	3	5	5	
408	161	0	472	233	31	3	5	5	
408	161	31	472	233	62	3	5	5	
408	161	62	472	233	93	3	5	5	
408	161	93	472	233	124	3	5	5	
408	161	124	472	233	155	3	5	5	
408	161	155	472	233	186	3	5	5	
472	161	0	536	233	31	3	5	5	
472	161	31	536	233	62	3	5	5	
472	161	62	536	233	93	3	5	5	
472	161	93	536	233	124	3	5	5	
472	161	124	536	233	155	3	5	5	
472	161	155	536	233	186	3	5	5	
280	171	186	322	202	217	2	6	6	
280	202	186	322	233	217	2	6	6	
322	171	186	364	202	217	2	6	6	
322	202	186	364	233	217	2	6	6	
364	171	186	406	202	217	2	6	6	
364	202	186	406	233	217	2	6	6	
406	171	186	448	202	217	2	6	6	
406	202	186	448	233	217	2	6	6	
448	171	186	490	202	217	2	6	6	
448	202	186	490	233	217	2	6	6	
490	171	186	532	202	217	2	6	6	
490	202	186	532	233	217	2	6	6	
371	93	0	461	127	41	4	7	7	
371	93	41	461	127	82	4	7	7	
371	93	82	461	127	123	4	7	7	
371	93	123	461	127	164	4	7	7	
371	93	164	461	127	205	4	7	7	
371	127	0	461	161	41	4	7	7	
371	127	41	461	161	82	4	7	7	
371	127	82	461	161	123	4	7	7	
371	127	123	461	161	164	4	7	7	
371	127	164	461	161	205	4	7	7	
376	0	0	417	90	34	4	8	8	
376	0	34	417	90	68	4	8	8	
376	0	68	417	90	102	4	8	8	
376	0	102	417	90	136	4	8	8	
376	0	136	417	90	170	4	8	8	
376	0	170	417	90	204	4	8	8	
417	0	0	458	90	34	4	8	8	
417	0	34	458	90	68	4	8	8	
417	0	68	458	90	102	4	8	8	
417	0	102	458	90	136	4	8	8	
417	0	136	458	90	170	4	8	8	
417	0	170	458	90	204	4	8	8	
458	0	0	499	90	34	4	8	8	
458	0	34	499	90	68	4	8	8	
458	0	68	499	90	102	4	8	8	
458	0	102	499	90	136	4	8	8	
458	0	136	499	90	170	4	8	8	
458	0	170	499	90	204	4	8	8	
499	0	0	540	90	34	4	8	8	
499	0	34	540	90	68	4	8	8	
499	0	68	540	90	102	4	8	8	
499	0	102	540	90	136	4	8	8	
499	0	136	540	90	170	4	8	8	
499	0	170	540	90	204	4	8	8	
540	0	0	581	90	34	4	8	8	
540	0	34	581	90	68	4	8	8	
540	0	68	581	90	102	4	8	8	
540	0	102	581	90	136	4	8	8	
540	0	136	581	90	170	4	8	8	
540	0	170	581	90	204	4	8	8	
461	97	0	489	161	32	1	9	9	
461	97	32	489	161	64	1	9	9	
461	97	64	489	161	96	1	9	9	
461	97	96	489	161	128	1	9	9	
461	97	128	489	161	160	1	9	9	
461	97	160	489	161	192	1	9	9	
489	97	0	517	161	32	1	9	9	
489	97	32	517	161	64	1	9	9	
489	97	64	517	161	96	1	9	9	
489	97	96	517	161	128	1	9	9	
489	97	128	517	161	160	1	9	9	
489	97	160	517	161	192	1	9	9	
517	97	0	545	161	32	1	9	9	
517	97	32	545	161	64	1	9	9	
517	97	64	545	161	96	1	9	9	
517	97	96	545	161	128	1	9	9	
517	97	128	545	161	160	1	9	9	
517	97	160	545	161	192	1	9	9	
461	97	192	493	161	220	1	10	10	
493	97	192	525	161	220	1	10	10	
536	178	0	557	233	30	0	11	11	
536	178	30	557	233	60	0	11	11	
536	178	60	557	233	90	0	11	11	
536	178	90	557	233	120	0	11	11	
536	178	120	557	233	150	0	11	11	
536	178	150	557	233	180	0	11	11	
536	178	180	557	233	210	0	11	11	
557	178	0	578	233	30	0	11	11	
557	178	30	578	233	60	0	11	11	
557	178	60	578	233	90	0	11	11	
557	178	90	578	233	120	0	11	11	
557	178	120	578	233	150	0	11	11	
557	178	150	578	233	180	0	11	11	
557	178	180	578	233	210	0	11	11	
545	123	0	566	178	30	0	12	12	
545	123	30	566	178	60	0	12	12	
545	123	60	566	178	90	0	12	12	
545	123	90	566	178	120	0	12	12	
545	123	120	566	178	150	0	12	12	
545	123	150	566	178	180	0	12	12	
566	123	0	587	178	30	0	12	12	
566	123	30	587	178	60	0	12	12	
566	123	60	587	178	90	0	12	12	
566	123	90	587	178	120	0	12	12	
566	123	120	587	178	150	0	12	12	
566	123	150	587	178	180	0	12	12	
545	136	180	576	178	211	2	13	13	
545	90	0	587	121	31	2	14	14	
545	90	31	587	121	62	2	14	14	
545	90	62	587	121	93	2	14	14	
545	90	93	587	121	124	2	14	14	
545	90	124	587	121	155	2	14	14	
545	90	155	587	121	186	2	14	14	
545	90	186	587	121	217	2	14	14	
587	0	0	642	30	21	0	15	0	
643	0	0	685	31	31	2	16	0	
686	0	0	780	90	44	6	17	0	
686	0	44	780	90	88	6	17	0	
781	0	0	849	63	53	7	18	0	
