10	10	587	233	220
27871887	20863018
0	0	0	101	66	61	9	1	1	
0	0	61	101	66	122	9	1	1	
0	0	122	101	66	183	9	1	1	
101	0	0	202	66	61	9	1	1	
101	0	61	202	66	122	9	1	1	
101	0	122	202	66	183	9	1	1	
202	0	0	303	66	61	9	1	1	
202	0	61	303	66	122	9	1	1	
202	0	122	303	66	183	9	1	1	
303	0	0	404	66	61	9	1	1	
303	0	61	404	66	122	9	1	1	
303	0	122	404	66	183	9	1	1	
404	0	0	505	66	61	9	1	1	
404	0	61	505	66	122	9	1	1	
404	0	122	505	66	183	9	1	1	
0	0	183	95	65	217	6	2	2	
95	0	183	190	65	217	6	2	2	
190	0	183	285	65	217	6	2	2	
285	0	183	380	65	217	6	2	2	
380	0	183	475	65	217	6	2	2	
0	107	0	120	170	28	4	3	3	
0	107	28	120	170	56	4	3	3	
0	107	56	120	170	84	4	3	3	
0	107	84	120	170	112	4	3	3	
0	107	112	120	170	140	4	3	3	
0	107	140	120	170	168	4	3	3	
0	107	168	120	170	196	4	3	3	
0	170	0	120	233	28	4	3	3	
0	170	28	120	233	56	4	3	3	
0	170	56	120	233	84	4	3	3	
0	170	84	120	233	112	4	3	3	
0	170	112	120	233	140	4	3	3	
0	170	140	120	233	168	4	3	3	
0	170	168	120	233	196	4	3	3	
0	119	196	56	176	218	0	4	4	
0	176	196	56	233	218	0	4	4	
56	119	196	112	176	218	0	4	4	
56	176	196	112	233	218	0	4	4	
0	66	0	95	100	65	6	5	5	
0	66	65	95	100	130	6	5	5	
0	66	130	95	100	195	6	5	5	
95	66	0	190	100	65	6	5	5	
95	66	65	190	100	130	6	5	5	
95	66	130	190	100	195	6	5	5	
190	66	0	285	100	65	6	5	5	
190	66	65	285	100	130	6	5	5	
190	66	130	285	100	195	6	5	5	
285	66	0	380	100	65	6	5	5	
285	66	65	380	100	130	6	5	5	
285	66	130	380	100	195	6	5	5	
0	66	195	86	100	220	2	6	6	
86	66	195	172	100	220	2	6	6	
172	66	195	258	100	220	2	6	6	
258	66	195	344	100	220	2	6	6	
120	125	0	167	179	81	8	7	7	
120	179	0	167	233	81	8	7	7	
167	125	0	214	179	81	8	7	7	
167	179	0	214	233	81	8	7	7	
214	125	0	261	179	81	8	7	7	
214	179	0	261	233	81	8	7	7	
261	125	0	308	179	81	8	7	7	
261	179	0	308	233	81	8	7	7	
308	125	0	355	179	81	8	7	7	
308	179	0	355	233	81	8	7	7	
355	125	0	402	179	81	8	7	7	
355	179	0	402	233	81	8	7	7	
402	125	0	449	179	81	8	7	7	
402	179	0	449	233	81	8	7	7	
449	125	0	496	179	81	8	7	7	
449	179	0	496	233	81	8	7	7	
496	125	0	543	179	81	8	7	7	
496	179	0	543	233	81	8	7	7	
120	125	81	147	179	127	3	8	8	
120	125	127	147	179	173	3	8	8	
120	125	173	147	179	219	3	8	8	
120	179	81	147	233	127	3	8	8	
120	179	127	147	233	173	3	8	8	
120	179	173	147	233	219	3	8	8	
147	165	81	246	233	104	1	9	9	
147	165	104	246	233	127	1	9	9	
147	165	127	246	233	150	1	9	9	
147	165	150	246	233	173	1	9	9	
147	165	173	246	233	196	1	9	9	
246	165	81	345	233	104	1	9	9	
246	165	104	345	233	127	1	9	9	
246	165	127	345	233	150	1	9	9	
246	165	150	345	233	173	1	9	9	
246	165	173	345	233	196	1	9	9	
345	165	81	444	233	104	1	9	9	
345	165	104	444	233	127	1	9	9	
345	165	127	444	233	150	1	9	9	
345	165	150	444	233	173	1	9	9	
345	165	173	444	233	196	1	9	9	
444	165	81	543	233	104	1	9	9	
444	165	104	543	233	127	1	9	9	
444	165	127	543	233	150	1	9	9	
444	165	150	543	233	173	1	9	9	
444	165	173	543	233	196	1	9	9	
120	100	0	206	125	34	2	10	10	
120	100	34	206	125	68	2	10	10	
120	100	68	206	125	102	2	10	10	
120	100	102	206	125	136	2	10	10	
120	100	136	206	125	170	2	10	10	
120	100	170	206	125	204	2	10	10	
206	100	0	292	125	34	2	10	10	
206	100	34	292	125	68	2	10	10	
206	100	68	292	125	102	2	10	10	
206	100	102	292	125	136	2	10	10	
206	100	136	292	125	170	2	10	10	
206	100	170	292	125	204	2	10	10	
292	100	0	378	125	34	2	10	10	
292	100	34	378	125	68	2	10	10	
292	100	68	378	125	102	2	10	10	
292	100	102	378	125	136	2	10	10	
292	100	136	378	125	170	2	10	10	
292	100	170	378	125	204	2	10	10	
147	165	196	246	233	219	1	11	11	
147	125	81	199	165	149	7	12	12	
147	125	149	199	165	217	7	12	12	
199	125	81	251	165	149	7	12	12	
199	125	149	251	165	217	7	12	12	
251	125	81	303	165	149	7	12	12	
251	125	149	303	165	217	7	12	12	
303	125	81	355	165	149	7	12	12	
303	125	149	355	165	217	7	12	12	
355	125	81	407	165	149	7	12	12	
355	125	149	407	165	217	7	12	12	
407	125	81	459	165	149	7	12	12	
407	125	149	459	165	217	7	12	12	
459	125	81	511	165	149	7	12	12	
459	125	149	511	165	217	7	12	12	
246	165	196	345	233	219	1	13	13	
345	165	196	444	233	219	1	13	13	
380	66	0	436	123	22	0	14	14	
380	66	22	436	123	44	0	14	14	
380	66	44	436	123	66	0	14	14	
380	66	66	436	123	88	0	14	14	
380	66	88	436	123	110	0	14	14	
380	66	110	436	123	132	0	14	14	
380	66	132	436	123	154	0	14	14	
380	66	154	436	123	176	0	14	14	
380	66	176	436	123	198	0	14	14	
380	66	198	436	123	220	0	14	14	
444	176	196	500	233	218	0	15	15	
436	66	0	541	95	57	5	16	16	
436	66	57	541	95	114	5	16	16	
436	66	114	541	95	171	5	16	16	
436	95	0	541	124	57	5	16	16	
436	95	57	541	124	114	5	16	16	
436	95	114	541	124	171	5	16	16	
436	66	171	541	123	200	5	17	17	
505	0	0	566	66	101	9	18	18	
505	0	101	566	66	202	9	18	18	
541	66	0	587	120	27	3	19	19	
541	66	27	587	120	54	3	19	19	
541	66	54	587	120	81	3	19	19	
541	66	81	587	120	108	3	19	19	
541	66	108	587	120	135	3	19	19	
541	66	135	581	118	203	7	20	20	
543	129	0	583	181	68	7	21	21	
543	181	0	583	233	68	7	21	21	
543	147	68	577	233	93	2	22	22	
543	147	93	577	233	118	2	22	22	
587	0	0	644	56	22	0	23	0	
587	0	22	644	56	44	0	23	0	
645	0	0	750	57	29	5	24	0	
645	0	29	750	57	58	5	24	0	
645	0	58	750	57	87	5	24	0	
751	0	0	852	66	61	9	25	0	
751	0	61	852	66	122	9	25	0	
751	0	122	852	66	183	9	25	0	
