15	15	587	233	220
27650526	23552726
0	0	0	94	115	64	13	1	1	
0	115	0	94	230	64	13	1	1	
94	0	0	188	115	64	13	1	1	
94	115	0	188	230	64	13	1	1	
188	0	0	282	115	64	13	1	1	
188	115	0	282	230	64	13	1	1	
0	0	64	81	115	125	12	2	2	
0	0	125	81	115	186	12	2	2	
81	0	64	162	115	125	12	2	2	
81	0	125	162	115	186	12	2	2	
162	0	64	243	115	125	12	2	2	
162	0	125	243	115	186	12	2	2	
0	0	186	79	32	219	4	3	3	
0	32	186	79	64	219	4	3	3	
0	64	186	79	96	219	4	3	3	
79	0	186	158	32	219	4	3	3	
79	32	186	158	64	219	4	3	3	
79	64	186	158	96	219	4	3	3	
158	0	186	237	32	219	4	3	3	
158	32	186	237	64	219	4	3	3	
158	64	186	237	96	219	4	3	3	
0	148	64	90	230	99	7	4	4	
0	148	99	90	230	134	7	4	4	
0	148	134	90	230	169	7	4	4	
90	148	64	180	230	99	7	4	4	
90	148	99	180	230	134	7	4	4	
90	148	134	180	230	169	7	4	4	
180	148	64	270	230	99	7	4	4	
180	148	99	270	230	134	7	4	4	
180	148	134	270	230	169	7	4	4	
0	168	169	89	230	219	11	5	5	
89	168	169	178	230	219	11	5	5	
178	168	169	267	230	219	11	5	5	
0	115	64	56	148	129	6	6	6	
0	115	129	56	148	194	6	6	6	
56	115	64	112	148	129	6	6	6	
56	115	129	112	148	194	6	6	6	
112	115	64	168	148	129	6	6	6	
112	115	129	168	148	194	6	6	6	
168	115	64	224	148	129	6	6	6	
168	115	129	224	148	194	6	6	6	
224	116	64	278	148	91	3	7	7	
224	116	91	278	148	118	3	7	7	
224	116	118	278	148	145	3	7	7	
224	116	145	278	148	172	3	7	7	
224	116	172	278	148	199	3	7	7	
243	0	64	279	109	89	2	8	8	
243	0	89	279	109	114	2	8	8	
243	0	114	279	109	139	2	8	8	
243	0	139	279	109	164	2	8	8	
243	0	164	279	109	189	2	8	8	
243	0	189	279	109	214	2	8	8	
282	0	0	387	46	81	10	9	9	
282	0	81	387	46	162	10	9	9	
282	46	0	387	92	81	10	9	9	
282	46	81	387	92	162	10	9	9	
282	92	0	387	138	81	10	9	9	
282	92	81	387	138	162	10	9	9	
282	138	0	387	184	81	10	9	9	
282	138	81	387	184	162	10	9	9	
282	184	0	387	230	81	10	9	9	
282	184	81	387	230	162	10	9	9	
282	0	162	327	66	208	9	10	10	
282	66	162	327	132	208	9	10	10	
282	132	162	327	198	208	9	10	10	
327	0	162	372	66	208	9	10	10	
327	66	162	372	132	208	9	10	10	
327	132	162	372	198	208	9	10	10	
387	0	0	492	81	46	10	11	11	
387	0	46	492	81	92	10	11	11	
387	0	92	492	81	138	10	11	11	
387	0	138	492	81	184	10	11	11	
387	81	0	492	162	46	10	11	11	
387	81	46	492	162	92	10	11	11	
387	81	92	492	162	138	10	11	11	
387	81	138	492	162	184	10	11	11	
387	0	184	467	53	217	5	12	12	
387	53	184	467	106	217	5	12	12	
387	106	184	467	159	217	5	12	12	
467	0	184	492	109	220	2	13	13	
387	164	0	452	233	85	14	14	14	
387	164	85	452	233	170	14	14	14	
452	164	0	517	233	85	14	14	14	
452	164	85	517	233	170	14	14	14	
517	164	0	582	233	85	14	14	14	
517	164	85	582	233	170	14	14	14	
387	167	170	432	233	216	9	15	15	
432	167	170	477	233	216	9	15	15	
477	167	170	522	233	216	9	15	15	
492	0	0	587	81	37	8	16	16	
492	0	37	587	81	74	8	16	16	
492	0	74	587	81	111	8	16	16	
492	0	111	587	81	148	8	16	16	
492	0	148	587	81	185	8	16	16	
492	81	0	587	162	37	8	16	16	
492	81	37	587	162	74	8	16	16	
492	81	74	587	162	111	8	16	16	
492	81	111	587	162	148	8	16	16	
492	81	148	587	162	185	8	16	16	
492	0	185	582	82	220	7	17	17	
492	102	185	536	162	206	0	18	18	
536	102	185	580	162	206	0	18	18	
522	173	170	566	233	191	0	19	19	
522	173	191	566	233	212	0	19	19	
587	0	0	647	44	21	0	20	0	
587	0	21	647	44	42	0	20	0	
648	0	0	720	51	23	1	21	0	
648	0	23	720	51	46	1	21	0	
648	0	46	720	51	69	1	21	0	
648	0	69	720	51	92	1	21	0	
648	0	92	720	51	115	1	21	0	
648	0	115	720	51	138	1	21	0	
721	0	0	800	33	32	4	22	0	
801	0	0	890	62	50	11	23	0	
891	0	0	1006	94	64	13	24	0	
