12	12	587	233	220
27591090	23940784
0	0	0	84	58	85	10	1	1	
0	0	85	84	58	170	10	1	1	
0	58	0	84	116	85	10	1	1	
0	58	85	84	116	170	10	1	1	
0	116	0	84	174	85	10	1	1	
0	116	85	84	174	170	10	1	1	
0	174	0	84	232	85	10	1	1	
0	174	85	84	232	170	10	1	1	
0	0	170	72	75	217	8	2	2	
0	75	170	72	150	217	8	2	2	
0	150	170	72	225	217	8	2	2	
84	0	0	178	61	114	11	3	3	
84	61	0	178	122	114	11	3	3	
84	122	0	178	183	114	11	3	3	
178	0	0	272	61	114	11	3	3	
178	61	0	272	122	114	11	3	3	
178	122	0	272	183	114	11	3	3	
272	0	0	366	61	114	11	3	3	
272	61	0	366	122	114	11	3	3	
272	122	0	366	183	114	11	3	3	
84	0	114	142	85	149	5	4	4	
84	0	149	142	85	184	5	4	4	
84	0	184	142	85	219	5	4	4	
142	0	114	200	85	149	5	4	4	
142	0	149	200	85	184	5	4	4	
142	0	184	200	85	219	5	4	4	
200	0	114	258	85	149	5	4	4	
200	0	149	258	85	184	5	4	4	
200	0	184	258	85	219	5	4	4	
258	0	114	316	85	149	5	4	4	
258	0	149	316	85	184	5	4	4	
258	0	184	316	85	219	5	4	4	
84	184	0	192	233	42	7	5	5	
84	184	42	192	233	84	7	5	5	
84	184	84	192	233	126	7	5	5	
192	184	0	300	233	42	7	5	5	
192	184	42	300	233	84	7	5	5	
192	184	84	300	233	126	7	5	5	
300	184	0	408	233	42	7	5	5	
300	184	42	408	233	84	7	5	5	
300	184	84	408	233	126	7	5	5	
408	184	0	516	233	42	7	5	5	
408	184	42	516	233	84	7	5	5	
408	184	84	516	233	126	7	5	5	
84	186	126	156	233	201	8	6	6	
156	186	126	228	233	201	8	6	6	
228	186	126	300	233	201	8	6	6	
300	186	126	372	233	201	8	6	6	
372	186	126	444	233	201	8	6	6	
444	186	126	516	233	201	8	6	6	
84	87	114	156	183	145	4	7	7	
84	87	145	156	183	176	4	7	7	
84	87	176	156	183	207	4	7	7	
156	87	114	228	183	145	4	7	7	
156	87	145	228	183	176	4	7	7	
156	87	176	228	183	207	4	7	7	
228	87	114	300	183	145	4	7	7	
228	87	145	300	183	176	4	7	7	
228	87	176	300	183	207	4	7	7	
300	98	114	358	183	149	5	8	8	
300	98	149	358	183	184	5	8	8	
300	98	184	358	183	219	5	8	8	
316	0	114	364	95	138	2	9	9	
316	0	138	364	95	162	2	9	9	
316	0	162	364	95	186	2	9	9	
316	0	186	364	95	210	2	9	9	
366	0	0	481	70	25	3	10	10	
366	0	25	481	70	50	3	10	10	
366	0	50	481	70	75	3	10	10	
366	0	75	481	70	100	3	10	10	
366	0	100	481	70	125	3	10	10	
366	70	0	481	140	25	3	10	10	
366	70	25	481	140	50	3	10	10	
366	70	50	481	140	75	3	10	10	
366	70	75	481	140	100	3	10	10	
366	70	100	481	140	125	3	10	10	
366	0	125	480	61	219	11	11	11	
366	61	125	480	122	219	11	11	11	
366	145	0	466	184	40	6	12	12	
366	145	40	466	184	80	6	12	12	
366	145	80	466	184	120	6	12	12	
366	145	120	466	184	160	6	12	12	
366	145	160	466	184	200	6	12	12	
466	145	0	566	184	40	6	12	12	
466	145	40	566	184	80	6	12	12	
466	145	80	566	184	120	6	12	12	
466	145	120	566	184	160	6	12	12	
466	145	160	566	184	200	6	12	12	
366	159	200	446	184	220	0	13	13	
446	159	200	526	184	220	0	14	14	
481	0	0	532	48	72	9	15	15	
481	0	72	532	48	144	9	15	15	
481	0	144	532	48	216	9	15	15	
481	48	0	532	96	72	9	15	15	
481	48	72	532	96	144	9	15	15	
481	48	144	532	96	216	9	15	15	
481	96	0	532	144	72	9	15	15	
481	96	72	532	144	144	9	15	15	
481	96	144	532	144	216	9	15	15	
516	185	0	567	233	72	9	16	16	
516	185	72	552	209	100	1	17	17	
516	185	100	552	209	128	1	17	17	
516	185	128	552	209	156	1	17	17	
516	209	72	552	233	100	1	17	17	
516	209	100	552	233	128	1	17	17	
516	209	128	552	233	156	1	17	17	
516	209	156	544	233	192	1	18	18	
532	0	0	579	72	75	8	19	19	
532	0	75	579	72	150	8	19	19	
532	72	0	579	144	75	8	19	19	
532	72	75	579	144	150	8	19	19	
532	0	150	574	108	199	7	20	20	
532	0	199	557	80	219	0	21	21	
567	153	0	587	233	25	0	22	22	
567	153	25	587	233	50	0	22	22	
567	153	50	587	233	75	0	22	22	
567	153	75	587	233	100	0	22	22	
567	153	100	587	233	125	0	22	22	
567	153	125	587	233	150	0	22	22	
567	153	150	587	233	175	0	22	22	
567	153	175	587	233	200	0	22	22	
587	0	0	682	48	24	2	23	0	
587	0	24	682	48	48	2	23	0	
587	0	48	682	48	72	2	23	0	
587	0	72	682	48	96	2	23	0	
587	0	96	682	48	120	2	23	0	
587	0	120	682	48	144	2	23	0	
587	0	144	682	48	168	2	23	0	
587	0	168	682	48	192	2	23	0	
587	0	192	682	48	216	2	23	0	
587	0	216	682	48	240	2	23	0	
587	0	240	682	48	264	2	23	0	
587	0	264	682	48	288	2	23	0	
587	0	288	682	48	312	2	23	0	
683	0	0	779	72	31	4	24	0	
780	0	0	865	58	35	5	25	0	
866	0	0	966	40	39	6	26	0	
967	0	0	1042	72	47	8	27	0	
