12	12	587	233	220
27333286	17327902
0	0	0	54	77	46	11	1	1	
0	77	0	54	154	46	11	1	1	
0	154	0	54	231	46	11	1	1	
54	0	0	108	77	46	11	1	1	
54	77	0	108	154	46	11	1	1	
54	154	0	108	231	46	11	1	1	
108	0	0	162	77	46	11	1	1	
108	77	0	162	154	46	11	1	1	
108	154	0	162	231	46	11	1	1	
162	0	0	216	77	46	11	1	1	
162	77	0	216	154	46	11	1	1	
162	154	0	216	231	46	11	1	1	
216	0	0	270	77	46	11	1	1	
216	77	0	270	154	46	11	1	1	
216	154	0	270	231	46	11	1	1	
270	0	0	324	77	46	11	1	1	
270	77	0	324	154	46	11	1	1	
270	154	0	324	231	46	11	1	1	
0	0	46	78	115	75	4	2	2	
0	0	75	78	115	104	4	2	2	
0	0	104	78	115	133	4	2	2	
0	0	133	78	115	162	4	2	2	
0	0	162	78	115	191	4	2	2	
0	0	191	78	115	220	4	2	2	
0	115	46	78	230	75	4	2	2	
0	115	75	78	230	104	4	2	2	
0	115	104	78	230	133	4	2	2	
0	115	133	78	230	162	4	2	2	
0	115	162	78	230	191	4	2	2	
0	115	191	78	230	220	4	2	2	
78	0	46	167	34	113	6	3	3	
78	0	113	167	34	180	6	3	3	
78	34	46	167	68	113	6	3	3	
78	34	113	167	68	180	6	3	3	
78	68	46	167	102	113	6	3	3	
78	68	113	167	102	180	6	3	3	
78	102	46	167	136	113	6	3	3	
78	102	113	167	136	180	6	3	3	
78	136	46	167	170	113	6	3	3	
78	136	113	167	170	180	6	3	3	
78	170	46	167	204	113	6	3	3	
78	170	113	167	204	180	6	3	3	
78	204	46	156	231	91	2	4	4	
78	204	91	156	231	136	2	4	4	
78	204	136	156	231	181	2	4	4	
156	204	46	234	231	91	2	4	4	
156	204	91	234	231	136	2	4	4	
156	204	136	234	231	181	2	4	4	
234	204	46	312	231	91	2	4	4	
234	204	91	312	231	136	2	4	4	
234	204	136	312	231	181	2	4	4	
78	0	180	105	102	218	1	5	5	
78	102	180	105	204	218	1	5	5	
105	0	180	132	102	218	1	5	5	
105	102	180	132	204	218	1	5	5	
132	0	180	159	102	218	1	5	5	
132	102	180	159	204	218	1	5	5	
78	204	181	180	231	219	1	6	6	
180	204	181	282	231	219	1	6	6	
167	0	46	243	57	74	3	7	7	
167	0	74	243	57	102	3	7	7	
167	0	102	243	57	130	3	7	7	
167	0	130	243	57	158	3	7	7	
167	0	158	243	57	186	3	7	7	
167	57	46	243	114	74	3	7	7	
167	57	74	243	114	102	3	7	7	
167	57	102	243	114	130	3	7	7	
167	57	130	243	114	158	3	7	7	
167	57	158	243	114	186	3	7	7	
167	114	46	243	171	74	3	7	7	
167	114	74	243	171	102	3	7	7	
167	114	102	243	171	130	3	7	7	
167	114	130	243	171	158	3	7	7	
167	114	158	243	171	186	3	7	7	
167	0	186	224	76	214	3	8	8	
167	76	186	224	152	214	3	8	8	
167	171	46	257	204	95	5	9	9	
167	171	95	257	204	144	5	9	9	
167	171	144	257	204	193	5	9	9	
243	0	46	321	115	75	4	10	10	
243	0	75	321	115	104	4	10	10	
243	0	104	321	115	133	4	10	10	
243	0	133	321	115	162	4	10	10	
243	0	162	321	115	191	4	10	10	
243	0	191	321	115	220	4	10	10	
243	126	46	282	171	101	9	11	11	
243	126	101	282	171	156	9	11	11	
243	126	156	282	171	211	9	11	11	
282	126	46	321	171	101	9	11	11	
282	126	101	321	171	156	9	11	11	
282	126	156	321	171	211	9	11	11	
324	0	0	414	81	24	0	12	12	
324	0	24	414	81	48	0	12	12	
324	0	48	414	81	72	0	12	12	
324	0	72	414	81	96	0	12	12	
324	0	96	414	81	120	0	12	12	
324	0	120	414	81	144	0	12	12	
324	81	0	414	162	24	0	12	12	
324	81	24	414	162	48	0	12	12	
324	81	48	414	162	72	0	12	12	
324	81	72	414	162	96	0	12	12	
324	81	96	414	162	120	0	12	12	
324	81	120	414	162	144	0	12	12	
324	0	144	408	52	182	7	13	13	
324	0	182	408	52	220	7	13	13	
324	52	144	408	104	182	7	13	13	
324	52	182	408	104	220	7	13	13	
324	104	144	408	156	182	7	13	13	
324	104	182	408	156	220	7	13	13	
324	167	0	414	200	49	5	14	14	
324	167	49	414	200	98	5	14	14	
324	167	98	414	200	147	5	14	14	
324	167	147	414	200	196	5	14	14	
324	200	0	414	233	49	5	14	14	
324	200	49	414	233	98	5	14	14	
324	200	98	414	233	147	5	14	14	
324	200	147	414	233	196	5	14	14	
414	0	0	494	92	38	8	15	15	
414	0	38	494	92	76	8	15	15	
414	0	76	494	92	114	8	15	15	
414	0	114	494	92	152	8	15	15	
414	0	152	494	92	190	8	15	15	
414	92	0	494	184	38	8	15	15	
414	92	38	494	184	76	8	15	15	
414	92	76	494	184	114	8	15	15	
414	92	114	494	184	152	8	15	15	
414	92	152	494	184	190	8	15	15	
414	0	190	492	45	217	2	16	16	
414	45	190	492	90	217	2	16	16	
414	90	190	492	135	217	2	16	16	
414	135	190	492	180	217	2	16	16	
414	195	0	498	233	52	7	17	17	
414	195	52	498	233	104	7	17	17	
414	195	104	498	233	156	7	17	17	
414	195	156	498	233	208	7	17	17	
494	0	0	534	100	60	10	18	18	
494	0	60	534	100	120	10	18	18	
494	0	120	534	100	180	10	18	18	
534	0	0	574	100	60	10	18	18	
534	0	60	574	100	120	10	18	18	
534	0	120	574	100	180	10	18	18	
494	0	180	574	92	218	8	19	19	
494	115	0	586	195	38	8	20	20	
494	115	38	586	195	76	8	20	20	
494	115	76	586	195	114	8	20	20	
494	115	114	586	195	152	8	20	20	
494	128	152	583	195	186	6	21	21	
494	128	186	583	195	220	6	21	21	
498	195	0	582	233	52	7	22	22	
498	195	52	582	233	104	7	22	22	
498	195	104	582	233	156	7	22	22	
498	195	156	582	233	208	7	22	22	
587	0	0	677	81	24	0	23	0	
678	0	0	780	38	27	1	24	0	
678	0	27	780	38	54	1	24	0	
678	0	54	780	38	81	1	24	0	
678	0	81	780	38	108	1	24	0	
678	0	108	780	38	135	1	24	0	
781	0	0	870	67	34	6	25	0	
871	0	0	926	45	39	9	26	0	
871	0	39	926	45	78	9	26	0	
871	0	78	926	45	117	9	26	0	
871	0	117	926	45	156	9	26	0	
871	0	156	926	45	195	9	26	0	
871	0	195	926	45	234	9	26	0	
871	0	234	926	45	273	9	26	0	
927	0	0	1027	60	40	10	27	0	
927	0	40	1027	60	80	10	27	0	
927	0	80	1027	60	120	10	27	0	
1028	0	0	1105	54	46	11	28	0	
