12	12	587	233	220
27215129	24600010
0	0	0	92	109	78	11	1	1	
0	0	78	92	109	156	11	1	1	
92	0	0	184	109	78	11	1	1	
92	0	78	184	109	156	11	1	1	
184	0	0	276	109	78	11	1	1	
184	0	78	276	109	156	11	1	1	
276	0	0	368	109	78	11	1	1	
276	0	78	368	109	156	11	1	1	
368	0	0	460	109	78	11	1	1	
368	0	78	460	109	156	11	1	1	
0	0	156	65	71	208	7	2	2	
65	0	156	130	71	208	7	2	2	
130	0	156	195	71	208	7	2	2	
195	0	156	260	71	208	7	2	2	
260	0	156	325	71	208	7	2	2	
325	0	156	390	71	208	7	2	2	
390	0	156	455	71	208	7	2	2	
0	71	156	54	106	214	1	3	3	
54	71	156	108	106	214	1	3	3	
108	71	156	162	106	214	1	3	3	
162	71	156	216	106	214	1	3	3	
216	71	156	270	106	214	1	3	3	
270	71	156	324	106	214	1	3	3	
324	71	156	378	106	214	1	3	3	
378	71	156	432	106	214	1	3	3	
0	169	0	73	233	98	10	4	4	
73	169	0	146	233	98	10	4	4	
146	169	0	219	233	98	10	4	4	
219	169	0	292	233	98	10	4	4	
292	169	0	365	233	98	10	4	4	
365	169	0	438	233	98	10	4	4	
438	169	0	511	233	98	10	4	4	
511	169	0	584	233	98	10	4	4	
0	109	0	65	169	40	4	5	5	
65	109	0	130	169	40	4	5	5	
130	109	0	195	169	40	4	5	5	
195	109	0	260	169	40	4	5	5	
260	109	0	325	169	40	4	5	5	
325	109	0	390	169	40	4	5	5	
390	109	0	455	169	40	4	5	5	
455	109	0	520	169	40	4	5	5	
520	109	0	585	169	40	4	5	5	
0	114	40	89	169	85	5	6	6	
0	114	85	89	169	130	5	6	6	
0	114	130	89	169	175	5	6	6	
0	114	175	89	169	220	5	6	6	
0	175	98	119	233	159	8	7	7	
0	175	159	119	233	220	8	7	7	
89	110	40	151	169	143	9	8	8	
151	110	40	213	169	143	9	8	8	
213	110	40	275	169	143	9	8	8	
275	110	40	337	169	143	9	8	8	
337	110	40	399	169	143	9	8	8	
399	110	40	461	169	143	9	8	8	
461	110	40	523	169	143	9	8	8	
523	110	40	585	169	143	9	8	8	
89	111	143	143	169	178	1	9	9	
89	111	178	143	169	213	1	9	9	
143	111	143	262	169	204	8	10	10	
119	175	98	238	233	159	8	11	11	
119	175	159	238	233	220	8	11	11	
238	175	98	357	233	159	8	11	11	
238	175	159	357	233	220	8	11	11	
357	175	98	476	233	159	8	11	11	
357	175	159	476	233	220	8	11	11	
262	111	143	381	169	204	8	12	12	
381	111	143	416	169	197	1	13	13	
416	114	143	505	169	188	5	14	14	
460	0	0	552	109	78	11	15	15	
505	125	143	545	169	187	3	16	16	
545	125	143	585	169	187	3	16	16	
460	0	78	552	95	124	6	17	17	
460	0	124	552	95	170	6	17	17	
460	0	170	552	95	216	6	17	17	
476	189	98	520	233	138	3	18	18	
476	189	138	520	233	178	3	18	18	
476	189	178	520	233	218	3	18	18	
520	189	98	564	233	138	3	18	18	
520	189	138	564	233	178	3	18	18	
520	189	178	564	233	218	3	18	18	
552	0	0	587	70	69	2	19	19	
552	0	69	587	70	138	2	19	19	
552	0	138	587	70	207	2	19	19	
587	0	0	706	87	28	0	20	0	
587	0	28	706	87	56	0	20	0	
587	0	56	706	87	84	0	20	0	
587	0	84	706	87	112	0	20	0	
707	0	0	777	69	35	2	21	0	
778	0	0	843	60	40	4	22	0	
844	0	0	933	55	45	5	23	0	
934	0	0	1029	92	46	6	24	0	
934	0	46	1029	92	92	6	24	0	
