10	10	587	233	220
27731693	23500506
0	0	0	108	78	54	5	1	1	
0	0	54	108	78	108	5	1	1	
0	0	108	108	78	162	5	1	1	
0	0	162	108	78	216	5	1	1	
108	0	0	216	78	54	5	1	1	
108	0	54	216	78	108	5	1	1	
108	0	108	216	78	162	5	1	1	
108	0	162	216	78	216	5	1	1	
216	0	0	324	78	54	5	1	1	
216	0	54	324	78	108	5	1	1	
216	0	108	324	78	162	5	1	1	
216	0	162	324	78	216	5	1	1	
0	135	0	67	233	56	6	2	2	
0	135	56	67	233	112	6	2	2	
0	135	112	67	233	168	6	2	2	
67	135	0	134	233	56	6	2	2	
67	135	56	134	233	112	6	2	2	
67	135	112	134	233	168	6	2	2	
134	135	0	201	233	56	6	2	2	
134	135	56	201	233	112	6	2	2	
134	135	112	201	233	168	6	2	2	
201	135	0	268	233	56	6	2	2	
201	135	56	268	233	112	6	2	2	
201	135	112	268	233	168	6	2	2	
0	78	0	58	135	104	7	3	3	
0	78	104	58	135	208	7	3	3	
58	78	0	116	135	104	7	3	3	
58	78	104	116	135	208	7	3	3	
116	78	0	174	135	104	7	3	3	
116	78	104	174	135	208	7	3	3	
174	78	0	232	135	104	7	3	3	
174	78	104	232	135	208	7	3	3	
232	78	0	290	135	104	7	3	3	
232	78	104	290	135	208	7	3	3	
0	144	168	117	233	191	1	4	4	
0	144	191	117	233	214	1	4	4	
117	144	168	234	233	191	1	4	4	
117	144	191	234	233	214	1	4	4	
234	175	168	260	233	205	2	5	5	
268	157	0	341	233	109	9	6	6	
268	157	109	341	233	218	9	6	6	
341	157	0	414	233	109	9	6	6	
341	157	109	414	233	218	9	6	6	
414	157	0	487	233	109	9	6	6	
414	157	109	487	233	218	9	6	6	
487	157	0	560	233	109	9	6	6	
487	157	109	560	233	218	9	6	6	
290	92	0	348	157	96	8	7	7	
290	92	96	348	157	192	8	7	7	
348	92	0	406	157	96	8	7	7	
348	92	96	406	157	192	8	7	7	
406	92	0	464	157	96	8	7	7	
406	92	96	464	157	192	8	7	7	
464	92	0	522	157	96	8	7	7	
464	92	96	522	157	192	8	7	7	
522	92	0	580	157	96	8	7	7	
522	92	96	580	157	192	8	7	7	
290	99	192	327	157	218	2	8	8	
327	99	192	364	157	218	2	9	9	
364	99	192	401	157	218	2	9	9	
401	99	192	438	157	218	2	9	9	
438	99	192	475	157	218	2	9	9	
475	99	192	512	157	218	2	9	9	
512	99	192	549	157	218	2	9	9	
324	0	0	441	89	23	1	10	10	
324	0	23	441	89	46	1	10	10	
324	0	46	441	89	69	1	10	10	
324	0	69	441	89	92	1	10	10	
324	0	92	441	89	115	1	10	10	
324	0	115	441	89	138	1	10	10	
324	0	138	441	89	161	1	10	10	
324	0	161	420	65	219	8	11	11	
441	0	0	477	86	58	3	12	12	
441	0	58	477	86	116	3	12	12	
477	0	0	513	86	58	3	12	12	
477	0	58	513	86	116	3	12	12	
513	0	0	549	86	58	3	12	12	
513	0	58	549	86	116	3	12	12	
549	0	0	585	86	58	3	12	12	
549	0	58	585	86	116	3	12	12	
441	0	116	513	73	165	4	13	13	
441	0	165	513	73	214	4	13	13	
513	0	116	585	73	165	4	13	13	
513	0	165	585	73	214	4	13	13	
560	175	0	586	233	37	2	14	14	
587	0	0	658	69	22	0	15	0	
587	0	22	658	69	44	0	15	0	
587	0	44	658	69	66	0	15	0	
587	0	66	658	69	88	0	15	0	
587	0	88	658	69	110	0	15	0	
587	0	110	658	69	132	0	15	0	
587	0	132	658	69	154	0	15	0	
587	0	154	658	69	176	0	15	0	
587	0	176	658	69	198	0	15	0	
659	0	0	732	72	49	4	16	0	
733	0	0	829	65	58	8	17	0	
733	0	58	829	65	116	8	17	0	
