10	10	587	233	220
27503943	21389724
0	0	0	63	76	54	7	1	1	
0	76	0	63	152	54	7	1	1	
0	152	0	63	228	54	7	1	1	
63	0	0	126	76	54	7	1	1	
63	76	0	126	152	54	7	1	1	
63	152	0	126	228	54	7	1	1	
126	0	0	189	76	54	7	1	1	
126	76	0	189	152	54	7	1	1	
126	152	0	189	228	54	7	1	1	
189	0	0	252	76	54	7	1	1	
189	76	0	252	152	54	7	1	1	
189	152	0	252	228	54	7	1	1	
252	0	0	315	76	54	7	1	1	
252	76	0	315	152	54	7	1	1	
252	152	0	315	228	54	7	1	1	
0	0	54	46	71	137	4	2	2	
0	0	137	46	71	220	4	2	2	
46	0	54	92	71	137	4	2	2	
46	0	137	92	71	220	4	2	2	
92	0	54	138	71	137	4	2	2	
92	0	137	138	71	220	4	2	2	
138	0	54	184	71	137	4	2	2	
138	0	137	184	71	220	4	2	2	
184	0	54	230	71	137	4	2	2	
184	0	137	230	71	220	4	2	2	
230	0	54	276	71	137	4	2	2	
230	0	137	276	71	220	4	2	2	
0	137	54	56	228	94	3	3	3	
0	137	94	56	228	134	3	3	3	
0	137	134	56	228	174	3	3	3	
56	137	54	112	228	94	3	3	3	
56	137	94	112	228	134	3	3	3	
56	137	134	112	228	174	3	3	3	
112	137	54	168	228	94	3	3	3	
112	137	94	168	228	134	3	3	3	
112	137	134	168	228	174	3	3	3	
168	137	54	224	228	94	3	3	3	
168	137	94	224	228	134	3	3	3	
168	137	134	224	228	174	3	3	3	
224	137	54	280	228	94	3	3	3	
224	137	94	280	228	134	3	3	3	
224	137	134	280	228	174	3	3	3	
0	71	54	64	129	137	9	4	4	
0	71	137	64	129	220	9	4	4	
64	71	54	128	129	137	9	4	4	
64	71	137	128	129	220	9	4	4	
128	71	54	192	129	137	9	4	4	
128	71	137	192	129	220	9	4	4	
192	71	54	256	129	137	9	4	4	
192	71	137	256	129	220	9	4	4	
0	148	174	90	228	197	0	5	5	
0	148	197	90	228	220	0	5	5	
90	148	174	180	228	197	0	5	5	
90	148	197	180	228	220	0	5	5	
180	148	174	270	228	197	0	5	5	
180	148	197	270	228	220	0	5	5	
256	71	54	314	135	137	9	6	6	
256	71	137	314	135	220	9	6	6	
276	0	54	310	61	96	2	7	7	
276	0	96	310	61	138	2	7	7	
276	0	138	310	61	180	2	7	7	
280	144	54	314	186	115	2	8	8	
280	144	115	314	186	176	2	8	8	
280	186	54	314	228	115	2	8	8	
280	186	115	314	228	176	2	8	8	
315	0	0	363	69	72	6	9	9	
315	0	72	363	69	144	6	9	9	
315	0	144	363	69	216	6	9	9	
363	0	0	411	69	72	6	9	9	
363	0	72	411	69	144	6	9	9	
363	0	144	411	69	216	6	9	9	
411	0	0	459	69	72	6	9	9	
411	0	72	459	69	144	6	9	9	
411	0	144	459	69	216	6	9	9	
459	0	0	507	69	72	6	9	9	
459	0	72	507	69	144	6	9	9	
459	0	144	507	69	216	6	9	9	
507	0	0	555	69	72	6	9	9	
507	0	72	555	69	144	6	9	9	
507	0	144	555	69	216	6	9	9	
315	166	0	362	233	84	5	10	10	
315	166	84	362	233	168	5	10	10	
362	166	0	409	233	84	5	10	10	
362	166	84	409	233	168	5	10	10	
409	166	0	456	233	84	5	10	10	
409	166	84	456	233	168	5	10	10	
456	166	0	503	233	84	5	10	10	
456	166	84	503	233	168	5	10	10	
503	166	0	550	233	84	5	10	10	
503	166	84	550	233	168	5	10	10	
315	71	0	394	166	57	8	11	11	
315	71	57	394	166	114	8	11	11	
315	71	114	394	166	171	8	11	11	
394	71	0	473	166	57	8	11	11	
394	71	57	473	166	114	8	11	11	
394	71	114	473	166	171	8	11	11	
473	71	0	552	166	57	8	11	11	
473	71	57	552	166	114	8	11	11	
473	71	114	552	166	171	8	11	11	
315	166	168	399	233	215	5	12	12	
399	166	168	483	233	215	5	12	12	
315	76	171	395	166	194	0	13	13	
315	76	194	395	166	217	0	13	13	
395	76	171	475	166	194	0	13	13	
395	76	194	475	166	217	0	13	13	
475	83	171	546	166	217	4	14	14	
550	172	0	584	233	42	2	15	15	
550	172	42	584	233	84	2	15	15	
550	172	84	584	233	126	2	15	15	
550	172	126	584	233	168	2	15	15	
552	103	0	580	172	43	1	16	16	
552	103	43	580	172	86	1	16	16	
552	103	86	580	172	129	1	16	16	
552	103	129	580	172	172	1	16	16	
552	103	172	580	172	215	1	16	16	
555	0	0	583	69	43	1	17	17	
555	0	43	583	69	86	1	17	17	
555	0	86	583	69	129	1	17	17	
555	0	129	583	69	172	1	17	17	
587	0	0	677	80	23	0	18	0	
678	0	0	761	71	46	4	19	0	
678	0	46	761	71	92	4	19	0	
762	0	0	846	67	47	5	20	0	
847	0	0	919	69	48	6	21	0	
847	0	48	919	69	96	6	21	0	
920	0	0	1015	79	57	8	22	0	
920	0	57	1015	79	114	8	22	0	
