8	8	587	233	220
28261900	21612996
0	0	0	90	52	77	5	1	1	
0	52	0	90	104	77	5	1	1	
0	104	0	90	156	77	5	1	1	
90	0	0	180	52	77	5	1	1	
90	52	0	180	104	77	5	1	1	
90	104	0	180	156	77	5	1	1	
180	0	0	270	52	77	5	1	1	
180	52	0	270	104	77	5	1	1	
180	104	0	270	156	77	5	1	1	
270	0	0	360	52	77	5	1	1	
270	52	0	360	104	77	5	1	1	
270	104	0	360	156	77	5	1	1	
360	0	0	450	52	77	5	1	1	
360	52	0	450	104	77	5	1	1	
360	104	0	450	156	77	5	1	1	
450	0	0	540	52	77	5	1	1	
450	52	0	540	104	77	5	1	1	
450	104	0	540	156	77	5	1	1	
0	0	77	60	73	182	7	2	2	
0	73	77	60	146	182	7	2	2	
60	0	77	120	73	182	7	2	2	
60	73	77	120	146	182	7	2	2	
120	0	77	180	73	182	7	2	2	
120	73	77	180	146	182	7	2	2	
180	0	77	240	73	182	7	2	2	
180	73	77	240	146	182	7	2	2	
0	0	182	60	60	220	3	3	3	
0	60	182	60	120	220	3	3	3	
60	0	182	120	60	220	3	3	3	
60	60	182	120	120	220	3	3	3	
120	0	182	180	60	220	3	3	3	
120	60	182	180	120	220	3	3	3	
180	0	182	240	60	220	3	3	3	
180	60	182	240	120	220	3	3	3	
0	157	0	106	233	55	6	4	4	
0	157	55	106	233	110	6	4	4	
0	157	110	106	233	165	6	4	4	
0	157	165	106	233	220	6	4	4	
106	157	0	212	233	55	6	4	4	
106	157	55	212	233	110	6	4	4	
106	157	110	212	233	165	6	4	4	
106	157	165	212	233	220	6	4	4	
212	157	0	318	233	55	6	4	4	
212	157	55	318	233	110	6	4	4	
212	157	110	318	233	165	6	4	4	
212	157	165	318	233	220	6	4	4	
318	157	0	424	233	55	6	4	4	
318	157	55	424	233	110	6	4	4	
318	157	110	424	233	165	6	4	4	
318	157	165	424	233	220	6	4	4	
424	157	0	530	233	55	6	4	4	
424	157	55	530	233	110	6	4	4	
424	157	110	530	233	165	6	4	4	
424	157	165	530	233	220	6	4	4	
240	0	77	330	52	154	5	5	5	
240	52	77	330	104	154	5	5	5	
240	104	77	330	156	154	5	5	5	
240	0	154	284	55	190	2	6	6	
240	55	154	284	110	190	2	6	6	
284	0	154	328	55	190	2	6	6	
284	55	154	328	110	190	2	6	6	
240	0	190	322	58	213	0	7	7	
240	120	154	284	156	209	2	8	8	
284	120	154	328	156	209	2	8	8	
330	0	77	390	38	137	3	9	9	
330	38	77	390	76	137	3	9	9	
330	76	77	390	114	137	3	9	9	
330	114	77	390	152	137	3	9	9	
330	0	137	388	66	161	1	10	10	
330	0	161	388	66	185	1	10	10	
330	0	185	388	66	209	1	10	10	
330	66	137	388	132	161	1	10	10	
330	66	161	388	132	185	1	10	10	
330	66	185	388	132	209	1	10	10	
390	0	77	463	98	121	4	11	11	
390	0	121	463	98	165	4	11	11	
390	0	165	463	98	209	4	11	11	
463	0	77	536	98	121	4	11	11	
463	0	121	536	98	165	4	11	11	
463	0	165	536	98	209	4	11	11	
390	98	77	472	156	100	0	12	12	
390	98	100	472	156	123	0	12	12	
390	98	123	472	156	146	0	12	12	
390	98	146	472	156	169	0	12	12	
390	98	169	472	156	192	0	12	12	
390	98	192	472	156	215	0	12	12	
472	98	77	538	156	101	1	13	13	
472	98	101	538	156	125	1	13	13	
472	98	125	538	156	149	1	13	13	
472	98	149	538	156	173	1	13	13	
472	98	173	538	156	197	1	13	13	
530	197	0	585	233	44	2	14	14	
530	197	44	585	233	88	2	14	14	
530	197	88	585	233	132	2	14	14	
530	197	132	585	233	176	2	14	14	
530	197	176	585	233	220	2	14	14	
540	0	0	584	98	73	4	15	15	
540	0	73	584	98	146	4	15	15	
540	0	146	584	98	219	4	15	15	
540	98	0	584	196	73	4	15	15	
540	98	73	584	196	146	4	15	15	
540	98	146	584	196	219	4	15	15	
587	0	0	669	58	23	0	16	0	
587	0	23	669	58	46	0	16	0	
587	0	46	669	58	69	0	16	0	
587	0	69	669	58	92	0	16	0	
587	0	92	669	58	115	0	16	0	
587	0	115	669	58	138	0	16	0	
587	0	138	669	58	161	0	16	0	
670	0	0	736	58	24	1	17	0	
737	0	0	835	73	44	4	18	0	
