5	5	587	233	220
28106416	22649516
0	0	0	57	118	43	3	1	1	
0	0	43	57	118	86	3	1	1	
0	0	86	57	118	129	3	1	1	
0	0	129	57	118	172	3	1	1	
0	0	172	57	118	215	3	1	1	
57	0	0	114	118	43	3	1	1	
57	0	43	114	118	86	3	1	1	
57	0	86	114	118	129	3	1	1	
57	0	129	114	118	172	3	1	1	
57	0	172	114	118	215	3	1	1	
114	0	0	171	118	43	3	1	1	
114	0	43	171	118	86	3	1	1	
114	0	86	171	118	129	3	1	1	
114	0	129	171	118	172	3	1	1	
114	0	172	171	118	215	3	1	1	
171	0	0	228	118	43	3	1	1	
171	0	43	228	118	86	3	1	1	
171	0	86	228	118	129	3	1	1	
171	0	129	228	118	172	3	1	1	
171	0	172	228	118	215	3	1	1	
228	0	0	285	118	43	3	1	1	
228	0	43	285	118	86	3	1	1	
228	0	86	285	118	129	3	1	1	
228	0	129	285	118	172	3	1	1	
228	0	172	285	118	215	3	1	1	
285	0	0	342	118	43	3	1	1	
285	0	43	342	118	86	3	1	1	
285	0	86	342	118	129	3	1	1	
285	0	129	342	118	172	3	1	1	
285	0	172	342	118	215	3	1	1	
0	147	0	33	233	56	1	2	2	
0	147	56	33	233	112	1	2	2	
0	147	112	33	233	168	1	2	2	
33	147	0	66	233	56	1	2	2	
33	147	56	66	233	112	1	2	2	
33	147	112	66	233	168	1	2	2	
66	147	0	99	233	56	1	2	2	
66	147	56	99	233	112	1	2	2	
66	147	112	99	233	168	1	2	2	
99	147	0	132	233	56	1	2	2	
99	147	56	132	233	112	1	2	2	
99	147	112	132	233	168	1	2	2	
132	147	0	165	233	56	1	2	2	
132	147	56	165	233	112	1	2	2	
132	147	112	165	233	168	1	2	2	
165	147	0	198	233	56	1	2	2	
165	147	56	198	233	112	1	2	2	
165	147	112	198	233	168	1	2	2	
198	147	0	231	233	56	1	2	2	
198	147	56	231	233	112	1	2	2	
198	147	112	231	233	168	1	2	2	
231	147	0	264	233	56	1	2	2	
231	147	56	264	233	112	1	2	2	
231	147	112	264	233	168	1	2	2	
264	147	0	297	233	56	1	2	2	
264	147	56	297	233	112	1	2	2	
264	147	112	297	233	168	1	2	2	
297	147	0	330	233	56	1	2	2	
297	147	56	330	233	112	1	2	2	
297	147	112	330	233	168	1	2	2	
330	147	0	363	233	56	1	2	2	
330	147	56	363	233	112	1	2	2	
330	147	112	363	233	168	1	2	2	
0	120	0	68	147	35	0	3	3	
0	120	35	68	147	70	0	3	3	
0	120	70	68	147	105	0	3	3	
0	120	105	68	147	140	0	3	3	
0	120	140	68	147	175	0	3	3	
0	120	175	68	147	210	0	3	3	
68	120	0	136	147	35	0	3	3	
68	120	35	136	147	70	0	3	3	
68	120	70	136	147	105	0	3	3	
68	120	105	136	147	140	0	3	3	
68	120	140	136	147	175	0	3	3	
68	120	175	136	147	210	0	3	3	
136	120	0	204	147	35	0	3	3	
136	120	35	204	147	70	0	3	3	
136	120	70	204	147	105	0	3	3	
136	120	105	204	147	140	0	3	3	
136	120	140	204	147	175	0	3	3	
136	120	175	204	147	210	0	3	3	
204	120	0	272	147	35	0	3	3	
204	120	35	272	147	70	0	3	3	
204	120	70	272	147	105	0	3	3	
204	120	105	272	147	140	0	3	3	
204	120	140	272	147	175	0	3	3	
204	120	175	272	147	210	0	3	3	
0	147	168	56	233	201	1	4	4	
56	147	168	112	233	201	1	4	4	
112	148	168	170	233	218	4	5	5	
170	148	168	228	233	218	4	5	5	
228	148	168	286	233	218	4	5	5	
286	148	168	344	233	218	4	5	5	
272	120	0	340	147	35	0	6	6	
272	120	35	340	147	70	0	6	6	
272	120	70	340	147	105	0	6	6	
272	120	105	340	147	140	0	6	6	
342	0	0	414	73	36	2	7	7	
342	0	36	414	73	72	2	7	7	
342	0	72	414	73	108	2	7	7	
342	0	108	414	73	144	2	7	7	
342	0	144	414	73	180	2	7	7	
342	0	180	414	73	216	2	7	7	
342	73	0	414	146	36	2	7	7	
342	73	36	414	146	72	2	7	7	
342	73	72	414	146	108	2	7	7	
342	73	108	414	146	144	2	7	7	
342	73	144	414	146	180	2	7	7	
342	73	180	414	146	216	2	7	7	
363	148	0	421	233	50	4	8	8	
363	148	50	421	233	100	4	8	8	
363	148	100	421	233	150	4	8	8	
363	148	150	421	233	200	4	8	8	
414	0	0	486	73	36	2	9	9	
414	0	36	486	73	72	2	9	9	
414	0	72	486	73	108	2	9	9	
414	0	108	486	73	144	2	9	9	
414	0	144	486	73	180	2	9	9	
414	0	180	486	73	216	2	9	9	
414	73	0	486	146	36	2	9	9	
414	73	36	486	146	72	2	9	9	
414	73	72	486	146	108	2	9	9	
414	73	108	486	146	144	2	9	9	
414	73	144	486	146	180	2	9	9	
414	73	180	486	146	216	2	9	9	
421	148	0	479	233	50	4	10	10	
421	148	50	479	233	100	4	10	10	
421	148	100	479	233	150	4	10	10	
421	148	150	479	233	200	4	10	10	
479	148	0	529	233	58	4	11	11	
479	148	58	529	233	116	4	11	11	
479	148	116	529	233	174	4	11	11	
529	148	0	579	233	58	4	11	11	
529	148	58	579	233	116	4	11	11	
529	148	116	579	233	174	4	11	11	
479	160	174	551	233	210	2	12	12	
486	0	0	536	85	58	4	13	13	
486	0	58	536	85	116	4	13	13	
486	0	116	536	85	174	4	13	13	
536	0	0	586	85	58	4	13	13	
536	0	58	586	85	116	4	13	13	
536	0	116	586	85	174	4	13	13	
486	0	174	558	73	210	2	14	14	
486	85	0	536	143	85	4	15	15	
486	85	85	536	143	170	4	15	15	
536	85	0	586	143	85	4	15	15	
536	85	85	586	143	170	4	15	15	
486	85	170	571	143	220	4	16	16	
587	0	0	660	72	36	2	17	0	
587	0	36	660	72	72	2	17	0	
661	0	0	746	58	50	4	18	0	
661	0	50	746	58	100	4	18	0	
661	0	100	746	58	150	4	18	0	
661	0	150	746	58	200	4	18	0	
661	0	200	746	58	250	4	18	0	
