5	5	587	233	220
27697847	18805202
0	0	0	100	67	54	3	1	1	
0	0	54	100	67	108	3	1	1	
0	0	108	100	67	162	3	1	1	
0	0	162	100	67	216	3	1	1	
100	0	0	200	67	54	3	1	1	
100	0	54	200	67	108	3	1	1	
100	0	108	200	67	162	3	1	1	
100	0	162	200	67	216	3	1	1	
200	0	0	300	67	54	3	1	1	
200	0	54	300	67	108	3	1	1	
200	0	108	300	67	162	3	1	1	
200	0	162	300	67	216	3	1	1	
300	0	0	400	67	54	3	1	1	
300	0	54	400	67	108	3	1	1	
300	0	108	400	67	162	3	1	1	
300	0	162	400	67	216	3	1	1	
400	0	0	500	67	54	3	1	1	
400	0	54	500	67	108	3	1	1	
400	0	108	500	67	162	3	1	1	
400	0	162	500	67	216	3	1	1	
0	121	0	56	233	57	4	2	2	
0	121	57	56	233	114	4	2	2	
56	121	0	112	233	57	4	2	2	
56	121	57	112	233	114	4	2	2	
112	121	0	168	233	57	4	2	2	
112	121	57	168	233	114	4	2	2	
168	121	0	224	233	57	4	2	2	
168	121	57	224	233	114	4	2	2	
224	121	0	280	233	57	4	2	2	
224	121	57	280	233	114	4	2	2	
280	121	0	336	233	57	4	2	2	
280	121	57	336	233	114	4	2	2	
336	121	0	392	233	57	4	2	2	
336	121	57	392	233	114	4	2	2	
392	121	0	448	233	57	4	2	2	
392	121	57	448	233	114	4	2	2	
448	121	0	504	233	57	4	2	2	
448	121	57	504	233	114	4	2	2	
504	121	0	560	233	57	4	2	2	
504	121	57	560	233	114	4	2	2	
0	122	114	91	159	173	1	3	3	
0	159	114	91	196	173	1	3	3	
0	196	114	91	233	173	1	3	3	
91	122	114	182	159	173	1	3	3	
91	159	114	182	196	173	1	3	3	
91	196	114	182	233	173	1	3	3	
182	122	114	273	159	173	1	3	3	
182	159	114	273	196	173	1	3	3	
182	196	114	273	233	173	1	3	3	
273	122	114	364	159	173	1	3	3	
273	159	114	364	196	173	1	3	3	
273	196	114	364	233	173	1	3	3	
364	122	114	455	159	173	1	3	3	
364	159	114	455	196	173	1	3	3	
364	196	114	455	233	173	1	3	3	
455	122	114	546	159	173	1	3	3	
455	159	114	546	196	173	1	3	3	
455	196	114	546	233	173	1	3	3	
0	129	173	120	181	193	0	4	4	
0	181	173	120	233	193	0	4	4	
120	129	173	240	181	193	0	4	4	
120	181	173	240	233	193	0	4	4	
240	129	173	360	181	193	0	4	4	
240	181	173	360	233	193	0	4	4	
360	129	173	480	181	193	0	4	4	
360	181	173	480	233	193	0	4	4	
0	129	193	120	181	213	0	5	5	
0	181	193	120	233	213	0	5	5	
120	129	193	240	181	213	0	5	5	
120	181	193	240	233	213	0	5	5	
240	129	193	360	181	213	0	5	5	
240	181	193	360	233	213	0	5	5	
360	129	193	480	181	213	0	5	5	
360	181	193	480	233	213	0	5	5	
0	67	0	59	121	78	2	6	6	
0	67	78	59	121	156	2	6	6	
59	67	0	118	121	78	2	6	6	
59	67	78	118	121	156	2	6	6	
118	67	0	177	121	78	2	6	6	
118	67	78	177	121	156	2	6	6	
177	67	0	236	121	78	2	6	6	
177	67	78	236	121	156	2	6	6	
236	67	0	295	121	78	2	6	6	
236	67	78	295	121	156	2	6	6	
295	67	0	354	121	78	2	6	6	
295	67	78	354	121	156	2	6	6	
354	67	0	413	121	78	2	6	6	
354	67	78	413	121	156	2	6	6	
413	67	0	472	121	78	2	6	6	
413	67	78	472	121	156	2	6	6	
472	67	0	531	121	78	2	6	6	
472	67	78	531	121	156	2	6	6	
480	142	173	539	233	210	1	7	7	
0	67	156	120	119	176	0	8	8	
0	67	176	120	119	196	0	8	8	
0	67	196	120	119	216	0	8	8	
120	67	156	240	119	176	0	8	8	
120	67	176	240	119	196	0	8	8	
120	67	196	240	119	216	0	8	8	
240	67	156	360	119	176	0	8	8	
240	67	176	360	119	196	0	8	8	
240	67	196	360	119	216	0	8	8	
360	67	156	438	121	215	2	9	9	
438	67	156	516	121	215	2	9	9	
500	0	0	567	54	100	3	10	10	
500	0	100	567	54	200	3	10	10	
531	54	0	585	121	100	3	11	11	
531	54	100	585	121	200	3	11	11	
587	0	0	678	59	37	1	12	0	
587	0	37	678	59	74	1	12	0	
587	0	74	678	59	111	1	12	0	
679	0	0	757	59	54	2	13	0	
758	0	0	870	57	56	4	14	0	
758	0	56	870	57	112	4	14	0	
758	0	112	870	57	168	4	14	0	
