10	10	587	233	220
27996650	22073294
0	0	0	82	108	56	9	1	1	
0	0	56	82	108	112	9	1	1	
0	0	112	82	108	168	9	1	1	
82	0	0	164	108	56	9	1	1	
82	0	56	164	108	112	9	1	1	
82	0	112	164	108	168	9	1	1	
164	0	0	246	108	56	9	1	1	
164	0	56	246	108	112	9	1	1	
164	0	112	246	108	168	9	1	1	
246	0	0	328	108	56	9	1	1	
246	0	56	328	108	112	9	1	1	
246	0	112	328	108	168	9	1	1	
328	0	0	410	108	56	9	1	1	
328	0	56	410	108	112	9	1	1	
328	0	112	410	108	168	9	1	1	
0	0	168	76	108	215	8	2	2	
76	0	168	152	108	215	8	2	2	
152	0	168	228	108	215	8	2	2	
228	0	168	304	108	215	8	2	2	
304	0	168	380	108	215	8	2	2	
0	157	0	108	233	47	8	3	3	
0	157	47	108	233	94	8	3	3	
108	157	0	216	233	47	8	3	3	
108	157	47	216	233	94	8	3	3	
216	157	0	324	233	47	8	3	3	
216	157	47	324	233	94	8	3	3	
324	157	0	432	233	47	8	3	3	
324	157	47	432	233	94	8	3	3	
432	157	0	540	233	47	8	3	3	
432	157	47	540	233	94	8	3	3	
0	159	94	46	233	156	6	4	4	
0	159	156	46	233	218	6	4	4	
46	159	94	92	233	156	6	4	4	
46	159	156	92	233	218	6	4	4	
92	159	94	138	233	156	6	4	4	
92	159	156	138	233	218	6	4	4	
138	159	94	184	233	156	6	4	4	
138	159	156	184	233	218	6	4	4	
184	159	94	230	233	156	6	4	4	
184	159	156	230	233	218	6	4	4	
230	159	94	276	233	156	6	4	4	
230	159	156	276	233	218	6	4	4	
276	159	94	322	233	156	6	4	4	
276	159	156	322	233	218	6	4	4	
0	109	0	103	157	38	4	5	5	
0	109	38	103	157	76	4	5	5	
103	109	0	206	157	38	4	5	5	
103	109	38	206	157	76	4	5	5	
206	109	0	309	157	38	4	5	5	
206	109	38	309	157	76	4	5	5	
309	109	0	412	157	38	4	5	5	
309	109	38	412	157	76	4	5	5	
412	109	0	515	157	38	4	5	5	
412	109	38	515	157	76	4	5	5	
0	110	76	78	157	125	7	6	6	
0	110	125	78	157	174	7	6	6	
78	110	76	156	157	125	7	6	6	
78	110	125	156	157	174	7	6	6	
156	110	76	234	157	125	7	6	6	
156	110	125	234	157	174	7	6	6	
234	110	76	312	157	125	7	6	6	
234	110	125	312	157	174	7	6	6	
0	111	174	43	157	219	5	7	7	
43	111	174	86	157	219	5	7	7	
86	111	174	129	157	219	5	7	7	
129	111	174	172	157	219	5	7	7	
172	111	174	215	157	219	5	7	7	
215	111	174	258	157	219	5	7	7	
258	111	174	301	157	219	5	7	7	
312	113	76	410	157	112	3	8	8	
312	113	112	410	157	148	3	8	8	
312	113	148	410	157	184	3	8	8	
312	113	184	410	157	220	3	8	8	
410	113	76	508	157	112	3	8	8	
410	113	112	508	157	148	3	8	8	
410	113	148	508	157	184	3	8	8	
410	113	184	508	157	220	3	8	8	
322	158	94	358	233	122	1	9	9	
322	158	122	358	233	150	1	9	9	
322	158	150	358	233	178	1	9	9	
358	158	94	394	233	122	1	9	9	
358	158	122	394	233	150	1	9	9	
358	158	150	394	233	178	1	9	9	
394	158	94	430	233	122	1	9	9	
394	158	122	430	233	150	1	9	9	
394	158	150	430	233	178	1	9	9	
430	158	94	466	233	122	1	9	9	
430	158	122	466	233	150	1	9	9	
430	158	150	466	233	178	1	9	9	
466	158	94	502	233	122	1	9	9	
466	158	122	502	233	150	1	9	9	
466	158	150	502	233	178	1	9	9	
502	158	94	538	233	122	1	9	9	
502	158	122	538	233	150	1	9	9	
502	158	150	538	233	178	1	9	9	
322	161	178	367	185	219	0	10	10	
322	185	178	367	209	219	0	10	10	
322	209	178	367	233	219	0	10	10	
367	161	178	412	185	219	0	10	10	
367	185	178	412	209	219	0	10	10	
367	209	178	412	233	219	0	10	10	
412	161	178	457	185	219	0	10	10	
412	185	178	457	209	219	0	10	10	
412	209	178	457	233	219	0	10	10	
457	161	178	502	185	219	0	10	10	
457	185	178	502	209	219	0	10	10	
457	209	178	502	233	219	0	10	10	
380	0	168	404	41	213	0	11	11	
380	41	168	404	82	213	0	11	11	
410	0	0	499	100	31	2	12	12	
410	0	31	499	100	62	2	12	12	
410	0	62	499	100	93	2	12	12	
410	0	93	499	100	124	2	12	12	
410	0	124	499	100	155	2	12	12	
410	0	155	499	100	186	2	12	12	
410	0	186	499	100	217	2	12	12	
502	158	178	538	233	206	1	13	13	
499	0	0	535	98	44	3	14	14	
499	0	44	535	98	88	3	14	14	
499	0	88	535	98	132	3	14	14	
499	0	132	535	98	176	3	14	14	
499	0	176	535	98	220	3	14	14	
515	111	0	560	157	43	5	15	15	
515	111	43	560	157	86	5	15	15	
515	111	86	560	157	129	5	15	15	
515	111	129	560	157	172	5	15	15	
515	111	172	560	157	215	5	15	15	
535	0	0	582	108	76	8	16	16	
535	0	76	582	108	152	8	16	16	
535	0	152	581	74	214	6	17	17	
535	74	152	576	98	197	0	18	18	
540	190	0	585	233	46	5	19	19	
540	190	46	585	233	92	5	19	19	
540	190	92	585	233	138	5	19	19	
540	166	0	581	190	45	0	20	20	
540	166	45	581	190	90	0	20	20	
540	166	90	581	190	135	0	20	20	
587	0	0	687	89	31	2	21	0	
587	0	31	687	89	62	2	21	0	
587	0	62	687	89	93	2	21	0	
587	0	93	687	89	124	2	21	0	
688	0	0	766	49	47	7	22	0	
767	0	0	875	82	56	9	23	0	
