12	12	587	233	220
27799702	22362209
0	0	0	78	93	89	11	1	1	
78	0	0	156	93	89	11	1	1	
156	0	0	234	93	89	11	1	1	
234	0	0	312	93	89	11	1	1	
312	0	0	390	93	89	11	1	1	
390	0	0	468	93	89	11	1	1	
468	0	0	546	93	89	11	1	1	
0	93	0	78	163	100	9	2	2	
0	163	0	78	233	100	9	2	2	
78	93	0	156	163	100	9	2	2	
78	163	0	156	233	100	9	2	2	
156	93	0	234	163	100	9	2	2	
156	163	0	234	233	100	9	2	2	
234	93	0	312	163	100	9	2	2	
234	163	0	312	233	100	9	2	2	
0	103	100	113	168	187	8	3	3	
0	168	100	113	233	187	8	3	3	
113	103	100	226	168	187	8	3	3	
113	168	100	226	233	187	8	3	3	
0	0	89	45	93	159	6	4	4	
45	0	89	90	93	159	6	4	4	
90	0	89	135	93	159	6	4	4	
135	0	89	180	93	159	6	4	4	
180	0	89	225	93	159	6	4	4	
225	0	89	270	93	159	6	4	4	
270	0	89	315	93	159	6	4	4	
315	0	89	360	93	159	6	4	4	
0	0	159	53	44	216	5	5	5	
0	44	159	53	88	216	5	5	5	
53	0	159	106	44	216	5	5	5	
53	44	159	106	88	216	5	5	5	
106	0	159	159	44	216	5	5	5	
106	44	159	159	88	216	5	5	5	
159	0	159	212	44	216	5	5	5	
159	44	159	212	88	216	5	5	5	
212	0	159	265	44	216	5	5	5	
212	44	159	265	88	216	5	5	5	
0	111	187	75	172	211	0	6	6	
0	172	187	75	233	211	0	6	6	
75	111	187	150	172	211	0	6	6	
75	172	187	150	233	211	0	6	6	
150	111	187	225	172	211	0	6	6	
150	172	187	225	233	211	0	6	6	
226	95	100	298	141	130	1	7	7	
226	95	130	298	141	160	1	7	7	
226	95	160	298	141	190	1	7	7	
226	95	190	298	141	220	1	7	7	
226	141	100	298	187	130	1	7	7	
226	141	130	298	187	160	1	7	7	
226	141	160	298	187	190	1	7	7	
226	141	190	298	187	220	1	7	7	
226	187	100	298	233	130	1	7	7	
226	187	130	298	233	160	1	7	7	
226	187	160	298	233	190	1	7	7	
226	187	190	298	233	220	1	7	7	
265	0	159	350	73	199	3	8	8	
312	158	0	392	233	95	10	9	9	
312	158	95	392	233	190	10	9	9	
392	158	0	472	233	95	10	9	9	
392	158	95	472	233	190	10	9	9	
472	158	0	552	233	95	10	9	9	
472	158	95	552	233	190	10	9	9	
312	172	190	387	233	214	0	10	10	
387	172	190	462	233	214	0	10	10	
462	172	190	537	233	214	0	10	10	
360	0	89	401	90	152	4	11	11	
360	0	152	401	90	215	4	11	11	
401	0	89	442	90	152	4	11	11	
401	0	152	442	90	215	4	11	11	
442	0	89	483	90	152	4	11	11	
442	0	152	483	90	215	4	11	11	
483	0	89	524	90	152	4	11	11	
483	0	152	524	90	215	4	11	11	
312	96	0	366	158	73	7	12	12	
312	96	73	366	158	146	7	12	12	
312	96	146	366	158	219	7	12	12	
366	96	0	420	158	73	7	12	12	
366	96	73	420	158	146	7	12	12	
366	96	146	420	158	219	7	12	12	
420	96	0	474	158	73	7	12	12	
420	96	73	474	158	146	7	12	12	
420	96	146	474	158	219	7	12	12	
474	93	0	587	158	87	8	13	13	
474	93	87	587	158	174	8	13	13	
474	95	174	564	158	215	4	14	14	
546	0	0	586	85	73	3	15	15	
546	0	73	586	85	146	3	15	15	
546	0	146	586	85	219	3	15	15	
552	160	0	585	233	36	2	16	16	
552	160	36	585	233	72	2	16	16	
552	160	72	585	233	108	2	16	16	
552	160	108	585	233	144	2	16	16	
552	160	144	585	233	180	2	16	16	
552	160	180	585	233	216	2	16	16	
587	0	0	662	61	24	0	17	0	
587	0	24	662	61	48	0	17	0	
587	0	48	662	61	72	0	17	0	
587	0	72	662	61	96	0	17	0	
663	0	0	735	46	30	1	18	0	
736	0	0	809	36	33	2	19	0	
736	0	33	809	36	66	2	19	0	
810	0	0	895	73	40	3	20	0	
896	0	0	996	78	70	9	21	0	
