12	12	587	233	220
27803138	18743402
0	0	0	60	76	93	11	1	1	
0	76	0	60	152	93	11	1	1	
0	152	0	60	228	93	11	1	1	
60	0	0	120	76	93	11	1	1	
60	76	0	120	152	93	11	1	1	
60	152	0	120	228	93	11	1	1	
120	0	0	180	76	93	11	1	1	
120	76	0	180	152	93	11	1	1	
120	152	0	180	228	93	11	1	1	
180	0	0	240	76	93	11	1	1	
180	76	0	240	152	93	11	1	1	
180	152	0	240	228	93	11	1	1	
240	0	0	300	76	93	11	1	1	
240	76	0	300	152	93	11	1	1	
240	152	0	300	228	93	11	1	1	
0	0	93	51	74	188	9	2	2	
0	74	93	51	148	188	9	2	2	
0	148	93	51	222	188	9	2	2	
51	0	93	102	74	188	9	2	2	
51	74	93	102	148	188	9	2	2	
51	148	93	102	222	188	9	2	2	
102	0	93	153	74	188	9	2	2	
102	74	93	153	148	188	9	2	2	
102	148	93	153	222	188	9	2	2	
153	0	93	204	74	188	9	2	2	
153	74	93	204	148	188	9	2	2	
153	148	93	204	222	188	9	2	2	
0	0	188	37	61	220	3	3	3	
0	61	188	37	122	220	3	3	3	
37	0	188	74	61	220	3	3	3	
37	61	188	74	122	220	3	3	3	
74	0	188	111	61	220	3	3	3	
74	61	188	111	122	220	3	3	3	
111	0	188	148	61	220	3	3	3	
111	61	188	148	122	220	3	3	3	
148	0	188	185	61	220	3	3	3	
148	61	188	185	122	220	3	3	3	
0	137	188	33	222	214	1	4	4	
33	137	188	66	222	214	1	4	4	
66	137	188	99	222	214	1	4	4	
99	137	188	132	222	214	1	4	4	
132	137	188	165	222	214	1	4	4	
165	137	188	198	222	214	1	4	4	
204	0	93	298	101	135	7	5	5	
204	0	135	298	101	177	7	5	5	
204	0	177	298	101	219	7	5	5	
204	101	93	298	202	135	7	5	5	
204	101	135	298	202	177	7	5	5	
204	101	177	298	202	219	7	5	5	
204	203	93	251	228	135	0	6	6	
204	203	135	251	228	177	0	6	6	
204	203	177	251	228	219	0	6	6	
251	203	93	298	228	135	0	6	6	
251	203	135	298	228	177	0	6	6	
251	203	177	298	228	219	0	6	6	
300	0	0	378	116	37	5	7	7	
300	0	37	378	116	74	5	7	7	
300	0	74	378	116	111	5	7	7	
300	0	111	378	116	148	5	7	7	
300	0	148	378	116	185	5	7	7	
300	116	0	378	232	37	5	7	7	
300	116	37	378	232	74	5	7	7	
300	116	74	378	232	111	5	7	7	
300	116	111	378	232	148	5	7	7	
300	116	148	378	232	185	5	7	7	
300	0	185	366	97	217	4	8	8	
300	97	185	366	194	217	4	8	8	
378	0	0	444	97	32	4	9	9	
378	0	32	444	97	64	4	9	9	
378	0	64	444	97	96	4	9	9	
378	0	96	444	97	128	4	9	9	
378	0	128	444	97	160	4	9	9	
378	0	160	444	97	192	4	9	9	
378	97	0	444	194	32	4	9	9	
378	97	32	444	194	64	4	9	9	
378	97	64	444	194	96	4	9	9	
378	97	96	444	194	128	4	9	9	
378	97	128	444	194	160	4	9	9	
378	97	160	444	194	192	4	9	9	
378	0	192	411	85	218	1	10	10	
378	85	192	411	170	218	1	10	10	
411	0	192	444	85	218	1	10	10	
411	85	192	444	170	218	1	10	10	
378	194	0	454	233	72	6	11	11	
378	194	72	454	233	144	6	11	11	
378	194	144	454	233	216	6	11	11	
444	0	0	509	57	86	10	12	12	
444	0	86	509	57	172	10	12	12	
444	57	0	509	114	86	10	12	12	
444	57	86	509	114	172	10	12	12	
444	114	0	509	171	86	10	12	12	
444	114	86	509	171	172	10	12	12	
444	0	172	509	53	218	8	13	13	
444	53	172	509	106	218	8	13	13	
444	106	172	509	159	218	8	13	13	
454	180	0	500	233	65	8	14	14	
454	180	65	500	233	130	8	14	14	
454	180	130	500	233	195	8	14	14	
500	180	0	546	233	65	8	14	14	
500	180	65	546	233	130	8	14	14	
500	180	130	546	233	195	8	14	14	
454	186	195	496	233	220	0	15	15	
496	186	195	538	233	220	0	15	15	
509	0	0	548	76	72	6	16	16	
509	0	72	548	76	144	6	16	16	
509	0	144	548	76	216	6	16	16	
548	0	0	587	76	72	6	16	16	
548	0	72	587	76	144	6	16	16	
548	0	144	587	76	216	6	16	16	
509	88	0	574	134	53	8	17	17	
509	88	53	574	134	106	8	17	17	
509	88	106	574	134	159	8	17	17	
509	134	0	574	180	53	8	17	17	
509	134	53	574	180	106	8	17	17	
509	134	106	574	180	159	8	17	17	
509	96	159	534	138	206	0	18	18	
509	138	159	534	180	206	0	18	18	
534	96	159	559	138	206	0	18	18	
534	138	159	559	180	206	0	18	18	
546	194	0	579	233	27	2	19	19	
546	194	27	579	233	54	2	19	19	
546	194	54	579	233	81	2	19	19	
546	194	81	579	233	108	2	19	19	
546	194	108	579	233	135	2	19	19	
546	194	135	579	233	162	2	19	19	
546	194	162	579	233	189	2	19	19	
546	194	189	579	233	216	2	19	19	
587	0	0	634	42	25	0	20	0	
587	0	25	634	42	50	0	20	0	
635	0	0	720	33	26	1	21	0	
721	0	0	760	33	27	2	22	0	
721	0	27	760	33	54	2	22	0	
761	0	0	877	78	37	5	23	0	
761	0	37	877	78	74	5	23	0	
878	0	0	954	72	39	6	24	0	
955	0	0	1050	74	51	9	25	0	
955	0	51	1050	74	102	9	25	0	
