8	8	587	233	220
28208782	21907980
0	0	0	91	93	62	7	1	1	
0	0	62	91	93	124	7	1	1	
0	0	124	91	93	186	7	1	1	
91	0	0	182	93	62	7	1	1	
91	0	62	182	93	124	7	1	1	
91	0	124	182	93	186	7	1	1	
182	0	0	273	93	62	7	1	1	
182	0	62	273	93	124	7	1	1	
182	0	124	273	93	186	7	1	1	
273	0	0	364	93	62	7	1	1	
273	0	62	364	93	124	7	1	1	
273	0	124	364	93	186	7	1	1	
0	0	186	87	45	218	1	2	2	
0	45	186	87	90	218	1	2	2	
87	0	186	174	45	218	1	2	2	
87	45	186	174	90	218	1	2	2	
174	0	186	261	45	218	1	2	2	
174	45	186	261	90	218	1	2	2	
261	0	186	348	45	218	1	2	2	
261	45	186	348	90	218	1	2	2	
0	180	0	115	233	77	5	3	3	
0	180	77	115	233	154	5	3	3	
115	180	0	230	233	77	5	3	3	
115	180	77	230	233	154	5	3	3	
230	180	0	345	233	77	5	3	3	
230	180	77	345	233	154	5	3	3	
345	180	0	460	233	77	5	3	3	
345	180	77	460	233	154	5	3	3	
460	180	0	575	233	77	5	3	3	
460	180	77	575	233	154	5	3	3	
0	93	0	78	180	61	6	4	4	
0	93	61	78	180	122	6	4	4	
0	93	122	78	180	183	6	4	4	
78	93	0	156	180	61	6	4	4	
78	93	61	156	180	122	6	4	4	
78	93	122	156	180	183	6	4	4	
156	93	0	234	180	61	6	4	4	
156	93	61	234	180	122	6	4	4	
156	93	122	234	180	183	6	4	4	
234	93	0	312	180	61	6	4	4	
234	93	61	312	180	122	6	4	4	
234	93	122	312	180	183	6	4	4	
312	93	0	390	180	61	6	4	4	
312	93	61	390	180	122	6	4	4	
312	93	122	390	180	183	6	4	4	
0	188	154	87	233	186	1	5	5	
0	188	186	87	233	218	1	5	5	
0	93	183	45	180	215	1	6	6	
45	93	183	90	180	215	1	7	7	
90	93	183	135	180	215	1	7	7	
135	93	183	180	180	215	1	7	7	
180	93	183	225	180	215	1	7	7	
225	104	183	280	180	213	0	8	8	
280	104	183	335	180	213	0	8	8	
335	104	183	390	180	213	0	8	8	
87	187	154	171	233	217	3	9	9	
171	187	154	255	233	217	3	9	9	
255	187	154	339	233	217	3	9	9	
339	187	154	423	233	217	3	9	9	
423	187	154	507	233	217	3	9	9	
364	0	0	394	76	55	0	10	10	
364	0	55	394	76	110	0	10	10	
364	0	110	394	76	165	0	10	10	
364	0	165	394	76	220	0	10	10	
390	96	0	457	180	44	2	11	11	
390	96	44	457	180	88	2	11	11	
390	96	88	457	180	132	2	11	11	
390	96	132	457	180	176	2	11	11	
390	96	176	457	180	220	2	11	11	
457	96	0	524	180	44	2	11	11	
457	96	44	524	180	88	2	11	11	
457	96	88	524	180	132	2	11	11	
457	96	132	524	180	176	2	11	11	
457	96	176	524	180	220	2	11	11	
394	0	0	485	93	62	7	12	12	
394	0	62	478	46	125	3	13	13	
394	0	125	478	46	188	3	13	13	
394	46	62	478	92	125	3	13	13	
394	46	125	478	92	188	3	13	13	
394	0	188	470	55	218	0	14	14	
485	0	0	536	78	72	4	15	15	
485	0	72	536	78	144	4	15	15	
485	0	144	536	78	216	4	15	15	
536	0	0	587	78	72	4	15	15	
536	0	72	587	78	144	4	15	15	
536	0	144	587	78	216	4	15	15	
524	88	0	587	134	84	3	16	16	
524	88	84	587	134	168	3	16	16	
524	134	0	587	180	84	3	16	16	
524	134	84	587	180	168	3	16	16	
524	96	168	587	180	214	3	17	17	
587	0	0	663	55	30	0	18	0	
664	0	0	748	67	44	2	19	0	
749	0	0	827	72	51	4	20	0	
749	0	51	827	72	102	4	20	0	
828	0	0	943	77	53	5	21	0	
