12	12	587	233	220
27519534	23053930
0	0	0	84	45	86	5	1	1	
0	0	86	84	45	172	5	1	1	
0	45	0	84	90	86	5	1	1	
0	45	86	84	90	172	5	1	1	
0	90	0	84	135	86	5	1	1	
0	90	86	84	135	172	5	1	1	
0	135	0	84	180	86	5	1	1	
0	135	86	84	180	172	5	1	1	
0	180	0	84	225	86	5	1	1	
0	180	86	84	225	172	5	1	1	
0	0	172	81	56	218	6	2	2	
0	56	172	81	112	218	6	2	2	
0	112	172	81	168	218	6	2	2	
0	168	172	81	224	218	6	2	2	
84	0	0	145	52	71	10	3	3	
84	0	71	145	52	142	10	3	3	
84	0	142	145	52	213	10	3	3	
84	52	0	145	104	71	10	3	3	
84	52	71	145	104	142	10	3	3	
84	52	142	145	104	213	10	3	3	
84	104	0	145	156	71	10	3	3	
84	104	71	145	156	142	10	3	3	
84	104	142	145	156	213	10	3	3	
84	156	0	145	208	71	10	3	3	
84	156	71	145	208	142	10	3	3	
84	156	142	145	208	213	10	3	3	
145	0	0	231	45	84	5	4	4	
145	0	84	231	45	168	5	4	4	
231	0	0	317	45	84	5	4	4	
231	0	84	317	45	168	5	4	4	
317	0	0	403	45	84	5	4	4	
317	0	84	403	45	168	5	4	4	
403	0	0	489	45	84	5	4	4	
403	0	84	489	45	168	5	4	4	
145	0	168	226	45	202	1	5	5	
226	0	168	307	45	202	1	5	5	
307	0	168	388	45	202	1	5	5	
388	0	168	469	45	202	1	5	5	
145	45	0	233	139	50	9	6	6	
145	45	50	233	139	100	9	6	6	
145	45	100	233	139	150	9	6	6	
145	139	0	233	233	50	9	6	6	
145	139	50	233	233	100	9	6	6	
145	139	100	233	233	150	9	6	6	
145	49	150	208	95	219	7	7	7	
145	95	150	208	141	219	7	7	7	
145	141	150	208	187	219	7	7	7	
145	187	150	208	233	219	7	7	7	
233	161	0	300	233	56	11	8	8	
233	161	56	300	233	112	11	8	8	
233	161	112	300	233	168	11	8	8	
300	161	0	367	233	56	11	8	8	
300	161	56	367	233	112	11	8	8	
300	161	112	367	233	168	11	8	8	
367	161	0	434	233	56	11	8	8	
367	161	56	434	233	112	11	8	8	
367	161	112	434	233	168	11	8	8	
233	45	0	273	123	73	4	9	9	
233	45	73	273	123	146	4	9	9	
233	45	146	273	123	219	4	9	9	
273	45	0	313	123	73	4	9	9	
273	45	73	313	123	146	4	9	9	
273	45	146	313	123	219	4	9	9	
313	45	0	353	123	73	4	9	9	
313	45	73	353	123	146	4	9	9	
313	45	146	353	123	219	4	9	9	
353	45	0	393	123	73	4	9	9	
353	45	73	393	123	146	4	9	9	
353	45	146	393	123	219	4	9	9	
393	45	0	433	123	73	4	9	9	
393	45	73	433	123	146	4	9	9	
393	45	146	433	123	219	4	9	9	
233	124	0	287	161	70	3	10	10	
233	124	70	287	161	140	3	10	10	
233	124	140	287	161	210	3	10	10	
287	124	0	341	161	70	3	10	10	
287	124	70	341	161	140	3	10	10	
287	124	140	341	161	210	3	10	10	
341	124	0	395	161	70	3	10	10	
341	124	70	395	161	140	3	10	10	
341	124	140	395	161	210	3	10	10	
395	124	0	449	161	70	3	10	10	
395	124	70	449	161	140	3	10	10	
395	124	140	449	161	210	3	10	10	
233	164	168	296	233	214	7	11	11	
296	164	168	359	233	214	7	11	11	
359	164	168	422	233	214	7	11	11	
433	45	0	508	120	36	2	12	12	
433	45	36	508	120	72	2	12	12	
433	45	72	508	120	108	2	12	12	
433	45	108	508	120	144	2	12	12	
433	45	144	508	120	180	2	12	12	
433	45	180	508	120	216	2	12	12	
508	45	0	583	120	36	2	12	12	
508	45	36	583	120	72	2	12	12	
508	45	72	583	120	108	2	12	12	
508	45	108	583	120	144	2	12	12	
508	45	144	583	120	180	2	12	12	
508	45	180	583	120	216	2	12	12	
434	177	0	480	233	81	6	13	13	
434	177	81	480	233	162	6	13	13	
480	177	0	526	233	81	6	13	13	
480	177	81	526	233	162	6	13	13	
526	177	0	572	233	81	6	13	13	
526	177	81	572	233	162	6	13	13	
434	183	162	499	233	213	8	14	14	
499	183	162	564	233	213	8	14	14	
449	123	0	517	150	44	0	15	15	
449	123	44	517	150	88	0	15	15	
449	123	88	517	150	132	0	15	15	
449	123	132	517	150	176	0	15	15	
449	123	176	517	150	220	0	15	15	
449	150	0	517	177	44	0	15	15	
449	150	44	517	177	88	0	15	15	
449	150	88	517	177	132	0	15	15	
449	150	132	517	177	176	0	15	15	
449	150	176	517	177	220	0	15	15	
489	0	0	570	45	34	1	16	16	
489	0	34	570	45	68	1	16	16	
489	0	68	570	45	102	1	16	16	
489	0	102	570	45	136	1	16	16	
489	0	136	570	45	170	1	16	16	
489	0	170	570	45	204	1	16	16	
517	127	0	582	177	51	8	17	17	
517	127	51	582	177	102	8	17	17	
517	127	102	582	177	153	8	17	17	
517	127	153	582	177	204	8	17	17	
587	0	0	668	45	34	1	18	0	
587	0	34	668	45	68	1	18	0	
587	0	68	668	45	102	1	18	0	
587	0	102	668	45	136	1	18	0	
587	0	136	668	45	170	1	18	0	
587	0	170	668	45	204	1	18	0	
669	0	0	750	56	46	6	19	0	
669	0	46	750	56	92	6	19	0	
751	0	0	816	51	50	8	20	0	
817	0	0	911	88	50	9	21	0	
912	0	0	984	67	56	11	22	0	
912	0	56	984	67	112	11	22	0	
