5	5	587	233	220
27903192	26507016
0	0	0	78	108	54	2	1	1	
0	0	54	78	108	108	2	1	1	
0	0	108	78	108	162	2	1	1	
0	0	162	78	108	216	2	1	1	
78	0	0	156	108	54	2	1	1	
78	0	54	156	108	108	2	1	1	
78	0	108	156	108	162	2	1	1	
78	0	162	156	108	216	2	1	1	
156	0	0	234	108	54	2	1	1	
156	0	54	234	108	108	2	1	1	
156	0	108	234	108	162	2	1	1	
156	0	162	234	108	216	2	1	1	
234	0	0	312	108	54	2	1	1	
234	0	54	312	108	108	2	1	1	
234	0	108	312	108	162	2	1	1	
234	0	162	312	108	216	2	1	1	
312	0	0	390	108	54	2	1	1	
312	0	54	390	108	108	2	1	1	
312	0	108	390	108	162	2	1	1	
312	0	162	390	108	216	2	1	1	
0	168	0	58	233	96	4	2	2	
58	168	0	116	233	96	4	2	2	
116	168	0	174	233	96	4	2	2	
174	168	0	232	233	96	4	2	2	
232	168	0	290	233	96	4	2	2	
290	168	0	348	233	96	4	2	2	
348	168	0	406	233	96	4	2	2	
406	168	0	464	233	96	4	2	2	
464	168	0	522	233	96	4	2	2	
522	168	0	580	233	96	4	2	2	
0	110	0	104	168	57	3	3	3	
0	110	57	104	168	114	3	3	3	
0	110	114	104	168	171	3	3	3	
104	110	0	208	168	57	3	3	3	
104	110	57	208	168	114	3	3	3	
104	110	114	208	168	171	3	3	3	
208	110	0	312	168	57	3	3	3	
208	110	57	312	168	114	3	3	3	
208	110	114	312	168	171	3	3	3	
312	110	0	416	168	57	3	3	3	
312	110	57	416	168	114	3	3	3	
312	110	114	416	168	171	3	3	3	
416	110	0	520	168	57	3	3	3	
416	110	57	520	168	114	3	3	3	
416	110	114	520	168	171	3	3	3	
0	168	96	96	233	154	4	4	4	
0	168	154	96	233	212	4	4	4	
96	168	96	192	233	154	4	4	4	
96	168	154	192	233	212	4	4	4	
192	168	96	288	233	154	4	4	4	
192	168	154	288	233	212	4	4	4	
288	168	96	384	233	154	4	4	4	
288	168	154	384	233	212	4	4	4	
384	168	96	480	233	154	4	4	4	
384	168	154	480	233	212	4	4	4	
480	168	96	576	233	154	4	4	4	
480	168	154	576	233	212	4	4	4	
0	110	171	86	168	207	1	5	5	
86	110	171	172	168	207	1	6	6	
172	110	171	258	168	207	1	6	6	
258	110	171	344	168	207	1	6	6	
344	110	171	430	168	207	1	6	6	
430	110	171	516	168	207	1	6	6	
390	0	0	459	71	22	0	7	7	
390	0	22	459	71	44	0	7	7	
390	0	44	459	71	66	0	7	7	
390	0	66	459	71	88	0	7	7	
390	0	88	459	71	110	0	7	7	
390	0	110	459	71	132	0	7	7	
390	0	132	459	71	154	0	7	7	
390	0	154	459	71	176	0	7	7	
390	0	176	459	71	198	0	7	7	
390	0	198	459	71	220	0	7	7	
459	0	0	528	71	22	0	7	7	
459	0	22	528	71	44	0	7	7	
459	0	44	528	71	66	0	7	7	
459	0	66	528	71	88	0	7	7	
459	0	88	528	71	110	0	7	7	
459	0	110	528	71	132	0	7	7	
459	0	132	528	71	154	0	7	7	
459	0	154	528	71	176	0	7	7	
459	0	176	528	71	198	0	7	7	
459	0	198	528	71	220	0	7	7	
390	71	0	476	107	58	1	8	8	
390	71	58	476	107	116	1	8	8	
390	71	116	476	107	174	1	8	8	
476	71	0	562	107	58	1	8	8	
476	71	58	562	107	116	1	8	8	
476	71	116	562	107	174	1	8	8	
520	111	0	578	168	104	3	9	9	
520	111	104	578	168	208	3	9	9	
528	0	0	586	57	104	3	10	10	
528	0	104	586	57	208	3	10	10	
587	0	0	673	58	36	1	11	0	
587	0	36	673	58	72	1	11	0	
587	0	72	673	58	108	1	11	0	
587	0	108	673	58	144	1	11	0	
587	0	144	673	58	180	1	11	0	
587	0	180	673	58	216	1	11	0	
674	0	0	782	78	54	2	12	0	
