8	8	587	233	220
27831670	23437771
0	0	0	57	95	79	7	1	1	
0	0	79	57	95	158	7	1	1	
57	0	0	114	95	79	7	1	1	
57	0	79	114	95	158	7	1	1	
114	0	0	171	95	79	7	1	1	
114	0	79	171	95	158	7	1	1	
171	0	0	228	95	79	7	1	1	
171	0	79	228	95	158	7	1	1	
228	0	0	285	95	79	7	1	1	
228	0	79	285	95	158	7	1	1	
285	0	0	342	95	79	7	1	1	
285	0	79	342	95	158	7	1	1	
342	0	0	399	95	79	7	1	1	
342	0	79	399	95	158	7	1	1	
0	0	158	40	91	214	3	2	2	
40	0	158	80	91	214	3	2	2	
80	0	158	120	91	214	3	2	2	
120	0	158	160	91	214	3	2	2	
160	0	158	200	91	214	3	2	2	
200	0	158	240	91	214	3	2	2	
240	0	158	280	91	214	3	2	2	
280	0	158	320	91	214	3	2	2	
320	0	158	360	91	214	3	2	2	
360	0	158	394	42	219	2	3	3	
360	42	158	394	84	219	2	3	3	
0	95	0	71	141	83	4	4	4	
0	141	0	71	187	83	4	4	4	
0	187	0	71	233	83	4	4	4	
71	95	0	142	141	83	4	4	4	
71	141	0	142	187	83	4	4	4	
71	187	0	142	233	83	4	4	4	
142	95	0	213	141	83	4	4	4	
142	141	0	213	187	83	4	4	4	
142	187	0	213	233	83	4	4	4	
213	95	0	284	141	83	4	4	4	
213	141	0	284	187	83	4	4	4	
213	187	0	284	233	83	4	4	4	
284	95	0	355	141	83	4	4	4	
284	141	0	355	187	83	4	4	4	
284	187	0	355	233	83	4	4	4	
355	95	0	426	141	83	4	4	4	
355	141	0	426	187	83	4	4	4	
355	187	0	426	233	83	4	4	4	
426	95	0	497	141	83	4	4	4	
426	141	0	497	187	83	4	4	4	
426	187	0	497	233	83	4	4	4	
0	149	83	67	233	130	5	5	5	
0	149	130	67	233	177	5	5	5	
67	149	83	134	233	130	5	5	5	
67	149	130	134	233	177	5	5	5	
134	149	83	201	233	130	5	5	5	
134	149	130	201	233	177	5	5	5	
201	149	83	268	233	130	5	5	5	
201	149	130	268	233	177	5	5	5	
268	149	83	335	233	130	5	5	5	
268	149	130	335	233	177	5	5	5	
335	149	83	402	233	130	5	5	5	
335	149	130	402	233	177	5	5	5	
402	149	83	469	233	130	5	5	5	
402	149	130	469	233	177	5	5	5	
0	95	83	76	149	146	6	6	6	
0	95	146	76	149	209	6	6	6	
76	95	83	152	149	146	6	6	6	
76	95	146	152	149	209	6	6	6	
152	95	83	228	149	146	6	6	6	
152	95	146	228	149	209	6	6	6	
228	95	83	304	149	146	6	6	6	
228	95	146	304	149	209	6	6	6	
304	95	83	380	149	146	6	6	6	
304	95	146	380	149	209	6	6	6	
380	95	83	456	149	146	6	6	6	
380	95	146	456	149	209	6	6	6	
0	165	177	61	199	219	2	7	7	
0	199	177	61	233	219	2	7	7	
61	165	177	122	199	219	2	7	7	
61	199	177	122	233	219	2	7	7	
122	165	177	183	199	219	2	7	7	
122	199	177	183	233	219	2	7	7	
183	165	177	244	199	219	2	7	7	
183	199	177	244	233	219	2	7	7	
244	165	177	305	199	219	2	7	7	
244	199	177	305	233	219	2	7	7	
305	165	177	366	199	219	2	7	7	
305	199	177	366	233	219	2	7	7	
366	165	177	427	199	219	2	7	7	
366	199	177	427	233	219	2	7	7	
399	0	0	479	90	23	0	8	8	
399	0	23	479	90	46	0	8	8	
399	0	46	479	90	69	0	8	8	
399	0	69	479	90	92	0	8	8	
399	0	92	479	90	115	0	8	8	
399	0	115	479	90	138	0	8	8	
399	0	138	479	90	161	0	8	8	
399	0	161	479	90	184	0	8	8	
399	0	184	479	90	207	0	8	8	
456	107	83	490	149	144	2	9	9	
456	107	144	490	149	205	2	9	9	
469	164	83	497	233	126	1	10	10	
469	164	126	497	233	169	1	10	10	
469	164	169	497	233	212	1	10	10	
479	0	0	559	90	23	0	11	11	
479	0	23	559	90	46	0	11	11	
479	0	46	559	90	69	0	11	11	
479	0	69	559	90	92	0	11	11	
479	0	92	559	90	115	0	11	11	
479	0	115	559	90	138	0	11	11	
479	0	138	559	90	161	0	11	11	
479	0	161	559	90	184	0	11	11	
479	0	184	540	42	218	2	12	12	
479	42	184	540	84	218	2	12	12	
497	142	0	537	233	56	3	13	13	
497	142	56	537	233	112	3	13	13	
497	142	112	537	233	168	3	13	13	
537	142	0	577	233	56	3	13	13	
537	142	56	577	233	112	3	13	13	
537	142	112	577	233	168	3	13	13	
497	150	168	568	233	214	4	14	14	
497	90	0	581	137	67	5	15	15	
497	90	67	581	137	134	5	15	15	
497	90	134	581	137	201	5	15	15	
559	0	0	587	69	43	1	16	16	
559	0	43	587	69	86	1	16	16	
559	0	86	587	69	129	1	16	16	
559	0	129	587	69	172	1	16	16	
559	0	172	587	69	215	1	16	16	
587	0	0	656	43	28	1	17	0	
587	0	28	656	43	56	1	17	0	
587	0	56	656	43	84	1	17	0	
587	0	84	656	43	112	1	17	0	
587	0	112	656	43	140	1	17	0	
587	0	140	656	43	168	1	17	0	
587	0	168	656	43	196	1	17	0	
587	0	196	656	43	224	1	17	0	
657	0	0	718	42	34	2	18	0	
719	0	0	810	56	40	3	19	0	
811	0	0	895	67	47	5	20	0	
811	0	47	895	67	94	5	20	0	
896	0	0	972	63	54	6	21	0	
896	0	54	972	63	108	6	21	0	
