10	10	587	233	220
27657725	24331026
0	0	0	70	97	57	9	1	1	
0	0	57	70	97	114	9	1	1	
0	0	114	70	97	171	9	1	1	
70	0	0	140	97	57	9	1	1	
70	0	57	140	97	114	9	1	1	
70	0	114	140	97	171	9	1	1	
140	0	0	210	97	57	9	1	1	
140	0	57	210	97	114	9	1	1	
140	0	114	210	97	171	9	1	1	
210	0	0	280	97	57	9	1	1	
210	0	57	280	97	114	9	1	1	
210	0	114	280	97	171	9	1	1	
280	0	0	350	97	57	9	1	1	
280	0	57	350	97	114	9	1	1	
280	0	114	350	97	171	9	1	1	
0	0	171	57	71	209	4	2	2	
57	0	171	114	71	209	4	2	2	
114	0	171	171	71	209	4	2	2	
171	0	171	228	71	209	4	2	2	
228	0	171	285	71	209	4	2	2	
285	0	171	342	71	209	4	2	2	
0	99	0	102	166	47	7	3	3	
0	166	0	102	233	47	7	3	3	
102	99	0	204	166	47	7	3	3	
102	166	0	204	233	47	7	3	3	
204	99	0	306	166	47	7	3	3	
204	166	0	306	233	47	7	3	3	
306	99	0	408	166	47	7	3	3	
306	166	0	408	233	47	7	3	3	
408	99	0	510	166	47	7	3	3	
408	166	0	510	233	47	7	3	3	
0	176	47	56	233	131	8	4	4	
0	176	131	56	233	215	8	4	4	
56	176	47	112	233	131	8	4	4	
56	176	131	112	233	215	8	4	4	
112	176	47	168	233	131	8	4	4	
112	176	131	168	233	215	8	4	4	
168	176	47	224	233	131	8	4	4	
168	176	131	224	233	215	8	4	4	
224	176	47	280	233	131	8	4	4	
224	176	131	280	233	215	8	4	4	
280	176	47	336	233	131	8	4	4	
280	176	131	336	233	215	8	4	4	
336	176	47	392	233	131	8	4	4	
336	176	131	392	233	215	8	4	4	
392	176	47	448	233	131	8	4	4	
392	176	131	448	233	215	8	4	4	
0	99	47	37	176	103	3	5	5	
0	99	103	37	176	159	3	5	5	
0	99	159	37	176	215	3	5	5	
37	99	47	74	176	103	3	6	6	
37	99	103	74	176	159	3	6	6	
37	99	159	74	176	215	3	6	6	
74	99	47	111	176	103	3	6	6	
74	99	103	111	176	159	3	6	6	
74	99	159	111	176	215	3	6	6	
111	99	47	148	176	103	3	6	6	
111	99	103	148	176	159	3	6	6	
111	99	159	148	176	215	3	6	6	
148	99	47	185	176	103	3	7	7	
148	99	103	185	176	159	3	7	7	
148	104	159	179	176	188	1	8	8	
148	104	188	179	176	217	1	8	8	
185	100	47	256	138	104	4	9	9	
185	100	104	256	138	161	4	9	9	
185	100	161	256	138	218	4	9	9	
185	138	47	256	176	104	4	9	9	
185	138	104	256	176	161	4	9	9	
185	138	161	256	176	218	4	9	9	
256	100	47	340	138	105	5	10	10	
256	138	47	340	176	105	5	10	10	
340	100	47	424	138	105	5	10	10	
340	138	47	424	176	105	5	10	10	
424	100	47	508	138	105	5	10	10	
424	138	47	508	176	105	5	10	10	
256	100	105	340	138	163	5	11	11	
256	138	105	340	176	163	5	11	11	
340	100	105	424	138	163	5	11	11	
340	138	105	424	176	163	5	11	11	
424	100	105	508	138	163	5	11	11	
424	138	105	508	176	163	5	11	11	
256	100	163	327	138	220	4	12	12	
256	138	163	327	176	220	4	12	12	
327	100	163	398	138	220	4	12	12	
327	138	163	398	176	220	4	12	12	
350	0	0	437	33	28	0	13	13	
350	0	28	437	33	56	0	13	13	
350	0	56	437	33	84	0	13	13	
350	0	84	437	33	112	0	13	13	
350	0	112	437	33	140	0	13	13	
350	33	0	437	66	28	0	13	13	
350	33	28	437	66	56	0	13	13	
350	33	56	437	66	84	0	13	13	
350	33	84	437	66	112	0	13	13	
350	33	112	437	66	140	0	13	13	
350	66	0	437	99	28	0	13	13	
350	66	28	437	99	56	0	13	13	
350	66	56	437	99	84	0	13	13	
350	66	84	437	99	112	0	13	13	
350	66	112	437	99	140	0	13	13	
350	0	140	437	28	173	0	14	14	
350	0	173	437	28	206	0	14	14	
350	28	140	434	86	178	5	15	15	
350	28	178	434	86	216	5	15	15	
398	106	163	495	176	220	9	16	16	
437	0	0	509	29	31	1	17	17	
437	0	31	509	29	62	1	17	17	
437	0	62	509	29	93	1	17	17	
437	0	93	509	29	124	1	17	17	
437	0	124	509	29	155	1	17	17	
437	0	155	509	29	186	1	17	17	
437	0	186	509	29	217	1	17	17	
509	0	0	581	29	31	1	17	17	
509	0	31	581	29	62	1	17	17	
509	0	62	581	29	93	1	17	17	
509	0	93	581	29	124	1	17	17	
509	0	124	581	29	155	1	17	17	
509	0	155	581	29	186	1	17	17	
509	0	186	581	29	217	1	17	17	
448	176	47	504	233	131	8	18	18	
437	29	0	539	96	47	7	19	19	
437	29	47	539	96	94	7	19	19	
448	186	131	501	233	194	6	20	20	
437	29	94	484	82	157	6	21	21	
437	29	157	484	82	220	6	21	21	
484	29	94	537	76	157	6	22	22	
484	29	157	537	76	220	6	22	22	
510	145	0	586	233	33	2	23	23	
510	145	33	586	233	66	2	23	23	
510	145	66	586	233	99	2	23	23	
510	145	99	586	233	132	2	23	23	
510	145	132	586	233	165	2	23	23	
510	145	165	586	233	198	2	23	23	
510	98	0	573	145	53	6	24	24	
510	98	53	573	145	106	6	24	24	
510	98	106	573	145	159	6	24	24	
510	98	159	573	145	212	6	24	24	
539	29	0	586	92	53	6	25	25	
539	29	53	586	92	106	6	25	25	
539	29	106	586	92	159	6	25	25	
539	29	159	586	92	212	6	25	25	
587	0	0	675	76	33	2	26	0	
587	0	33	675	76	66	2	26	0	
587	0	66	675	76	99	2	26	0	
587	0	99	675	76	132	2	26	0	
587	0	132	675	76	165	2	26	0	
587	0	165	675	76	198	2	26	0	
676	0	0	760	58	38	5	27	0	
676	0	38	760	58	76	5	27	0	
761	0	0	824	53	47	6	28	0	
761	0	47	824	53	94	6	28	0	
