5	5	587	233	220
27949553	26435585
0	0	0	57	107	57	3	1	1	
0	0	57	57	107	114	3	1	1	
0	0	114	57	107	171	3	1	1	
57	0	0	114	107	57	3	1	1	
57	0	57	114	107	114	3	1	1	
57	0	114	114	107	171	3	1	1	
114	0	0	171	107	57	3	1	1	
114	0	57	171	107	114	3	1	1	
114	0	114	171	107	171	3	1	1	
171	0	0	228	107	57	3	1	1	
171	0	57	228	107	114	3	1	1	
171	0	114	228	107	171	3	1	1	
228	0	0	285	107	57	3	1	1	
228	0	57	285	107	114	3	1	1	
228	0	114	285	107	171	3	1	1	
285	0	0	342	107	57	3	1	1	
285	0	57	342	107	114	3	1	1	
285	0	114	342	107	171	3	1	1	
342	0	0	399	107	57	3	1	1	
342	0	57	399	107	114	3	1	1	
342	0	114	399	107	171	3	1	1	
399	0	0	456	107	57	3	1	1	
399	0	57	456	107	114	3	1	1	
399	0	114	456	107	171	3	1	1	
456	0	0	513	107	57	3	1	1	
456	0	57	513	107	114	3	1	1	
456	0	114	513	107	171	3	1	1	
0	166	0	116	233	35	1	2	2	
0	166	35	116	233	70	1	2	2	
0	166	70	116	233	105	1	2	2	
0	166	105	116	233	140	1	2	2	
116	166	0	232	233	35	1	2	2	
116	166	35	232	233	70	1	2	2	
116	166	70	232	233	105	1	2	2	
116	166	105	232	233	140	1	2	2	
232	166	0	348	233	35	1	2	2	
232	166	35	348	233	70	1	2	2	
232	166	70	348	233	105	1	2	2	
232	166	105	348	233	140	1	2	2	
348	166	0	464	233	35	1	2	2	
348	166	35	464	233	70	1	2	2	
348	166	70	464	233	105	1	2	2	
348	166	105	464	233	140	1	2	2	
464	166	0	580	233	35	1	2	2	
464	166	35	580	233	70	1	2	2	
464	166	70	580	233	105	1	2	2	
464	166	105	580	233	140	1	2	2	
0	0	171	64	72	208	2	3	3	
64	0	171	128	72	208	2	3	3	
128	0	171	192	72	208	2	3	3	
192	0	171	256	72	208	2	3	3	
256	0	171	320	72	208	2	3	3	
320	0	171	384	72	208	2	3	3	
384	0	171	448	72	208	2	3	3	
448	0	171	512	72	208	2	3	3	
0	167	140	93	233	166	0	4	4	
0	167	166	93	233	192	0	4	4	
0	167	192	93	233	218	0	4	4	
93	167	140	186	233	166	0	4	4	
93	167	166	186	233	192	0	4	4	
93	167	192	186	233	218	0	4	4	
186	167	140	279	233	166	0	4	4	
186	167	166	279	233	192	0	4	4	
186	167	192	279	233	218	0	4	4	
279	167	140	372	233	166	0	4	4	
279	167	166	372	233	192	0	4	4	
279	167	192	372	233	218	0	4	4	
372	167	140	465	233	166	0	4	4	
372	167	166	465	233	192	0	4	4	
372	167	192	465	233	218	0	4	4	
465	167	140	558	233	166	0	4	4	
465	167	166	558	233	192	0	4	4	
465	167	192	558	233	218	0	4	4	
0	108	0	78	166	72	4	5	5	
0	108	72	78	166	144	4	5	5	
0	108	144	78	166	216	4	5	5	
78	108	0	156	166	72	4	5	5	
78	108	72	156	166	144	4	5	5	
78	108	144	156	166	216	4	5	5	
156	108	0	234	166	72	4	5	5	
156	108	72	234	166	144	4	5	5	
156	108	144	234	166	216	4	5	5	
234	108	0	312	166	72	4	5	5	
234	108	72	312	166	144	4	5	5	
234	108	144	312	166	216	4	5	5	
312	108	0	390	166	72	4	5	5	
312	108	72	390	166	144	4	5	5	
312	108	144	390	166	216	4	5	5	
390	108	0	468	166	72	4	5	5	
390	108	72	468	166	144	4	5	5	
390	108	144	468	166	216	4	5	5	
468	108	0	546	166	72	4	5	5	
468	108	72	546	166	144	4	5	5	
468	108	144	546	166	216	4	5	5	
513	0	0	550	64	72	2	6	6	
513	0	72	550	64	144	2	6	6	
513	0	144	550	64	216	2	6	6	
550	0	0	587	64	72	2	6	6	
550	0	72	587	64	144	2	6	6	
550	0	144	587	64	216	2	6	6	
513	64	0	585	101	64	2	7	7	
513	64	64	585	101	128	2	7	7	
513	64	128	585	101	192	2	7	7	
546	102	0	583	166	72	2	8	8	
546	102	72	583	166	144	2	8	8	
546	102	144	583	166	216	2	8	8	
587	0	0	680	66	26	0	9	0	
587	0	26	680	66	52	0	9	0	
681	0	0	788	57	57	3	10	0	
681	0	57	788	57	114	3	10	0	
789	0	0	867	72	58	4	11	0	
789	0	58	867	72	116	4	11	0	
