12	12	587	233	220
26897284	21086416
0	0	0	71	108	61	10	1	1	
0	0	61	71	108	122	10	1	1	
0	0	122	71	108	183	10	1	1	
71	0	0	142	108	61	10	1	1	
71	0	61	142	108	122	10	1	1	
71	0	122	142	108	183	10	1	1	
142	0	0	213	108	61	10	1	1	
142	0	61	213	108	122	10	1	1	
142	0	122	213	108	183	10	1	1	
0	174	0	97	233	75	9	2	2	
0	174	75	97	233	150	9	2	2	
97	174	0	194	233	75	9	2	2	
97	174	75	194	233	150	9	2	2	
194	174	0	291	233	75	9	2	2	
194	174	75	291	233	150	9	2	2	
291	174	0	388	233	75	9	2	2	
291	174	75	388	233	150	9	2	2	
0	112	0	77	174	85	11	3	3	
0	112	85	77	174	170	11	3	3	
77	112	0	154	174	85	11	3	3	
77	112	85	154	174	170	11	3	3	
154	112	0	231	174	85	11	3	3	
154	112	85	231	174	170	11	3	3	
231	112	0	308	174	85	11	3	3	
231	112	85	308	174	170	11	3	3	
0	0	183	63	94	215	2	4	4	
63	0	183	126	94	215	2	4	4	
126	0	183	189	94	215	2	4	4	
0	116	170	93	174	218	7	5	5	
93	116	170	186	174	218	7	5	5	
186	116	170	279	174	218	7	5	5	
0	177	150	105	233	185	3	6	6	
0	177	185	105	233	220	3	6	6	
105	177	150	210	233	185	3	6	6	
105	177	185	210	233	220	3	6	6	
210	189	150	323	233	216	5	7	7	
308	0	0	421	66	44	5	8	8	
308	0	44	421	66	88	5	8	8	
308	0	88	421	66	132	5	8	8	
308	0	132	421	66	176	5	8	8	
308	0	176	421	66	220	5	8	8	
308	66	0	421	132	44	5	8	8	
308	66	44	421	132	88	5	8	8	
308	66	88	421	132	132	5	8	8	
308	66	132	421	132	176	5	8	8	
308	66	176	421	132	220	5	8	8	
308	137	0	426	174	62	4	9	9	
308	137	62	426	174	124	4	9	9	
308	137	124	426	174	186	4	9	9	
426	137	0	544	174	62	4	9	9	
426	137	62	544	174	124	4	9	9	
426	137	124	544	174	186	4	9	9	
308	145	186	368	174	218	0	10	10	
368	145	186	428	174	218	0	10	10	
428	145	186	488	174	218	0	10	10	
323	175	150	383	204	182	0	11	11	
323	175	182	383	204	214	0	11	11	
323	204	150	383	233	182	0	11	11	
323	204	182	383	233	214	0	11	11	
213	0	0	308	54	95	8	12	12	
213	0	95	308	54	190	8	12	12	
213	54	0	308	108	95	8	12	12	
213	54	95	308	108	190	8	12	12	
213	0	190	289	76	220	1	13	13	
388	175	0	436	233	93	7	14	14	
388	175	93	436	233	186	7	14	14	
436	175	0	484	233	93	7	14	14	
436	175	93	484	233	186	7	14	14	
484	175	0	532	233	93	7	14	14	
484	175	93	532	233	186	7	14	14	
532	175	0	580	233	93	7	14	14	
532	175	93	580	233	186	7	14	14	
388	201	186	448	233	215	0	15	15	
448	201	186	508	233	215	0	15	15	
508	201	186	568	233	215	0	15	15	
421	0	0	497	76	30	1	16	16	
421	0	30	497	76	60	1	16	16	
421	0	60	497	76	90	1	16	16	
421	0	90	497	76	120	1	16	16	
421	0	120	497	76	150	1	16	16	
421	0	150	497	76	180	1	16	16	
497	0	0	573	76	30	1	16	16	
497	0	30	573	76	60	1	16	16	
497	0	60	573	76	90	1	16	16	
497	0	90	573	76	120	1	16	16	
497	0	120	573	76	150	1	16	16	
497	0	150	573	76	180	1	16	16	
421	0	180	539	62	217	4	17	17	
421	76	0	504	121	75	6	18	18	
421	76	75	504	121	150	6	18	18	
504	76	0	587	121	75	6	18	18	
504	76	75	587	121	150	6	18	18	
421	76	150	534	120	216	5	19	19	
539	0	180	571	60	209	0	20	20	
587	0	0	647	32	29	0	21	0	
648	0	0	742	63	32	2	22	0	
648	0	32	742	63	64	2	22	0	
648	0	64	742	63	96	2	22	0	
648	0	96	742	63	128	2	22	0	
648	0	128	742	63	160	2	22	0	
743	0	0	861	62	37	4	23	0	
862	0	0	975	66	44	5	24	0	
976	0	0	1059	75	45	6	25	0	
1060	0	0	1155	95	54	8	26	0	
1156	0	0	1264	71	61	10	27	0	
