5	5	587	233	220
28237132	25036756
0	0	0	61	58	32	3	1	1	
0	58	0	61	116	32	3	1	1	
0	116	0	61	174	32	3	1	1	
0	174	0	61	232	32	3	1	1	
61	0	0	122	58	32	3	1	1	
61	58	0	122	116	32	3	1	1	
61	116	0	122	174	32	3	1	1	
61	174	0	122	232	32	3	1	1	
122	0	0	183	58	32	3	1	1	
122	58	0	183	116	32	3	1	1	
122	116	0	183	174	32	3	1	1	
122	174	0	183	232	32	3	1	1	
183	0	0	244	58	32	3	1	1	
183	58	0	244	116	32	3	1	1	
183	116	0	244	174	32	3	1	1	
183	174	0	244	232	32	3	1	1	
244	0	0	305	58	32	3	1	1	
244	58	0	305	116	32	3	1	1	
244	116	0	305	174	32	3	1	1	
244	174	0	305	232	32	3	1	1	
305	0	0	366	58	32	3	1	1	
305	58	0	366	116	32	3	1	1	
305	116	0	366	174	32	3	1	1	
305	174	0	366	232	32	3	1	1	
366	0	0	427	58	32	3	1	1	
366	58	0	427	116	32	3	1	1	
366	116	0	427	174	32	3	1	1	
366	174	0	427	232	32	3	1	1	
427	0	0	488	58	32	3	1	1	
427	58	0	488	116	32	3	1	1	
427	116	0	488	174	32	3	1	1	
427	174	0	488	232	32	3	1	1	
488	0	0	549	58	32	3	1	1	
488	58	0	549	116	32	3	1	1	
488	116	0	549	174	32	3	1	1	
488	174	0	549	232	32	3	1	1	
0	0	32	61	77	124	4	2	2	
0	77	32	61	154	124	4	2	2	
0	154	32	61	231	124	4	2	2	
61	0	32	122	77	124	4	2	2	
61	77	32	122	154	124	4	2	2	
61	154	32	122	231	124	4	2	2	
122	0	32	183	77	124	4	2	2	
122	77	32	183	154	124	4	2	2	
122	154	32	183	231	124	4	2	2	
183	0	32	244	77	124	4	2	2	
183	77	32	244	154	124	4	2	2	
183	154	32	244	231	124	4	2	2	
244	0	32	305	77	124	4	2	2	
244	77	32	305	154	124	4	2	2	
244	154	32	305	231	124	4	2	2	
305	0	32	366	77	124	4	2	2	
305	77	32	366	154	124	4	2	2	
305	154	32	366	231	124	4	2	2	
366	0	32	427	77	124	4	2	2	
366	77	32	427	154	124	4	2	2	
366	154	32	427	231	124	4	2	2	
427	0	32	488	77	124	4	2	2	
427	77	32	488	154	124	4	2	2	
427	154	32	488	231	124	4	2	2	
488	0	32	549	77	124	4	2	2	
488	77	32	549	154	124	4	2	2	
488	154	32	549	231	124	4	2	2	
0	0	124	61	77	216	4	3	3	
0	77	124	61	154	216	4	3	3	
0	154	124	61	231	216	4	3	3	
61	0	124	103	77	154	2	4	4	
61	0	154	103	77	184	2	4	4	
61	0	184	103	77	214	2	4	4	
61	77	124	103	154	154	2	4	4	
61	77	154	103	154	184	2	4	4	
61	77	184	103	154	214	2	4	4	
61	154	124	103	231	154	2	4	4	
61	154	154	103	231	184	2	4	4	
61	154	184	103	231	214	2	4	4	
103	0	124	145	77	154	2	5	5	
103	0	154	145	77	184	2	5	5	
103	0	184	145	77	214	2	5	5	
103	77	124	145	154	154	2	5	5	
103	77	154	145	154	184	2	5	5	
103	77	184	145	154	214	2	5	5	
103	154	124	145	231	154	2	5	5	
103	154	154	145	231	184	2	5	5	
103	154	184	145	231	214	2	5	5	
145	0	124	187	77	154	2	6	6	
145	0	154	187	77	184	2	6	6	
145	0	184	187	77	214	2	6	6	
145	77	124	187	154	154	2	6	6	
145	77	154	187	154	184	2	6	6	
145	77	184	187	154	214	2	6	6	
145	154	124	187	231	154	2	6	6	
145	154	154	187	231	184	2	6	6	
145	154	184	187	231	214	2	6	6	
187	0	124	217	77	166	2	7	7	
187	0	166	217	77	208	2	7	7	
187	77	124	217	154	166	2	7	7	
187	77	166	217	154	208	2	7	7	
187	154	124	217	231	166	2	7	7	
187	154	166	217	231	208	2	7	7	
217	0	124	275	61	156	3	8	8	
217	0	156	275	61	188	3	8	8	
217	0	188	275	61	220	3	8	8	
217	63	124	315	91	169	1	9	9	
217	63	169	315	91	214	1	9	9	
217	91	124	315	119	169	1	9	9	
217	91	169	315	119	214	1	9	9	
217	119	124	315	147	169	1	9	9	
217	119	169	315	147	214	1	9	9	
217	147	124	315	175	169	1	9	9	
217	147	169	315	175	214	1	9	9	
217	175	124	315	203	169	1	9	9	
217	175	169	315	203	214	1	9	9	
217	203	124	315	231	169	1	9	9	
217	203	169	315	231	214	1	9	9	
275	0	124	352	61	216	4	10	10	
352	0	124	429	61	216	4	10	10	
315	63	124	413	91	169	1	11	11	
315	63	169	413	91	214	1	11	11	
315	91	124	413	119	169	1	11	11	
315	91	169	413	119	214	1	11	11	
315	119	124	413	147	169	1	11	11	
315	119	169	413	147	214	1	11	11	
315	147	124	413	175	169	1	11	11	
315	147	169	413	175	214	1	11	11	
315	175	124	413	203	169	1	11	11	
315	175	169	413	203	214	1	11	11	
315	203	124	413	231	169	1	11	11	
315	203	169	413	231	214	1	11	11	
413	173	124	440	231	168	0	12	12	
413	173	168	440	231	212	0	12	12	
440	173	124	467	231	168	0	12	12	
440	173	168	467	231	212	0	12	12	
467	173	124	494	231	168	0	12	12	
467	173	168	494	231	212	0	12	12	
494	173	124	521	231	168	0	12	12	
494	173	168	521	231	212	0	12	12	
521	173	124	548	231	168	0	12	12	
521	173	168	548	231	212	0	12	12	
413	61	124	511	89	169	1	13	13	
413	61	169	511	89	214	1	13	13	
413	89	124	511	117	169	1	13	13	
413	89	169	511	117	214	1	13	13	
413	117	124	511	145	169	1	13	13	
413	117	169	511	145	214	1	13	13	
413	145	124	511	173	169	1	13	13	
413	145	169	511	173	214	1	13	13	
429	0	124	461	61	182	3	14	14	
461	0	124	505	58	151	0	15	15	
461	0	151	505	58	178	0	15	15	
461	0	178	505	58	205	0	15	15	
505	0	124	549	58	151	0	15	15	
505	0	151	549	58	178	0	15	15	
505	0	178	549	58	205	0	15	15	
511	58	124	539	156	169	1	16	16	
511	58	169	539	156	214	1	16	16	
549	0	0	576	58	44	0	17	17	
549	0	44	576	58	88	0	17	17	
549	0	88	576	58	132	0	17	17	
549	0	132	576	58	176	0	17	17	
549	0	176	576	58	220	0	17	17	
549	58	0	576	116	44	0	17	17	
549	58	44	576	116	88	0	17	17	
549	58	88	576	116	132	0	17	17	
549	58	132	576	116	176	0	17	17	
549	58	176	576	116	220	0	17	17	
549	116	0	576	174	44	0	17	17	
549	116	44	576	174	88	0	17	17	
549	116	88	576	174	132	0	17	17	
549	116	132	576	174	176	0	17	17	
549	116	176	576	174	220	0	17	17	
549	174	0	576	232	44	0	17	17	
549	174	44	576	232	88	0	17	17	
549	174	88	576	232	132	0	17	17	
549	174	132	576	232	176	0	17	17	
549	174	176	576	232	220	0	17	17	
587	0	0	645	44	27	0	18	0	
587	0	27	645	44	54	0	18	0	
587	0	54	645	44	81	0	18	0	
646	0	0	744	45	28	1	19	0	
646	0	28	744	45	56	1	19	0	
646	0	56	744	45	84	1	19	0	
646	0	84	744	45	112	1	19	0	
646	0	112	744	45	140	1	19	0	
646	0	140	744	45	168	1	19	0	
646	0	168	744	45	196	1	19	0	
646	0	196	744	45	224	1	19	0	
745	0	0	822	42	30	2	20	0	
