MLBR_1_1_1.txt	V	29326530	VU	27768090	92.284615	m1	1.047619	m100	1.000000	m55	1.000000	mCG	1.000000	m2	13.207547	2.112000
MLBR_1_2_1.txt	V	29622293	VU	28343664	94.197481	m1	1.519231	m100	1.000000	m55	1.000000	mCG	1.000000	m2	20.454545	2.788000
MLBR_1_3_1.txt	V	29751120	VU	27392004	91.034729	m1	1.030612	m100	1.000000	m55	1.000000	mCG	1.000000	m2	4.237288	1.365000
MLBR_1_4_1.txt	V	29693238	VU	27348308	90.889509	m1	1.203008	m100	1.000000	m55	1.000000	mCG	1.000000	m2	3.267974	2.554000
MLBR_1_5_1.txt	V	29751639	VU	28436805	94.507026	m1	1.000000	m100	1.000000	m55	1.000000	mCG	1.000000	m2	13.178295	2.122000
MLBR_1_6_1.txt	V	29915730	VU	28304640	94.067788	m1	1.333333	m100	1.000000	m55	1.000000	mCG	1.000000	m2	25.563910	2.998000
MLBR_1_7_1.txt	V	29555000	VU	27653312	91.903161	m1	1.864198	m100	1.000000	m55	1.000000	mCG	1.000000	m2	9.090909	2.447000
MLBR_1_8_1.txt	V	29810470	VU	28613470	95.094155	m1	1.520325	m100	1.000000	m55	1.000000	mCG	1.000000	m2	11.042945	3.110000
MLBR_1_9_1.txt	V	29533482	VU	26418258	87.798576	m1	1.138889	m100	1.000000	m55	1.000000	mCG	1.000000	m2	14.444444	1.597000
MLBR_1_10_1.txt	V	29858832	VU	27279864	90.662042	m1	1.551282	m100	1.000000	m55	1.000000	mCG	1.000000	m2	4.761905	2.416000
MLBR_1_11_1.txt	V	29228846	VU	26705026	88.751623	m1	1.293103	m100	1.000000	m55	1.000000	mCG	1.000000	m2	8.641975	2.400000
MLBR_1_12_1.txt	V	29566528	VU	27577536	91.651327	m1	2.515152	m100	1.000000	m55	1.000000	mCG	1.000000	m2	6.382979	2.180000
MLBR_1_13_1.txt	V	29823876	VU	28995219	96.362862	m1	1.462222	m100	1.000000	m55	1.000000	mCG	1.000000	m2	1.098901	3.336000
MLBR_1_14_1.txt	V	29163432	VU	28115112	93.437910	m1	1.185185	m100	1.000000	m55	1.000000	mCG	1.000000	m2	18.604651	2.120000
MLBR_1_15_1.txt	V	29655580	VU	28557780	94.909075	m1	1.000000	m100	1.000000	m55	1.000000	mCG	1.000000	m2	3.508772	2.853000
MLBR_1_16_1.txt	V	29735753	VU	27681950	91.998337	m1	1.457143	m100	1.000000	m55	1.000000	mCG	1.000000	m2	11.034483	3.585000
MLBR_1_17_1.txt	V	29685510	VU	29041020	96.515077	m1	1.585987	m100	1.000000	m55	1.000000	mCG	1.000000	m2	5.418719	3.534000
MLBR_1_18_1.txt	V	29026388	VU	25866168	85.963758	m1	1.709091	m100	1.000000	m55	1.000000	mCG	1.000000	m2	36.000000	1.755000
MLBR_1_19_1.txt	V	29613624	VU	28433112	94.494753	m1	1.000000	m100	1.000000	m55	1.000000	mCG	1.000000	m2	9.756098	2.585000
MLBR_1_20_1.txt	V	29639727	VU	27282270	90.670038	m1	1.016667	m100	1.000000	m55	1.000000	mCG	1.000000	m2	1.219512	2.232000
MLBR_1_21_1.txt	V	29821508	VU	27999288	93.052980	m1	1.000000	m100	1.000000	m55	1.000000	mCG	1.000000	m2	8.695652	1.823000
MLBR_1_22_1.txt	V	29689816	VU	27196780	90.385920	m1	2.918033	m100	1.000000	m55	1.000000	mCG	1.000000	m2	19.811321	2.449000
MLBR_1_23_1.txt	V	29462260	VU	27581781	91.665435	m1	1.525773	m100	1.000000	m55	1.000000	mCG	1.000000	m2	16.814159	2.208000
MLBR_1_24_1.txt	V	29536420	VU	26655000	88.585366	m1	1.723077	m100	1.000000	m55	1.000000	mCG	1.000000	m2	26.732673	2.093000
MLBR_1_25_1.txt	V	29879430	VU	27991950	93.028593	m1	1.171429	m100	1.000000	m55	1.000000	mCG	1.000000	m2	7.575758	2.495000
MLBR_1_26_1.txt	V	29701770	VU	27920524	92.791215	m1	2.066667	m100	1.000000	m55	1.000000	mCG	1.000000	m2	8.695652	2.257000
MLBR_1_27_1.txt	V	29725524	VU	26676096	88.655477	m1	1.119403	m100	1.000000	m55	1.000000	mCG	1.000000	m2	6.451613	1.947000
MLBR_1_28_1.txt	V	29403842	VU	27578642	91.655003	m1	1.058824	m100	1.000000	m55	1.000000	mCG	1.000000	m2	10.309278	2.942000
MLBR_1_29_1.txt	V	29623344	VU	27658464	91.920283	m1	2.041667	m100	1.000000	m55	1.000000	mCG	1.000000	m2	9.183673	2.361000
MLBR_1_30_1.txt	V	29976352	VU	28721800	95.454180	m1	1.495522	m100	1.000000	m55	1.000000	mCG	1.000000	m2	3.108808	4.066000
MLBR_1_31_1.txt	V	29826594	VU	28046130	93.208655	m1	1.926829	m100	1.000000	m55	1.000000	mCG	1.000000	m2	11.666667	2.691000
MLBR_1_32_1.txt	V	29934804	VU	29040568	96.513575	m1	1.109244	m100	1.000000	m55	1.000000	mCG	1.000000	m2	3.333333	2.461000
MLBR_1_33_1.txt	V	29769408	VU	29075400	96.629336	m1	1.405405	m100	1.000000	m55	1.000000	mCG	1.000000	m2	3.971119	3.830000
MLBR_1_34_1.txt	V	29512518	VU	28034538	93.170130	m1	1.119266	m100	1.000000	m55	1.000000	mCG	1.000000	m2	8.823529	1.938000
MLBR_1_35_1.txt	V	29759808	VU	27881280	92.660791	m1	1.000000	m100	1.000000	m55	1.000000	mCG	1.000000	m2	10.071942	1.667000
MLBR_1_36_1.txt	V	29737064	VU	28058072	93.248343	m1	1.867769	m100	1.000000	m55	1.000000	mCG	1.000000	m2	14.285714	3.338000
MLBR_1_37_1.txt	V	29810500	VU	28305700	94.071311	m1	1.046154	m100	1.000000	m55	1.000000	mCG	1.000000	m2	11.494253	2.727000
MLBR_1_38_1.txt	V	29536260	VU	27113520	90.109214	m1	1.125000	m100	1.000000	m55	1.000000	mCG	1.000000	m2	7.228916	1.647000
MLBR_1_39_1.txt	V	29769636	VU	28746940	95.537730	m1	1.301676	m100	1.000000	m55	1.000000	mCG	1.000000	m2	5.855856	3.697000
MLBR_1_40_1.txt	V	29677651	VU	27836192	92.510946	m1	1.822785	m100	1.000000	m55	1.000000	mCG	1.000000	m2	11.000000	2.813000
MLBR_1_41_1.txt	V	29455558	VU	27948958	92.885713	m1	1.058824	m100	1.000000	m55	1.000000	mCG	1.000000	m2	16.666667	2.736000
MLBR_1_42_1.txt	V	29795840	VU	28094080	93.368012	m1	1.556522	m100	1.000000	m55	1.000000	mCG	1.000000	m2	12.987013	3.452000
MLBR_1_43_1.txt	V	29407090	VU	28294158	94.032952	m1	1.062500	m100	1.000000	m55	1.000000	mCG	1.000000	m2	6.569343	2.333000
MLBR_1_44_1.txt	V	29774726	VU	26468528	87.965644	m1	1.000000	m100	1.000000	m55	1.000000	mCG	1.000000	m2	6.451613	1.049000
MLBR_1_45_1.txt	V	29903670	VU	28592160	95.023334	m1	1.970000	m100	1.000000	m55	1.000000	mCG	1.000000	m2	5.511811	2.907000
MLBR_1_46_1.txt	V	29282538	VU	27462888	91.270305	m1	1.035714	m100	1.000000	m55	1.000000	mCG	1.000000	m2	9.433962	1.926000
MLBR_1_47_1.txt	V	29673576	VU	27678320	91.986273	m1	1.066667	m100	1.000000	m55	1.000000	mCG	1.000000	m2	14.285714	2.098000
MLBR_1_48_1.txt	V	29826230	VU	27366554	90.950148	m1	1.333333	m100	1.000000	m55	1.000000	mCG	1.000000	m2	1.418440	2.946000
MLBR_1_49_1.txt	V	29338200	VU	27582408	91.667519	m1	1.163636	m100	1.000000	m55	1.000000	mCG	1.000000	m2	7.407407	2.179000
MLBR_1_50_1.txt	V	29516790	VU	28974480	96.293938	m1	1.248062	m100	1.000000	m55	1.000000	mCG	1.000000	m2	8.484848	4.081000
MLBR_1_51_1.txt	V	29676180	VU	28608060	95.076176	m1	1.719101	m100	1.000000	m55	1.000000	mCG	1.000000	m2	19.672131	3.147000
MLBR_1_52_1.txt	V	30043392	VU	28035888	93.174616	m1	1.228571	m100	1.000000	m55	1.000000	mCG	1.000000	m2	1.694915	2.560000
MLBR_1_53_1.txt	V	29745926	VU	26094712	86.723302	m1	1.062992	m100	1.000000	m55	1.000000	mCG	1.000000	m2	20.945946	1.850000
MLBR_1_54_1.txt	V	29682748	VU	27334532	90.843726	m1	1.000000	m100	1.000000	m55	1.000000	mCG	1.000000	m2	3.100775	2.669000
MLBR_1_55_1.txt	V	29765671	VU	27035305	89.849274	m1	1.352941	m100	1.000000	m55	1.000000	mCG	1.000000	m2	9.523810	1.820000
MLBR_1_56_1.txt	V	29970010	VU	27935410	92.840687	m1	1.121118	m100	1.000000	m55	1.000000	mCG	1.000000	m2	3.385417	3.303000
MLBR_1_57_1.txt	V	29692778	VU	28498968	94.713619	m1	1.000000	m100	1.000000	m55	1.000000	mCG	1.000000	m2	5.932203	2.365000
MLBR_1_58_1.txt	V	29501847	VU	27436401	91.182278	m1	1.941176	m100	1.000000	m55	1.000000	mCG	1.000000	m2	39.743590	1.599000
MLBR_1_59_1.txt	V	29900704	VU	28935976	96.165974	m1	1.972973	m100	1.000000	m55	1.000000	mCG	1.000000	m2	2.139037	3.900000
MLBR_1_60_1.txt	V	29874375	VU	28319958	94.118696	m1	1.016393	m100	1.000000	m55	1.000000	mCG	1.000000	m2	7.142857	2.550000
MLBR_1_61_1.txt	V	29146440	VU	27999048	93.052182	m1	1.600000	m100	1.000000	m55	1.000000	mCG	1.000000	m2	34.042553	2.397000
MLBR_1_62_1.txt	V	29792740	VU	27522110	91.467124	m1	2.324675	m100	1.000000	m55	1.000000	mCG	1.000000	m2	8.256881	2.349000
MLBR_1_63_1.txt	V	29601544	VU	26845104	89.217159	m1	2.098039	m100	1.000000	m55	1.000000	mCG	1.000000	m2	35.365854	2.760000
MLBR_1_64_1.txt	V	29680092	VU	28105800	93.406962	m1	1.074074	m100	1.000000	m55	1.000000	mCG	1.000000	m2	13.636364	2.487000
MLBR_1_65_1.txt	V	30016016	VU	29060412	96.579525	m1	1.882514	m100	1.000000	m55	1.000000	mCG	1.000000	m2	3.539823	5.342000
MLBR_1_66_1.txt	V	29812416	VU	27807936	92.417039	m1	1.939759	m100	1.000000	m55	1.000000	mCG	1.000000	m2	10.937500	3.190000
MLBR_1_67_1.txt	V	29835789	VU	28292330	94.026877	m1	1.103448	m100	1.000000	m55	1.000000	mCG	1.000000	m2	8.212560	2.235000
MLBR_1_68_1.txt	V	29969040	VU	28872000	95.953355	m1	1.570652	m100	1.000000	m55	1.000000	mCG	1.000000	m2	3.930131	4.429000
MLBR_1_69_1.txt	V	29499040	VU	26818240	89.127879	m1	1.412371	m100	1.000000	m55	1.000000	mCG	1.000000	m2	10.400000	1.986000
MLBR_1_70_1.txt	V	29673088	VU	26935192	89.516558	m1	1.000000	m100	1.000000	m55	1.000000	mCG	1.000000	m2	10.294118	1.953000
MLBR_1_71_1.txt	V	29596284	VU	27281724	90.668224	m1	1.000000	m100	1.000000	m55	1.000000	mCG	1.000000	m2	5.617978	2.270000
MLBR_1_72_1.txt	V	29342780	VU	27604995	91.742584	m1	1.000000	m100	1.000000	m55	1.000000	mCG	1.000000	m2	4.761905	2.591000
MLBR_1_73_1.txt	V	29834280	VU	27579150	91.656691	m1	1.000000	m100	1.000000	m55	1.000000	mCG	1.000000	m2	7.758621	1.572000
MLBR_1_74_1.txt	V	29411392	VU	27506624	91.415658	m1	1.168675	m100	1.000000	m55	1.000000	mCG	1.000000	m2	9.909910	3.338000
MLBR_1_75_1.txt	V	29823408	VU	27860328	92.591159	m1	1.019608	m100	1.000000	m55	1.000000	mCG	1.000000	m2	11.904762	1.645000
MLBR_1_76_1.txt	V	29875524	VU	28064380	93.269307	m1	2.740331	m100	1.000000	m55	1.000000	mCG	1.000000	m2	13.043478	2.961000
MLBR_1_77_1.txt	V	29916292	VU	28263996	93.932712	m1	1.000000	m100	1.000000	m55	1.000000	mCG	1.000000	m2	3.825137	2.129000
MLBR_1_78_1.txt	V	29919348	VU	28120428	93.455577	m1	1.322835	m100	1.000000	m55	1.000000	mCG	1.000000	m2	12.258065	2.336000
MLBR_1_79_1.txt	V	29888656	VU	27975662	92.974461	m1	1.219178	m100	1.000000	m55	1.000000	mCG	1.000000	m2	8.241758	2.937000
MLBR_1_80_1.txt	V	29953920	VU	28224780	93.802381	m1	1.060606	m100	1.000000	m55	1.000000	mCG	1.000000	m2	4.800000	2.446000
MLBR_1_81_1.txt	V	29386080	VU	26315340	87.456538	m1	1.085106	m100	1.000000	m55	1.000000	mCG	1.000000	m2	10.769231	2.072000
MLBR_1_82_1.txt	V	29687610	VU	27378450	90.989683	m1	1.663636	m100	1.000000	m55	1.000000	mCG	1.000000	m2	28.000000	2.365000
MLBR_1_83_1.txt	V	29664946	VU	27641198	91.862902	m1	2.746667	m100	1.000000	m55	1.000000	mCG	1.000000	m2	4.545455	2.711000
MLBR_1_84_1.txt	V	29436096	VU	27808680	92.419512	m1	1.000000	m100	1.000000	m55	1.000000	mCG	1.000000	m2	15.384615	2.104000
MLBR_1_85_1.txt	V	30012224	VU	29028066	96.472026	m1	1.000000	m100	1.000000	m55	1.000000	mCG	1.000000	m2	2.970297	3.844000
MLBR_1_86_1.txt	V	29695686	VU	27962100	92.929389	m1	1.047619	m100	1.000000	m55	1.000000	mCG	1.000000	m2	11.594203	3.006000
MLBR_1_87_1.txt	V	29451600	VU	27870912	92.626334	m1	1.602941	m100	1.000000	m55	1.000000	mCG	1.000000	m2	1.086957	2.512000
MLBR_1_88_1.txt	V	29828808	VU	27155904	90.250073	m1	1.166667	m100	1.000000	m55	1.000000	mCG	1.000000	m2	10.714286	1.666000
MLBR_1_89_1.txt	V	29758048	VU	25788180	85.704572	m1	1.484375	m100	1.000000	m55	1.000000	mCG	1.000000	m2	20.000000	2.326000
MLBR_1_90_1.txt	V	29442015	VU	27348948	90.891636	m1	1.571429	m100	1.000000	m55	1.000000	mCG	1.000000	m2	1.190476	1.932000
MLBR_1_91_1.txt	V	29685778	VU	28851802	95.886229	m1	1.372781	m100	1.000000	m55	1.000000	mCG	1.000000	m2	4.225352	4.075000
MLBR_1_92_1.txt	V	29775048	VU	27292362	90.703578	m1	1.372881	m100	1.000000	m55	1.000000	mCG	1.000000	m2	7.594937	2.422000
MLBR_1_93_1.txt	V	29455244	VU	27983430	93.000277	m1	1.272727	m100	1.000000	m55	1.000000	mCG	1.000000	m2	6.315789	2.017000
MLBR_1_94_1.txt	V	29657394	VU	28045170	93.205464	m1	1.413793	m100	1.000000	m55	1.000000	mCG	1.000000	m2	6.611570	3.173000
MLBR_1_95_1.txt	V	29399364	VU	28026768	93.144307	m1	1.112150	m100	1.000000	m55	1.000000	mCG	1.000000	m2	5.384615	2.263000
MLBR_1_96_1.txt	V	29764340	VU	28206520	93.741696	m1	1.208633	m100	1.000000	m55	1.000000	mCG	1.000000	m2	6.626506	2.390000
MLBR_1_97_1.txt	V	29675500	VU	27452760	91.236646	m1	1.102041	m100	1.000000	m55	1.000000	mCG	1.000000	m2	4.724409	2.333000
MLBR_1_98_1.txt	V	29922404	VU	28597604	95.041426	m1	1.775000	m100	1.000000	m55	1.000000	mCG	1.000000	m2	23.008850	2.766000
MLBR_1_99_1.txt	V	29977280	VU	27921264	92.793674	m1	1.313043	m100	1.000000	m55	1.000000	mCG	1.000000	m2	0.000000	2.878000
MLBR_1_100_1.txt	V	29805906	VU	28312296	94.093232	m1	1.418919	m100	1.000000	m55	1.000000	mCG	1.000000	m2	3.015075	3.671000
MLBR_2_1_1.txt	V	29489762	VU	28230708	93.822082	m1	1.192982	m100	1.000000	m55	1.000000	mCG	1.000000	m2	12.000000	3.702000
MLBR_2_2_1.txt	V	29653084	VU	28095690	93.373363	m1	1.300000	m100	1.000000	m55	1.000000	mCG	1.000000	m2	3.883495	4.636000
MLBR_2_3_1.txt	V	29550033	VU	27446004	91.214193	m1	1.000000	m100	1.000000	m55	1.000000	mCG	1.000000	m2	5.882353	4.262000
MLBR_2_4_1.txt	V	29667638	VU	27676814	91.981268	m1	1.834532	m100	1.000000	m55	1.000000	mCG	1.000000	m2	4.891304	5.273000
MLBR_2_5_1.txt	V	29885229	VU	28367037	94.275159	m1	1.219512	m100	1.000000	m55	1.000000	mCG	1.000000	m2	12.149533	4.614000
MLBR_2_6_1.txt	V	29831884	VU	28885740	95.999019	m1	1.164948	m100	1.000000	m55	1.000000	mCG	1.000000	m2	7.407407	5.734000
MLBR_2_7_1.txt	V	29141610	VU	28369514	94.283391	m1	1.108527	m100	1.000000	m55	1.000000	mCG	1.000000	m2	13.043478	5.891000
MLBR_2_8_1.txt	V	29287996	VU	27777112	92.314599	m1	1.068966	m100	1.000000	m55	1.000000	mCG	1.000000	m2	10.526316	5.826000
MLBR_2_9_1.txt	V	29686578	VU	27386268	91.015666	m1	1.225000	m100	1.000000	m55	1.000000	mCG	1.000000	m2	11.538462	4.475000
MLBR_2_10_1.txt	V	29699218	VU	28399618	94.383439	m1	1.333333	m100	1.000000	m55	1.000000	mCG	1.000000	m2	11.764706	5.852000
MLBR_2_11_1.txt	V	29846436	VU	27419156	91.124966	m1	1.548387	m100	1.000000	m55	1.000000	mCG	1.000000	m2	10.588235	4.044000
MLBR_2_12_1.txt	V	29631344	VU	27390224	91.028813	m1	1.666667	m100	1.000000	m55	1.000000	mCG	1.000000	m2	12.000000	3.980000
MLBR_2_13_1.txt	V	29761470	VU	28419831	94.450615	m1	1.083799	m100	1.000000	m55	1.000000	mCG	1.000000	m2	3.652968	5.493000
MLBR_2_14_1.txt	V	29439768	VU	27748392	92.219151	m1	1.246154	m100	1.000000	m55	1.000000	mCG	1.000000	m2	8.333333	4.018000
MLBR_2_15_1.txt	V	29734690	VU	28538600	94.845332	m1	1.280899	m100	1.000000	m55	1.000000	mCG	1.000000	m2	7.438017	4.831000
MLBR_2_16_1.txt	V	29507411	VU	27261808	90.602035	m1	1.590476	m100	1.000000	m55	1.000000	mCG	1.000000	m2	21.917808	5.158000
MLBR_2_17_1.txt	V	29257572	VU	27839972	92.523508	m1	1.480519	m100	1.000000	m55	1.000000	mCG	1.000000	m2	21.782178	4.559000
MLBR_2_18_1.txt	V	29637486	VU	26771762	88.973413	m1	1.625000	m100	1.000000	m55	1.000000	mCG	1.000000	m2	4.494382	4.385000
MLBR_2_19_1.txt	V	29491675	VU	27851149	92.560654	m1	1.234694	m100	1.000000	m55	1.000000	mCG	1.000000	m2	11.450382	5.471000
MLBR_2_20_1.txt	V	29577413	VU	27452708	91.236473	m1	2.068182	m100	1.000000	m55	1.000000	mCG	1.000000	m2	13.207547	4.786000
MLBR_2_21_1.txt	V	29780976	VU	27399272	91.058883	m1	1.089286	m100	1.000000	m55	1.000000	mCG	1.000000	m2	24.675325	3.185000
MLBR_2_22_1.txt	V	28769680	VU	27801856	92.396833	m1	1.151515	m100	1.000000	m55	1.000000	mCG	1.000000	m2	2.105263	5.076000
MLBR_2_23_1.txt	V	29134818	VU	26680074	88.668697	m1	1.712766	m100	1.000000	m55	1.000000	mCG	1.000000	m2	40.178571	3.816000
MLBR_2_24_1.txt	V	29226532	VU	27722772	92.134005	m1	1.333333	m100	1.000000	m55	1.000000	mCG	1.000000	m2	8.988764	4.316000
MLBR_2_25_1.txt	V	29792856	VU	27861492	92.595028	m1	1.229358	m100	1.000000	m55	1.000000	mCG	1.000000	m2	8.759124	4.852000
MLBR_2_26_1.txt	V	29782852	VU	28382992	94.328184	m1	1.223077	m100	1.000000	m55	1.000000	mCG	1.000000	m2	7.547170	5.323000
MLBR_2_27_1.txt	V	29609448	VU	27857412	92.581468	m1	1.791667	m100	1.000000	m55	1.000000	mCG	1.000000	m2	24.509804	4.025000
MLBR_2_28_1.txt	V	29534544	VU	27797744	92.383167	m1	1.216867	m100	1.000000	m55	1.000000	mCG	1.000000	m2	16.666667	5.596000
MLBR_2_29_1.txt	V	29895376	VU	28506676	94.739236	m1	1.418803	m100	1.000000	m55	1.000000	mCG	1.000000	m2	29.166667	6.312000
MLBR_2_30_1.txt	V	29502224	VU	29061224	96.582223	m1	1.095238	m100	1.000000	m55	1.000000	mCG	1.000000	m2	0.534759	6.971000
MLBR_2_31_1.txt	V	29811426	VU	27637926	91.852027	m1	1.804124	m100	1.000000	m55	1.000000	mCG	1.000000	m2	13.178295	5.753000
MLBR_2_32_1.txt	V	29882878	VU	28765896	95.600729	m1	1.207207	m100	1.000000	m55	1.000000	mCG	1.000000	m2	11.194030	4.295000
MLBR_2_33_1.txt	V	28928772	VU	28369728	94.284102	m1	1.690476	m100	1.000000	m55	1.000000	mCG	1.000000	m2	7.207207	5.203000
MLBR_2_34_1.txt	V	29717348	VU	28106416	93.409009	m1	1.114035	m100	1.000000	m55	1.000000	mCG	1.000000	m2	9.459459	4.960000
MLBR_2_35_1.txt	V	29609862	VU	27963762	92.934912	m1	1.038095	m100	1.000000	m55	1.000000	mCG	1.000000	m2	6.569343	4.861000
MLBR_2_36_1.txt	V	29262359	VU	27871380	92.627890	m1	2.409836	m100	1.000000	m55	1.000000	mCG	1.000000	m2	19.780220	4.899000
MLBR_2_37_1.txt	V	29595044	VU	27941348	92.860422	m1	1.946429	m100	1.000000	m55	1.000000	mCG	1.000000	m2	5.813953	4.860000
MLBR_2_38_1.txt	V	29453118	VU	27502456	91.401806	m1	1.693548	m100	1.000000	m55	1.000000	mCG	1.000000	m2	28.000000	4.417000
MLBR_2_39_1.txt	V	30012662	VU	28310814	94.088307	m1	1.758242	m100	1.000000	m55	1.000000	mCG	1.000000	m2	7.053942	7.179000
MLBR_2_40_1.txt	V	29259841	VU	27175297	90.314524	m1	1.161290	m100	1.000000	m55	1.000000	mCG	1.000000	m2	11.904762	4.502000
MLBR_2_41_1.txt	V	28908094	VU	27527044	91.483522	m1	1.184615	m100	1.000000	m55	1.000000	mCG	1.000000	m2	20.930233	4.553000
MLBR_2_42_1.txt	V	29802523	VU	27925750	92.808583	m1	1.491071	m100	1.000000	m55	1.000000	mCG	1.000000	m2	7.382550	4.724000
MLBR_2_43_1.txt	V	29448424	VU	27437204	91.184947	m1	1.358209	m100	1.000000	m55	1.000000	mCG	1.000000	m2	25.000000	4.222000
MLBR_2_44_1.txt	V	29566008	VU	27291502	90.700720	m1	1.000000	m100	1.000000	m55	1.000000	mCG	1.000000	m2	0.000000	2.855000
MLBR_2_45_1.txt	V	29687334	VU	28117110	93.444550	m1	1.057851	m100	1.000000	m55	1.000000	mCG	1.000000	m2	10.810811	5.261000
MLBR_2_46_1.txt	V	29435496	VU	27903192	92.733614	m1	1.194030	m100	1.000000	m55	1.000000	mCG	1.000000	m2	8.602151	4.128000
MLBR_2_47_1.txt	V	29826036	VU	28135844	93.506811	m1	1.282258	m100	1.000000	m55	1.000000	mCG	1.000000	m2	9.523810	4.111000
MLBR_2_48_1.txt	V	29566506	VU	28169043	93.617144	m1	1.829545	m100	1.000000	m55	1.000000	mCG	1.000000	m2	4.687500	5.080000
MLBR_2_49_1.txt	V	29456460	VU	28196172	93.707305	m1	1.109091	m100	1.000000	m55	1.000000	mCG	1.000000	m2	9.638554	5.214000
MLBR_2_50_1.txt	V	29617270	VU	28265760	93.938574	m1	1.160714	m100	1.000000	m55	1.000000	mCG	1.000000	m2	0.694444	6.552000
MLBR_2_51_1.txt	V	29519894	VU	28249499	93.884532	m1	1.008696	m100	1.000000	m55	1.000000	mCG	1.000000	m2	6.849315	5.448000
MLBR_2_52_1.txt	V	29407724	VU	27526688	91.482338	m1	1.906667	m100	1.000000	m55	1.000000	mCG	1.000000	m2	11.827957	4.115000
MLBR_2_53_1.txt	V	29772758	VU	27417980	91.121058	m1	1.019048	m100	1.000000	m55	1.000000	mCG	1.000000	m2	12.403101	3.706000
MLBR_2_54_1.txt	V	29648044	VU	28412456	94.426104	m1	1.453608	m100	1.000000	m55	1.000000	mCG	1.000000	m2	9.774436	4.964000
MLBR_2_55_1.txt	V	29478349	VU	27445978	91.214106	m1	1.273810	m100	1.000000	m55	1.000000	mCG	1.000000	m2	18.518519	4.098000
MLBR_2_56_1.txt	V	30040774	VU	28654316	95.229903	m1	1.190141	m100	1.000000	m55	1.000000	mCG	1.000000	m2	9.302326	5.117000
MLBR_2_57_1.txt	V	29679626	VU	28365018	94.268449	m1	1.041667	m100	1.000000	m55	1.000000	mCG	1.000000	m2	15.231788	5.062000
MLBR_2_58_1.txt	V	29417445	VU	28183950	93.666686	m1	2.643836	m100	1.000000	m55	1.000000	mCG	1.000000	m2	24.000000	3.869000
MLBR_2_59_1.txt	V	29776614	VU	28569474	94.947939	m1	1.100000	m100	1.000000	m55	1.000000	mCG	1.000000	m2	1.578947	6.429000
MLBR_2_60_1.txt	V	29615471	VU	27949553	92.887690	m1	1.148148	m100	1.000000	m55	1.000000	mCG	1.000000	m2	16.037736	5.271000
MLBR_2_61_1.txt	V	29586958	VU	27736926	92.181044	m1	1.000000	m100	1.000000	m55	1.000000	mCG	1.000000	m2	13.888889	3.934000
MLBR_2_62_1.txt	V	29839770	VU	27987120	93.012541	m1	1.055556	m100	1.000000	m55	1.000000	mCG	1.000000	m2	5.882353	5.225000
MLBR_2_63_1.txt	V	29258958	VU	27387720	91.020491	m1	1.103896	m100	1.000000	m55	1.000000	mCG	1.000000	m2	9.174312	4.819000
MLBR_2_64_1.txt	V	29591994	VU	27991434	93.026878	m1	1.866667	m100	1.000000	m55	1.000000	mCG	1.000000	m2	21.296296	3.853000
MLBR_2_65_1.txt	V	29475384	VU	28228944	93.816220	m1	1.237705	m100	1.000000	m55	1.000000	mCG	1.000000	m2	11.538462	6.303000
MLBR_2_66_1.txt	V	29441262	VU	28188462	93.681682	m1	1.321839	m100	1.000000	m55	1.000000	mCG	1.000000	m2	1.639344	5.247000
MLBR_2_67_1.txt	V	29832580	VU	28254520	93.901219	m1	1.000000	m100	1.000000	m55	1.000000	mCG	1.000000	m2	8.187135	6.104000
MLBR_2_68_1.txt	V	29631210	VU	27952764	92.898362	m1	1.478261	m100	1.000000	m55	1.000000	mCG	1.000000	m2	7.758621	5.664000
MLBR_2_69_1.txt	V	29753265	VU	26855522	89.251782	m1	2.063830	m100	1.000000	m55	1.000000	mCG	1.000000	m2	25.954198	3.189000
MLBR_2_70_1.txt	V	29804124	VU	27407268	91.085457	m1	1.055556	m100	1.000000	m55	1.000000	mCG	1.000000	m2	14.285714	3.632000
MLBR_2_71_1.txt	V	29507166	VU	28291264	94.023334	m1	1.197531	m100	1.000000	m55	1.000000	mCG	1.000000	m2	7.207207	3.926000
MLBR_2_72_1.txt	V	29462615	VU	27211830	90.435938	m1	1.057692	m100	1.000000	m55	1.000000	mCG	1.000000	m2	0.000000	4.311000
MLBR_2_73_1.txt	V	29694114	VU	27938502	92.850963	m1	1.044444	m100	1.000000	m55	1.000000	mCG	1.000000	m2	8.333333	4.418000
MLBR_2_74_1.txt	V	29596472	VU	27583000	91.669486	m1	1.200000	m100	1.000000	m55	1.000000	mCG	1.000000	m2	7.079646	4.874000
MLBR_2_75_1.txt	V	29846400	VU	28147512	93.545588	m1	1.104000	m100	1.000000	m55	1.000000	mCG	1.000000	m2	6.000000	4.244000
MLBR_2_76_1.txt	V	29528704	VU	28237132	93.843432	m1	1.622222	m100	1.000000	m55	1.000000	mCG	1.000000	m2	5.142857	6.387000
MLBR_2_77_1.txt	V	29854322	VU	28080914	93.324256	m1	1.190789	m100	1.000000	m55	1.000000	mCG	1.000000	m2	6.486486	5.359000
MLBR_2_78_1.txt	V	29951876	VU	28065906	93.274378	m1	1.193548	m100	1.000000	m55	1.000000	mCG	1.000000	m2	8.938547	5.574000
MLBR_2_79_1.txt	V	29900113	VU	28868554	95.941903	m1	1.193939	m100	1.000000	m55	1.000000	mCG	1.000000	m2	17.000000	4.698000
MLBR_2_80_1.txt	V	29614826	VU	27697847	92.051169	m1	1.792683	m100	1.000000	m55	1.000000	mCG	1.000000	m2	2.777778	4.588000
MLBR_2_81_1.txt	V	29495040	VU	27821280	92.461387	m1	1.714286	m100	1.000000	m55	1.000000	mCG	1.000000	m2	13.750000	3.205000
MLBR_2_82_1.txt	V	29459578	VU	27974058	92.969130	m1	1.162162	m100	1.000000	m55	1.000000	mCG	1.000000	m2	14.598540	4.654000
MLBR_2_83_1.txt	V	29604802	VU	27709566	92.090116	m1	1.266667	m100	1.000000	m55	1.000000	mCG	1.000000	m2	11.904762	6.099000
MLBR_2_84_1.txt	V	29742906	VU	27284040	90.675921	m1	1.033333	m100	1.000000	m55	1.000000	mCG	1.000000	m2	3.846154	3.384000
MLBR_2_85_1.txt	V	29701128	VU	28798118	95.707816	m1	1.134969	m100	1.000000	m55	1.000000	mCG	1.000000	m2	5.500000	6.029000
MLBR_2_86_1.txt	V	29846243	VU	28323946	94.131950	m1	1.119266	m100	1.000000	m55	1.000000	mCG	1.000000	m2	2.112676	5.382000
MLBR_2_87_1.txt	V	29719697	VU	27829203	92.487718	m1	1.736111	m100	1.000000	m55	1.000000	mCG	1.000000	m2	12.087912	4.625000
MLBR_2_88_1.txt	V	29774602	VU	27294174	90.709600	m1	1.557895	m100	1.000000	m55	1.000000	mCG	1.000000	m2	25.000000	3.244000
MLBR_2_89_1.txt	V	29672388	VU	26258508	87.267662	m1	1.481481	m100	1.000000	m55	1.000000	mCG	1.000000	m2	13.253012	4.140000
MLBR_2_90_1.txt	V	29645391	VU	27705018	92.075001	m1	1.300000	m100	1.000000	m55	1.000000	mCG	1.000000	m2	2.702703	4.170000
MLBR_2_91_1.txt	V	29639174	VU	27688132	92.018882	m1	1.406780	m100	1.000000	m55	1.000000	mCG	1.000000	m2	12.258065	5.768000
MLBR_2_92_1.txt	V	29434964	VU	27229340	90.494131	m1	1.269231	m100	1.000000	m55	1.000000	mCG	1.000000	m2	18.666667	4.523000
MLBR_2_93_1.txt	V	30012586	VU	27684606	92.007164	m1	1.264151	m100	1.000000	m55	1.000000	mCG	1.000000	m2	7.142857	4.182000
MLBR_2_94_1.txt	V	30001020	VU	28417749	94.443695	m1	1.971429	m100	1.000000	m55	1.000000	mCG	1.000000	m2	7.051282	6.090000
MLBR_2_95_1.txt	V	29812496	VU	27805403	92.408621	m1	1.142857	m100	1.000000	m55	1.000000	mCG	1.000000	m2	8.208955	3.970000
MLBR_2_96_1.txt	V	29917900	VU	28460984	94.587383	m1	1.664596	m100	1.000000	m55	1.000000	mCG	1.000000	m2	23.809524	5.550000
MLBR_2_97_1.txt	V	29734140	VU	27791340	92.361884	m1	1.065041	m100	1.000000	m55	1.000000	mCG	1.000000	m2	10.526316	5.166000
MLBR_2_98_1.txt	V	29559072	VU	27963286	92.933330	m1	1.106383	m100	1.000000	m55	1.000000	mCG	1.000000	m2	7.751938	5.708000
MLBR_2_99_1.txt	V	29636108	VU	28613864	95.095465	m1	1.385185	m100	1.000000	m55	1.000000	mCG	1.000000	m2	2.439024	5.961000
MLBR_2_100_1.txt	V	29757338	VU	28352738	94.227637	m1	1.117647	m100	1.000000	m55	1.000000	mCG	1.000000	m2	3.200000	5.095000
MLBR_3_1_1.txt	V	29665080	VU	27841770	92.529484	m1	1.000000	m100	1.000000	m55	1.000000	mCG	1.000000	m2	19.318182	6.913000
MLBR_3_2_1.txt	V	29611848	VU	28197708	93.712410	m1	1.250000	m100	1.000000	m55	1.000000	mCG	1.000000	m2	11.538462	8.831000
MLBR_3_3_1.txt	V	29943678	VU	27757704	92.250098	m1	1.132653	m100	1.000000	m55	1.000000	mCG	1.000000	m2	4.800000	8.297000
MLBR_3_4_1.txt	V	29776540	VU	27814556	92.439040	m1	1.188406	m100	1.000000	m55	1.000000	mCG	1.000000	m2	11.695906	11.654000
MLBR_3_5_1.txt	V	29750871	VU	28265313	93.937089	m1	1.214286	m100	1.000000	m55	1.000000	mCG	1.000000	m2	13.333333	7.717000
MLBR_3_6_1.txt	V	29688720	VU	28013910	93.101575	m1	1.516484	m100	1.000000	m55	1.000000	mCG	1.000000	m2	9.302326	10.193000
MLBR_3_7_1.txt	V	29503822	VU	27793600	92.369395	m1	1.196262	m100	1.000000	m55	1.000000	mCG	1.000000	m2	10.294118	10.201000
MLBR_3_8_1.txt	V	29209130	VU	28057270	93.245677	m1	1.153846	m100	1.000000	m55	1.000000	mCG	1.000000	m2	15.151515	8.290000
MLBR_3_9_1.txt	V	29661528	VU	27516468	91.448373	m1	1.294737	m100	1.000000	m55	1.000000	mCG	1.000000	m2	10.000000	8.674000
MLBR_3_10_1.txt	V	29344958	VU	27983162	92.999386	m1	1.241135	m100	1.000000	m55	1.000000	mCG	1.000000	m2	12.209302	10.284000
MLBR_3_11_1.txt	V	29567226	VU	27892614	92.698459	m1	1.271605	m100	1.000000	m55	1.000000	mCG	1.000000	m2	21.100917	8.720000
MLBR_3_12_1.txt	V	29645768	VU	27348330	90.889583	m1	1.569231	m100	1.000000	m55	1.000000	mCG	1.000000	m2	27.777778	8.837000
MLBR_3_13_1.txt	V	29903391	VU	28715796	95.434226	m1	1.299320	m100	1.000000	m55	1.000000	mCG	1.000000	m2	7.526882	9.922000
MLBR_3_14_1.txt	V	29517864	VU	27838092	92.517260	m1	1.210526	m100	1.000000	m55	1.000000	mCG	1.000000	m2	24.242424	8.223000
MLBR_3_15_1.txt	V	29719401	VU	28125763	93.473307	m1	1.338462	m100	1.000000	m55	1.000000	mCG	1.000000	m2	10.638298	10.247000
MLBR_3_16_1.txt	V	29421657	VU	27868968	92.619874	m1	1.329412	m100	1.000000	m55	1.000000	mCG	1.000000	m2	9.243697	9.902000
MLBR_3_17_1.txt	V	29259090	VU	26992015	89.705403	m1	1.237288	m100	1.000000	m55	1.000000	mCG	1.000000	m2	10.256410	6.617000
MLBR_3_18_1.txt	V	29109569	VU	27296253	90.716510	m1	1.051724	m100	1.000000	m55	1.000000	mCG	1.000000	m2	12.500000	7.099000
MLBR_3_19_1.txt	V	29544658	VU	28549484	94.881504	m1	1.160305	m100	1.000000	m55	1.000000	mCG	1.000000	m2	13.253012	11.316000
MLBR_3_20_1.txt	V	29483635	VU	28166315	93.608078	m1	2.088889	m100	1.000000	m55	1.000000	mCG	1.000000	m2	17.600000	8.184000
MLBR_3_21_1.txt	V	29286684	VU	27176628	90.318947	m1	1.400000	m100	1.000000	m55	1.000000	mCG	1.000000	m2	26.744186	6.144000
MLBR_3_22_1.txt	V	29832618	VU	27984222	93.002909	m1	1.133333	m100	1.000000	m55	1.000000	mCG	1.000000	m2	11.881188	8.994000
MLBR_3_23_1.txt	V	29636325	VU	27372915	90.971288	m1	1.053763	m100	1.000000	m55	1.000000	mCG	1.000000	m2	12.280702	8.071000
MLBR_3_24_1.txt	V	29777712	VU	27646548	91.880682	m1	1.635135	m100	1.000000	m55	1.000000	mCG	1.000000	m2	14.851485	8.104000
MLBR_3_25_1.txt	V	29585862	VU	27516234	91.447596	m1	1.268041	m100	1.000000	m55	1.000000	mCG	1.000000	m2	10.483871	7.895000
MLBR_3_26_1.txt	V	29770956	VU	28112289	93.428528	m1	1.216981	m100	1.000000	m55	1.000000	mCG	1.000000	m2	13.793103	8.230000
MLBR_3_27_1.txt	V	29556168	VU	27364128	90.942086	m1	1.207317	m100	1.000000	m55	1.000000	mCG	1.000000	m2	12.264151	8.575000
MLBR_3_28_1.txt	V	29636060	VU	27385048	91.011611	m1	1.587629	m100	1.000000	m55	1.000000	mCG	1.000000	m2	4.580153	10.232000
MLBR_3_29_1.txt	V	29828316	VU	28179824	93.652974	m1	1.169935	m100	1.000000	m55	1.000000	mCG	1.000000	m2	2.747253	10.948000
MLBR_3_30_1.txt	V	29668475	VU	28424886	94.467414	m1	1.129032	m100	1.000000	m55	1.000000	mCG	1.000000	m2	11.564626	10.163000
MLBR_3_31_1.txt	V	29607898	VU	27998104	93.049045	m1	1.750000	m100	1.000000	m55	1.000000	mCG	1.000000	m2	12.598425	10.660000
MLBR_3_32_1.txt	V	29711233	VU	28104917	93.404028	m1	1.531250	m100	1.000000	m55	1.000000	mCG	1.000000	m2	23.255814	9.564000
MLBR_3_33_1.txt	V	29397336	VU	27876840	92.646035	m1	1.402174	m100	1.000000	m55	1.000000	mCG	1.000000	m2	11.666667	8.868000
MLBR_3_34_1.txt	V	29662992	VU	27796366	92.378588	m1	1.116667	m100	1.000000	m55	1.000000	mCG	1.000000	m2	7.843137	8.766000
MLBR_3_35_1.txt	V	29714634	VU	28152088	93.560796	m1	1.176991	m100	1.000000	m55	1.000000	mCG	1.000000	m2	5.633803	9.503000
MLBR_3_36_1.txt	V	29741390	VU	28118797	93.450157	m1	1.062500	m100	1.000000	m55	1.000000	mCG	1.000000	m2	2.912621	10.442000
MLBR_3_37_1.txt	V	29434264	VU	28261900	93.925746	m1	1.592105	m100	1.000000	m55	1.000000	mCG	1.000000	m2	24.509804	8.596000
MLBR_3_38_1.txt	V	29664156	VU	27369690	90.960570	m1	1.454545	m100	1.000000	m55	1.000000	mCG	1.000000	m2	31.111111	7.957000
MLBR_3_39_1.txt	V	29828339	VU	28422887	94.460771	m1	1.293103	m100	1.000000	m55	1.000000	mCG	1.000000	m2	11.818182	13.436000
MLBR_3_40_1.txt	V	29345183	VU	27686351	92.012963	m1	1.293103	m100	1.000000	m55	1.000000	mCG	1.000000	m2	16.455696	8.330000
MLBR_3_41_1.txt	V	29389888	VU	27587958	91.685963	m1	1.103896	m100	1.000000	m55	1.000000	mCG	1.000000	m2	14.423077	8.928000
MLBR_3_42_1.txt	V	29316105	VU	27876027	92.643333	m1	1.142857	m100	1.000000	m55	1.000000	mCG	1.000000	m2	9.016393	9.226000
MLBR_3_43_1.txt	V	29479084	VU	27389964	91.027949	m1	1.758065	m100	1.000000	m55	1.000000	mCG	1.000000	m2	37.804878	7.648000
MLBR_3_44_1.txt	V	29695209	VU	27619363	91.790335	m1	1.047170	m100	1.000000	m55	1.000000	mCG	1.000000	m2	9.160305	6.902000
MLBR_3_45_1.txt	V	29629830	VU	28352625	94.227262	m1	1.272727	m100	1.000000	m55	1.000000	mCG	1.000000	m2	13.868613	9.388000
MLBR_3_46_1.txt	V	29553658	VU	27788268	92.351675	m1	1.057143	m100	1.000000	m55	1.000000	mCG	1.000000	m2	6.862745	9.323000
MLBR_3_47_1.txt	V	29580780	VU	27905036	92.739742	m1	1.392523	m100	1.000000	m55	1.000000	mCG	1.000000	m2	3.676471	9.045000
MLBR_3_48_1.txt	V	29287492	VU	27421144	91.131573	m1	2.014085	m100	1.000000	m55	1.000000	mCG	1.000000	m2	33.673469	9.325000
MLBR_3_49_1.txt	V	29628822	VU	28317744	94.111338	m1	1.289855	m100	1.000000	m55	1.000000	mCG	1.000000	m2	11.702128	9.562000
MLBR_3_50_1.txt	V	29649026	VU	28174336	93.634735	m1	1.530612	m100	1.000000	m55	1.000000	mCG	1.000000	m2	11.811024	9.481000
MLBR_3_51_1.txt	V	29837778	VU	28449114	94.547934	m1	1.090164	m100	1.000000	m55	1.000000	mCG	1.000000	m2	14.935065	9.536000
MLBR_3_52_1.txt	V	29266816	VU	28196138	93.707192	m1	1.218182	m100	1.000000	m55	1.000000	mCG	1.000000	m2	9.489051	8.462000
MLBR_3_53_1.txt	V	29245548	VU	27739828	92.190689	m1	1.534247	m100	1.000000	m55	1.000000	mCG	1.000000	m2	28.723404	7.126000
MLBR_3_54_1.txt	V	29740098	VU	28158228	93.581202	m1	1.479675	m100	1.000000	m55	1.000000	mCG	1.000000	m2	26.875000	8.825000
MLBR_3_55_1.txt	V	29777252	VU	27744604	92.206562	m1	1.113043	m100	1.000000	m55	1.000000	mCG	1.000000	m2	8.510638	8.856000
MLBR_3_56_1.txt	V	29559448	VU	28512904	94.759934	m1	1.087719	m100	1.000000	m55	1.000000	mCG	1.000000	m2	2.427184	9.543000
MLBR_3_57_1.txt	V	29497682	VU	27676988	91.981846	m1	1.187500	m100	1.000000	m55	1.000000	mCG	1.000000	m2	6.422018	8.565000
MLBR_3_58_1.txt	V	29243402	VU	27385432	91.012888	m1	2.015873	m100	1.000000	m55	1.000000	mCG	1.000000	m2	32.098765	6.584000
MLBR_3_59_1.txt	V	29905418	VU	28311028	94.089018	m1	1.218182	m100	1.000000	m55	1.000000	mCG	1.000000	m2	7.881773	12.238000
MLBR_3_60_1.txt	V	29826321	VU	27482181	91.334424	m1	1.561644	m100	1.000000	m55	1.000000	mCG	1.000000	m2	13.725490	9.318000
MLBR_3_61_1.txt	V	29431912	VU	27984688	93.004458	m1	1.309091	m100	1.000000	m55	1.000000	mCG	1.000000	m2	9.638554	8.502000
MLBR_3_62_1.txt	V	29894118	VU	28297454	94.043906	m1	1.962500	m100	1.000000	m55	1.000000	mCG	1.000000	m2	10.576923	9.836000
MLBR_3_63_1.txt	V	29284886	VU	27421308	91.132118	m1	1.654321	m100	1.000000	m55	1.000000	mCG	1.000000	m2	17.757009	10.154000
MLBR_3_64_1.txt	V	29814608	VU	27772568	92.299497	m1	1.455556	m100	1.000000	m55	1.000000	mCG	1.000000	m2	36.585366	8.811000
MLBR_3_65_1.txt	V	29383576	VU	28208820	93.749339	m1	1.412371	m100	1.000000	m55	1.000000	mCG	1.000000	m2	8.396947	11.140000
MLBR_3_66_1.txt	V	29623961	VU	28208782	93.749213	m1	1.231884	m100	1.000000	m55	1.000000	mCG	1.000000	m2	14.285714	8.971000
MLBR_3_67_1.txt	V	29866583	VU	27922107	92.796476	m1	1.049180	m100	1.000000	m55	1.000000	mCG	1.000000	m2	9.493671	9.888000
MLBR_3_68_1.txt	V	29158394	VU	27988674	93.017705	m1	1.209302	m100	1.000000	m55	1.000000	mCG	1.000000	m2	6.140351	11.567000
MLBR_3_69_1.txt	V	29587656	VU	27514105	91.440520	m1	1.593496	m100	1.000000	m55	1.000000	mCG	1.000000	m2	19.867550	8.142000
MLBR_3_70_1.txt	V	29795874	VU	27627896	91.818694	m1	1.108108	m100	1.000000	m55	1.000000	mCG	1.000000	m2	15.463918	6.951000
MLBR_3_71_1.txt	V	29641562	VU	28007996	93.081920	m1	1.941176	m100	1.000000	m55	1.000000	mCG	1.000000	m2	9.243697	9.385000
MLBR_3_72_1.txt	V	29260092	VU	27552714	91.568833	m1	1.106383	m100	1.000000	m55	1.000000	mCG	1.000000	m2	9.677419	11.203000
MLBR_3_73_1.txt	V	29692881	VU	27635823	91.845038	m1	1.152778	m100	1.000000	m55	1.000000	mCG	1.000000	m2	6.185567	8.340000
MLBR_3_74_1.txt	V	29473822	VU	27783340	92.335297	m1	1.078947	m100	1.000000	m55	1.000000	mCG	1.000000	m2	21.782178	8.164000
MLBR_3_75_1.txt	V	29694393	VU	28118976	93.450751	m1	1.101010	m100	1.000000	m55	1.000000	mCG	1.000000	m2	18.110236	9.193000
MLBR_3_76_1.txt	V	29304548	VU	28307944	94.078769	m1	1.336449	m100	1.000000	m55	1.000000	mCG	1.000000	m2	12.408759	10.224000
MLBR_3_77_1.txt	V	29873502	VU	28085171	93.338404	m1	1.517730	m100	1.000000	m55	1.000000	mCG	1.000000	m2	8.994709	10.736000
MLBR_3_78_1.txt	V	29726182	VU	28005112	93.072335	m1	1.342857	m100	1.000000	m55	1.000000	mCG	1.000000	m2	18.439716	9.292000
MLBR_3_79_1.txt	V	29882390	VU	28547211	94.873950	m1	1.377622	m100	1.000000	m55	1.000000	mCG	1.000000	m2	10.555556	9.101000
MLBR_3_80_1.txt	V	29723706	VU	28010054	93.088760	m1	1.181818	m100	1.000000	m55	1.000000	mCG	1.000000	m2	17.475728	8.783000
MLBR_3_81_1.txt	V	29576160	VU	27984600	93.004166	m1	1.222222	m100	1.000000	m55	1.000000	mCG	1.000000	m2	8.108108	8.080000
MLBR_3_82_1.txt	V	29489710	VU	28330356	94.153253	m1	1.200000	m100	1.000000	m55	1.000000	mCG	1.000000	m2	9.638554	9.306000
MLBR_3_83_1.txt	V	29833362	VU	27831670	92.495917	m1	1.637363	m100	1.000000	m55	1.000000	mCG	1.000000	m2	9.600000	9.776000
MLBR_3_84_1.txt	V	29348502	VU	27066848	89.954104	m1	1.507692	m100	1.000000	m55	1.000000	mCG	1.000000	m2	8.988764	6.552000
MLBR_3_85_1.txt	V	29751155	VU	28289339	94.016937	m1	1.533333	m100	1.000000	m55	1.000000	mCG	1.000000	m2	26.086957	9.977000
MLBR_3_86_1.txt	V	29537793	VU	27907176	92.746854	m1	1.141593	m100	1.000000	m55	1.000000	mCG	1.000000	m2	7.638889	11.509000
MLBR_3_87_1.txt	V	29279011	VU	28047677	93.213796	m1	1.476744	m100	1.000000	m55	1.000000	mCG	1.000000	m2	14.912281	9.580000
MLBR_3_88_1.txt	V	29735124	VU	27804306	92.404976	m1	1.364407	m100	1.000000	m55	1.000000	mCG	1.000000	m2	8.917197	7.536000
MLBR_3_89_1.txt	V	29833058	VU	27049694	89.897094	m1	1.189655	m100	1.000000	m55	1.000000	mCG	1.000000	m2	16.250000	9.024000
MLBR_3_90_1.txt	V	29607885	VU	27624450	91.807241	m1	1.400000	m100	1.000000	m55	1.000000	mCG	1.000000	m2	35.526316	7.421000
MLBR_3_91_1.txt	V	29726180	VU	28471030	94.620770	m1	1.568345	m100	1.000000	m55	1.000000	mCG	1.000000	m2	5.202312	11.842000
MLBR_3_92_1.txt	V	29561774	VU	28273326	93.963719	m1	1.303030	m100	1.000000	m55	1.000000	mCG	1.000000	m2	8.791209	8.032000
MLBR_3_93_1.txt	V	29439710	VU	27526436	91.481501	m1	1.279070	m100	1.000000	m55	1.000000	mCG	1.000000	m2	10.144928	7.420000
MLBR_3_94_1.txt	V	29930859	VU	28157931	93.580215	m1	1.843137	m100	1.000000	m55	1.000000	mCG	1.000000	m2	9.489051	12.540000
MLBR_3_95_1.txt	V	29656077	VU	27986898	93.011803	m1	1.120301	m100	1.000000	m55	1.000000	mCG	1.000000	m2	9.090909	8.817000
MLBR_3_96_1.txt	V	29899934	VU	28465286	94.601680	m1	1.171429	m100	1.000000	m55	1.000000	mCG	1.000000	m2	8.988764	9.968000
MLBR_3_97_1.txt	V	29690760	VU	27784868	92.340375	m1	1.126050	m100	1.000000	m55	1.000000	mCG	1.000000	m2	1.324503	9.933000
MLBR_3_98_1.txt	V	29941262	VU	28074490	93.302906	m1	1.151163	m100	1.000000	m55	1.000000	mCG	1.000000	m2	4.310345	11.218000
MLBR_3_99_1.txt	V	29437784	VU	28094724	93.370152	m1	1.176471	m100	1.000000	m55	1.000000	mCG	1.000000	m2	26.666667	8.739000
MLBR_3_100_1.txt	V	29568174	VU	28261162	93.923293	m1	1.129032	m100	1.000000	m55	1.000000	mCG	1.000000	m2	18.852459	10.087000
MLBR_4_1_1.txt	V	28500830	VU	27414044	91.107977	m1	1.275000	m100	1.000000	m55	1.000000	mCG	1.000000	m2	16.000000	9.224000
MLBR_4_2_1.txt	V	29255619	VU	28108577	93.416191	m1	1.191011	m100	1.000000	m55	1.000000	mCG	1.000000	m2	18.421053	13.216000
MLBR_4_3_1.txt	V	29724699	VU	27809569	92.422467	m1	1.401961	m100	1.000000	m55	1.000000	mCG	1.000000	m2	16.666667	11.900000
MLBR_4_4_1.txt	V	29681893	VU	27775426	92.308996	m1	1.889706	m100	1.000000	m55	1.000000	mCG	1.000000	m2	16.770186	15.693000
MLBR_4_5_1.txt	V	29585589	VU	28441883	94.523902	m1	1.369565	m100	1.000000	m55	1.000000	mCG	1.000000	m2	10.084034	12.401000
MLBR_4_6_1.txt	V	29778428	VU	27603828	91.738706	m1	1.963855	m100	1.000000	m55	1.000000	mCG	1.000000	m2	18.333333	14.275000
MLBR_4_7_1.txt	V	29658482	VU	27419670	91.126674	m1	1.474747	m100	1.000000	m55	1.000000	mCG	1.000000	m2	20.491803	12.684000
MLBR_4_8_1.txt	V	29706791	VU	27493573	91.372284	m1	1.121622	m100	1.000000	m55	1.000000	mCG	1.000000	m2	9.473684	10.986000
MLBR_4_9_1.txt	V	29448073	VU	27690433	92.026529	m1	1.055046	m100	1.000000	m55	1.000000	mCG	1.000000	m2	7.913669	14.137000
MLBR_4_10_1.txt	V	29639938	VU	27874762	92.639129	m1	1.419355	m100	1.000000	m55	1.000000	mCG	1.000000	m2	14.516129	13.054000
MLBR_4_11_1.txt	V	29379709	VU	27546549	91.548345	m1	1.593023	m100	1.000000	m55	1.000000	mCG	1.000000	m2	20.689655	10.624000
MLBR_4_12_1.txt	V	29689854	VU	27801742	92.396454	m1	1.394366	m100	1.000000	m55	1.000000	mCG	1.000000	m2	15.306122	12.268000
MLBR_4_13_1.txt	V	29841455	VU	28047419	93.212939	m1	1.511811	m100	1.000000	m55	1.000000	mCG	1.000000	m2	8.917197	12.847000
MLBR_4_14_1.txt	V	29643576	VU	27935092	92.839630	m1	1.266667	m100	1.000000	m55	1.000000	mCG	1.000000	m2	24.489796	12.420000
MLBR_4_15_1.txt	V	29571252	VU	28158072	93.580683	m1	1.311475	m100	1.000000	m55	1.000000	mCG	1.000000	m2	9.677419	12.850000
MLBR_4_16_1.txt	V	29699757	VU	27444306	91.208550	m1	1.361702	m100	1.000000	m55	1.000000	mCG	1.000000	m2	12.096774	14.151000
MLBR_4_17_1.txt	V	29031084	VU	26831543	89.172090	m1	1.409836	m100	1.000000	m55	1.000000	mCG	1.000000	m2	25.301205	10.485000
MLBR_4_18_1.txt	V	28921994	VU	27429242	91.158486	m1	1.377778	m100	1.000000	m55	1.000000	mCG	1.000000	m2	26.865672	9.496000
MLBR_4_19_1.txt	V	29645669	VU	28253315	93.897214	m1	1.515789	m100	1.000000	m55	1.000000	mCG	1.000000	m2	10.833333	15.825000
MLBR_4_20_1.txt	V	29561815	VU	27948227	92.883283	m1	1.247423	m100	1.000000	m55	1.000000	mCG	1.000000	m2	2.439024	12.010000
MLBR_4_21_1.txt	V	29214428	VU	27399916	91.061024	m1	1.461538	m100	1.000000	m55	1.000000	mCG	1.000000	m2	26.666667	8.733000
MLBR_4_22_1.txt	V	29964178	VU	27892424	92.697827	m1	1.171429	m100	1.000000	m55	1.000000	mCG	1.000000	m2	17.346939	11.204000
MLBR_4_23_1.txt	V	28430212	VU	27677241	91.982687	m1	1.222222	m100	1.000000	m55	1.000000	mCG	1.000000	m2	17.045455	10.734000
MLBR_4_24_1.txt	V	29903540	VU	27185136	90.347223	m1	1.176471	m100	1.000000	m55	1.000000	mCG	1.000000	m2	7.751938	9.062000
MLBR_4_25_1.txt	V	29718000	VU	27774030	92.304356	m1	1.119565	m100	1.000000	m55	1.000000	mCG	1.000000	m2	3.305785	11.867000
MLBR_4_26_1.txt	V	29981633	VU	27905315	92.740669	m1	1.379032	m100	1.000000	m55	1.000000	mCG	1.000000	m2	18.243243	10.751000
MLBR_4_27_1.txt	V	29201692	VU	27691276	92.029331	m1	1.415730	m100	1.000000	m55	1.000000	mCG	1.000000	m2	39.285714	11.698000
MLBR_4_28_1.txt	V	29891773	VU	27882641	92.665314	m1	1.108527	m100	1.000000	m55	1.000000	mCG	1.000000	m2	16.564417	14.518000
MLBR_4_29_1.txt	V	29596620	VU	27930468	92.824263	m1	1.197917	m100	1.000000	m55	1.000000	mCG	1.000000	m2	12.820513	13.406000
MLBR_4_30_1.txt	V	29603013	VU	28439305	94.515335	m1	1.208333	m100	1.000000	m55	1.000000	mCG	1.000000	m2	9.859155	13.552000
MLBR_4_31_1.txt	V	29759134	VU	27509610	91.425581	m1	1.406250	m100	1.000000	m55	1.000000	mCG	1.000000	m2	8.396947	12.719000
MLBR_4_32_1.txt	V	29773583	VU	27954633	92.904573	m1	1.377358	m100	1.000000	m55	1.000000	mCG	1.000000	m2	12.056738	13.885000
MLBR_4_33_1.txt	V	29418879	VU	27977724	92.981314	m1	1.782178	m100	1.000000	m55	1.000000	mCG	1.000000	m2	32.520325	14.584000
MLBR_4_34_1.txt	V	29680720	VU	27491920	91.366790	m1	1.677083	m100	1.000000	m55	1.000000	mCG	1.000000	m2	22.314050	11.468000
MLBR_4_35_1.txt	V	29670918	VU	27895514	92.708097	m1	1.115385	m100	1.000000	m55	1.000000	mCG	1.000000	m2	12.230216	11.928000
MLBR_4_36_1.txt	V	29849484	VU	28028504	93.150076	m1	1.358696	m100	1.000000	m55	1.000000	mCG	1.000000	m2	10.655738	15.156000
MLBR_4_37_1.txt	V	29287884	VU	28112048	93.427727	m1	1.550000	m100	1.000000	m55	1.000000	mCG	1.000000	m2	24.615385	13.278000
MLBR_4_38_1.txt	V	29665208	VU	27319558	90.793962	m1	1.256757	m100	1.000000	m55	1.000000	mCG	1.000000	m2	15.238095	11.249000
MLBR_4_39_1.txt	V	29959955	VU	28145307	93.538260	m1	1.611429	m100	1.000000	m55	1.000000	mCG	1.000000	m2	10.747664	18.509000
MLBR_4_40_1.txt	V	29747285	VU	27208577	90.425127	m1	1.117647	m100	1.000000	m55	1.000000	mCG	1.000000	m2	10.869565	11.499000
MLBR_4_41_1.txt	V	29531568	VU	27666688	91.947615	m1	1.144737	m100	1.000000	m55	1.000000	mCG	1.000000	m2	7.843137	11.243000
MLBR_4_42_1.txt	V	29582884	VU	27319664	90.794314	m1	1.506494	m100	1.000000	m55	1.000000	mCG	1.000000	m2	16.666667	13.520000
MLBR_4_43_1.txt	V	29522402	VU	27449446	91.225632	m1	1.131148	m100	1.000000	m55	1.000000	mCG	1.000000	m2	26.829268	9.085000
MLBR_4_44_1.txt	V	29833317	VU	27264480	90.610915	m1	1.123711	m100	1.000000	m55	1.000000	mCG	1.000000	m2	12.096774	9.060000
MLBR_4_45_1.txt	V	29950484	VU	27876247	92.644065	m1	1.275229	m100	1.000000	m55	1.000000	mCG	1.000000	m2	13.013699	12.289000
MLBR_4_46_1.txt	V	29683079	VU	27731693	92.163653	m1	1.155172	m100	1.000000	m55	1.000000	mCG	1.000000	m2	12.941176	10.653000
MLBR_4_47_1.txt	V	29581900	VU	27469900	91.293609	m1	1.347368	m100	1.000000	m55	1.000000	mCG	1.000000	m2	6.299213	11.683000
MLBR_4_48_1.txt	V	29441726	VU	27812488	92.432168	m1	1.550725	m100	1.000000	m55	1.000000	mCG	1.000000	m2	10.891089	12.596000
MLBR_4_49_1.txt	V	29434387	VU	28007831	93.081372	m1	1.194805	m100	1.000000	m55	1.000000	mCG	1.000000	m2	13.131313	11.536000
MLBR_4_50_1.txt	V	29614266	VU	28146786	93.543175	m1	1.178295	m100	1.000000	m55	1.000000	mCG	1.000000	m2	13.207547	13.485000
MLBR_4_51_1.txt	V	29849088	VU	28236861	93.842531	m1	1.314286	m100	1.000000	m55	1.000000	mCG	1.000000	m2	10.982659	14.032000
MLBR_4_52_1.txt	V	29380760	VU	27951928	92.895583	m1	1.893805	m100	1.000000	m55	1.000000	mCG	1.000000	m2	10.218978	11.988000
MLBR_4_53_1.txt	V	29209576	VU	28118950	93.450665	m1	1.417910	m100	1.000000	m55	1.000000	mCG	1.000000	m2	25.842697	10.597000
MLBR_4_54_1.txt	V	29752908	VU	27871887	92.629575	m1	1.306452	m100	1.000000	m55	1.000000	mCG	1.000000	m2	3.680982	12.115000
MLBR_4_55_1.txt	V	29628308	VU	27854816	92.572841	m1	1.247619	m100	1.000000	m55	1.000000	mCG	1.000000	m2	11.627907	12.404000
MLBR_4_56_1.txt	V	29626632	VU	29001990	96.385365	m1	1.245810	m100	1.000000	m55	1.000000	mCG	1.000000	m2	8.108108	13.465000
MLBR_4_57_1.txt	V	29280273	VU	27751248	92.228642	m1	1.183099	m100	1.000000	m55	1.000000	mCG	1.000000	m2	16.304348	11.371000
MLBR_4_58_1.txt	V	29292352	VU	27364425	90.943073	m1	1.693333	m100	1.000000	m55	1.000000	mCG	1.000000	m2	27.272727	9.968000
MLBR_4_59_1.txt	V	29934223	VU	27878485	92.651502	m1	1.423077	m100	1.000000	m55	1.000000	mCG	1.000000	m2	13.513514	16.702000
MLBR_4_60_1.txt	V	29690843	VU	27500003	91.393653	m1	1.172043	m100	1.000000	m55	1.000000	mCG	1.000000	m2	11.304348	13.497000
MLBR_4_61_1.txt	V	29406082	VU	27989254	93.019633	m1	1.487805	m100	1.000000	m55	1.000000	mCG	1.000000	m2	16.814159	13.265000
MLBR_4_62_1.txt	V	29334043	VU	27752359	92.232335	m1	1.483871	m100	1.000000	m55	1.000000	mCG	1.000000	m2	10.924370	13.717000
MLBR_4_63_1.txt	V	29904874	VU	27618432	91.787241	m1	1.696970	m100	1.000000	m55	1.000000	mCG	1.000000	m2	38.372093	12.614000
MLBR_4_64_1.txt	V	29301782	VU	27651288	91.896435	m1	1.376471	m100	1.000000	m55	1.000000	mCG	1.000000	m2	16.814159	11.720000
MLBR_4_65_1.txt	V	29833588	VU	28243288	93.863891	m1	1.336538	m100	1.000000	m55	1.000000	mCG	1.000000	m2	16.428571	14.391000
MLBR_4_66_1.txt	V	29983321	VU	28150441	93.555322	m1	1.532258	m100	1.000000	m55	1.000000	mCG	1.000000	m2	15.730337	12.979000
MLBR_4_67_1.txt	V	29753517	VU	27563052	91.603191	m1	1.333333	m100	1.000000	m55	1.000000	mCG	1.000000	m2	18.709677	12.579000
MLBR_4_68_1.txt	V	29404084	VU	27978484	92.983840	m1	1.116883	m100	1.000000	m55	1.000000	mCG	1.000000	m2	13.131313	13.925000
MLBR_4_69_1.txt	V	29731075	VU	27412090	91.101483	m1	1.137615	m100	1.000000	m55	1.000000	mCG	1.000000	m2	10.447761	10.049000
MLBR_4_70_1.txt	V	29520772	VU	27591400	91.697403	m1	1.079545	m100	1.000000	m55	1.000000	mCG	1.000000	m2	18.348624	11.412000
MLBR_4_71_1.txt	V	29871810	VU	27837495	92.515276	m1	1.318681	m100	1.000000	m55	1.000000	mCG	1.000000	m2	8.000000	13.699000
MLBR_4_72_1.txt	V	29636479	VU	27536129	91.513715	m1	1.564706	m100	1.000000	m55	1.000000	mCG	1.000000	m2	20.353982	14.122000
MLBR_4_73_1.txt	V	29696745	VU	27548791	91.555796	m1	1.154930	m100	1.000000	m55	1.000000	mCG	1.000000	m2	8.910891	11.948000
MLBR_4_74_1.txt	V	29470620	VU	26947464	89.557342	m1	1.084746	m100	1.000000	m55	1.000000	mCG	1.000000	m2	21.518987	10.612000
MLBR_4_75_1.txt	V	29423322	VU	27619656	91.791309	m1	1.513514	m100	1.000000	m55	1.000000	mCG	1.000000	m2	10.071942	13.344000
MLBR_4_76_1.txt	V	29768440	VU	28168844	93.616483	m1	1.625000	m100	1.000000	m55	1.000000	mCG	1.000000	m2	12.037037	12.969000
MLBR_4_77_1.txt	V	29582882	VU	27631639	91.831133	m1	1.648276	m100	1.000000	m55	1.000000	mCG	1.000000	m2	8.187135	12.408000
MLBR_4_78_1.txt	V	29782260	VU	27535560	91.511824	m1	1.286957	m100	1.000000	m55	1.000000	mCG	1.000000	m2	9.722222	11.311000
MLBR_4_79_1.txt	V	29802346	VU	28166292	93.608002	m1	1.240964	m100	1.000000	m55	1.000000	mCG	1.000000	m2	8.163265	13.880000
MLBR_4_80_1.txt	V	29842955	VU	27430122	91.161410	m1	1.233333	m100	1.000000	m55	1.000000	mCG	1.000000	m2	16.101695	10.654000
MLBR_4_81_1.txt	V	29586528	VU	27755472	92.242680	m1	1.111111	m100	1.000000	m55	1.000000	mCG	1.000000	m2	19.791667	12.252000
MLBR_4_82_1.txt	V	29273001	VU	27765057	92.274535	m1	1.067797	m100	1.000000	m55	1.000000	mCG	1.000000	m2	15.972222	10.876000
MLBR_4_83_1.txt	V	29808713	VU	27503943	91.406748	m1	1.454545	m100	1.000000	m55	1.000000	mCG	1.000000	m2	36.974790	14.402000
MLBR_4_84_1.txt	V	29138368	VU	27109696	90.096505	m1	1.663043	m100	1.000000	m55	1.000000	mCG	1.000000	m2	27.192982	10.513000
MLBR_4_85_1.txt	V	29439689	VU	27887273	92.680708	m1	1.322222	m100	1.000000	m55	1.000000	mCG	1.000000	m2	15.652174	12.154000
MLBR_4_86_1.txt	V	29666087	VU	27657725	91.917827	m1	1.299145	m100	1.000000	m55	1.000000	mCG	1.000000	m2	17.021277	13.407000
MLBR_4_87_1.txt	V	29244055	VU	27820703	92.459469	m1	1.417722	m100	1.000000	m55	1.000000	mCG	1.000000	m2	16.494845	11.309000
MLBR_4_88_1.txt	V	29763768	VU	27457402	91.252073	m1	1.500000	m100	1.000000	m55	1.000000	mCG	1.000000	m2	27.672956	10.741000
MLBR_4_89_1.txt	V	29666132	VU	27084842	90.013905	m1	1.393939	m100	1.000000	m55	1.000000	mCG	1.000000	m2	12.941176	11.586000
MLBR_4_90_1.txt	V	29249283	VU	27465123	91.277733	m1	1.322581	m100	1.000000	m55	1.000000	mCG	1.000000	m2	17.241379	10.917000
MLBR_4_91_1.txt	V	29623813	VU	28077993	93.314548	m1	1.422222	m100	1.000000	m55	1.000000	mCG	1.000000	m2	7.086614	15.121000
MLBR_4_92_1.txt	V	29200619	VU	27673553	91.970430	m1	1.231884	m100	1.000000	m55	1.000000	mCG	1.000000	m2	17.045455	10.334000
MLBR_4_93_1.txt	V	29470970	VU	27102190	90.071560	m1	1.190476	m100	1.000000	m55	1.000000	mCG	1.000000	m2	15.384615	10.286000
MLBR_4_94_1.txt	V	29557620	VU	27948012	92.882569	m1	1.206522	m100	1.000000	m55	1.000000	mCG	1.000000	m2	11.811024	16.743000
MLBR_4_95_1.txt	V	29722970	VU	27926036	92.809534	m1	1.069930	m100	1.000000	m55	1.000000	mCG	1.000000	m2	2.906977	10.588000
MLBR_4_96_1.txt	V	29755500	VU	28117968	93.447401	m1	1.313725	m100	1.000000	m55	1.000000	mCG	1.000000	m2	24.626866	13.032000
MLBR_4_97_1.txt	V	29363968	VU	27750800	92.227153	m1	1.116505	m100	1.000000	m55	1.000000	mCG	1.000000	m2	17.692308	10.795000
MLBR_4_98_1.txt	V	29476912	VU	27710808	92.094244	m1	1.500000	m100	1.000000	m55	1.000000	mCG	1.000000	m2	10.576923	17.106000
MLBR_4_99_1.txt	V	29789237	VU	27969522	92.954055	m1	1.152174	m100	1.000000	m55	1.000000	mCG	1.000000	m2	7.438017	12.523000
MLBR_4_100_1.txt	V	29775820	VU	27996650	93.044213	m1	1.232759	m100	1.000000	m55	1.000000	mCG	1.000000	m2	24.817518	14.529000
MLBR_5_1_1.txt	V	29292534	VU	27364734	90.944100	m1	1.217391	m100	1.000000	m55	1.000000	mCG	1.000000	m2	19.318182	12.594000
MLBR_5_2_1.txt	V	29258617	VU	27815829	92.443271	m1	1.349057	m100	1.000000	m55	1.000000	mCG	1.000000	m2	19.847328	16.587000
MLBR_5_3_1.txt	V	29692820	VU	26996962	89.721844	m1	1.411111	m100	1.000000	m55	1.000000	mCG	1.000000	m2	24.576271	16.226000
MLBR_5_4_1.txt	V	29552099	VU	27907651	92.748433	m1	1.210000	m100	1.000000	m55	1.000000	mCG	1.000000	m2	9.230769	16.280000
MLBR_5_5_1.txt	V	29668027	VU	27886894	92.679449	m1	1.113636	m100	1.000000	m55	1.000000	mCG	1.000000	m2	9.565217	15.879000
MLBR_5_6_1.txt	V	29800064	VU	27519534	91.458563	m1	1.131868	m100	1.000000	m55	1.000000	mCG	1.000000	m2	12.598425	18.736000
MLBR_5_7_1.txt	V	29709068	VU	27399247	91.058800	m1	1.250000	m100	1.000000	m55	1.000000	mCG	1.000000	m2	28.813559	16.127000
MLBR_5_8_1.txt	V	29064560	VU	27353484	90.906711	m1	1.303030	m100	1.000000	m55	1.000000	mCG	1.000000	m2	16.091954	12.772000
MLBR_5_9_1.txt	V	29559265	VU	27913758	92.768729	m1	1.446809	m100	1.000000	m55	1.000000	mCG	1.000000	m2	28.455285	15.536000
MLBR_5_10_1.txt	V	29456788	VU	27395116	91.045071	m1	1.580645	m100	1.000000	m55	1.000000	mCG	1.000000	m2	18.333333	15.559000
MLBR_5_11_1.txt	V	29809776	VU	27585532	91.677901	m1	1.128713	m100	1.000000	m55	1.000000	mCG	1.000000	m2	22.656250	15.340000
MLBR_5_12_1.txt	V	29876032	VU	27562583	91.601632	m1	1.236111	m100	1.000000	m55	1.000000	mCG	1.000000	m2	9.090909	14.516000
MLBR_5_13_1.txt	V	29755598	VU	27873342	92.634410	m1	1.384106	m100	1.000000	m55	1.000000	mCG	1.000000	m2	5.820106	16.777000
MLBR_5_14_1.txt	V	29640642	VU	27690500	92.026752	m1	1.375000	m100	1.000000	m55	1.000000	mCG	1.000000	m2	25.000000	17.105000
MLBR_5_15_1.txt	V	29230291	VU	27535841	91.512758	m1	1.346667	m100	1.000000	m55	1.000000	mCG	1.000000	m2	18.367347	18.405000
MLBR_5_16_1.txt	V	29569297	VU	27473966	91.307122	m1	1.181818	m100	1.000000	m55	1.000000	mCG	1.000000	m2	13.725490	15.815000
MLBR_5_17_1.txt	V	29176668	VU	27395323	91.045759	m1	1.217949	m100	1.000000	m55	1.000000	mCG	1.000000	m2	7.920792	13.959000
MLBR_5_18_1.txt	V	29279228	VU	27267788	90.621909	m1	1.275862	m100	1.000000	m55	1.000000	mCG	1.000000	m2	11.688312	12.709000
MLBR_5_19_1.txt	V	29688267	VU	27938637	92.851412	m1	1.137255	m100	1.000000	m55	1.000000	mCG	1.000000	m2	12.307692	18.235000
MLBR_5_20_1.txt	V	29378881	VU	27763628	92.269786	m1	1.500000	m100	1.000000	m55	1.000000	mCG	1.000000	m2	14.062500	15.789000
MLBR_5_21_1.txt	V	29788514	VU	27569886	91.625903	m1	1.216495	m100	1.000000	m55	1.000000	mCG	1.000000	m2	13.043478	12.047000
MLBR_5_22_1.txt	V	29735986	VU	27898655	92.718535	m1	1.282051	m100	1.000000	m55	1.000000	mCG	1.000000	m2	13.207547	15.433000
MLBR_5_23_1.txt	V	29415459	VU	27582334	91.667273	m1	1.222222	m100	1.000000	m55	1.000000	mCG	1.000000	m2	14.615385	13.667000
MLBR_5_24_1.txt	V	29721884	VU	27078536	89.992948	m1	1.202899	m100	1.000000	m55	1.000000	mCG	1.000000	m2	18.750000	12.282000
MLBR_5_25_1.txt	V	29570591	VU	27109073	90.094435	m1	1.099010	m100	1.000000	m55	1.000000	mCG	1.000000	m2	17.968750	14.960000
MLBR_5_26_1.txt	V	29826381	VU	27478000	91.320528	m1	1.615385	m100	1.000000	m55	1.000000	mCG	1.000000	m2	19.594595	16.791000
MLBR_5_27_1.txt	V	29573929	VU	27710937	92.094673	m1	1.587500	m100	1.000000	m55	1.000000	mCG	1.000000	m2	18.867925	15.135000
MLBR_5_28_1.txt	V	29580409	VU	27627708	91.818069	m1	1.220588	m100	1.000000	m55	1.000000	mCG	1.000000	m2	10.119048	16.822000
MLBR_5_29_1.txt	V	29257338	VU	27635864	91.845175	m1	1.285714	m100	1.000000	m55	1.000000	mCG	1.000000	m2	20.353982	17.659000
MLBR_5_30_1.txt	V	29439660	VU	27869284	92.620924	m1	1.340426	m100	1.000000	m55	1.000000	mCG	1.000000	m2	14.876033	18.170000
MLBR_5_31_1.txt	V	29636442	VU	27251320	90.567179	m1	1.028571	m100	1.000000	m55	1.000000	mCG	1.000000	m2	8.955224	15.403000
MLBR_5_32_1.txt	V	29840944	VU	27918548	92.784648	m1	1.350000	m100	1.000000	m55	1.000000	mCG	1.000000	m2	9.271523	21.335000
MLBR_5_33_1.txt	V	29700075	VU	27855231	92.574220	m1	1.500000	m100	1.000000	m55	1.000000	mCG	1.000000	m2	22.047244	18.215000
MLBR_5_34_1.txt	V	29745574	VU	27623942	91.805553	m1	1.662338	m100	1.000000	m55	1.000000	mCG	1.000000	m2	21.782178	14.626000
MLBR_5_35_1.txt	V	29817636	VU	27568038	91.619761	m1	1.387097	m100	1.000000	m55	1.000000	mCG	1.000000	m2	7.633588	16.554000
MLBR_5_36_1.txt	V	29874298	VU	27729552	92.156538	m1	1.086420	m100	1.000000	m55	1.000000	mCG	1.000000	m2	7.339450	17.694000
MLBR_5_37_1.txt	V	29362075	VU	27607716	91.751627	m1	1.163043	m100	1.000000	m55	1.000000	mCG	1.000000	m2	4.385965	16.739000
MLBR_5_38_1.txt	V	29274614	VU	27169972	90.296827	m1	1.487805	m100	1.000000	m55	1.000000	mCG	1.000000	m2	26.666667	15.547000
MLBR_5_39_1.txt	V	29932976	VU	28005564	93.073837	m1	1.352518	m100	1.000000	m55	1.000000	mCG	1.000000	m2	18.333333	21.887000
MLBR_5_40_1.txt	V	29734551	VU	26897284	89.390574	m1	1.217391	m100	1.000000	m55	1.000000	mCG	1.000000	m2	20.212766	15.212000
MLBR_5_41_1.txt	V	29816724	VU	27671602	91.963946	m1	1.215909	m100	1.000000	m55	1.000000	mCG	1.000000	m2	11.965812	15.339000
MLBR_5_42_1.txt	V	29450849	VU	27301585	90.734230	m1	1.391892	m100	1.000000	m55	1.000000	mCG	1.000000	m2	22.549020	15.902000
MLBR_5_43_1.txt	V	28999704	VU	26943964	89.545710	m1	1.168831	m100	1.000000	m55	1.000000	mCG	1.000000	m2	12.745098	13.691000
MLBR_5_44_1.txt	V	29645681	VU	26951192	89.569732	m1	1.329670	m100	1.000000	m55	1.000000	mCG	1.000000	m2	20.161290	13.748000
MLBR_5_45_1.txt	V	29684075	VU	27860420	92.591465	m1	1.966387	m100	1.000000	m55	1.000000	mCG	1.000000	m2	12.658228	17.361000
MLBR_5_46_1.txt	V	29486463	VU	27924745	92.805243	m1	1.097222	m100	1.000000	m55	1.000000	mCG	1.000000	m2	11.702128	14.891000
MLBR_5_47_1.txt	V	29691170	VU	27507054	91.417087	m1	1.443299	m100	1.000000	m55	1.000000	mCG	1.000000	m2	15.748031	17.624000
MLBR_5_48_1.txt	V	29582370	VU	27661156	91.929230	m1	1.246753	m100	1.000000	m55	1.000000	mCG	1.000000	m2	23.529412	16.667000
MLBR_5_49_1.txt	V	29481145	VU	27426643	91.149848	m1	1.307692	m100	1.000000	m55	1.000000	mCG	1.000000	m2	29.347826	15.988000
MLBR_5_50_1.txt	V	29690473	VU	27663961	91.938552	m1	1.429752	m100	1.000000	m55	1.000000	mCG	1.000000	m2	18.300654	17.970000
MLBR_5_51_1.txt	V	29683516	VU	27932251	92.830189	m1	1.310345	m100	1.000000	m55	1.000000	mCG	1.000000	m2	13.888889	19.257000
MLBR_5_52_1.txt	V	29810432	VU	27591090	91.696372	m1	1.268817	m100	1.000000	m55	1.000000	mCG	1.000000	m2	35.537190	16.198000
MLBR_5_53_1.txt	V	29714194	VU	27403954	91.074444	m1	1.367816	m100	1.000000	m55	1.000000	mCG	1.000000	m2	20.353982	14.617000
MLBR_5_54_1.txt	V	29653699	VU	27650950	91.895311	m1	1.306569	m100	1.000000	m55	1.000000	mCG	1.000000	m2	15.060241	15.763000
MLBR_5_55_1.txt	V	29905931	VU	27408405	91.089236	m1	1.326087	m100	1.000000	m55	1.000000	mCG	1.000000	m2	13.709677	15.623000
MLBR_5_56_1.txt	V	29853790	VU	28181282	93.657820	m1	1.348571	m100	1.000000	m55	1.000000	mCG	1.000000	m2	10.679612	17.074000
MLBR_5_57_1.txt	V	29305910	VU	27799702	92.389675	m1	1.557143	m100	1.000000	m55	1.000000	mCG	1.000000	m2	22.340426	14.996000
MLBR_5_58_1.txt	V	29521307	VU	27711470	92.096444	m1	1.797297	m100	1.000000	m55	1.000000	mCG	1.000000	m2	25.252525	13.518000
MLBR_5_59_1.txt	V	29396647	VU	27864890	92.606321	m1	1.477064	m100	1.000000	m55	1.000000	mCG	1.000000	m2	34.782609	19.205000
MLBR_5_60_1.txt	V	29754350	VU	27354111	90.908795	m1	1.317073	m100	1.000000	m55	1.000000	mCG	1.000000	m2	28.070175	16.779000
MLBR_5_61_1.txt	V	29338268	VU	28073520	93.299683	m1	1.164179	m100	1.000000	m55	1.000000	mCG	1.000000	m2	14.893617	17.640000
MLBR_5_62_1.txt	V	29372739	VU	27590062	91.692956	m1	1.241758	m100	1.000000	m55	1.000000	mCG	1.000000	m2	7.438017	19.613000
MLBR_5_63_1.txt	V	29266670	VU	27317966	90.788671	m1	1.217391	m100	1.000000	m55	1.000000	mCG	1.000000	m2	18.279570	17.309000
MLBR_5_64_1.txt	V	29469096	VU	27234814	90.512323	m1	1.513158	m100	1.000000	m55	1.000000	mCG	1.000000	m2	19.801980	13.426000
MLBR_5_65_1.txt	V	29870298	VU	28085418	93.339225	m1	1.243243	m100	1.000000	m55	1.000000	mCG	1.000000	m2	15.068493	19.684000
MLBR_5_66_1.txt	V	29527083	VU	27566831	91.615750	m1	1.253521	m100	1.000000	m55	1.000000	mCG	1.000000	m2	14.141414	17.196000
MLBR_5_67_1.txt	V	29706310	VU	27351194	90.899101	m1	1.112245	m100	1.000000	m55	1.000000	mCG	1.000000	m2	13.953488	15.809000
MLBR_5_68_1.txt	V	29594538	VU	27517680	91.452401	m1	1.178082	m100	1.000000	m55	1.000000	mCG	1.000000	m2	13.541667	17.539000
MLBR_5_69_1.txt	V	29832693	VU	27078379	89.992426	m1	1.381356	m100	1.000000	m55	1.000000	mCG	1.000000	m2	9.027778	12.796000
MLBR_5_70_1.txt	V	29481642	VU	27141012	90.200581	m1	1.194444	m100	1.000000	m55	1.000000	mCG	1.000000	m2	17.346939	13.914000
MLBR_5_71_1.txt	V	29702994	VU	27520110	91.460477	m1	1.425532	m100	1.000000	m55	1.000000	mCG	1.000000	m2	18.400000	17.728000
MLBR_5_72_1.txt	V	29442103	VU	27691423	92.029820	m1	1.333333	m100	1.000000	m55	1.000000	mCG	1.000000	m2	13.223140	20.825000
MLBR_5_73_1.txt	V	29462250	VU	27428016	91.154411	m1	1.541176	m100	1.000000	m55	1.000000	mCG	1.000000	m2	20.720721	14.979000
MLBR_5_74_1.txt	V	29712020	VU	27056264	89.918929	m1	1.197183	m100	1.000000	m55	1.000000	mCG	1.000000	m2	25.806452	16.119000
MLBR_5_75_1.txt	V	29232199	VU	27623431	91.803855	m1	1.304878	m100	1.000000	m55	1.000000	mCG	1.000000	m2	14.285714	16.131000
MLBR_5_76_1.txt	V	29844200	VU	27865398	92.608009	m1	1.400000	m100	1.000000	m55	1.000000	mCG	1.000000	m2	19.191919	17.118000
MLBR_5_77_1.txt	V	29829191	VU	27852832	92.566247	m1	1.475410	m100	1.000000	m55	1.000000	mCG	1.000000	m2	13.924051	17.628000
MLBR_5_78_1.txt	V	29614730	VU	27728082	92.151652	m1	1.350000	m100	1.000000	m55	1.000000	mCG	1.000000	m2	18.666667	16.252000
MLBR_5_79_1.txt	V	29664603	VU	28036980	93.178246	m1	1.081081	m100	1.000000	m55	1.000000	mCG	1.000000	m2	6.179775	16.197000
MLBR_5_80_1.txt	V	29815953	VU	27858961	92.586616	m1	1.220000	m100	1.000000	m55	1.000000	mCG	1.000000	m2	19.083969	15.602000
MLBR_5_81_1.txt	V	29586880	VU	27409280	91.092144	m1	1.716418	m100	1.000000	m55	1.000000	mCG	1.000000	m2	25.842697	15.459000
MLBR_5_82_1.txt	V	29530496	VU	27568267	91.620522	m1	1.305263	m100	1.000000	m55	1.000000	mCG	1.000000	m2	10.000000	14.498000
MLBR_5_83_1.txt	V	29620232	VU	27877152	92.647072	m1	1.372093	m100	1.000000	m55	1.000000	mCG	1.000000	m2	12.173913	15.630000
MLBR_5_84_1.txt	V	29796398	VU	27973972	92.968844	m1	1.305263	m100	1.000000	m55	1.000000	mCG	1.000000	m2	18.487395	13.891000
MLBR_5_85_1.txt	V	29470147	VU	27791688	92.363041	m1	1.382022	m100	1.000000	m55	1.000000	mCG	1.000000	m2	22.222222	16.172000
MLBR_5_86_1.txt	V	29552474	VU	27437672	91.186502	m1	1.264368	m100	1.000000	m55	1.000000	mCG	1.000000	m2	9.821429	17.405000
MLBR_5_87_1.txt	V	29546068	VU	27672435	91.966715	m1	1.530120	m100	1.000000	m55	1.000000	mCG	1.000000	m2	20.792079	15.310000
MLBR_5_88_1.txt	V	29821191	VU	27333286	90.839585	m1	1.504065	m100	1.000000	m55	1.000000	mCG	1.000000	m2	19.078947	15.615000
MLBR_5_89_1.txt	V	29724070	VU	27215129	90.446902	m1	1.508475	m100	1.000000	m55	1.000000	mCG	1.000000	m2	19.277108	15.141000
MLBR_5_90_1.txt	V	29389337	VU	27213068	90.440052	m1	1.933333	m100	1.000000	m55	1.000000	mCG	1.000000	m2	25.000000	13.451000
MLBR_5_91_1.txt	V	29644286	VU	27803138	92.401094	m1	1.659794	m100	1.000000	m55	1.000000	mCG	1.000000	m2	20.472441	16.776000
MLBR_5_92_1.txt	V	29371603	VU	27658444	91.920217	m1	1.204819	m100	1.000000	m55	1.000000	mCG	1.000000	m2	22.857143	15.052000
MLBR_5_93_1.txt	V	29362585	VU	26888586	89.361667	m1	1.291667	m100	1.000000	m55	1.000000	mCG	1.000000	m2	21.621622	14.581000
MLBR_5_94_1.txt	V	29440848	VU	27973468	92.967169	m1	1.516854	m100	1.000000	m55	1.000000	mCG	1.000000	m2	15.789474	18.718000
MLBR_5_95_1.txt	V	29624185	VU	27638118	91.852665	m1	1.077465	m100	1.000000	m55	1.000000	mCG	1.000000	m2	12.716763	13.298000
MLBR_5_96_1.txt	V	29441030	VU	28095878	93.373987	m1	1.099174	m100	1.000000	m55	1.000000	mCG	1.000000	m2	7.284768	16.327000
MLBR_5_97_1.txt	V	29243185	VU	27251929	90.569203	m1	1.371429	m100	1.000000	m55	1.000000	mCG	1.000000	m2	19.847328	15.439000
MLBR_5_98_1.txt	V	29576543	VU	27827487	92.482015	m1	1.376471	m100	1.000000	m55	1.000000	mCG	1.000000	m2	5.042017	19.860000
MLBR_5_99_1.txt	V	28959962	VU	27680012	91.991896	m1	1.553191	m100	1.000000	m55	1.000000	mCG	1.000000	m2	22.580645	15.105000
MLBR_5_100_1.txt	V	29885900	VU	27922476	92.797702	m1	1.565217	m100	1.000000	m55	1.000000	mCG	1.000000	m2	19.841270	16.991000
MLBR_6_1_1.txt	V	29978075	VU	27183903	90.343125	m1	1.153061	m100	1.000000	m55	1.000000	mCG	1.000000	m2	23.728814	19.018000
MLBR_6_2_1.txt	V	29527450	VU	27450718	91.229859	m1	1.336449	m100	1.000000	m55	1.000000	mCG	1.000000	m2	21.014493	26.676000
MLBR_6_3_1.txt	V	29632863	VU	27707862	92.084453	m1	1.457447	m100	1.000000	m55	1.000000	mCG	1.000000	m2	17.741935	21.895000
MLBR_6_4_1.txt	V	29739955	VU	27597196	91.716665	m1	1.252632	m100	1.000000	m55	1.000000	mCG	1.000000	m2	11.904762	24.054000
MLBR_6_5_1.txt	V	29403451	VU	27323723	90.807803	m1	1.519231	m100	1.000000	m55	1.000000	mCG	1.000000	m2	28.571429	20.342000
MLBR_6_6_1.txt	V	29835196	VU	27210136	90.430308	m1	1.329787	m100	1.000000	m55	1.000000	mCG	1.000000	m2	7.142857	23.128000
MLBR_6_7_1.txt	V	29472806	VU	27094926	90.047418	m1	1.392857	m100	1.000000	m55	1.000000	mCG	1.000000	m2	31.818182	21.631000
MLBR_6_8_1.txt	V	29004875	VU	27103270	90.075149	m1	1.521739	m100	1.000000	m55	1.000000	mCG	1.000000	m2	17.391304	20.354000
MLBR_6_9_1.txt	V	29535468	VU	27030000	89.831643	m1	1.261905	m100	1.000000	m55	1.000000	mCG	1.000000	m2	20.909091	22.292000
MLBR_6_10_1.txt	V	29447296	VU	27250312	90.563829	m1	1.203704	m100	1.000000	m55	1.000000	mCG	1.000000	m2	20.149254	22.431000
MLBR_6_11_1.txt	V	29719447	VU	27308101	90.755885	m1	1.472527	m100	1.000000	m55	1.000000	mCG	1.000000	m2	15.384615	20.621000
MLBR_6_12_1.txt	V	29644523	VU	27417205	91.118482	m1	1.476744	m100	1.000000	m55	1.000000	mCG	1.000000	m2	15.178571	20.397000
MLBR_6_13_1.txt	V	29670024	VU	27656494	91.913736	m1	1.645833	m100	1.000000	m55	1.000000	mCG	1.000000	m2	10.497238	25.216000
MLBR_6_14_1.txt	V	29806845	VU	27811917	92.430270	m1	1.140000	m100	1.000000	m55	1.000000	mCG	1.000000	m2	16.279070	28.083000
MLBR_6_15_1.txt	V	29635625	VU	27381649	91.000315	m1	1.409836	m100	1.000000	m55	1.000000	mCG	1.000000	m2	16.470588	22.986000
MLBR_6_16_1.txt	V	29472877	VU	27389355	91.025925	m1	1.174419	m100	1.000000	m55	1.000000	mCG	1.000000	m2	22.727273	22.469000
MLBR_6_17_1.txt	V	29640367	VU	27323244	90.806212	m1	1.096386	m100	1.000000	m55	1.000000	mCG	1.000000	m2	31.132075	18.837000
MLBR_6_18_1.txt	V	29905783	VU	27716529	92.113257	m1	1.363636	m100	1.000000	m55	1.000000	mCG	1.000000	m2	21.333333	16.089000
MLBR_6_19_1.txt	V	29835429	VU	27452322	91.235190	m1	1.208333	m100	1.000000	m55	1.000000	mCG	1.000000	m2	27.868852	21.734000
MLBR_6_20_1.txt	V	29917209	VU	27711387	92.096168	m1	1.360825	m100	1.000000	m55	1.000000	mCG	1.000000	m2	21.259843	24.206000
MLBR_6_21_1.txt	V	28799571	VU	26693932	88.714753	m1	1.108696	m100	1.000000	m55	1.000000	mCG	1.000000	m2	25.641026	18.062000
MLBR_6_22_1.txt	V	29656855	VU	27572780	91.635521	m1	1.252874	m100	1.000000	m55	1.000000	mCG	1.000000	m2	16.666667	22.793000
MLBR_6_23_1.txt	V	28586494	VU	26930051	89.499472	m1	1.154762	m100	1.000000	m55	1.000000	mCG	1.000000	m2	24.271845	18.425000
MLBR_6_24_1.txt	V	29257497	VU	26784340	89.015215	m1	1.239437	m100	1.000000	m55	1.000000	mCG	1.000000	m2	21.978022	16.195000
MLBR_6_25_1.txt	V	29761674	VU	26898496	89.394602	m1	1.318681	m100	1.000000	m55	1.000000	mCG	1.000000	m2	24.576271	22.257000
MLBR_6_26_1.txt	V	29696510	VU	27473677	91.306161	m1	1.133333	m100	1.000000	m55	1.000000	mCG	1.000000	m2	7.947020	22.773000
MLBR_6_27_1.txt	V	29916319	VU	27249309	90.560496	m1	1.566667	m100	1.000000	m55	1.000000	mCG	1.000000	m2	18.965517	21.954000
MLBR_6_28_1.txt	V	29744796	VU	27327036	90.818814	m1	1.495327	m100	1.000000	m55	1.000000	mCG	1.000000	m2	5.970149	21.333000
MLBR_6_29_1.txt	V	29825995	VU	27594441	91.707509	m1	1.414894	m100	1.000000	m55	1.000000	mCG	1.000000	m2	14.400000	24.618000
MLBR_6_30_1.txt	V	29719789	VU	27660991	91.928682	m1	1.135417	m100	1.000000	m55	1.000000	mCG	1.000000	m2	18.032787	25.067000
MLBR_6_31_1.txt	V	29762305	VU	27517010	91.450175	m1	1.438596	m100	1.000000	m55	1.000000	mCG	1.000000	m2	29.370629	25.628000
MLBR_6_32_1.txt	V	29940342	VU	27493095	91.370695	m1	1.158879	m100	1.000000	m55	1.000000	mCG	1.000000	m2	10.447761	23.653000
MLBR_6_33_1.txt	V	29341238	VU	27620883	91.795387	m1	1.616162	m100	1.000000	m55	1.000000	mCG	1.000000	m2	9.600000	22.929000
MLBR_6_34_1.txt	V	29043108	VU	27246060	90.549698	m1	1.229730	m100	1.000000	m55	1.000000	mCG	1.000000	m2	22.549020	19.963000
MLBR_6_35_1.txt	V	29705486	VU	27517256	91.450992	m1	1.383178	m100	1.000000	m55	1.000000	mCG	1.000000	m2	17.985612	23.849000
MLBR_6_36_1.txt	V	29636928	VU	27632093	91.832642	m1	1.186667	m100	1.000000	m55	1.000000	mCG	1.000000	m2	18.000000	23.262000
MLBR_6_37_1.txt	V	29704317	VU	27410356	91.095720	m1	1.382353	m100	1.000000	m55	1.000000	mCG	1.000000	m2	24.175824	21.439000
MLBR_6_38_1.txt	V	29699512	VU	27380296	90.995818	m1	1.384615	m100	1.000000	m55	1.000000	mCG	1.000000	m2	21.739130	22.445000
MLBR_6_39_1.txt	V	29647561	VU	27573365	91.637465	m1	1.563492	m100	1.000000	m55	1.000000	mCG	1.000000	m2	16.463415	28.215000
MLBR_6_40_1.txt	V	29657897	VU	27343979	90.875122	m1	1.292308	m100	1.000000	m55	1.000000	mCG	1.000000	m2	13.043478	19.194000
MLBR_6_41_1.txt	V	29526732	VU	27570674	91.628522	m1	1.483146	m100	1.000000	m55	1.000000	mCG	1.000000	m2	17.948718	21.724000
MLBR_6_42_1.txt	V	29579761	VU	27093841	90.043812	m1	1.987500	m100	1.000000	m55	1.000000	mCG	1.000000	m2	18.918919	21.601000
MLBR_6_43_1.txt	V	29707496	VU	27501936	91.400078	m1	1.277778	m100	1.000000	m55	1.000000	mCG	1.000000	m2	11.458333	18.538000
MLBR_6_44_1.txt	V	29612587	VU	27026174	89.818928	m1	1.125000	m100	1.000000	m55	1.000000	mCG	1.000000	m2	11.904762	19.795000
MLBR_6_45_1.txt	V	29714185	VU	27234371	90.510851	m1	1.550847	m100	1.000000	m55	1.000000	mCG	1.000000	m2	12.949640	20.383000
MLBR_6_46_1.txt	V	29450567	VU	27223972	90.476290	m1	1.354430	m100	1.000000	m55	1.000000	mCG	1.000000	m2	13.592233	19.949000
MLBR_6_47_1.txt	V	29793924	VU	26849708	89.232460	m1	1.533333	m100	1.000000	m55	1.000000	mCG	1.000000	m2	12.403101	26.746000
MLBR_6_48_1.txt	V	29614136	VU	27207604	90.421893	m1	1.338235	m100	1.000000	m55	1.000000	mCG	1.000000	m2	16.161616	22.794000
MLBR_6_49_1.txt	V	29207888	VU	27645836	91.878316	m1	1.265823	m100	1.000000	m55	1.000000	mCG	1.000000	m2	22.549020	19.661000
MLBR_6_50_1.txt	V	29795621	VU	27601927	91.732388	m1	1.627660	m100	1.000000	m55	1.000000	mCG	1.000000	m2	16.800000	20.882000
MLBR_6_51_1.txt	V	29613399	VU	27413390	91.105803	m1	1.608696	m100	1.000000	m55	1.000000	mCG	1.000000	m2	22.784810	25.808000
MLBR_6_52_1.txt	V	29611404	VU	27365544	90.946792	m1	1.361905	m100	1.000000	m55	1.000000	mCG	1.000000	m2	21.705426	19.816000
MLBR_6_53_1.txt	V	29550544	VU	27486922	91.350180	m1	1.414894	m100	1.000000	m55	1.000000	mCG	1.000000	m2	28.205128	20.226000
MLBR_6_54_1.txt	V	29652239	VU	27311486	90.767135	m1	1.294118	m100	1.000000	m55	1.000000	mCG	1.000000	m2	14.383562	17.593000
MLBR_6_55_1.txt	V	29812688	VU	27304962	90.745453	m1	1.359223	m100	1.000000	m55	1.000000	mCG	1.000000	m2	20.769231	22.114000
MLBR_6_56_1.txt	V	29813970	VU	27529470	91.491584	m1	1.145455	m100	1.000000	m55	1.000000	mCG	1.000000	m2	9.558824	19.865000
MLBR_6_57_1.txt	V	29431633	VU	27680310	91.992887	m1	1.338028	m100	1.000000	m55	1.000000	mCG	1.000000	m2	13.000000	23.806000
MLBR_6_58_1.txt	V	29319306	VU	27650526	91.893902	m1	1.313953	m100	1.000000	m55	1.000000	mCG	1.000000	m2	28.846154	18.653000
MLBR_6_59_1.txt	V	29551493	VU	27716543	92.113304	m1	1.505618	m100	1.000000	m55	1.000000	mCG	1.000000	m2	20.353982	24.689000
MLBR_6_60_1.txt	V	29737044	VU	27169540	90.295391	m1	1.136364	m100	1.000000	m55	1.000000	mCG	1.000000	m2	11.111111	18.610000
MLBR_6_61_1.txt	V	29782691	VU	27571644	91.631745	m1	1.123288	m100	1.000000	m55	1.000000	mCG	1.000000	m2	14.141414	22.662000
MLBR_6_62_1.txt	V	29387087	VU	27551072	91.563376	m1	1.597561	m100	1.000000	m55	1.000000	mCG	1.000000	m2	11.403509	22.717000
MLBR_6_63_1.txt	V	29653028	VU	27192862	90.372899	m1	1.904110	m100	1.000000	m55	1.000000	mCG	1.000000	m2	22.772277	23.160000
MLBR_6_64_1.txt	V	29190408	VU	26806366	89.088417	m1	1.164706	m100	1.000000	m55	1.000000	mCG	1.000000	m2	26.548673	18.935000
MLBR_6_65_1.txt	V	29999118	VU	27871050	92.626793	m1	1.190909	m100	1.000000	m55	1.000000	mCG	1.000000	m2	10.563380	25.223000
MLBR_6_66_1.txt	V	29676130	VU	27787402	92.348797	m1	1.177215	m100	1.000000	m55	1.000000	mCG	1.000000	m2	17.307692	24.649000
MLBR_6_67_1.txt	V	29780527	VU	27221559	90.468271	m1	1.351852	m100	1.000000	m55	1.000000	mCG	1.000000	m2	11.363636	24.125000
MLBR_6_68_1.txt	V	29478342	VU	27133636	90.176067	m1	1.318841	m100	1.000000	m55	1.000000	mCG	1.000000	m2	16.129032	20.894000
MLBR_6_69_1.txt	V	29494502	VU	27116273	90.118363	m1	1.658537	m100	1.000000	m55	1.000000	mCG	1.000000	m2	29.605263	20.582000
MLBR_6_70_1.txt	V	29802424	VU	27402986	91.071227	m1	1.157143	m100	1.000000	m55	1.000000	mCG	1.000000	m2	4.123711	19.126000
MLBR_6_71_1.txt	V	29696789	VU	27815948	92.443667	m1	1.386364	m100	1.000000	m55	1.000000	mCG	1.000000	m2	19.834711	23.926000
MLBR_6_72_1.txt	V	29741772	VU	27564126	91.606760	m1	1.159091	m100	1.000000	m55	1.000000	mCG	1.000000	m2	5.084746	23.315000
MLBR_6_73_1.txt	V	29254614	VU	27470286	91.294892	m1	1.410959	m100	1.000000	m55	1.000000	mCG	1.000000	m2	19.191919	19.606000
MLBR_6_74_1.txt	V	29248476	VU	26590118	88.369737	m1	1.298507	m100	1.000000	m55	1.000000	mCG	1.000000	m2	20.689655	19.875000
MLBR_6_75_1.txt	V	29883780	VU	28266912	93.942403	m1	1.219512	m100	1.000000	m55	1.000000	mCG	1.000000	m2	9.174312	22.269000
MLBR_6_76_1.txt	V	29831216	VU	27451949	91.233950	m1	1.523256	m100	1.000000	m55	1.000000	mCG	1.000000	m2	20.370370	21.110000
MLBR_6_77_1.txt	V	29900406	VU	27303240	90.739730	m1	1.373913	m100	1.000000	m55	1.000000	mCG	1.000000	m2	11.805556	27.203000
MLBR_6_78_1.txt	V	29761578	VU	27588556	91.687951	m1	1.185185	m100	1.000000	m55	1.000000	mCG	1.000000	m2	22.302158	23.290000
MLBR_6_79_1.txt	V	29871544	VU	28030526	93.156796	m1	1.120968	m100	1.000000	m55	1.000000	mCG	1.000000	m2	7.894737	19.512000
MLBR_6_80_1.txt	V	29427752	VU	27163364	90.274866	m1	1.476190	m100	1.000000	m55	1.000000	mCG	1.000000	m2	14.685315	20.484000
MLBR_6_81_1.txt	V	29552658	VU	27190680	90.365648	m1	1.274194	m100	1.000000	m55	1.000000	mCG	1.000000	m2	18.072289	19.101000
MLBR_6_82_1.txt	V	29235232	VU	27299857	90.728487	m1	1.586957	m100	1.000000	m55	1.000000	mCG	1.000000	m2	17.600000	20.685000
MLBR_6_83_1.txt	V	29413577	VU	27210285	90.430803	m1	1.369048	m100	1.000000	m55	1.000000	mCG	1.000000	m2	18.421053	26.018000
MLBR_6_84_1.txt	V	29874515	VU	27177533	90.321955	m1	1.437500	m100	1.000000	m55	1.000000	mCG	1.000000	m2	18.803419	18.944000
MLBR_6_85_1.txt	V	29282334	VU	27380988	90.998118	m1	1.219512	m100	1.000000	m55	1.000000	mCG	1.000000	m2	30.434783	20.437000
MLBR_6_86_1.txt	V	29733364	VU	27481988	91.333782	m1	1.208333	m100	1.000000	m55	1.000000	mCG	1.000000	m2	16.666667	23.737000
MLBR_6_87_1.txt	V	29319103	VU	27617080	91.782748	m1	1.246575	m100	1.000000	m55	1.000000	mCG	1.000000	m2	24.742268	20.338000
MLBR_6_88_1.txt	V	29933585	VU	27488411	91.355128	m1	1.427350	m100	1.000000	m55	1.000000	mCG	1.000000	m2	24.832215	22.188000
MLBR_6_89_1.txt	V	29251666	VU	26820900	89.136719	m1	1.546875	m100	1.000000	m55	1.000000	mCG	1.000000	m2	21.739130	21.039000
MLBR_6_90_1.txt	V	29878426	VU	27412609	91.103208	m1	1.672727	m100	1.000000	m55	1.000000	mCG	1.000000	m2	33.783784	15.538000
MLBR_6_91_1.txt	V	29444990	VU	27119926	90.130503	m1	1.186047	m100	1.000000	m55	1.000000	mCG	1.000000	m2	13.274336	21.883000
MLBR_6_92_1.txt	V	29330377	VU	27029980	89.831576	m1	1.222222	m100	1.000000	m55	1.000000	mCG	1.000000	m2	10.476190	21.771000
MLBR_6_93_1.txt	V	29483553	VU	27315576	90.780728	m1	1.296296	m100	1.000000	m55	1.000000	mCG	1.000000	m2	24.675325	19.153000
MLBR_6_94_1.txt	V	29652587	VU	27878523	92.651629	m1	1.183673	m100	1.000000	m55	1.000000	mCG	1.000000	m2	8.527132	26.513000
MLBR_6_95_1.txt	V	29920296	VU	27393050	91.038205	m1	1.149533	m100	1.000000	m55	1.000000	mCG	1.000000	m2	16.296296	16.713000
MLBR_6_96_1.txt	V	29526610	VU	27514030	91.440271	m1	1.168421	m100	1.000000	m55	1.000000	mCG	1.000000	m2	26.016260	20.318000
MLBR_6_97_1.txt	V	29710093	VU	27650142	91.892626	m1	1.363636	m100	1.000000	m55	1.000000	mCG	1.000000	m2	13.281250	20.697000
MLBR_6_98_1.txt	V	29620511	VU	27262569	90.604564	m1	1.270000	m100	1.000000	m55	1.000000	mCG	1.000000	m2	28.244275	28.638000
MLBR_6_99_1.txt	V	29899235	VU	27140647	90.199368	m1	1.320988	m100	1.000000	m55	1.000000	mCG	1.000000	m2	25.490196	19.962000
MLBR_6_100_1.txt	V	29779835	VU	27577869	91.652434	m1	1.206186	m100	1.000000	m55	1.000000	mCG	1.000000	m2	7.031250	24.475000
MLBR_7_1_1.txt	V	29048226	VU	26702726	88.743979	m1	1.308824	m100	1.000000	m55	1.000000	mCG	1.000000	m2	27.173913	26.129000
MLBR_7_2_1.txt	V	29123629	VU	27260733	90.598462	m1	1.408602	m100	1.000000	m55	1.000000	mCG	1.000000	m2	23.333333	32.318000
MLBR_7_3_1.txt	V	29722742	VU	27021139	89.802194	m1	1.583333	m100	1.000000	m55	1.000000	mCG	1.000000	m2	18.103448	31.061000
MLBR_7_4_1.txt	V	29821585	VU	27209001	90.426536	m1	1.518182	m100	1.000000	m55	1.000000	mCG	1.000000	m2	17.021277	33.877000
MLBR_7_5_1.txt	V	29258194	VU	26732962	88.844465	m1	1.261364	m100	1.000000	m55	1.000000	mCG	1.000000	m2	30.434783	28.137000
MLBR_7_6_1.txt	V	29579438	VU	26812476	89.108723	m1	1.169643	m100	1.000000	m55	1.000000	mCG	1.000000	m2	24.822695	33.770000
MLBR_7_7_1.txt	V	29813578	VU	26756911	88.924058	m1	1.271429	m100	1.000000	m55	1.000000	mCG	1.000000	m2	27.173913	30.277000
MLBR_7_8_1.txt	V	29875666	VU	26960425	89.600417	m1	1.296296	m100	1.000000	m55	1.000000	mCG	1.000000	m2	33.653846	30.195000
MLBR_7_9_1.txt	V	29628649	VU	26765623	88.953011	m1	1.348837	m100	1.000000	m55	1.000000	mCG	1.000000	m2	20.689655	33.201000
MLBR_7_10_1.txt	V	29469244	VU	26938808	89.528575	m1	1.236559	m100	1.000000	m55	1.000000	mCG	1.000000	m2	22.500000	31.218000
MLBR_7_11_1.txt	V	29827519	VU	26878006	89.326505	m1	1.372549	m100	1.000000	m55	1.000000	mCG	1.000000	m2	31.782946	31.748000
MLBR_7_12_1.txt	V	29852631	VU	27191975	90.369951	m1	1.454545	m100	1.000000	m55	1.000000	mCG	1.000000	m2	27.906977	35.832000
MLBR_7_13_1.txt	V	29645201	VU	26909141	89.429980	m1	1.513274	m100	1.000000	m55	1.000000	mCG	1.000000	m2	18.918919	29.881000
MLBR_7_14_1.txt	V	29930629	VU	27566782	91.615587	m1	1.580247	m100	1.000000	m55	1.000000	mCG	1.000000	m2	16.190476	32.628000
MLBR_7_15_1.txt	V	29748622	VU	26794060	89.047519	m1	1.600000	m100	1.000000	m55	1.000000	mCG	1.000000	m2	17.142857	34.012000
MLBR_7_16_1.txt	V	29946201	VU	27088868	90.027285	m1	1.089552	m100	1.000000	m55	1.000000	mCG	1.000000	m2	20.000000	27.056000
MLBR_7_17_1.txt	V	29464587	VU	27175013	90.313580	m1	1.191011	m100	1.000000	m55	1.000000	mCG	1.000000	m2	23.423423	30.941000
MLBR_7_18_1.txt	V	29690474	VU	26464966	87.953806	m1	1.202899	m100	1.000000	m55	1.000000	mCG	1.000000	m2	23.333333	25.006000
MLBR_7_19_1.txt	V	29246603	VU	26947807	89.558482	m1	1.208333	m100	1.000000	m55	1.000000	mCG	1.000000	m2	23.333333	28.767000
MLBR_7_20_1.txt	V	29595330	VU	26972541	89.640683	m1	1.517241	m100	1.000000	m55	1.000000	mCG	1.000000	m2	18.918919	32.013000
MLBR_7_21_1.txt	V	28967983	VU	26965936	89.618732	m1	1.370000	m100	1.000000	m55	1.000000	mCG	1.000000	m2	25.833333	27.685000
MLBR_7_22_1.txt	V	29778482	VU	26870260	89.300762	m1	1.376344	m100	1.000000	m55	1.000000	mCG	1.000000	m2	22.689076	34.336000
MLBR_7_23_1.txt	V	29795091	VU	26940014	89.532583	m1	1.306306	m100	1.000000	m55	1.000000	mCG	1.000000	m2	29.197080	29.958000
MLBR_7_24_1.txt	V	29376039	VU	26957154	89.589546	m1	1.289855	m100	1.000000	m55	1.000000	mCG	1.000000	m2	26.373626	22.137000
MLBR_7_25_1.txt	V	29599065	VU	26367015	87.628275	m1	1.402299	m100	1.000000	m55	1.000000	mCG	1.000000	m2	18.584071	30.436000
MLBR_7_26_1.txt	V	29947106	VU	26984994	89.682070	m1	1.258929	m100	1.000000	m55	1.000000	mCG	1.000000	m2	13.636364	30.071000
MLBR_7_27_1.txt	V	29858383	VU	27430931	91.164099	m1	1.325301	m100	1.000000	m55	1.000000	mCG	1.000000	m2	33.636364	28.383000
MLBR_7_28_1.txt	V	29584536	VU	26948604	89.561131	m1	1.343750	m100	1.000000	m55	1.000000	mCG	1.000000	m2	18.750000	30.793000
MLBR_7_29_1.txt	V	29821489	VU	26967117	89.622657	m1	1.189189	m100	1.000000	m55	1.000000	mCG	1.000000	m2	19.607843	31.094000
MLBR_7_30_1.txt	V	29707362	VU	27225005	90.479724	m1	1.247525	m100	1.000000	m55	1.000000	mCG	1.000000	m2	9.923664	35.758000
MLBR_7_31_1.txt	V	29818289	VU	26576217	88.323538	m1	1.521739	m100	1.000000	m55	1.000000	mCG	1.000000	m2	26.896552	30.981000
MLBR_7_32_1.txt	V	29641176	VU	27161016	90.267062	m1	1.201923	m100	1.000000	m55	1.000000	mCG	1.000000	m2	18.939394	30.492000
MLBR_7_33_1.txt	V	29669380	VU	26993762	89.711209	m1	1.344086	m100	1.000000	m55	1.000000	mCG	1.000000	m2	17.741935	34.063000
MLBR_7_34_1.txt	V	29674326	VU	26832604	89.175616	m1	1.602941	m100	1.000000	m55	1.000000	mCG	1.000000	m2	21.739130	29.259000
MLBR_7_35_1.txt	V	29807972	VU	27164284	90.277923	m1	1.252174	m100	1.000000	m55	1.000000	mCG	1.000000	m2	14.965986	36.339000
MLBR_7_36_1.txt	V	29420737	VU	27375250	90.979049	m1	1.197917	m100	1.000000	m55	1.000000	mCG	1.000000	m2	15.573770	33.897000
MLBR_7_37_1.txt	V	29358266	VU	26788495	89.029024	m1	1.138462	m100	1.000000	m55	1.000000	mCG	1.000000	m2	25.000000	27.543000
MLBR_7_38_1.txt	V	29711932	VU	26909348	89.430667	m1	1.350000	m100	1.000000	m55	1.000000	mCG	1.000000	m2	15.454545	31.728000
MLBR_7_39_1.txt	V	29446022	VU	27292790	90.705001	m1	1.152542	m100	1.000000	m55	1.000000	mCG	1.000000	m2	15.789474	38.035000
MLBR_7_40_1.txt	V	29495775	VU	26685663	88.687272	m1	1.324675	m100	1.000000	m55	1.000000	mCG	1.000000	m2	25.471698	26.618000
MLBR_7_41_1.txt	V	29448508	VU	27213820	90.442551	m1	1.534884	m100	1.000000	m55	1.000000	mCG	1.000000	m2	23.684211	30.617000
MLBR_7_42_1.txt	V	29302181	VU	26955845	89.585196	m1	1.375000	m100	1.000000	m55	1.000000	mCG	1.000000	m2	27.659574	29.422000
MLBR_7_43_1.txt	V	29279730	VU	27158036	90.257158	m1	1.451613	m100	1.000000	m55	1.000000	mCG	1.000000	m2	18.604651	24.020000
MLBR_7_44_1.txt	V	29423199	VU	27140886	90.200162	m1	1.203540	m100	1.000000	m55	1.000000	mCG	1.000000	m2	12.142857	32.480000
MLBR_7_45_1.txt	V	29571148	VU	26943526	89.544255	m1	1.067961	m100	1.000000	m55	1.000000	mCG	1.000000	m2	27.131783	27.172000
MLBR_7_46_1.txt	V	29154428	VU	26577570	88.328035	m1	1.172840	m100	1.000000	m55	1.000000	mCG	1.000000	m2	22.549020	25.622000
MLBR_7_47_1.txt	V	29633470	VU	26930354	89.500479	m1	1.346535	m100	1.000000	m55	1.000000	mCG	1.000000	m2	27.407407	39.014000
MLBR_7_48_1.txt	V	29228054	VU	26615610	88.454457	m1	1.474359	m100	1.000000	m55	1.000000	mCG	1.000000	m2	27.000000	27.367000
MLBR_7_49_1.txt	V	29582957	VU	27541177	91.530491	m1	1.256098	m100	1.000000	m55	1.000000	mCG	1.000000	m2	30.357143	32.652000
MLBR_7_50_1.txt	V	29314591	VU	27316173	90.782712	m1	1.241071	m100	1.000000	m55	1.000000	mCG	1.000000	m2	16.666667	30.423000
MLBR_7_51_1.txt	V	29852618	VU	27290557	90.697579	m1	1.477477	m100	1.000000	m55	1.000000	mCG	1.000000	m2	22.758621	37.774000
MLBR_7_52_1.txt	V	29587745	VU	26996898	89.721632	m1	1.225806	m100	1.000000	m55	1.000000	mCG	1.000000	m2	24.793388	31.938000
MLBR_7_53_1.txt	V	29319030	VU	26716318	88.789151	m1	1.194805	m100	1.000000	m55	1.000000	mCG	1.000000	m2	25.000000	27.789000
MLBR_7_54_1.txt	V	29126299	VU	27232871	90.505865	m1	1.269231	m100	1.000000	m55	1.000000	mCG	1.000000	m2	32.812500	28.068000
MLBR_7_55_1.txt	V	29551049	VU	26512687	88.112402	m1	1.447917	m100	1.000000	m55	1.000000	mCG	1.000000	m2	31.451613	32.262000
MLBR_7_56_1.txt	V	29668439	VU	26837792	89.192858	m1	1.156522	m100	1.000000	m55	1.000000	mCG	1.000000	m2	13.793103	28.881000
MLBR_7_57_1.txt	V	29661595	VU	27158834	90.259811	m1	1.365854	m100	1.000000	m55	1.000000	mCG	1.000000	m2	20.909091	33.235000
MLBR_7_58_1.txt	V	28907046	VU	27097942	90.057442	m1	1.636364	m100	1.000000	m55	1.000000	mCG	1.000000	m2	27.102804	26.332000
MLBR_7_59_1.txt	V	29600501	VU	26828053	89.160491	m1	1.304878	m100	1.000000	m55	1.000000	mCG	1.000000	m2	9.009009	36.742000
MLBR_7_60_1.txt	V	29666552	VU	26495406	88.054970	m1	1.300000	m100	1.000000	m55	1.000000	mCG	1.000000	m2	20.560748	30.869000
MLBR_7_61_1.txt	V	29001879	VU	27026778	89.820935	m1	1.153846	m100	1.000000	m55	1.000000	mCG	1.000000	m2	15.730337	28.740000
MLBR_7_62_1.txt	V	29770584	VU	26901540	89.404718	m1	1.202128	m100	1.000000	m55	1.000000	mCG	1.000000	m2	13.043478	32.169000
MLBR_7_63_1.txt	V	29468410	VU	27022886	89.808000	m1	1.301587	m100	1.000000	m55	1.000000	mCG	1.000000	m2	16.304348	29.352000
MLBR_7_64_1.txt	V	29627692	VU	26873860	89.312726	m1	1.304348	m100	1.000000	m55	1.000000	mCG	1.000000	m2	20.652174	25.639000
MLBR_7_65_1.txt	V	29649856	VU	27415088	91.111446	m1	1.314050	m100	1.000000	m55	1.000000	mCG	1.000000	m2	14.666667	37.317000
MLBR_7_66_1.txt	V	29445784	VU	27306118	90.749295	m1	1.164384	m100	1.000000	m55	1.000000	mCG	1.000000	m2	19.607843	34.533000
MLBR_7_67_1.txt	V	29835344	VU	26905637	89.418334	m1	1.417391	m100	1.000000	m55	1.000000	mCG	1.000000	m2	20.567376	31.118000
MLBR_7_68_1.txt	V	29401519	VU	27109042	90.094332	m1	1.220588	m100	1.000000	m55	1.000000	mCG	1.000000	m2	29.347826	29.467000
MLBR_7_69_1.txt	V	29682573	VU	26557478	88.261261	m1	1.209524	m100	1.000000	m55	1.000000	mCG	1.000000	m2	25.735294	29.914000
MLBR_7_70_1.txt	V	29640543	VU	26509887	88.103097	m1	1.257143	m100	1.000000	m55	1.000000	mCG	1.000000	m2	21.649485	30.331000
MLBR_7_71_1.txt	V	29405754	VU	27229251	90.493835	m1	1.379747	m100	1.000000	m55	1.000000	mCG	1.000000	m2	20.535714	34.137000
MLBR_7_72_1.txt	V	29613253	VU	26847379	89.224719	m1	1.317073	m100	1.000000	m55	1.000000	mCG	1.000000	m2	22.727273	30.674000
MLBR_7_73_1.txt	V	29363067	VU	26815568	89.118999	m1	1.287500	m100	1.000000	m55	1.000000	mCG	1.000000	m2	31.730769	29.067000
MLBR_7_74_1.txt	V	29528290	VU	26630290	88.503245	m1	1.157143	m100	1.000000	m55	1.000000	mCG	1.000000	m2	13.541667	28.924000
MLBR_7_75_1.txt	V	29617937	VU	26996680	89.720907	m1	1.378049	m100	1.000000	m55	1.000000	mCG	1.000000	m2	33.944954	30.141000
MLBR_7_76_1.txt	V	29969105	VU	27316809	90.784825	m1	1.250000	m100	1.000000	m55	1.000000	mCG	1.000000	m2	26.595745	25.186000
MLBR_7_77_1.txt	V	29614811	VU	27316877	90.785051	m1	1.203540	m100	1.000000	m55	1.000000	mCG	1.000000	m2	18.309859	34.013000
MLBR_7_78_1.txt	V	29481890	VU	26930901	89.502297	m1	1.333333	m100	1.000000	m55	1.000000	mCG	1.000000	m2	24.800000	29.795000
MLBR_7_79_1.txt	V	29623994	VU	26959074	89.595927	m1	1.113821	m100	1.000000	m55	1.000000	mCG	1.000000	m2	28.378378	25.974000
MLBR_7_80_1.txt	V	29816710	VU	27000634	89.734048	m1	1.298851	m100	1.000000	m55	1.000000	mCG	1.000000	m2	26.785714	28.171000
MLBR_7_81_1.txt	V	29571322	VU	26594682	88.384905	m1	1.731707	m100	1.000000	m55	1.000000	mCG	1.000000	m2	23.469388	25.485000
MLBR_7_82_1.txt	V	29753133	VU	26364481	87.619854	m1	1.375000	m100	1.000000	m55	1.000000	mCG	1.000000	m2	14.912281	29.597000
MLBR_7_83_1.txt	V	29637526	VU	27214272	90.444053	m1	1.432990	m100	1.000000	m55	1.000000	mCG	1.000000	m2	22.834646	34.324000
MLBR_7_84_1.txt	V	29492471	VU	27188560	90.358602	m1	1.173913	m100	1.000000	m55	1.000000	mCG	1.000000	m2	26.950355	31.347000
MLBR_7_85_1.txt	V	29003060	VU	27057086	89.921661	m1	1.232877	m100	1.000000	m55	1.000000	mCG	1.000000	m2	22.680412	29.025000
MLBR_7_86_1.txt	V	28926576	VU	27093692	90.043317	m1	1.233333	m100	1.000000	m55	1.000000	mCG	1.000000	m2	32.231405	31.541000
MLBR_7_87_1.txt	V	29428005	VU	27057577	89.923292	m1	1.354430	m100	1.000000	m55	1.000000	mCG	1.000000	m2	18.691589	28.689000
MLBR_7_88_1.txt	V	28973449	VU	26409479	87.769400	m1	1.608247	m100	1.000000	m55	1.000000	mCG	1.000000	m2	30.081301	26.586000
MLBR_7_89_1.txt	V	29952133	VU	26896227	89.387061	m1	1.236111	m100	1.000000	m55	1.000000	mCG	1.000000	m2	20.430108	29.091000
MLBR_7_90_1.txt	V	29742215	VU	26935517	89.517638	m1	1.421053	m100	1.000000	m55	1.000000	mCG	1.000000	m2	24.390244	25.066000
MLBR_7_91_1.txt	V	29536688	VU	26685888	88.688019	m1	1.236111	m100	1.000000	m55	1.000000	mCG	1.000000	m2	12.500000	26.269000
MLBR_7_92_1.txt	V	29560057	VU	27326337	90.816491	m1	1.309524	m100	1.000000	m55	1.000000	mCG	1.000000	m2	25.471698	31.525000
MLBR_7_93_1.txt	V	29597586	VU	27089624	90.029798	m1	1.298246	m100	1.000000	m55	1.000000	mCG	1.000000	m2	21.250000	26.486000
MLBR_7_94_1.txt	V	29578801	VU	27243582	90.541462	m1	1.298969	m100	1.000000	m55	1.000000	mCG	1.000000	m2	17.213115	35.782000
MLBR_7_95_1.txt	V	29548795	VU	26557080	88.259938	m1	1.333333	m100	1.000000	m55	1.000000	mCG	1.000000	m2	25.196850	28.664000
MLBR_7_96_1.txt	V	29614240	VU	27004284	89.746178	m1	1.388889	m100	1.000000	m55	1.000000	mCG	1.000000	m2	30.769231	28.662000
MLBR_7_97_1.txt	V	29436952	VU	26912425	89.440894	m1	1.209877	m100	1.000000	m55	1.000000	mCG	1.000000	m2	16.216216	28.829000
MLBR_7_98_1.txt	V	29908176	VU	27263970	90.609220	m1	1.676471	m100	1.000000	m55	1.000000	mCG	1.000000	m2	21.875000	36.287000
MLBR_7_99_1.txt	V	29642075	VU	26806423	89.088606	m1	1.080808	m100	1.000000	m55	1.000000	mCG	1.000000	m2	16.129032	29.015000
MLBR_7_100_1.txt	V	29655247	VU	27013616	89.777192	m1	1.162791	m100	1.000000	m55	1.000000	mCG	1.000000	m2	7.207207	31.050000
